====== Sentence Level Features ======

1. Sentence: Les unités spécialisées y trouvent au contraire , et ne trouvent que là , le personnel hautement qualifié dont elles ont besoin .
Features :: Feature-Counts :: Feature-Lemmas
--------------------------------------------
marqueurs :: 1 :: [ besoin ]
alethique :: 1 :: [ besoin ]
boulique :: 1 :: [ besoin ]
marqueurs_niveau3 :: 1 :: [ besoin ]
alethique_niveau3 :: 1 :: [ besoin ]
boulique_niveau3 :: 1 :: [ besoin ]
Total feature counts: 6


====== Text Level Features ======

Features :: Feature-Counts :: Feature-Lemmas
--------------------------------------------
marqueurs :: 1 :: [ besoin ]
alethique :: 1 :: [ besoin ]
boulique :: 1 :: [ besoin ]
marqueurs_niveau3 :: 1 :: [ besoin ]
alethique_niveau3 :: 1 :: [ besoin ]
boulique_niveau3 :: 1 :: [ besoin ]
Total feature counts: 6

