
********** Entity Names Features **********
*******************************************

1. Sentence: La majorité des bureaux nouveaux s ' est implantée dans Paris ou dans la proche banlieue ouest .
Entity Name (Type) :: Paris (LOC)


********** Emotions Features **********
***************************************

1. Sentence: La majorité des bureaux nouveaux s ' est implantée dans Paris ou dans la proche banlieue ouest .
No features found.


********** Modality Features **********
***************************************

1. Sentence: La majorité des bureaux nouveaux s ' est implantée dans Paris ou dans la proche banlieue ouest .
No features found.


********** Adverbiaux Temporels Features **********
********************************************************

1. Sentence: La majorité des bureaux nouveaux s ' est implantée dans Paris ou dans la proche banlieue ouest .
No features found.

