
********** Entity Names Features **********
*******************************************

1. Sentence: Les thèses évoquées il y a vingt ans dans « l ' économie d ' archipel » sont non seulement validées mais renforcées par la montée du numérique et de l ' internet .
No features found.


********** Emotions Features **********
***************************************

1. Sentence: Les thèses évoquées il y a vingt ans dans « l ' économie d ' archipel » sont non seulement validées mais renforcées par la montée du numérique et de l ' internet .
No features found.


********** Modality Features **********
***************************************

1. Sentence: Les thèses évoquées il y a vingt ans dans « l ' économie d ' archipel » sont non seulement validées mais renforcées par la montée du numérique et de l ' internet .
Features :: Feature-Counts :: Feature-Lemmas
--------------------------------------------
marqueurs :: 1 :: [ valider ]
pas_d_indication :: 1 :: [ valider ]
marqueurs_niveau0 :: 1 :: [ valider ]
pas_d_indication_niveau0 :: 1 :: [ valider ]
Total feature counts: 4


********** Adverbiaux Temporels Features **********
********************************************************

1. Sentence: Les thèses évoquées il y a vingt ans dans « l ' économie d ' archipel » sont non seulement validées mais renforcées par la montée du numérique et de l ' internet .
No features found.

