====== Sentence Level Features ======

1. Sentence: Qu ' avaient-elles à y gagner ?
Features :: Feature-Counts :: Feature-Lemmas
--------------------------------------------
marqueurs :: 1 :: [ gagner ]
appreciatif :: 1 :: [ gagner ]
marqueurs_niveau2 :: 1 :: [ gagner ]
appreciatif_niveau2 :: 1 :: [ gagner ]
Total feature counts: 4


====== Text Level Features ======

Features :: Feature-Counts :: Feature-Lemmas
--------------------------------------------
marqueurs :: 1 :: [ gagner ]
appreciatif :: 1 :: [ gagner ]
marqueurs_niveau2 :: 1 :: [ gagner ]
appreciatif_niveau2 :: 1 :: [ gagner ]
Total feature counts: 4

