====== Sentence Level Features ======

1. Sentence: Il nous faut donc inventer des modes de représentation à la fois suggestifs et interactifs .
Features :: Feature-Counts :: Feature-Lemmas
--------------------------------------------
marqueurs :: 2 :: [ falloir, inventer ]
deontique :: 1 :: [ falloir ]
epistemique :: 1 :: [ inventer ]
marqueurs_niveau3 :: 1 :: [ falloir ]
marqueurs_niveau2 :: 1 :: [ inventer ]
deontique_niveau3 :: 1 :: [ falloir ]
epistemique_niveau2 :: 1 :: [ inventer ]
Total feature counts: 8


====== Text Level Features ======

Features :: Feature-Counts :: Feature-Lemmas
--------------------------------------------
marqueurs :: 2 :: [ falloir, inventer ]
deontique :: 1 :: [ falloir ]
epistemique :: 1 :: [ inventer ]
marqueurs_niveau3 :: 1 :: [ falloir ]
marqueurs_niveau2 :: 1 :: [ inventer ]
deontique_niveau3 :: 1 :: [ falloir ]
epistemique_niveau2 :: 1 :: [ inventer ]
Total feature counts: 8

