====== Sentence Level Features ======

1. Sentence: Sans évoquer , pour autant , le stéréotype facile du " gay Paris " , il faut dire que les visiteurs venus de l ' étranger ou des provinces connaissent et apprécient mieux que bien des Parisiens cet aspect de la capitale .
Features :: Feature-Counts :: Feature-Lemmas
--------------------------------------------
marqueurs :: 8 :: [ facile, falloir, dire, venir, connaître, apprécier, mieux, bien ]
marqueurs_niveau3 :: 5 :: [ falloir, dire, venir, apprécier, bien ]
appreciatif :: 4 :: [ facile, apprécier, mieux, bien ]
marqueurs_niveau2 :: 3 :: [ facile, connaître, mieux ]
axiologique :: 2 :: [ mieux, bien ]
epistemique :: 2 :: [ facile, connaître ]
appreciatif_niveau3 :: 2 :: [ apprécier, bien ]
appreciatif_niveau2 :: 2 :: [ facile, mieux ]
epistemique_niveau2 :: 2 :: [ facile, connaître ]
alethique :: 1 :: [ venir ]
boulique :: 1 :: [ dire ]
deontique :: 1 :: [ falloir ]
alethique_niveau3 :: 1 :: [ venir ]
axiologique_niveau3 :: 1 :: [ bien ]
axiologique_niveau2 :: 1 :: [ mieux ]
boulique_niveau3 :: 1 :: [ dire ]
deontique_niveau3 :: 1 :: [ falloir ]
Total feature counts: 38


====== Text Level Features ======

Features :: Feature-Counts :: Feature-Lemmas
--------------------------------------------
marqueurs :: 8 :: [ facile, falloir, dire, venir, connaître, apprécier, mieux, bien ]
marqueurs_niveau3 :: 5 :: [ falloir, dire, venir, apprécier, bien ]
appreciatif :: 4 :: [ facile, apprécier, mieux, bien ]
marqueurs_niveau2 :: 3 :: [ facile, connaître, mieux ]
axiologique :: 2 :: [ mieux, bien ]
epistemique :: 2 :: [ facile, connaître ]
appreciatif_niveau3 :: 2 :: [ apprécier, bien ]
appreciatif_niveau2 :: 2 :: [ facile, mieux ]
epistemique_niveau2 :: 2 :: [ facile, connaître ]
alethique :: 1 :: [ venir ]
boulique :: 1 :: [ dire ]
deontique :: 1 :: [ falloir ]
alethique_niveau3 :: 1 :: [ venir ]
axiologique_niveau3 :: 1 :: [ bien ]
axiologique_niveau2 :: 1 :: [ mieux ]
boulique_niveau3 :: 1 :: [ dire ]
deontique_niveau3 :: 1 :: [ falloir ]
Total feature counts: 38

