====== Sentence Level Features ======

1. Sentence: Je propose de considérer cette immense accumulation et stratification spatiale dans nos territoires urbains comme de l ' «énergie grise» .
Features :: Feature-Counts :: Feature-Lemmas
--------------------------------------------
marqueurs :: 2 :: [ considérer, immense ]
epistemique :: 2 :: [ considérer, immense ]
marqueurs_niveau3 :: 1 :: [ considérer ]
marqueurs_niveau2 :: 1 :: [ immense ]
epistemique_niveau3 :: 1 :: [ considérer ]
epistemique_niveau2 :: 1 :: [ immense ]
Total feature counts: 8


====== Text Level Features ======

Features :: Feature-Counts :: Feature-Lemmas
--------------------------------------------
marqueurs :: 2 :: [ considérer, immense ]
epistemique :: 2 :: [ considérer, immense ]
marqueurs_niveau3 :: 1 :: [ considérer ]
marqueurs_niveau2 :: 1 :: [ immense ]
epistemique_niveau3 :: 1 :: [ considérer ]
epistemique_niveau2 :: 1 :: [ immense ]
Total feature counts: 8

