
********** Entity Names Features **********
*******************************************

1. Sentence: Il est en charge du projet Euroméditerranée à Marseille et de bien d ' autres encore .
Entity Name (Type) :: Marseille (LOC)


********** Emotions Features **********
***************************************

1. Sentence: Il est en charge du projet Euroméditerranée à Marseille et de bien d ' autres encore .
No features found.


********** Modality Features **********
***************************************

1. Sentence: Il est en charge du projet Euroméditerranée à Marseille et de bien d ' autres encore .
Features :: Feature-Counts :: Feature-Lemmas
--------------------------------------------
marqueurs :: 1 :: [ bien ]
appreciatif :: 1 :: [ bien ]
axiologique :: 1 :: [ bien ]
marqueurs_niveau3 :: 1 :: [ bien ]
appreciatif_niveau3 :: 1 :: [ bien ]
axiologique_niveau3 :: 1 :: [ bien ]
Total feature counts: 6


********** Adverbiaux Temporels Features **********
********************************************************

1. Sentence: Il est en charge du projet Euroméditerranée à Marseille et de bien d ' autres encore .
Features :: Feature-Counts :: Feature-Texts
--------------------------------------------
adverbiaux_temporels::1::['encore']
adverbiaux_duratifs_iteratifs::1::['encore']
adverbiaux_pointage_non_absolu::1::['encore']
adverbiaux_dur_iter_relatif::1::['encore']

