
********** Entity Names Features **********
*******************************************

1. Sentence: Et l ' île de Nantes , en vis-à-vis du quartier , commençait à symboliser l ' enjeu de la nouvelle métropole .
Entity Name (Type) :: île de Nantes (LOC)


********** Emotions Features **********
***************************************

1. Sentence: Et l ' île de Nantes , en vis-à-vis du quartier , commençait à symboliser l ' enjeu de la nouvelle métropole .
No features found.


********** Modality Features **********
***************************************

1. Sentence: Et l ' île de Nantes , en vis-à-vis du quartier , commençait à symboliser l ' enjeu de la nouvelle métropole .
No features found.


********** Adverbiaux Temporels Features **********
********************************************************

1. Sentence: Et l ' île de Nantes , en vis-à-vis du quartier , commençait à symboliser l ' enjeu de la nouvelle métropole .
No features found.

