
********** Entity Names Features **********
*******************************************

1. Sentence: Le reste de la vallée , bordé par des ensembles forestiers , a un caractère touristique marqué : l ' Isle-
Entity Name (Type) :: Isle- (LOC)


********** Emotions Features **********
***************************************

1. Sentence: Le reste de la vallée , bordé par des ensembles forestiers , a un caractère touristique marqué : l ' Isle-
No features found.


********** Modality Features **********
***************************************

1. Sentence: Le reste de la vallée , bordé par des ensembles forestiers , a un caractère touristique marqué : l ' Isle-
No features found.


********** Adverbiaux Temporels Features **********
********************************************************

1. Sentence: Le reste de la vallée , bordé par des ensembles forestiers , a un caractère touristique marqué : l ' Isle-
No features found.

