
********** Entity Names Features **********
*******************************************

1. Sentence: Le seuil qui sépare les deux catégories diffère suivant l ' activité .
Entity Name (Type) :: Le seuil (ORG)


********** Emotions Features **********
***************************************

1. Sentence: Le seuil qui sépare les deux catégories diffère suivant l ' activité .
No features found.


********** Modality Features **********
***************************************

1. Sentence: Le seuil qui sépare les deux catégories diffère suivant l ' activité .
No features found.


********** Adverbiaux Temporels Features **********
********************************************************

1. Sentence: Le seuil qui sépare les deux catégories diffère suivant l ' activité .
No features found.

