====== Sentence Level Features ======

1. Sentence: Par ailleurs il ne faut pas oublier le patrimoine naturel .
Features :: Feature-Counts :: Feature-Lemmas
--------------------------------------------
marqueurs :: 2 :: [ falloir, oublier ]
deontique :: 1 :: [ falloir ]
pas_d_indication :: 1 :: [ oublier ]
marqueurs_niveau3 :: 1 :: [ falloir ]
marqueurs_niveau0 :: 1 :: [ oublier ]
deontique_niveau3 :: 1 :: [ falloir ]
pas_d_indication_niveau0 :: 1 :: [ oublier ]
Total feature counts: 8


====== Text Level Features ======

Features :: Feature-Counts :: Feature-Lemmas
--------------------------------------------
marqueurs :: 2 :: [ falloir, oublier ]
deontique :: 1 :: [ falloir ]
pas_d_indication :: 1 :: [ oublier ]
marqueurs_niveau3 :: 1 :: [ falloir ]
marqueurs_niveau0 :: 1 :: [ oublier ]
deontique_niveau3 :: 1 :: [ falloir ]
pas_d_indication_niveau0 :: 1 :: [ oublier ]
Total feature counts: 8

