====== Sentence Level Features ======

1. Sentence: 553 km2 	1 . 687 km2 	2 . 240 km2 	12 .
No features found.

2. Sentence: 069 km2
No features found.


====== Text Level Features ======

No features found.

