====== Sentence Level Features ======

1. Sentence: Moi je suis rentré en urbanisme par la petite porte .
Entity Name (Type) :: Moi (LOC)


====== Text Level Features ======

Entity Name (Entity Type)
-------------------------
Moi (LOC)
Total entitiy counts: 1

