
********** Entity Names Features **********
*******************************************

1. Sentence: Comment , dès lors , piloter le projet ?
No features found.


********** Emotions Features **********
***************************************

1. Sentence: Comment , dès lors , piloter le projet ?
No features found.


********** Modality Features **********
***************************************

1. Sentence: Comment , dès lors , piloter le projet ?
No features found.


********** Adverbiaux Temporels Features **********
********************************************************

1. Sentence: Comment , dès lors , piloter le projet ?
Features :: Feature-Counts :: Feature-Texts
--------------------------------------------
adverbiaux_temporels::1::['dès lors']
adverbiaux_localisation_temporelle::1::['dès lors']
adverbiaux_pointage_non_absolu::1::['dès lors']
adverbiaux_loc_temp_focalisation_id::1::['dès lors']
adverbiaux_loc_temp_regionalisation_non_id::1::['dès lors']
adverbiaux_loc_temp_pointage_non_absolu::1::['dès lors']

