
********** Entity Names Features **********
*******************************************

1. Sentence: TOTAL		1 . 207	1 .
Entity Name (Type) :: TOTAL (LOC)


********** Emotions Features **********
***************************************

1. Sentence: TOTAL		1 . 207	1 .
No features found.


********** Modality Features **********
***************************************

1. Sentence: TOTAL		1 . 207	1 .
No features found.


********** Adverbiaux Temporels Features **********
********************************************************

1. Sentence: TOTAL		1 . 207	1 .
No features found.

