====== Sentence Level Features ======

1. Sentence: Paul Delduc  : Le ministre a en effet affirmé souhaiter qu ' aucun territoire ne se sente abandonné par la République .
Features :: Feature-Counts :: Feature-Lemmas
--------------------------------------------
marqueurs :: 3 :: [ affirmer, aucun, abandonner ]
alethique :: 1 :: [ aucun ]
boulique :: 1 :: [ abandonner ]
epistemique :: 1 :: [ abandonner ]
pas_d_indication :: 1 :: [ affirmer ]
marqueurs_niveau3 :: 1 :: [ aucun ]
marqueurs_niveau2 :: 1 :: [ abandonner ]
marqueurs_niveau0 :: 1 :: [ affirmer ]
alethique_niveau3 :: 1 :: [ aucun ]
boulique_niveau2 :: 1 :: [ abandonner ]
epistemique_niveau2 :: 1 :: [ abandonner ]
pas_d_indication_niveau0 :: 1 :: [ affirmer ]
Total feature counts: 14


====== Text Level Features ======

Features :: Feature-Counts :: Feature-Lemmas
--------------------------------------------
marqueurs :: 3 :: [ affirmer, aucun, abandonner ]
alethique :: 1 :: [ aucun ]
boulique :: 1 :: [ abandonner ]
epistemique :: 1 :: [ abandonner ]
pas_d_indication :: 1 :: [ affirmer ]
marqueurs_niveau3 :: 1 :: [ aucun ]
marqueurs_niveau2 :: 1 :: [ abandonner ]
marqueurs_niveau0 :: 1 :: [ affirmer ]
alethique_niveau3 :: 1 :: [ aucun ]
boulique_niveau2 :: 1 :: [ abandonner ]
epistemique_niveau2 :: 1 :: [ abandonner ]
pas_d_indication_niveau0 :: 1 :: [ affirmer ]
Total feature counts: 14

