
********** Entity Names Features **********
*******************************************

1. Sentence: Les jardins d ' eau et le parc urbain constituent l ' armature du projet .
No features found.


********** Emotions Features **********
***************************************

1. Sentence: Les jardins d ' eau et le parc urbain constituent l ' armature du projet .
No features found.


********** Modality Features **********
***************************************

1. Sentence: Les jardins d ' eau et le parc urbain constituent l ' armature du projet .
No features found.


********** Adverbiaux Temporels Features **********
********************************************************

1. Sentence: Les jardins d ' eau et le parc urbain constituent l ' armature du projet .
No features found.

