====== Sentence Level Features ======

1. Sentence: Nous les avons poursuivies pendant quelques années avant de buter , là aussi , sur la crise économique .
Features :: Feature-Counts :: Feature-Lemmas
--------------------------------------------
marqueurs :: 1 :: [ crise ]
appreciatif :: 1 :: [ crise ]
epistemique :: 1 :: [ crise ]
marqueurs_niveau2 :: 1 :: [ crise ]
appreciatif_niveau2 :: 1 :: [ crise ]
epistemique_niveau2 :: 1 :: [ crise ]
Total feature counts: 6


====== Text Level Features ======

Features :: Feature-Counts :: Feature-Lemmas
--------------------------------------------
marqueurs :: 1 :: [ crise ]
appreciatif :: 1 :: [ crise ]
epistemique :: 1 :: [ crise ]
marqueurs_niveau2 :: 1 :: [ crise ]
appreciatif_niveau2 :: 1 :: [ crise ]
epistemique_niveau2 :: 1 :: [ crise ]
Total feature counts: 6

