====== Sentence Level Features ======

1. Sentence: Le P . A . D . O . G . (Plan d ' aménagement et d ' organisation générale de la région parisienne) approuvé par décret du 6 août 1960 , se situait déjà à ce niveau ;
Features :: Feature-Counts :: Feature-Texts
--------------------------------------------
adverbiaux_temporels::1::['du 6 août 1960']
adverbiaux_localisation_temporelle::1::['du 6 août 1960']
adverbiaux_pointage_absolu::1::['du 6 août 1960']
adverbiaux_loc_temp_focalisation_id::1::['du 6 août 1960']
adverbiaux_loc_temp_regionalisation_id::1::['du 6 août 1960']
adverbiaux_loc_temp_pointage_absolu::1::['du 6 août 1960']


====== Text Level Features ======

Features :: Feature-Counts :: Feature-Texts
--------------------------------------------
adverbiaux_temporels::1::['du 6 août 1960']
adverbiaux_localisation_temporelle::1::['du 6 août 1960']
adverbiaux_pointage_absolu::1::['du 6 août 1960']
adverbiaux_loc_temp_focalisation_id::1::['du 6 août 1960']
adverbiaux_loc_temp_regionalisation_id::1::['du 6 août 1960']
adverbiaux_loc_temp_pointage_absolu::1::['du 6 août 1960']
Total feature counts: 6

