
********** Entity Names Features **********
*******************************************

1. Sentence: Ces zones étant disposées sur quelques axes privilégiés , la même desserte peut être utilisée pour les liaisons entre banlieues situées le long de ces directions de peuplement .
Entity Name (Type) :: Ces (LOC)


********** Emotions Features **********
***************************************

1. Sentence: Ces zones étant disposées sur quelques axes privilégiés , la même desserte peut être utilisée pour les liaisons entre banlieues situées le long de ces directions de peuplement .
No features found.


********** Modality Features **********
***************************************

1. Sentence: Ces zones étant disposées sur quelques axes privilégiés , la même desserte peut être utilisée pour les liaisons entre banlieues situées le long de ces directions de peuplement .
Features :: Feature-Counts :: Feature-Lemmas
--------------------------------------------
marqueurs :: 2 :: [ pouvoir, long ]
epistemique :: 2 :: [ pouvoir, long ]
alethique :: 1 :: [ pouvoir ]
deontique :: 1 :: [ pouvoir ]
marqueurs_niveau3 :: 1 :: [ pouvoir ]
marqueurs_niveau2 :: 1 :: [ long ]
alethique_niveau3 :: 1 :: [ pouvoir ]
deontique_niveau3 :: 1 :: [ pouvoir ]
epistemique_niveau3 :: 1 :: [ pouvoir ]
epistemique_niveau2 :: 1 :: [ long ]
Total feature counts: 12


********** Adverbiaux Temporels Features **********
********************************************************

1. Sentence: Ces zones étant disposées sur quelques axes privilégiés , la même desserte peut être utilisée pour les liaisons entre banlieues situées le long de ces directions de peuplement .
No features found.

