====== Sentence Level Features ======

1. Sentence: ATELIERS LACER - RAMBAULT GUIOT - 28-6-65 - 20 , rue Fontaine-à-Mulard , Paris 13e - 18 , rue de Calais , Paris ge
No features found.


====== Text Level Features ======

No features found.

