
********** Entity Names Features **********
*******************************************

1. Sentence: Enfin , il y a une quatrième ville , celle des grands ensembles , avec des gens qui sont pratiquement assignés à résidence .
No features found.


********** Emotions Features **********
***************************************

1. Sentence: Enfin , il y a une quatrième ville , celle des grands ensembles , avec des gens qui sont pratiquement assignés à résidence .
No features found.


********** Modality Features **********
***************************************

1. Sentence: Enfin , il y a une quatrième ville , celle des grands ensembles , avec des gens qui sont pratiquement assignés à résidence .
Features :: Feature-Counts :: Feature-Lemmas
--------------------------------------------
marqueurs :: 1 :: [ grand ]
epistemique :: 1 :: [ grand ]
marqueurs_niveau3 :: 1 :: [ grand ]
epistemique_niveau3 :: 1 :: [ grand ]
Total feature counts: 4


********** Adverbiaux Temporels Features **********
********************************************************

1. Sentence: Enfin , il y a une quatrième ville , celle des grands ensembles , avec des gens qui sont pratiquement assignés à résidence .
No features found.

