====== Sentence Level Features ======

1. Sentence: J ' ai eu la chance de participer , dans les années 1990 , à une série de réunions avec Jacques Delors , pour préparer le programme « Urban » de la Commission .
Features :: Feature-Counts :: Feature-Lemmas
--------------------------------------------
marqueurs :: 1 :: [ chance ]
appreciatif :: 1 :: [ chance ]
marqueurs_niveau3 :: 1 :: [ chance ]
appreciatif_niveau3 :: 1 :: [ chance ]
Total feature counts: 4


====== Text Level Features ======

Features :: Feature-Counts :: Feature-Lemmas
--------------------------------------------
marqueurs :: 1 :: [ chance ]
appreciatif :: 1 :: [ chance ]
marqueurs_niveau3 :: 1 :: [ chance ]
appreciatif_niveau3 :: 1 :: [ chance ]
Total feature counts: 4

