
********** Entity Names Features **********
*******************************************

1. Sentence: J ' ai donc suivi les cours de Françoise Choay , Gilles Deleuze , Jean Baudrillard , Jean Lacoste , et le tout jeune François Ascher… tout en continuant d ' exercer à l ' « atelier des poissons carrés » .
Entity Name (Type) :: François Ascher (PER)


********** Emotions Features **********
***************************************

1. Sentence: J ' ai donc suivi les cours de Françoise Choay , Gilles Deleuze , Jean Baudrillard , Jean Lacoste , et le tout jeune François Ascher… tout en continuant d ' exercer à l ' « atelier des poissons carrés » .
No features found.


********** Modality Features **********
***************************************

1. Sentence: J ' ai donc suivi les cours de Françoise Choay , Gilles Deleuze , Jean Baudrillard , Jean Lacoste , et le tout jeune François Ascher… tout en continuant d ' exercer à l ' « atelier des poissons carrés » .
Features :: Feature-Counts :: Feature-Lemmas
--------------------------------------------
marqueurs :: 1 :: [ jeune ]
pas_d_indication :: 1 :: [ jeune ]
marqueurs_niveau0 :: 1 :: [ jeune ]
pas_d_indication_niveau0 :: 1 :: [ jeune ]
Total feature counts: 4


********** Adverbiaux Temporels Features **********
********************************************************

1. Sentence: J ' ai donc suivi les cours de Françoise Choay , Gilles Deleuze , Jean Baudrillard , Jean Lacoste , et le tout jeune François Ascher… tout en continuant d ' exercer à l ' « atelier des poissons carrés » .
No features found.

