
********** Entity Names Features **********
*******************************************

1. Sentence: Question d ' ego Je n ' ai pas besoin de jouer à la star… Question d ' ego !
Entity Name (Type) :: Question d ' ego ! (MISC)


********** Emotions Features **********
***************************************

1. Sentence: Question d ' ego Je n ' ai pas besoin de jouer à la star… Question d ' ego !
No features found.


********** Modality Features **********
***************************************

1. Sentence: Question d ' ego Je n ' ai pas besoin de jouer à la star… Question d ' ego !
Features :: Feature-Counts :: Feature-Lemmas
--------------------------------------------
marqueurs :: 3 :: [ besoin, jouer, star ]
appreciatif :: 2 :: [ jouer, star ]
marqueurs_niveau2 :: 2 :: [ jouer, star ]
appreciatif_niveau2 :: 2 :: [ jouer, star ]
alethique :: 1 :: [ besoin ]
boulique :: 1 :: [ besoin ]
marqueurs_niveau3 :: 1 :: [ besoin ]
alethique_niveau3 :: 1 :: [ besoin ]
boulique_niveau3 :: 1 :: [ besoin ]
Total feature counts: 14


********** Adverbiaux Temporels Features **********
********************************************************

1. Sentence: Question d ' ego Je n ' ai pas besoin de jouer à la star… Question d ' ego !
No features found.

