
********** Entity Names Features **********
*******************************************

1. Sentence: À tel point que la Méditerranée a surpassé le projet moderne , dont elle est même probablement le point d ' origine et le point de son propre dépassement .
Entity Name (Type) :: Méditerranée (LOC)


********** Emotions Features **********
***************************************

1. Sentence: À tel point que la Méditerranée a surpassé le projet moderne , dont elle est même probablement le point d ' origine et le point de son propre dépassement .
No features found.


********** Modality Features **********
***************************************

1. Sentence: À tel point que la Méditerranée a surpassé le projet moderne , dont elle est même probablement le point d ' origine et le point de son propre dépassement .
Features :: Feature-Counts :: Feature-Lemmas
--------------------------------------------
marqueurs :: 2 :: [ moderne, probablement ]
epistemique :: 1 :: [ probablement ]
pas_d_indication :: 1 :: [ moderne ]
marqueurs_niveau3 :: 1 :: [ probablement ]
marqueurs_niveau0 :: 1 :: [ moderne ]
epistemique_niveau3 :: 1 :: [ probablement ]
pas_d_indication_niveau0 :: 1 :: [ moderne ]
Total feature counts: 8


********** Adverbiaux Temporels Features **********
********************************************************

1. Sentence: À tel point que la Méditerranée a surpassé le projet moderne , dont elle est même probablement le point d ' origine et le point de son propre dépassement .
No features found.

