====== Sentence Level Features ======

1. Sentence: La Silicon Valley , cœur mondial de la révolution numérique , n ' existe pas sans Berkeley et Stanford .
Features :: Feature-Counts :: Feature-Lemmas
--------------------------------------------
marqueurs :: 1 :: [ révolution ]
appreciatif :: 1 :: [ révolution ]
axiologique :: 1 :: [ révolution ]
marqueurs_niveau1 :: 1 :: [ révolution ]
appreciatif_niveau1 :: 1 :: [ révolution ]
axiologique_niveau1 :: 1 :: [ révolution ]
Total feature counts: 6


====== Text Level Features ======

Features :: Feature-Counts :: Feature-Lemmas
--------------------------------------------
marqueurs :: 1 :: [ révolution ]
appreciatif :: 1 :: [ révolution ]
axiologique :: 1 :: [ révolution ]
marqueurs_niveau1 :: 1 :: [ révolution ]
appreciatif_niveau1 :: 1 :: [ révolution ]
axiologique_niveau1 :: 1 :: [ révolution ]
Total feature counts: 6

