
********** Entity Names Features **********
*******************************************

1. Sentence: La réalité est que Saclay est un cas exacerbé d ' écart entre la gouvernance politique locale , très émiettée et concurrentielle , et l ' ambition internationale du projet .
Entity Name (Type) :: Saclay (LOC)


********** Emotions Features **********
***************************************

1. Sentence: La réalité est que Saclay est un cas exacerbé d ' écart entre la gouvernance politique locale , très émiettée et concurrentielle , et l ' ambition internationale du projet .
No features found.


********** Modality Features **********
***************************************

1. Sentence: La réalité est que Saclay est un cas exacerbé d ' écart entre la gouvernance politique locale , très émiettée et concurrentielle , et l ' ambition internationale du projet .
Features :: Feature-Counts :: Feature-Lemmas
--------------------------------------------
marqueurs :: 1 :: [ réalité ]
alethique :: 1 :: [ réalité ]
marqueurs_niveau1 :: 1 :: [ réalité ]
alethique_niveau1 :: 1 :: [ réalité ]
Total feature counts: 4


********** Adverbiaux Temporels Features **********
********************************************************

1. Sentence: La réalité est que Saclay est un cas exacerbé d ' écart entre la gouvernance politique locale , très émiettée et concurrentielle , et l ' ambition internationale du projet .
No features found.

