====== Sentence Level Features ======

1. Sentence: En France , avec 36 000 communes ,  l ' action à l ' échelle intercommunale est indispensable .
Features :: Feature-Counts :: Feature-Lemmas
--------------------------------------------
marqueurs :: 1 :: [ indispensable ]
appreciatif :: 1 :: [ indispensable ]
marqueurs_niveau3 :: 1 :: [ indispensable ]
appreciatif_niveau3 :: 1 :: [ indispensable ]
Total feature counts: 4


====== Text Level Features ======

Features :: Feature-Counts :: Feature-Lemmas
--------------------------------------------
marqueurs :: 1 :: [ indispensable ]
appreciatif :: 1 :: [ indispensable ]
marqueurs_niveau3 :: 1 :: [ indispensable ]
appreciatif_niveau3 :: 1 :: [ indispensable ]
Total feature counts: 4

