
********** Entity Names Features **********
*******************************************

1. Sentence: Là aussi les phénomènes ne sont pas totalement différents;
No features found.


********** Emotions Features **********
***************************************

1. Sentence: Là aussi les phénomènes ne sont pas totalement différents;
No features found.


********** Modality Features **********
***************************************

1. Sentence: Là aussi les phénomènes ne sont pas totalement différents;
No features found.


********** Adverbiaux Temporels Features **********
********************************************************

1. Sentence: Là aussi les phénomènes ne sont pas totalement différents;
No features found.

