====== Sentence Level Features ======

1. Sentence: La charte idéale d ' aménagement ressemblerait à une méthode expérimentale , telle qu ' en utilisent les scientifiques .
Features :: Feature-Counts :: Feature-Lemmas
--------------------------------------------
marqueurs :: 1 :: [ idéal ]
appreciatif :: 1 :: [ idéal ]
marqueurs_niveau2 :: 1 :: [ idéal ]
appreciatif_niveau2 :: 1 :: [ idéal ]
Total feature counts: 4


====== Text Level Features ======

Features :: Feature-Counts :: Feature-Lemmas
--------------------------------------------
marqueurs :: 1 :: [ idéal ]
appreciatif :: 1 :: [ idéal ]
marqueurs_niveau2 :: 1 :: [ idéal ]
appreciatif_niveau2 :: 1 :: [ idéal ]
Total feature counts: 4

