====== Sentence Level Features ======

1. Sentence: VI .
Entity Name (Type) :: VI (MISC)


====== Text Level Features ======

Entity Name (Entity Type)
-------------------------
VI (MISC)
Total entitiy counts: 1

