
********** Entity Names Features **********
*******************************************

1. Sentence: Un plan-masse , comme outil de conception , fait l ' hypo thèse de leur improbable évolution simultanée .
No features found.


********** Emotions Features **********
***************************************

1. Sentence: Un plan-masse , comme outil de conception , fait l ' hypo thèse de leur improbable évolution simultanée .
No features found.


********** Modality Features **********
***************************************

1. Sentence: Un plan-masse , comme outil de conception , fait l ' hypo thèse de leur improbable évolution simultanée .
Features :: Feature-Counts :: Feature-Lemmas
--------------------------------------------
marqueurs :: 1 :: [ improbable ]
epistemique :: 1 :: [ improbable ]
marqueurs_niveau2 :: 1 :: [ improbable ]
epistemique_niveau2 :: 1 :: [ improbable ]
Total feature counts: 4


********** Adverbiaux Temporels Features **********
********************************************************

1. Sentence: Un plan-masse , comme outil de conception , fait l ' hypo thèse de leur improbable évolution simultanée .
No features found.

