====== Sentence Level Features ======

1. Sentence: (4) C ' est dans le XVIe arrondissement de Paris que l ' air est le plus pollué , en raison de l ' utilisation généralisée de mazout , qui contient une proportion notable de soufre , pour le chauffage des immeubles .
Features :: Feature-Counts :: Feature-Lemmas
--------------------------------------------
marqueurs :: 1 :: [ polluer ]
pas_d_indication :: 1 :: [ polluer ]
marqueurs_niveau0 :: 1 :: [ polluer ]
pas_d_indication_niveau0 :: 1 :: [ polluer ]
Total feature counts: 4


====== Text Level Features ======

Features :: Feature-Counts :: Feature-Lemmas
--------------------------------------------
marqueurs :: 1 :: [ polluer ]
pas_d_indication :: 1 :: [ polluer ]
marqueurs_niveau0 :: 1 :: [ polluer ]
pas_d_indication_niveau0 :: 1 :: [ polluer ]
Total feature counts: 4

