
********** Entity Names Features **********
*******************************************

1. Sentence: Par ailleurs ,  l ' interactivité est un support de diffusion des projets .
No features found.


********** Emotions Features **********
***************************************

1. Sentence: Par ailleurs ,  l ' interactivité est un support de diffusion des projets .
No features found.


********** Modality Features **********
***************************************

1. Sentence: Par ailleurs ,  l ' interactivité est un support de diffusion des projets .
No features found.


********** Adverbiaux Temporels Features **********
********************************************************

1. Sentence: Par ailleurs ,  l ' interactivité est un support de diffusion des projets .
No features found.

