
********** Entity Names Features **********
*******************************************

1. Sentence: Les entreprises innovantes , elles aussi , choisissent de plus en plus les cœurs urbains (à Boston , par exemple , elles migrent de la route 128 vers le cœur de Cambridge , à proximité immédiate de Harvard et du mit) .
Entity Name (Type) :: Harvard (ORG)


********** Emotions Features **********
***************************************

1. Sentence: Les entreprises innovantes , elles aussi , choisissent de plus en plus les cœurs urbains (à Boston , par exemple , elles migrent de la route 128 vers le cœur de Cambridge , à proximité immédiate de Harvard et du mit) .
No features found.


********** Modality Features **********
***************************************

1. Sentence: Les entreprises innovantes , elles aussi , choisissent de plus en plus les cœurs urbains (à Boston , par exemple , elles migrent de la route 128 vers le cœur de Cambridge , à proximité immédiate de Harvard et du mit) .
Features :: Feature-Counts :: Feature-Lemmas
--------------------------------------------
marqueurs :: 1 :: [ choisir ]
boulique :: 1 :: [ choisir ]
marqueurs_niveau2 :: 1 :: [ choisir ]
boulique_niveau2 :: 1 :: [ choisir ]
Total feature counts: 4


********** Adverbiaux Temporels Features **********
********************************************************

1. Sentence: Les entreprises innovantes , elles aussi , choisissent de plus en plus les cœurs urbains (à Boston , par exemple , elles migrent de la route 128 vers le cœur de Cambridge , à proximité immédiate de Harvard et du mit) .
No features found.

