
********** Entity Names Features **********
*******************************************

1. Sentence: Les territoires , suivant leur localisation , sont tous différents .
No features found.


********** Emotions Features **********
***************************************

1. Sentence: Les territoires , suivant leur localisation , sont tous différents .
No features found.


********** Modality Features **********
***************************************

1. Sentence: Les territoires , suivant leur localisation , sont tous différents .
No features found.


********** Adverbiaux Temporels Features **********
********************************************************

1. Sentence: Les territoires , suivant leur localisation , sont tous différents .
No features found.

