
********** Entity Names Features **********
*******************************************

1. Sentence: Il faut faire preuve de beaucoup de pragmatisme , qualité peu partagée , en expliquant clairement les ﬁnalités d ' un projet .
No features found.


********** Emotions Features **********
***************************************

1. Sentence: Il faut faire preuve de beaucoup de pragmatisme , qualité peu partagée , en expliquant clairement les ﬁnalités d ' un projet .
No features found.


********** Modality Features **********
***************************************

1. Sentence: Il faut faire preuve de beaucoup de pragmatisme , qualité peu partagée , en expliquant clairement les ﬁnalités d ' un projet .
Features :: Feature-Counts :: Feature-Lemmas
--------------------------------------------
marqueurs :: 3 :: [ falloir, preuve, beaucoup ]
deontique :: 1 :: [ falloir ]
epistemique :: 1 :: [ beaucoup ]
pas_d_indication :: 1 :: [ preuve ]
marqueurs_niveau3 :: 1 :: [ falloir ]
marqueurs_niveau1 :: 1 :: [ beaucoup ]
marqueurs_niveau0 :: 1 :: [ preuve ]
deontique_niveau3 :: 1 :: [ falloir ]
epistemique_niveau1 :: 1 :: [ beaucoup ]
pas_d_indication_niveau0 :: 1 :: [ preuve ]
Total feature counts: 12


********** Adverbiaux Temporels Features **********
********************************************************

1. Sentence: Il faut faire preuve de beaucoup de pragmatisme , qualité peu partagée , en expliquant clairement les ﬁnalités d ' un projet .
No features found.

