====== Sentence Level Features ======

1. Sentence: Dès le début , j ' ai souhaité préserver les vignes , les oliviers , les fermes : si l ' on vient habiter là , c ' est pour trouver non pas des qualités de centre-ville , mais des qualités propres à la périphérie .
Features :: Feature-Counts :: Feature-Lemmas
--------------------------------------------
marqueurs :: 1 :: [ venir ]
alethique :: 1 :: [ venir ]
marqueurs_niveau3 :: 1 :: [ venir ]
alethique_niveau3 :: 1 :: [ venir ]
Total feature counts: 4


====== Text Level Features ======

Features :: Feature-Counts :: Feature-Lemmas
--------------------------------------------
marqueurs :: 1 :: [ venir ]
alethique :: 1 :: [ venir ]
marqueurs_niveau3 :: 1 :: [ venir ]
alethique_niveau3 :: 1 :: [ venir ]
Total feature counts: 4

