====== Sentence Level Features ======

1. Sentence: Nous défendions toujours , dans les discussions avec François , la prééminence de l ' espace public sur l ' édifice : nous apprenions à distinguer avec lui la hiérarchisation des centres et des voies .
Features :: Feature-Counts :: Feature-Lemmas
--------------------------------------------
marqueurs :: 3 :: [ défendre, toujours, lui ]
alethique :: 2 :: [ toujours, lui ]
marqueurs_niveau3 :: 2 :: [ toujours, lui ]
alethique_niveau3 :: 2 :: [ toujours, lui ]
axiologique :: 1 :: [ défendre ]
epistemique :: 1 :: [ lui ]
marqueurs_niveau1 :: 1 :: [ défendre ]
axiologique_niveau1 :: 1 :: [ défendre ]
epistemique_niveau3 :: 1 :: [ lui ]
Total feature counts: 14


====== Text Level Features ======

Features :: Feature-Counts :: Feature-Lemmas
--------------------------------------------
marqueurs :: 3 :: [ défendre, toujours, lui ]
alethique :: 2 :: [ toujours, lui ]
marqueurs_niveau3 :: 2 :: [ toujours, lui ]
alethique_niveau3 :: 2 :: [ toujours, lui ]
axiologique :: 1 :: [ défendre ]
epistemique :: 1 :: [ lui ]
marqueurs_niveau1 :: 1 :: [ défendre ]
axiologique_niveau1 :: 1 :: [ défendre ]
epistemique_niveau3 :: 1 :: [ lui ]
Total feature counts: 14

