====== Sentence Level Features ======

1. Sentence: Les fonctionnaires des Finances vivaient leur déménagement à Bercy comme un exil !
Features :: Feature-Counts :: Feature-Lemmas
--------------------------------------------
marqueurs :: 1 :: [ exil ]
deontique :: 1 :: [ exil ]
marqueurs_niveau2 :: 1 :: [ exil ]
deontique_niveau2 :: 1 :: [ exil ]
Total feature counts: 4


====== Text Level Features ======

Features :: Feature-Counts :: Feature-Lemmas
--------------------------------------------
marqueurs :: 1 :: [ exil ]
deontique :: 1 :: [ exil ]
marqueurs_niveau2 :: 1 :: [ exil ]
deontique_niveau2 :: 1 :: [ exil ]
Total feature counts: 4

