
********** Entity Names Features **********
*******************************************

1. Sentence: Si je parvins à convaincre les élus et à trouver les promoteurs , le passage à l ' acte fut rarissime !
Entity Name (Type) :: Si (MISC)


********** Emotions Features **********
***************************************

1. Sentence: Si je parvins à convaincre les élus et à trouver les promoteurs , le passage à l ' acte fut rarissime !
No features found.


********** Modality Features **********
***************************************

1. Sentence: Si je parvins à convaincre les élus et à trouver les promoteurs , le passage à l ' acte fut rarissime !
Features :: Feature-Counts :: Feature-Lemmas
--------------------------------------------
marqueurs :: 1 :: [ élu ]
pas_d_indication :: 1 :: [ élu ]
marqueurs_niveau0 :: 1 :: [ élu ]
pas_d_indication_niveau0 :: 1 :: [ élu ]
Total feature counts: 4


********** Adverbiaux Temporels Features **********
********************************************************

1. Sentence: Si je parvins à convaincre les élus et à trouver les promoteurs , le passage à l ' acte fut rarissime !
No features found.

