
********** Entity Names Features **********
*******************************************

1. Sentence: PLANS DE DÉVELOPPEMENT ÉCONOMIQUE ET SOCIAL (tranche régionale des 5e et 6e Plans) (5 ans)
Entity Name (Type) :: 6e Plans (MISC)


********** Emotions Features **********
***************************************

1. Sentence: PLANS DE DÉVELOPPEMENT ÉCONOMIQUE ET SOCIAL (tranche régionale des 5e et 6e Plans) (5 ans)
No features found.


********** Modality Features **********
***************************************

1. Sentence: PLANS DE DÉVELOPPEMENT ÉCONOMIQUE ET SOCIAL (tranche régionale des 5e et 6e Plans) (5 ans)
No features found.


********** Adverbiaux Temporels Features **********
********************************************************

1. Sentence: PLANS DE DÉVELOPPEMENT ÉCONOMIQUE ET SOCIAL (tranche régionale des 5e et 6e Plans) (5 ans)
No features found.

