====== Sentence Level Features ======

1. Sentence: Le risque de sécession de riches
No features found.

2. Sentence: Des lieux et des liens , L ' Aube , 2002  : extraits de l ' introduction et du chapitre 12 .
Entity Name (Type) :: L ' Aube (MISC)


====== Text Level Features ======

Entity Name (Entity Type)
-------------------------
L ' Aube (MISC)
Total entitiy counts: 1

