
********** Entity Names Features **********
*******************************************

1. Sentence: - A l ' intérieur de Paris , et dans la proche banlieue densément peuplée , la priorité est donnée aux transports collectifs .
Entity Name (Type) :: Paris (LOC)


********** Emotions Features **********
***************************************

1. Sentence: - A l ' intérieur de Paris , et dans la proche banlieue densément peuplée , la priorité est donnée aux transports collectifs .
No features found.


********** Modality Features **********
***************************************

1. Sentence: - A l ' intérieur de Paris , et dans la proche banlieue densément peuplée , la priorité est donnée aux transports collectifs .
No features found.


********** Adverbiaux Temporels Features **********
********************************************************

1. Sentence: - A l ' intérieur de Paris , et dans la proche banlieue densément peuplée , la priorité est donnée aux transports collectifs .
No features found.

