
********** Entity Names Features **********
*******************************************

1. Sentence: Cet inconvénient est majeur , mais il n ' est pas le seul .
Entity Name (Type) :: Cet (LOC)


********** Emotions Features **********
***************************************

1. Sentence: Cet inconvénient est majeur , mais il n ' est pas le seul .
No features found.


********** Modality Features **********
***************************************

1. Sentence: Cet inconvénient est majeur , mais il n ' est pas le seul .
No features found.


********** Adverbiaux Temporels Features **********
********************************************************

1. Sentence: Cet inconvénient est majeur , mais il n ' est pas le seul .
No features found.

