====== Sentence Level Features ======

1. Sentence: elle est donc courte et , entre deux réunions , le travail est réparti et préparé pour rendre possibles les décisions .
Features :: Feature-Counts :: Feature-Lemmas
--------------------------------------------
marqueurs :: 3 :: [ travail, possible, décision ]
marqueurs_niveau3 :: 2 :: [ travail, possible ]
alethique :: 1 :: [ possible ]
appreciatif :: 1 :: [ travail ]
boulique :: 1 :: [ décision ]
epistemique :: 1 :: [ décision ]
marqueurs_niveau2 :: 1 :: [ décision ]
alethique_niveau3 :: 1 :: [ possible ]
appreciatif_niveau3 :: 1 :: [ travail ]
boulique_niveau2 :: 1 :: [ décision ]
epistemique_niveau2 :: 1 :: [ décision ]
Total feature counts: 14


====== Text Level Features ======

Features :: Feature-Counts :: Feature-Lemmas
--------------------------------------------
marqueurs :: 3 :: [ travail, possible, décision ]
marqueurs_niveau3 :: 2 :: [ travail, possible ]
alethique :: 1 :: [ possible ]
appreciatif :: 1 :: [ travail ]
boulique :: 1 :: [ décision ]
epistemique :: 1 :: [ décision ]
marqueurs_niveau2 :: 1 :: [ décision ]
alethique_niveau3 :: 1 :: [ possible ]
appreciatif_niveau3 :: 1 :: [ travail ]
boulique_niveau2 :: 1 :: [ décision ]
epistemique_niveau2 :: 1 :: [ décision ]
Total feature counts: 14

