====== Sentence Level Features ======

1. Sentence: Soit parce que le territoire est trop vaste (par exemple Seine-Aval) pour faire l ' objet d ' un tracé synthétique unique , soit parce que les temporalités induites par la complexité du site (comme sur le site du Senia au nord d ' Orly) rendent illusoires l ' ordre serein et la stabilité d ' un planmasse .
Features :: Feature-Counts :: Feature-Lemmas
--------------------------------------------
marqueurs :: 2 :: [ unique, ordre ]
appreciatif :: 1 :: [ unique ]
deontique :: 1 :: [ ordre ]
marqueurs_niveau2 :: 1 :: [ ordre ]
marqueurs_niveau1 :: 1 :: [ unique ]
appreciatif_niveau1 :: 1 :: [ unique ]
deontique_niveau2 :: 1 :: [ ordre ]
Total feature counts: 8


====== Text Level Features ======

Features :: Feature-Counts :: Feature-Lemmas
--------------------------------------------
marqueurs :: 2 :: [ unique, ordre ]
appreciatif :: 1 :: [ unique ]
deontique :: 1 :: [ ordre ]
marqueurs_niveau2 :: 1 :: [ ordre ]
marqueurs_niveau1 :: 1 :: [ unique ]
appreciatif_niveau1 :: 1 :: [ unique ]
deontique_niveau2 :: 1 :: [ ordre ]
Total feature counts: 8

