
********** Entity Names Features **********
*******************************************

1. Sentence: - Hors de Paris , un réseau routier maillé permet l ' utilisation dominante de l ' automobile pour les échanges interurbains .
Entity Name (Type) :: Hors de Paris (LOC)


********** Emotions Features **********
***************************************

1. Sentence: - Hors de Paris , un réseau routier maillé permet l ' utilisation dominante de l ' automobile pour les échanges interurbains .
No features found.


********** Modality Features **********
***************************************

1. Sentence: - Hors de Paris , un réseau routier maillé permet l ' utilisation dominante de l ' automobile pour les échanges interurbains .
Features :: Feature-Counts :: Feature-Lemmas
--------------------------------------------
marqueurs :: 1 :: [ permettre ]
deontique :: 1 :: [ permettre ]
marqueurs_niveau3 :: 1 :: [ permettre ]
deontique_niveau3 :: 1 :: [ permettre ]
Total feature counts: 4


********** Adverbiaux Temporels Features **********
********************************************************

1. Sentence: - Hors de Paris , un réseau routier maillé permet l ' utilisation dominante de l ' automobile pour les échanges interurbains .
No features found.

