====== Sentence Level Features ======

1. Sentence: J ' ai forgé lentement cette conviction au long d ' un parcours fait de rencontres , de projets et de ruptures parfois .
Features :: Feature-Counts :: Feature-Lemmas
--------------------------------------------
marqueurs :: 4 :: [ lentement, long, rupture, parfois ]
epistemique :: 2 :: [ lentement, long ]
marqueurs_niveau3 :: 2 :: [ lentement, parfois ]
alethique :: 1 :: [ parfois ]
pas_d_indication :: 1 :: [ rupture ]
marqueurs_niveau2 :: 1 :: [ long ]
marqueurs_niveau0 :: 1 :: [ rupture ]
alethique_niveau3 :: 1 :: [ parfois ]
epistemique_niveau3 :: 1 :: [ lentement ]
epistemique_niveau2 :: 1 :: [ long ]
pas_d_indication_niveau0 :: 1 :: [ rupture ]
Total feature counts: 16


====== Text Level Features ======

Features :: Feature-Counts :: Feature-Lemmas
--------------------------------------------
marqueurs :: 4 :: [ lentement, long, rupture, parfois ]
epistemique :: 2 :: [ lentement, long ]
marqueurs_niveau3 :: 2 :: [ lentement, parfois ]
alethique :: 1 :: [ parfois ]
pas_d_indication :: 1 :: [ rupture ]
marqueurs_niveau2 :: 1 :: [ long ]
marqueurs_niveau0 :: 1 :: [ rupture ]
alethique_niveau3 :: 1 :: [ parfois ]
epistemique_niveau3 :: 1 :: [ lentement ]
epistemique_niveau2 :: 1 :: [ long ]
pas_d_indication_niveau0 :: 1 :: [ rupture ]
Total feature counts: 16

