====== Sentence Level Features ======

1. Sentence: Juste en bas de chez nous , il y aussi l ' école où vont les enfants .
Features :: Feature-Counts :: Feature-Lemmas
--------------------------------------------
marqueurs :: 3 :: [ juste, école, aller ]
alethique :: 2 :: [ école, aller ]
marqueurs_niveau1 :: 2 :: [ école, aller ]
alethique_niveau1 :: 2 :: [ école, aller ]
axiologique :: 1 :: [ juste ]
marqueurs_niveau3 :: 1 :: [ juste ]
axiologique_niveau3 :: 1 :: [ juste ]
Total feature counts: 12


====== Text Level Features ======

Features :: Feature-Counts :: Feature-Lemmas
--------------------------------------------
marqueurs :: 3 :: [ juste, école, aller ]
alethique :: 2 :: [ école, aller ]
marqueurs_niveau1 :: 2 :: [ école, aller ]
alethique_niveau1 :: 2 :: [ école, aller ]
axiologique :: 1 :: [ juste ]
marqueurs_niveau3 :: 1 :: [ juste ]
axiologique_niveau3 :: 1 :: [ juste ]
Total feature counts: 12

