====== Sentence Level Features ======

1. Sentence: C ' est en effet depuis les années 1960 que la société occidentale est capable de se penser en tant qu ' écosystème .
Features :: Feature-Counts :: Feature-Lemmas
--------------------------------------------
marqueurs :: 1 :: [ penser ]
epistemique :: 1 :: [ penser ]
marqueurs_niveau3 :: 1 :: [ penser ]
epistemique_niveau3 :: 1 :: [ penser ]
Total feature counts: 4


====== Text Level Features ======

Features :: Feature-Counts :: Feature-Lemmas
--------------------------------------------
marqueurs :: 1 :: [ penser ]
epistemique :: 1 :: [ penser ]
marqueurs_niveau3 :: 1 :: [ penser ]
epistemique_niveau3 :: 1 :: [ penser ]
Total feature counts: 4

