====== Sentence Level Features ======

1. Sentence: Un espace public de centre-ville fait partie de ces patrimoines communs , sans doute le plus visible , celui qui donne l ' identité à un quartier ou à une cité .
Features :: Feature-Counts :: Feature-Lemmas
--------------------------------------------
marqueurs :: 1 :: [ doute ]
epistemique :: 1 :: [ doute ]
marqueurs_niveau3 :: 1 :: [ doute ]
epistemique_niveau3 :: 1 :: [ doute ]
Total feature counts: 4


====== Text Level Features ======

Features :: Feature-Counts :: Feature-Lemmas
--------------------------------------------
marqueurs :: 1 :: [ doute ]
epistemique :: 1 :: [ doute ]
marqueurs_niveau3 :: 1 :: [ doute ]
epistemique_niveau3 :: 1 :: [ doute ]
Total feature counts: 4

