====== Sentence Level Features ======

1. Sentence: Ce pourcentage croît à mesure que l ' on se rapproche du centre : 15 % pour Paris et la proche banlieue , 24 % à Paris même .
Features :: Feature-Counts :: Feature-Lemmas
--------------------------------------------
marqueurs :: 1 :: [ croire ]
epistemique :: 1 :: [ croire ]
marqueurs_niveau3 :: 1 :: [ croire ]
epistemique_niveau3 :: 1 :: [ croire ]
Total feature counts: 4


====== Text Level Features ======

Features :: Feature-Counts :: Feature-Lemmas
--------------------------------------------
marqueurs :: 1 :: [ croire ]
epistemique :: 1 :: [ croire ]
marqueurs_niveau3 :: 1 :: [ croire ]
epistemique_niveau3 :: 1 :: [ croire ]
Total feature counts: 4

