
********** Entity Names Features **********
*******************************************

1. Sentence: l ’ architecture est un espace instantané;
No features found.


********** Emotions Features **********
***************************************

1. Sentence: l ’ architecture est un espace instantané;
No features found.


********** Modality Features **********
***************************************

1. Sentence: l ’ architecture est un espace instantané;
No features found.


********** Adverbiaux Temporels Features **********
********************************************************

1. Sentence: l ’ architecture est un espace instantané;
No features found.

