
********** Entity Names Features **********
*******************************************

1. Sentence: établit une nouvelle relation entre espaces ouverts et espaces construits;
No features found.


********** Emotions Features **********
***************************************

1. Sentence: établit une nouvelle relation entre espaces ouverts et espaces construits;
No features found.


********** Modality Features **********
***************************************

1. Sentence: établit une nouvelle relation entre espaces ouverts et espaces construits;
No features found.


********** Adverbiaux Temporels Features **********
********************************************************

1. Sentence: établit une nouvelle relation entre espaces ouverts et espaces construits;
No features found.

