
********** Entity Names Features **********
*******************************************

1. Sentence: Mettre en place ce nouveau paysage , cette bande continue qui se substituerait à la ligne , nécessite une gouvernance .
No features found.


********** Emotions Features **********
***************************************

1. Sentence: Mettre en place ce nouveau paysage , cette bande continue qui se substituerait à la ligne , nécessite une gouvernance .
No features found.


********** Modality Features **********
***************************************

1. Sentence: Mettre en place ce nouveau paysage , cette bande continue qui se substituerait à la ligne , nécessite une gouvernance .
Features :: Feature-Counts :: Feature-Lemmas
--------------------------------------------
marqueurs :: 1 :: [ nécessiter ]
alethique :: 1 :: [ nécessiter ]
marqueurs_niveau3 :: 1 :: [ nécessiter ]
alethique_niveau3 :: 1 :: [ nécessiter ]
Total feature counts: 4


********** Adverbiaux Temporels Features **********
********************************************************

1. Sentence: Mettre en place ce nouveau paysage , cette bande continue qui se substituerait à la ligne , nécessite une gouvernance .
No features found.

