
********** Entity Names Features **********
*******************************************

1. Sentence: EFFECTIFS EN MILLIERS EN 1954
Entity Name (Type) :: EFFECTIFS EN MILLIERS (ORG)


********** Emotions Features **********
***************************************

1. Sentence: EFFECTIFS EN MILLIERS EN 1954
No features found.


********** Modality Features **********
***************************************

1. Sentence: EFFECTIFS EN MILLIERS EN 1954
No features found.


********** Adverbiaux Temporels Features **********
********************************************************

1. Sentence: EFFECTIFS EN MILLIERS EN 1954
Features :: Feature-Counts :: Feature-Texts
--------------------------------------------
adverbiaux_temporels::1::['EN 1954']
adverbiaux_localisation_temporelle::1::['EN 1954']
adverbiaux_pointage_absolu::1::['EN 1954']
adverbiaux_pointage_non_absolu::1::['EN 1954']
adverbiaux_loc_temp_focalisation_id::1::['EN 1954']
adverbiaux_loc_temp_regionalisation_id::1::['EN 1954']
adverbiaux_loc_temp_pointage_non_absolu::1::['EN 1954']
adverbiaux_dur_iter_absolu::1::['EN 1954']

