====== Sentence Level Features ======

1. Sentence: Lorsque l ' on s ' interroge sur la ville négociée entre pouvoirs publics et partenaires de toutes sortes , il faut se poser une seule question : « Comment construire ensemble ? » , et avoir conscience que la négociation ne s ' arrête pas aux hommes ;
Features :: Feature-Counts :: Feature-Lemmas
--------------------------------------------
marqueurs :: 2 :: [ pouvoir, falloir ]
deontique :: 2 :: [ pouvoir, falloir ]
marqueurs_niveau3 :: 2 :: [ pouvoir, falloir ]
deontique_niveau3 :: 2 :: [ pouvoir, falloir ]
alethique :: 1 :: [ pouvoir ]
epistemique :: 1 :: [ pouvoir ]
alethique_niveau3 :: 1 :: [ pouvoir ]
epistemique_niveau3 :: 1 :: [ pouvoir ]
Total feature counts: 12


====== Text Level Features ======

Features :: Feature-Counts :: Feature-Lemmas
--------------------------------------------
marqueurs :: 2 :: [ pouvoir, falloir ]
deontique :: 2 :: [ pouvoir, falloir ]
marqueurs_niveau3 :: 2 :: [ pouvoir, falloir ]
deontique_niveau3 :: 2 :: [ pouvoir, falloir ]
alethique :: 1 :: [ pouvoir ]
epistemique :: 1 :: [ pouvoir ]
alethique_niveau3 :: 1 :: [ pouvoir ]
epistemique_niveau3 :: 1 :: [ pouvoir ]
Total feature counts: 12

