====== Sentence Level Features ======

1. Sentence: Pour mettre en œuvre ce type de projets , il faut de l ' acharne ment autant qu ' une capacité à modeler les cadres réglementaires , pour échapper à un principe de précaution systématique qui conduit souvent à l ' immobilité .
Features :: Feature-Counts :: Feature-Lemmas
--------------------------------------------
marqueurs :: 4 :: [ falloir, mentir, échapper, souvent ]
marqueurs_niveau3 :: 2 :: [ falloir, souvent ]
alethique :: 1 :: [ souvent ]
deontique :: 1 :: [ falloir ]
epistemique :: 1 :: [ mentir ]
pas_d_indication :: 1 :: [ échapper ]
marqueurs_niveau2 :: 1 :: [ mentir ]
marqueurs_niveau0 :: 1 :: [ échapper ]
alethique_niveau3 :: 1 :: [ souvent ]
deontique_niveau3 :: 1 :: [ falloir ]
epistemique_niveau2 :: 1 :: [ mentir ]
pas_d_indication_niveau0 :: 1 :: [ échapper ]
Total feature counts: 16


====== Text Level Features ======

Features :: Feature-Counts :: Feature-Lemmas
--------------------------------------------
marqueurs :: 4 :: [ falloir, mentir, échapper, souvent ]
marqueurs_niveau3 :: 2 :: [ falloir, souvent ]
alethique :: 1 :: [ souvent ]
deontique :: 1 :: [ falloir ]
epistemique :: 1 :: [ mentir ]
pas_d_indication :: 1 :: [ échapper ]
marqueurs_niveau2 :: 1 :: [ mentir ]
marqueurs_niveau0 :: 1 :: [ échapper ]
alethique_niveau3 :: 1 :: [ souvent ]
deontique_niveau3 :: 1 :: [ falloir ]
epistemique_niveau2 :: 1 :: [ mentir ]
pas_d_indication_niveau0 :: 1 :: [ échapper ]
Total feature counts: 16

