
********** Entity Names Features **********
*******************************************

1. Sentence: Cette distinction entre la chose construite et la géographie naturelle est déterminante dans notre intelligence du paysage .
Entity Name (Type) :: Cette (LOC)


********** Emotions Features **********
***************************************

1. Sentence: Cette distinction entre la chose construite et la géographie naturelle est déterminante dans notre intelligence du paysage .
No features found.


********** Modality Features **********
***************************************

1. Sentence: Cette distinction entre la chose construite et la géographie naturelle est déterminante dans notre intelligence du paysage .
No features found.


********** Adverbiaux Temporels Features **********
********************************************************

1. Sentence: Cette distinction entre la chose construite et la géographie naturelle est déterminante dans notre intelligence du paysage .
No features found.

