
********** Entity Names Features **********
*******************************************

1. Sentence: HYPOTHÈSE (NON RETENUE) DE VILLES NOUVELLES CONÇUES COMME UNE " COURONNE " DE POINTS ISOLÉS
Entity Name (Type) :: POINTS ISOLÉS (ORG)


********** Emotions Features **********
***************************************

1. Sentence: HYPOTHÈSE (NON RETENUE) DE VILLES NOUVELLES CONÇUES COMME UNE " COURONNE " DE POINTS ISOLÉS
No features found.


********** Modality Features **********
***************************************

1. Sentence: HYPOTHÈSE (NON RETENUE) DE VILLES NOUVELLES CONÇUES COMME UNE " COURONNE " DE POINTS ISOLÉS
No features found.


********** Adverbiaux Temporels Features **********
********************************************************

1. Sentence: HYPOTHÈSE (NON RETENUE) DE VILLES NOUVELLES CONÇUES COMME UNE " COURONNE " DE POINTS ISOLÉS
No features found.

