
********** Entity Names Features **********
*******************************************

1. Sentence: Centres urbains nouveaux en banlieue actuelle et villes nouvelles en z . ones d ' extension
Entity Name (Type) :: Centres (LOC)


********** Emotions Features **********
***************************************

1. Sentence: Centres urbains nouveaux en banlieue actuelle et villes nouvelles en z . ones d ' extension
No features found.


********** Modality Features **********
***************************************

1. Sentence: Centres urbains nouveaux en banlieue actuelle et villes nouvelles en z . ones d ' extension
No features found.


********** Adverbiaux Temporels Features **********
********************************************************

1. Sentence: Centres urbains nouveaux en banlieue actuelle et villes nouvelles en z . ones d ' extension
No features found.

