
********** Entity Names Features **********
*******************************************

1. Sentence: À l ' opposé de ceux qui parcourent l ' espace abstrait de la technocratie , de la signalétique ou qui consomment des images .
No features found.


********** Emotions Features **********
***************************************

1. Sentence: À l ' opposé de ceux qui parcourent l ' espace abstrait de la technocratie , de la signalétique ou qui consomment des images .
No features found.


********** Modality Features **********
***************************************

1. Sentence: À l ' opposé de ceux qui parcourent l ' espace abstrait de la technocratie , de la signalétique ou qui consomment des images .
No features found.


********** Adverbiaux Temporels Features **********
********************************************************

1. Sentence: À l ' opposé de ceux qui parcourent l ' espace abstrait de la technocratie , de la signalétique ou qui consomment des images .
No features found.

