====== Sentence Level Features ======

1. Sentence: La ville est une figure libre D ' après un entretien avec Laurent Théry .
Features :: Feature-Counts :: Feature-Lemmas
--------------------------------------------
marqueurs :: 1 :: [ libre ]
appreciatif :: 1 :: [ libre ]
marqueurs_niveau1 :: 1 :: [ libre ]
appreciatif_niveau1 :: 1 :: [ libre ]
Total feature counts: 4


====== Text Level Features ======

Features :: Feature-Counts :: Feature-Lemmas
--------------------------------------------
marqueurs :: 1 :: [ libre ]
appreciatif :: 1 :: [ libre ]
marqueurs_niveau1 :: 1 :: [ libre ]
appreciatif_niveau1 :: 1 :: [ libre ]
Total feature counts: 4

