
********** Entity Names Features **********
*******************************************

1. Sentence: Dans le plan s ' associent programme et structure , dispositif et usages , dedans et dehors , distribution et entre-deux .
No features found.


********** Emotions Features **********
***************************************

1. Sentence: Dans le plan s ' associent programme et structure , dispositif et usages , dedans et dehors , distribution et entre-deux .
No features found.


********** Modality Features **********
***************************************

1. Sentence: Dans le plan s ' associent programme et structure , dispositif et usages , dedans et dehors , distribution et entre-deux .
No features found.


********** Adverbiaux Temporels Features **********
********************************************************

1. Sentence: Dans le plan s ' associent programme et structure , dispositif et usages , dedans et dehors , distribution et entre-deux .
No features found.

