====== Sentence Level Features ======

1. Sentence: Pour la lutte contre la spéculation foncière en général nous nous servons des instruments juridiques que nous avons entre les mains .
Features :: Feature-Counts :: Feature-Lemmas
--------------------------------------------
marqueurs :: 1 :: [ lutte ]
axiologique :: 1 :: [ lutte ]
marqueurs_niveau2 :: 1 :: [ lutte ]
axiologique_niveau2 :: 1 :: [ lutte ]
Total feature counts: 4


====== Text Level Features ======

Features :: Feature-Counts :: Feature-Lemmas
--------------------------------------------
marqueurs :: 1 :: [ lutte ]
axiologique :: 1 :: [ lutte ]
marqueurs_niveau2 :: 1 :: [ lutte ]
axiologique_niveau2 :: 1 :: [ lutte ]
Total feature counts: 4

