
********** Entity Names Features **********
*******************************************

1. Sentence: Il faut donc retracer la situation actuelle de l ' urbanisme : Paris et sa banlieue (Titre I) .
Entity Name (Type) :: Titre I (LOC)


********** Emotions Features **********
***************************************

1. Sentence: Il faut donc retracer la situation actuelle de l ' urbanisme : Paris et sa banlieue (Titre I) .
No features found.


********** Modality Features **********
***************************************

1. Sentence: Il faut donc retracer la situation actuelle de l ' urbanisme : Paris et sa banlieue (Titre I) .
Features :: Feature-Counts :: Feature-Lemmas
--------------------------------------------
marqueurs :: 1 :: [ falloir ]
deontique :: 1 :: [ falloir ]
marqueurs_niveau3 :: 1 :: [ falloir ]
deontique_niveau3 :: 1 :: [ falloir ]
Total feature counts: 4


********** Adverbiaux Temporels Features **********
********************************************************

1. Sentence: Il faut donc retracer la situation actuelle de l ' urbanisme : Paris et sa banlieue (Titre I) .
No features found.

