====== Sentence Level Features ======

1. Sentence: d) L ' Ouest proche de Paris
Entity Name (Type) :: Paris (LOC)


====== Text Level Features ======

Entity Name (Entity Type)
-------------------------
Ouest (LOC)
Paris (LOC)
Total entitiy counts: 2

