
********** Entity Names Features **********
*******************************************

1. Sentence: La matière renvoie à la construction , au caractère des lieux , mais aussi à l ' énergie et aux savoir-faire mobilisés pour édifier .
No features found.


********** Emotions Features **********
***************************************

1. Sentence: La matière renvoie à la construction , au caractère des lieux , mais aussi à l ' énergie et aux savoir-faire mobilisés pour édifier .
No features found.


********** Modality Features **********
***************************************

1. Sentence: La matière renvoie à la construction , au caractère des lieux , mais aussi à l ' énergie et aux savoir-faire mobilisés pour édifier .
No features found.


********** Adverbiaux Temporels Features **********
********************************************************

1. Sentence: La matière renvoie à la construction , au caractère des lieux , mais aussi à l ' énergie et aux savoir-faire mobilisés pour édifier .
No features found.

