
********** Entity Names Features **********
*******************************************

1. Sentence: Ce sont les problématiques d ' aujourd ' hui .
No features found.


********** Emotions Features **********
***************************************

1. Sentence: Ce sont les problématiques d ' aujourd ' hui .
No features found.


********** Modality Features **********
***************************************

1. Sentence: Ce sont les problématiques d ' aujourd ' hui .
No features found.


********** Adverbiaux Temporels Features **********
********************************************************

1. Sentence: Ce sont les problématiques d ' aujourd ' hui .
No features found.

