====== Sentence Level Features ======

1. Sentence: Notre amitié fut immédiate , et je lui proposai de me rejoindre à l ' AUA , au sein duquel nous formerons un peu plus tard , avec Borja Huidobro , le groupe « CCH , paysagistes urbains » .
Features :: Feature-Counts :: Feature-Lemmas
--------------------------------------------
marqueurs :: 1 :: [ lui ]
alethique :: 1 :: [ lui ]
epistemique :: 1 :: [ lui ]
marqueurs_niveau3 :: 1 :: [ lui ]
alethique_niveau3 :: 1 :: [ lui ]
epistemique_niveau3 :: 1 :: [ lui ]
Total feature counts: 6


====== Text Level Features ======

Features :: Feature-Counts :: Feature-Lemmas
--------------------------------------------
marqueurs :: 1 :: [ lui ]
alethique :: 1 :: [ lui ]
epistemique :: 1 :: [ lui ]
marqueurs_niveau3 :: 1 :: [ lui ]
alethique_niveau3 :: 1 :: [ lui ]
epistemique_niveau3 :: 1 :: [ lui ]
Total feature counts: 6

