
********** Entity Names Features **********
*******************************************

1. Sentence: l ' esthétisme des années 1920 , avec la volonté de maîtriser les formes;
No features found.


********** Emotions Features **********
***************************************

1. Sentence: l ' esthétisme des années 1920 , avec la volonté de maîtriser les formes;
No features found.


********** Modality Features **********
***************************************

1. Sentence: l ' esthétisme des années 1920 , avec la volonté de maîtriser les formes;
Features :: Feature-Counts :: Feature-Lemmas
--------------------------------------------
marqueurs :: 1 :: [ volonté ]
boulique :: 1 :: [ volonté ]
marqueurs_niveau3 :: 1 :: [ volonté ]
boulique_niveau3 :: 1 :: [ volonté ]
Total feature counts: 4


********** Adverbiaux Temporels Features **********
********************************************************

1. Sentence: l ' esthétisme des années 1920 , avec la volonté de maîtriser les formes;
Features :: Feature-Counts :: Feature-Texts
--------------------------------------------
adverbiaux_temporels::1::['des années 1920']
adverbiaux_localisation_temporelle::1::['des années 1920']
adverbiaux_pointage_absolu::1::['des années 1920']
adverbiaux_loc_temp_focalisation_id::1::['des années 1920']
adverbiaux_loc_temp_regionalisation_id::1::['des années 1920']
adverbiaux_loc_temp_pointage_absolu::1::['des années 1920']

