
********** Entity Names Features **********
*******************************************

1. Sentence: Faut-il une église " principale " - de quelle forme , de quelle étendue , avec quelle surface de parcs de stationnement - pour le cœur des villes nouvelles ?
No features found.


********** Emotions Features **********
***************************************

1. Sentence: Faut-il une église " principale " - de quelle forme , de quelle étendue , avec quelle surface de parcs de stationnement - pour le cœur des villes nouvelles ?
No features found.


********** Modality Features **********
***************************************

1. Sentence: Faut-il une église " principale " - de quelle forme , de quelle étendue , avec quelle surface de parcs de stationnement - pour le cœur des villes nouvelles ?
Features :: Feature-Counts :: Feature-Lemmas
--------------------------------------------
marqueurs :: 1 :: [ falloir ]
deontique :: 1 :: [ falloir ]
marqueurs_niveau3 :: 1 :: [ falloir ]
deontique_niveau3 :: 1 :: [ falloir ]
Total feature counts: 4


********** Adverbiaux Temporels Features **********
********************************************************

1. Sentence: Faut-il une église " principale " - de quelle forme , de quelle étendue , avec quelle surface de parcs de stationnement - pour le cœur des villes nouvelles ?
No features found.

