
********** Entity Names Features **********
*******************************************

1. Sentence: Néanmoins les centres commerciaux de banlieue ont fait leur apparition , et certains grands magasins ont publié des projets de succursales hors de Paris .
Entity Name (Type) :: Paris (LOC)


********** Emotions Features **********
***************************************

1. Sentence: Néanmoins les centres commerciaux de banlieue ont fait leur apparition , et certains grands magasins ont publié des projets de succursales hors de Paris .
No features found.


********** Modality Features **********
***************************************

1. Sentence: Néanmoins les centres commerciaux de banlieue ont fait leur apparition , et certains grands magasins ont publié des projets de succursales hors de Paris .
Features :: Feature-Counts :: Feature-Lemmas
--------------------------------------------
marqueurs :: 2 :: [ certain, grand ]
epistemique :: 2 :: [ certain, grand ]
marqueurs_niveau3 :: 2 :: [ certain, grand ]
epistemique_niveau3 :: 2 :: [ certain, grand ]
Total feature counts: 8


********** Adverbiaux Temporels Features **********
********************************************************

1. Sentence: Néanmoins les centres commerciaux de banlieue ont fait leur apparition , et certains grands magasins ont publié des projets de succursales hors de Paris .
No features found.

