
********** Entity Names Features **********
*******************************************

1. Sentence: Mais son existence répond à d ' autres nécessités : le conseiller juridique auquel un chef d ' entreprise s ' adresse quelques fois l ' an , le grand magasin qui n ' a les moyens d ' offrir ses 200 .
No features found.


********** Emotions Features **********
***************************************

1. Sentence: Mais son existence répond à d ' autres nécessités : le conseiller juridique auquel un chef d ' entreprise s ' adresse quelques fois l ' an , le grand magasin qui n ' a les moyens d ' offrir ses 200 .
No features found.


********** Modality Features **********
***************************************

1. Sentence: Mais son existence répond à d ' autres nécessités : le conseiller juridique auquel un chef d ' entreprise s ' adresse quelques fois l ' an , le grand magasin qui n ' a les moyens d ' offrir ses 200 .
Features :: Feature-Counts :: Feature-Lemmas
--------------------------------------------
marqueurs :: 3 :: [ nécessité, grand, offrir ]
marqueurs_niveau3 :: 2 :: [ nécessité, grand ]
alethique :: 1 :: [ nécessité ]
appreciatif :: 1 :: [ offrir ]
epistemique :: 1 :: [ grand ]
marqueurs_niveau2 :: 1 :: [ offrir ]
alethique_niveau3 :: 1 :: [ nécessité ]
appreciatif_niveau2 :: 1 :: [ offrir ]
epistemique_niveau3 :: 1 :: [ grand ]
Total feature counts: 12


********** Adverbiaux Temporels Features **********
********************************************************

1. Sentence: Mais son existence répond à d ' autres nécessités : le conseiller juridique auquel un chef d ' entreprise s ' adresse quelques fois l ' an , le grand magasin qui n ' a les moyens d ' offrir ses 200 .
No features found.

