
********** Entity Names Features **********
*******************************************

1. Sentence: INTRODUCfION
Entity Name (Type) :: INTRODUCfION (LOC)


********** Emotions Features **********
***************************************

1. Sentence: INTRODUCfION
No features found.


********** Modality Features **********
***************************************

1. Sentence: INTRODUCfION
No features found.


********** Adverbiaux Temporels Features **********
********************************************************

1. Sentence: INTRODUCfION
No features found.

