
********** Entity Names Features **********
*******************************************

1. Sentence: I E . A . -D .
Entity Name (Type) :: I E (MISC)


********** Emotions Features **********
***************************************

1. Sentence: I E . A . -D .
No features found.


********** Modality Features **********
***************************************

1. Sentence: I E . A . -D .
No features found.


********** Adverbiaux Temporels Features **********
********************************************************

1. Sentence: I E . A . -D .
No features found.

