
********** Entity Names Features **********
*******************************************

1. Sentence: Ce tronc commun va de Nanterre à Vincennes , en passant par le nouveau centre de la Défense , une station " Auber " située dans le triangle Opéra-Chaussée d ' Antin-Havre Caumartin , le Châtelet et la Gare de Lyon .
Entity Name (Type) :: Gare de Lyon (LOC)


********** Emotions Features **********
***************************************

1. Sentence: Ce tronc commun va de Nanterre à Vincennes , en passant par le nouveau centre de la Défense , une station " Auber " située dans le triangle Opéra-Chaussée d ' Antin-Havre Caumartin , le Châtelet et la Gare de Lyon .
No features found.


********** Modality Features **********
***************************************

1. Sentence: Ce tronc commun va de Nanterre à Vincennes , en passant par le nouveau centre de la Défense , une station " Auber " située dans le triangle Opéra-Chaussée d ' Antin-Havre Caumartin , le Châtelet et la Gare de Lyon .
Features :: Feature-Counts :: Feature-Lemmas
--------------------------------------------
marqueurs :: 2 :: [ aller, triangle ]
alethique :: 2 :: [ aller, triangle ]
marqueurs_niveau3 :: 1 :: [ triangle ]
marqueurs_niveau1 :: 1 :: [ aller ]
alethique_niveau3 :: 1 :: [ triangle ]
alethique_niveau1 :: 1 :: [ aller ]
Total feature counts: 8


********** Adverbiaux Temporels Features **********
********************************************************

1. Sentence: Ce tronc commun va de Nanterre à Vincennes , en passant par le nouveau centre de la Défense , une station " Auber " située dans le triangle Opéra-Chaussée d ' Antin-Havre Caumartin , le Châtelet et la Gare de Lyon .
No features found.

