====== Sentence Level Features ======

1. Sentence: Il a insisté sur le rôle déterminant de l ' espace public , des voiries , du schéma viaire pour le devenir de ce vaste territoire – l ' objet architectural venant ensuite .
Features :: Feature-Counts :: Feature-Lemmas
--------------------------------------------
marqueurs :: 1 :: [ venir ]
alethique :: 1 :: [ venir ]
marqueurs_niveau3 :: 1 :: [ venir ]
alethique_niveau3 :: 1 :: [ venir ]
Total feature counts: 4


====== Text Level Features ======

Features :: Feature-Counts :: Feature-Lemmas
--------------------------------------------
marqueurs :: 1 :: [ venir ]
alethique :: 1 :: [ venir ]
marqueurs_niveau3 :: 1 :: [ venir ]
alethique_niveau3 :: 1 :: [ venir ]
Total feature counts: 4

