
********** Entity Names Features **********
*******************************************

1. Sentence: Je ne m ' y résigne pas .
No features found.


********** Emotions Features **********
***************************************

1. Sentence: Je ne m ' y résigne pas .
No features found.


********** Modality Features **********
***************************************

1. Sentence: Je ne m ' y résigne pas .
Features :: Feature-Counts :: Feature-Lemmas
--------------------------------------------
marqueurs :: 1 :: [ résigner ]
boulique :: 1 :: [ résigner ]
epistemique :: 1 :: [ résigner ]
marqueurs_niveau3 :: 1 :: [ résigner ]
boulique_niveau3 :: 1 :: [ résigner ]
epistemique_niveau3 :: 1 :: [ résigner ]
Total feature counts: 6


********** Adverbiaux Temporels Features **********
********************************************************

1. Sentence: Je ne m ' y résigne pas .
No features found.

