====== Sentence Level Features ======

1. Sentence: La délégation concerne presque uniquement des opérateurs privés « massifs » qui s ' enrichissent via des délégations de service public , partenariats public-privé ou encore Services d ' intérêt général (économiques ou non) .
Features :: Feature-Counts :: Feature-Lemmas
--------------------------------------------
marqueurs :: 2 :: [ enrichir, intérêt ]
marqueurs_niveau2 :: 2 :: [ enrichir, intérêt ]
appreciatif :: 1 :: [ enrichir ]
boulique :: 1 :: [ intérêt ]
appreciatif_niveau2 :: 1 :: [ enrichir ]
boulique_niveau2 :: 1 :: [ intérêt ]
Total feature counts: 8


====== Text Level Features ======

Features :: Feature-Counts :: Feature-Lemmas
--------------------------------------------
marqueurs :: 2 :: [ enrichir, intérêt ]
marqueurs_niveau2 :: 2 :: [ enrichir, intérêt ]
appreciatif :: 1 :: [ enrichir ]
boulique :: 1 :: [ intérêt ]
appreciatif_niveau2 :: 1 :: [ enrichir ]
boulique_niveau2 :: 1 :: [ intérêt ]
Total feature counts: 8

