
********** Entity Names Features **********
*******************************************

1. Sentence: Grand Prix de l ' urbanisme 2007 entraîne la position économique et les Marocains des campagnes affluent en masse dans une ville désormais de plusieurs millions d ' habitants .
Entity Name (Type) :: Marocains (LOC)


********** Emotions Features **********
***************************************

1. Sentence: Grand Prix de l ' urbanisme 2007 entraîne la position économique et les Marocains des campagnes affluent en masse dans une ville désormais de plusieurs millions d ' habitants .
No features found.


********** Modality Features **********
***************************************

1. Sentence: Grand Prix de l ' urbanisme 2007 entraîne la position économique et les Marocains des campagnes affluent en masse dans une ville désormais de plusieurs millions d ' habitants .
Features :: Feature-Counts :: Feature-Lemmas
--------------------------------------------
marqueurs :: 2 :: [ grand, prix ]
appreciatif :: 1 :: [ prix ]
axiologique :: 1 :: [ prix ]
epistemique :: 1 :: [ grand ]
marqueurs_niveau3 :: 1 :: [ grand ]
marqueurs_niveau2 :: 1 :: [ prix ]
appreciatif_niveau2 :: 1 :: [ prix ]
axiologique_niveau2 :: 1 :: [ prix ]
epistemique_niveau3 :: 1 :: [ grand ]
Total feature counts: 10


********** Adverbiaux Temporels Features **********
********************************************************

1. Sentence: Grand Prix de l ' urbanisme 2007 entraîne la position économique et les Marocains des campagnes affluent en masse dans une ville désormais de plusieurs millions d ' habitants .
Features :: Feature-Counts :: Feature-Texts
--------------------------------------------
adverbiaux_temporels::1::['désormais']
adverbiaux_duratifs_iteratifs::1::['désormais']

