
********** Entity Names Features **********
*******************************************

1. Sentence: Le marché favorise la concentration de la valeur foncière , distinguant artificiellement les lieux où l ' espace est rare et cher de ceux qu ' il dévalorise hors de toute proportion .
No features found.


********** Emotions Features **********
***************************************

1. Sentence: Le marché favorise la concentration de la valeur foncière , distinguant artificiellement les lieux où l ' espace est rare et cher de ceux qu ' il dévalorise hors de toute proportion .
No features found.


********** Modality Features **********
***************************************

1. Sentence: Le marché favorise la concentration de la valeur foncière , distinguant artificiellement les lieux où l ' espace est rare et cher de ceux qu ' il dévalorise hors de toute proportion .
Features :: Feature-Counts :: Feature-Lemmas
--------------------------------------------
marqueurs :: 3 :: [ favoriser, rare, cher ]
marqueurs_niveau1 :: 2 :: [ favoriser, rare ]
appreciatif :: 1 :: [ favoriser ]
epistemique :: 1 :: [ rare ]
pas_d_indication :: 1 :: [ cher ]
marqueurs_niveau0 :: 1 :: [ cher ]
appreciatif_niveau1 :: 1 :: [ favoriser ]
epistemique_niveau1 :: 1 :: [ rare ]
pas_d_indication_niveau0 :: 1 :: [ cher ]
Total feature counts: 12


********** Adverbiaux Temporels Features **********
********************************************************

1. Sentence: Le marché favorise la concentration de la valeur foncière , distinguant artificiellement les lieux où l ' espace est rare et cher de ceux qu ' il dévalorise hors de toute proportion .
No features found.

