
********** Entity Names Features **********
*******************************************

1. Sentence: En milieu rural , le logement social ne va pas de soi ;
No features found.


********** Emotions Features **********
***************************************

1. Sentence: En milieu rural , le logement social ne va pas de soi ;
No features found.


********** Modality Features **********
***************************************

1. Sentence: En milieu rural , le logement social ne va pas de soi ;
Features :: Feature-Counts :: Feature-Lemmas
--------------------------------------------
marqueurs :: 1 :: [ aller ]
alethique :: 1 :: [ aller ]
marqueurs_niveau1 :: 1 :: [ aller ]
alethique_niveau1 :: 1 :: [ aller ]
Total feature counts: 4


********** Adverbiaux Temporels Features **********
********************************************************

1. Sentence: En milieu rural , le logement social ne va pas de soi ;
No features found.

