
********** Entity Names Features **********
*******************************************

1. Sentence: Le fait , par exemple , que les géographes ne dessinent plus est une aberration difficile à comprendre .
No features found.


********** Emotions Features **********
***************************************

1. Sentence: Le fait , par exemple , que les géographes ne dessinent plus est une aberration difficile à comprendre .
No features found.


********** Modality Features **********
***************************************

1. Sentence: Le fait , par exemple , que les géographes ne dessinent plus est une aberration difficile à comprendre .
Features :: Feature-Counts :: Feature-Lemmas
--------------------------------------------
marqueurs :: 1 :: [ difficile ]
appreciatif :: 1 :: [ difficile ]
epistemique :: 1 :: [ difficile ]
marqueurs_niveau2 :: 1 :: [ difficile ]
appreciatif_niveau2 :: 1 :: [ difficile ]
epistemique_niveau2 :: 1 :: [ difficile ]
Total feature counts: 6


********** Adverbiaux Temporels Features **********
********************************************************

1. Sentence: Le fait , par exemple , que les géographes ne dessinent plus est une aberration difficile à comprendre .
No features found.

