
********** Entity Names Features **********
*******************************************

2. Sentence: Leuregans , V .
Entity Name (Type) :: V (LOC)


********** Emotions Features **********
***************************************

2. Sentence: Leuregans , V .
No features found.


********** Modality Features **********
***************************************

2. Sentence: Leuregans , V .
No features found.


********** Adverbiaux Temporels Features **********
********************************************************

2. Sentence: Leuregans , V .
No features found.

