
********** Entity Names Features **********
*******************************************

1. Sentence: Mais je peux témoigner du fait que son agenda était presque entièrement occupé par des rencontres avec les élus , de tous les bords et de tous les territoires .
Entity Name (Type) :: Mais (LOC)


********** Emotions Features **********
***************************************

1. Sentence: Mais je peux témoigner du fait que son agenda était presque entièrement occupé par des rencontres avec les élus , de tous les bords et de tous les territoires .
No features found.


********** Modality Features **********
***************************************

1. Sentence: Mais je peux témoigner du fait que son agenda était presque entièrement occupé par des rencontres avec les élus , de tous les bords et de tous les territoires .
Features :: Feature-Counts :: Feature-Lemmas
--------------------------------------------
marqueurs :: 2 :: [ pouvoir, élu ]
alethique :: 1 :: [ pouvoir ]
deontique :: 1 :: [ pouvoir ]
epistemique :: 1 :: [ pouvoir ]
pas_d_indication :: 1 :: [ élu ]
marqueurs_niveau3 :: 1 :: [ pouvoir ]
marqueurs_niveau0 :: 1 :: [ élu ]
alethique_niveau3 :: 1 :: [ pouvoir ]
deontique_niveau3 :: 1 :: [ pouvoir ]
epistemique_niveau3 :: 1 :: [ pouvoir ]
pas_d_indication_niveau0 :: 1 :: [ élu ]
Total feature counts: 12


********** Adverbiaux Temporels Features **********
********************************************************

1. Sentence: Mais je peux témoigner du fait que son agenda était presque entièrement occupé par des rencontres avec les élus , de tous les bords et de tous les territoires .
No features found.

