
********** Entity Names Features **********
*******************************************

1. Sentence: Ce second centre , cet unique centre " bis " , ne peut néanmoins constituer la solution du problème spécifique de Paris et de ses banlieues :
Entity Name (Type) :: Paris (LOC)


********** Emotions Features **********
***************************************

1. Sentence: Ce second centre , cet unique centre " bis " , ne peut néanmoins constituer la solution du problème spécifique de Paris et de ses banlieues :
No features found.


********** Modality Features **********
***************************************

1. Sentence: Ce second centre , cet unique centre " bis " , ne peut néanmoins constituer la solution du problème spécifique de Paris et de ses banlieues :
Features :: Feature-Counts :: Feature-Lemmas
--------------------------------------------
marqueurs :: 3 :: [ unique, pouvoir, problème ]
appreciatif :: 2 :: [ unique, problème ]
alethique :: 1 :: [ pouvoir ]
deontique :: 1 :: [ pouvoir ]
epistemique :: 1 :: [ pouvoir ]
marqueurs_niveau3 :: 1 :: [ pouvoir ]
marqueurs_niveau2 :: 1 :: [ problème ]
marqueurs_niveau1 :: 1 :: [ unique ]
alethique_niveau3 :: 1 :: [ pouvoir ]
appreciatif_niveau2 :: 1 :: [ problème ]
appreciatif_niveau1 :: 1 :: [ unique ]
deontique_niveau3 :: 1 :: [ pouvoir ]
epistemique_niveau3 :: 1 :: [ pouvoir ]
Total feature counts: 16


********** Adverbiaux Temporels Features **********
********************************************************

1. Sentence: Ce second centre , cet unique centre " bis " , ne peut néanmoins constituer la solution du problème spécifique de Paris et de ses banlieues :
No features found.

