====== Sentence Level Features ======

1. Sentence: Londres	La majeure partie du Comté de Londres (161 km2)	1951- 1961	-0 , 33 %
No features found.


====== Text Level Features ======

No features found.

