
********** Entity Names Features **********
*******************************************

1. Sentence: Introduction générale : I - ' Évolution prévisible de la région de Paris , p . 30 .
Entity Name (Type) :: Paris (LOC)


********** Emotions Features **********
***************************************

1. Sentence: Introduction générale : I - ' Évolution prévisible de la région de Paris , p . 30 .
No features found.


********** Modality Features **********
***************************************

1. Sentence: Introduction générale : I - ' Évolution prévisible de la région de Paris , p . 30 .
No features found.


********** Adverbiaux Temporels Features **********
********************************************************

1. Sentence: Introduction générale : I - ' Évolution prévisible de la région de Paris , p . 30 .
No features found.

