
********** Entity Names Features **********
*******************************************

1. Sentence: La progression devrait , d ' ailleurs , être sensiblement la même pour toutes celles des autres régions de France et d ' Europe qui ont aujourd ' hui un niveau comparable .
Entity Name (Type) :: Europe (LOC)


********** Emotions Features **********
***************************************

1. Sentence: La progression devrait , d ' ailleurs , être sensiblement la même pour toutes celles des autres régions de France et d ' Europe qui ont aujourd ' hui un niveau comparable .
No features found.


********** Modality Features **********
***************************************

1. Sentence: La progression devrait , d ' ailleurs , être sensiblement la même pour toutes celles des autres régions de France et d ' Europe qui ont aujourd ' hui un niveau comparable .
Features :: Feature-Counts :: Feature-Lemmas
--------------------------------------------
marqueurs :: 1 :: [ devoir ]
alethique :: 1 :: [ devoir ]
deontique :: 1 :: [ devoir ]
epistemique :: 1 :: [ devoir ]
marqueurs_niveau3 :: 1 :: [ devoir ]
alethique_niveau3 :: 1 :: [ devoir ]
deontique_niveau3 :: 1 :: [ devoir ]
epistemique_niveau3 :: 1 :: [ devoir ]
Total feature counts: 8


********** Adverbiaux Temporels Features **********
********************************************************

1. Sentence: La progression devrait , d ' ailleurs , être sensiblement la même pour toutes celles des autres régions de France et d ' Europe qui ont aujourd ' hui un niveau comparable .
No features found.

