====== Sentence Level Features ======

1. Sentence: Le déroulement des grands projets urbains est souvent long et plein de rebondissements .
Features :: Feature-Counts :: Feature-Lemmas
--------------------------------------------
marqueurs :: 3 :: [ grand, souvent, long ]
epistemique :: 2 :: [ grand, long ]
marqueurs_niveau3 :: 2 :: [ grand, souvent ]
alethique :: 1 :: [ souvent ]
marqueurs_niveau2 :: 1 :: [ long ]
alethique_niveau3 :: 1 :: [ souvent ]
epistemique_niveau3 :: 1 :: [ grand ]
epistemique_niveau2 :: 1 :: [ long ]
Total feature counts: 12


====== Text Level Features ======

Features :: Feature-Counts :: Feature-Lemmas
--------------------------------------------
marqueurs :: 3 :: [ grand, souvent, long ]
epistemique :: 2 :: [ grand, long ]
marqueurs_niveau3 :: 2 :: [ grand, souvent ]
alethique :: 1 :: [ souvent ]
marqueurs_niveau2 :: 1 :: [ long ]
alethique_niveau3 :: 1 :: [ souvent ]
epistemique_niveau3 :: 1 :: [ grand ]
epistemique_niveau2 :: 1 :: [ long ]
Total feature counts: 12

