
********** Entity Names Features **********
*******************************************

1. Sentence: Ohmae est conscient du fait que le remplacement des États‑nations par les États‑régions qu ' il appelle de se vœux laisserait subsister d ' immenses zones de pauvreté .
Entity Name (Type) :: États‑régions (LOC)


********** Emotions Features **********
***************************************

1. Sentence: Ohmae est conscient du fait que le remplacement des États‑nations par les États‑régions qu ' il appelle de se vœux laisserait subsister d ' immenses zones de pauvreté .
No features found.


********** Modality Features **********
***************************************

1. Sentence: Ohmae est conscient du fait que le remplacement des États‑nations par les États‑régions qu ' il appelle de se vœux laisserait subsister d ' immenses zones de pauvreté .
Features :: Feature-Counts :: Feature-Lemmas
--------------------------------------------
marqueurs :: 3 :: [ laisser, immense, pauvreté ]
marqueurs_niveau2 :: 2 :: [ laisser, immense ]
deontique :: 1 :: [ laisser ]
epistemique :: 1 :: [ immense ]
pas_d_indication :: 1 :: [ pauvreté ]
marqueurs_niveau0 :: 1 :: [ pauvreté ]
deontique_niveau2 :: 1 :: [ laisser ]
epistemique_niveau2 :: 1 :: [ immense ]
pas_d_indication_niveau0 :: 1 :: [ pauvreté ]
Total feature counts: 12


********** Adverbiaux Temporels Features **********
********************************************************

1. Sentence: Ohmae est conscient du fait que le remplacement des États‑nations par les États‑régions qu ' il appelle de se vœux laisserait subsister d ' immenses zones de pauvreté .
No features found.

