====== Sentence Level Features ======

1. Sentence: Et faut-il même des principes pour guider la croissance d ' une ville dont les enceintes successives et successivement franchies témoignent qu ' elle a toujours grandi sans règles , sinon sans règlements ?
Features :: Feature-Counts :: Feature-Lemmas
--------------------------------------------
marqueurs :: 2 :: [ falloir, toujours ]
marqueurs_niveau3 :: 2 :: [ falloir, toujours ]
alethique :: 1 :: [ toujours ]
deontique :: 1 :: [ falloir ]
alethique_niveau3 :: 1 :: [ toujours ]
deontique_niveau3 :: 1 :: [ falloir ]
Total feature counts: 8


====== Text Level Features ======

Features :: Feature-Counts :: Feature-Lemmas
--------------------------------------------
marqueurs :: 2 :: [ falloir, toujours ]
marqueurs_niveau3 :: 2 :: [ falloir, toujours ]
alethique :: 1 :: [ toujours ]
deontique :: 1 :: [ falloir ]
alethique_niveau3 :: 1 :: [ toujours ]
deontique_niveau3 :: 1 :: [ falloir ]
Total feature counts: 8

