
********** Entity Names Features **********
*******************************************

1. Sentence: il est normal que le Maire de Voisins Bretonneux soit opposé à cette ville nouvelle de Trappes;
Entity Name (Type) :: Trappes (LOC)


********** Emotions Features **********
***************************************

1. Sentence: il est normal que le Maire de Voisins Bretonneux soit opposé à cette ville nouvelle de Trappes;
No features found.


********** Modality Features **********
***************************************

1. Sentence: il est normal que le Maire de Voisins Bretonneux soit opposé à cette ville nouvelle de Trappes;
Features :: Feature-Counts :: Feature-Lemmas
--------------------------------------------
marqueurs :: 1 :: [ normal ]
epistemique :: 1 :: [ normal ]
marqueurs_niveau1 :: 1 :: [ normal ]
epistemique_niveau1 :: 1 :: [ normal ]
Total feature counts: 4


********** Adverbiaux Temporels Features **********
********************************************************

1. Sentence: il est normal que le Maire de Voisins Bretonneux soit opposé à cette ville nouvelle de Trappes;
No features found.

