
********** Entity Names Features **********
*******************************************

1. Sentence: Après la Pop School ouverte à Valenciennes , celle de Lens est portée par l ' agglomération lensoise , au titre du développement économique .
Entity Name (Type) :: Lens (LOC)


********** Emotions Features **********
***************************************

1. Sentence: Après la Pop School ouverte à Valenciennes , celle de Lens est portée par l ' agglomération lensoise , au titre du développement économique .
No features found.


********** Modality Features **********
***************************************

1. Sentence: Après la Pop School ouverte à Valenciennes , celle de Lens est portée par l ' agglomération lensoise , au titre du développement économique .
Features :: Feature-Counts :: Feature-Lemmas
--------------------------------------------
marqueurs :: 1 :: [ ouvrir ]
boulique :: 1 :: [ ouvrir ]
marqueurs_niveau3 :: 1 :: [ ouvrir ]
boulique_niveau3 :: 1 :: [ ouvrir ]
Total feature counts: 4


********** Adverbiaux Temporels Features **********
********************************************************

1. Sentence: Après la Pop School ouverte à Valenciennes , celle de Lens est portée par l ' agglomération lensoise , au titre du développement économique .
No features found.

