
********** Entity Names Features **********
*******************************************

1. Sentence: G . Stetten . )
Entity Name (Type) :: Stetten (LOC)


********** Emotions Features **********
***************************************

1. Sentence: G . Stetten . )
No features found.


********** Modality Features **********
***************************************

1. Sentence: G . Stetten . )
No features found.


********** Adverbiaux Temporels Features **********
********************************************************

1. Sentence: G . Stetten . )
No features found.

