====== Sentence Level Features ======

1. Sentence: Les cartes de l ' urbanisation contemporaine elles-mêmes n ' arrivent pas à suivre l ' évolution des phénomènes .
Features :: Feature-Counts :: Feature-Lemmas
--------------------------------------------
marqueurs :: 1 :: [ arriver ]
alethique :: 1 :: [ arriver ]
marqueurs_niveau2 :: 1 :: [ arriver ]
alethique_niveau2 :: 1 :: [ arriver ]
Total feature counts: 4


====== Text Level Features ======

Features :: Feature-Counts :: Feature-Lemmas
--------------------------------------------
marqueurs :: 1 :: [ arriver ]
alethique :: 1 :: [ arriver ]
marqueurs_niveau2 :: 1 :: [ arriver ]
alethique_niveau2 :: 1 :: [ arriver ]
Total feature counts: 4

