
********** Entity Names Features **********
*******************************************

1. Sentence: une telle ville est le résultat d ' une option , l ' expression de traits nationaux ou peut-être seulement régionaux , dans lesquels nous ne nous reconnaissons pas .
No features found.


********** Emotions Features **********
***************************************

1. Sentence: une telle ville est le résultat d ' une option , l ' expression de traits nationaux ou peut-être seulement régionaux , dans lesquels nous ne nous reconnaissons pas .
Tokens having emotion: [ expression ]
Lemmas having emotion: [ expression ]
Categories of the emotion lemmas: [ non_specifiee ]


********** Modality Features **********
***************************************

1. Sentence: une telle ville est le résultat d ' une option , l ' expression de traits nationaux ou peut-être seulement régionaux , dans lesquels nous ne nous reconnaissons pas .
Features :: Feature-Counts :: Feature-Lemmas
--------------------------------------------
marqueurs :: 1 :: [ peut-être ]
epistemique :: 1 :: [ peut-être ]
marqueurs_niveau3 :: 1 :: [ peut-être ]
epistemique_niveau3 :: 1 :: [ peut-être ]
Total feature counts: 4


********** Adverbiaux Temporels Features **********
********************************************************

1. Sentence: une telle ville est le résultat d ' une option , l ' expression de traits nationaux ou peut-être seulement régionaux , dans lesquels nous ne nous reconnaissons pas .
No features found.

