====== Sentence Level Features ======

1. Sentence: Seine-et-Oise		317 , 3	418 , 3	77 , 6	1 , 4
Entity Name (Type) :: Seine-et-Oise (LOC)


====== Text Level Features ======

Entity Name (Entity Type)
-------------------------
Seine-et-Oise (LOC)
Total entitiy counts: 1

