====== Sentence Level Features ======

1. Sentence: Avec l ' architecture ,  " nous sommes , nous nous mouvons , nous vivons dans l ' œuvre de l ' homme " déclarait Paul Valéry .
Features :: Feature-Counts :: Feature-Lemmas
--------------------------------------------
marqueurs :: 1 :: [ déclarer ]
pas_d_indication :: 1 :: [ déclarer ]
marqueurs_niveau0 :: 1 :: [ déclarer ]
pas_d_indication_niveau0 :: 1 :: [ déclarer ]
Total feature counts: 4


====== Text Level Features ======

Features :: Feature-Counts :: Feature-Lemmas
--------------------------------------------
marqueurs :: 1 :: [ déclarer ]
pas_d_indication :: 1 :: [ déclarer ]
marqueurs_niveau0 :: 1 :: [ déclarer ]
pas_d_indication_niveau0 :: 1 :: [ déclarer ]
Total feature counts: 4

