
********** Entity Names Features **********
*******************************************

1. Sentence: Épaissir la lisière créerait des liens ouverts , établirait une porosité , et non une ceinture qui , fût-elle verte , ne correspondrait qu ' à la dilatation d ' un grillage .
Entity Name (Type) :: Épaissir (LOC)


********** Emotions Features **********
***************************************

1. Sentence: Épaissir la lisière créerait des liens ouverts , établirait une porosité , et non une ceinture qui , fût-elle verte , ne correspondrait qu ' à la dilatation d ' un grillage .
No features found.


********** Modality Features **********
***************************************

1. Sentence: Épaissir la lisière créerait des liens ouverts , établirait une porosité , et non une ceinture qui , fût-elle verte , ne correspondrait qu ' à la dilatation d ' un grillage .
No features found.


********** Adverbiaux Temporels Features **********
********************************************************

1. Sentence: Épaissir la lisière créerait des liens ouverts , établirait une porosité , et non une ceinture qui , fût-elle verte , ne correspondrait qu ' à la dilatation d ' un grillage .
No features found.

