====== Sentence Level Features ======

1. Sentence: New York : + 6 millions en 22 ans (de 17 à 23 millions . de 1963 à 1985) .
No features found.


====== Text Level Features ======

No features found.

