====== Sentence Level Features ======

1. Sentence: New York : + 6 millions en 22 ans (de 17 à 23 millions . de 1963 à 1985) .
Entity Name (Type) :: New York (LOC)


====== Text Level Features ======

Entity Name (Entity Type)
-------------------------
New York (LOC)
Total entitiy counts: 1

