====== Sentence Level Features ======

1. Sentence: ce phénomène , qui concerne l ' ensemble du pays , joue également en région de Paris (en 1962 : excédent naturel 60 . 000 , soit près de 50 % de l ' accroissement annuel total du nombre des habitants de la région );
Features :: Feature-Counts :: Feature-Texts
--------------------------------------------
adverbiaux_temporels::1::['en 1962']
adverbiaux_localisation_temporelle::1::['en 1962']
adverbiaux_pointage_absolu::1::['en 1962']
adverbiaux_pointage_non_absolu::1::['en 1962']
adverbiaux_loc_temp_focalisation_id::1::['en 1962']
adverbiaux_loc_temp_regionalisation_id::1::['en 1962']
adverbiaux_loc_temp_pointage_non_absolu::1::['en 1962']
adverbiaux_dur_iter_absolu::1::['en 1962']


====== Text Level Features ======

Features :: Feature-Counts :: Feature-Texts
--------------------------------------------
adverbiaux_temporels::1::['en 1962']
adverbiaux_localisation_temporelle::1::['en 1962']
adverbiaux_pointage_absolu::1::['en 1962']
adverbiaux_pointage_non_absolu::1::['en 1962']
adverbiaux_loc_temp_focalisation_id::1::['en 1962']
adverbiaux_loc_temp_regionalisation_id::1::['en 1962']
adverbiaux_loc_temp_pointage_non_absolu::1::['en 1962']
adverbiaux_dur_iter_absolu::1::['en 1962']
Total feature counts: 8

