====== Sentence Level Features ======

1. Sentence: Mais , dans les Zac comme ailleurs , tout doit se faire dans le strict respect des plu communaux .
Features :: Feature-Counts :: Feature-Lemmas
--------------------------------------------
marqueurs :: 2 :: [ devoir, respect ]
alethique :: 1 :: [ devoir ]
appreciatif :: 1 :: [ respect ]
axiologique :: 1 :: [ respect ]
deontique :: 1 :: [ devoir ]
epistemique :: 1 :: [ devoir ]
marqueurs_niveau3 :: 1 :: [ devoir ]
marqueurs_niveau2 :: 1 :: [ respect ]
alethique_niveau3 :: 1 :: [ devoir ]
appreciatif_niveau2 :: 1 :: [ respect ]
axiologique_niveau2 :: 1 :: [ respect ]
deontique_niveau3 :: 1 :: [ devoir ]
epistemique_niveau3 :: 1 :: [ devoir ]
Total feature counts: 14


====== Text Level Features ======

Features :: Feature-Counts :: Feature-Lemmas
--------------------------------------------
marqueurs :: 2 :: [ devoir, respect ]
alethique :: 1 :: [ devoir ]
appreciatif :: 1 :: [ respect ]
axiologique :: 1 :: [ respect ]
deontique :: 1 :: [ devoir ]
epistemique :: 1 :: [ devoir ]
marqueurs_niveau3 :: 1 :: [ devoir ]
marqueurs_niveau2 :: 1 :: [ respect ]
alethique_niveau3 :: 1 :: [ devoir ]
appreciatif_niveau2 :: 1 :: [ respect ]
axiologique_niveau2 :: 1 :: [ respect ]
deontique_niveau3 :: 1 :: [ devoir ]
epistemique_niveau3 :: 1 :: [ devoir ]
Total feature counts: 14

