
********** Entity Names Features **********
*******************************************

1. Sentence: En dépit de la présence de Ricardo Bofill , appelé par Paul Chemetov , Henri Ciriani garde , jusqu ' au bout ,  l ' initiative du projet .
Entity Name (Type) :: Henri Ciriani (PER)


********** Emotions Features **********
***************************************

1. Sentence: En dépit de la présence de Ricardo Bofill , appelé par Paul Chemetov , Henri Ciriani garde , jusqu ' au bout ,  l ' initiative du projet .
Tokens having emotion: [ dépit ]
Lemmas having emotion: [ dépit ]
Categories of the emotion lemmas: [ deplaisir ]


********** Modality Features **********
***************************************

1. Sentence: En dépit de la présence de Ricardo Bofill , appelé par Paul Chemetov , Henri Ciriani garde , jusqu ' au bout ,  l ' initiative du projet .
No features found.


********** Adverbiaux Temporels Features **********
********************************************************

1. Sentence: En dépit de la présence de Ricardo Bofill , appelé par Paul Chemetov , Henri Ciriani garde , jusqu ' au bout ,  l ' initiative du projet .
No features found.

