====== Sentence Level Features ======

1. Sentence: Tout en se protégeant des rues alentour et des voies ferrées ,  l ' espace est libre d ' accès et ouvert sur le quartier .
Features :: Feature-Counts :: Feature-Lemmas
--------------------------------------------
marqueurs :: 3 :: [ protéger, libre, ouvrir ]
appreciatif :: 1 :: [ libre ]
boulique :: 1 :: [ ouvrir ]
pas_d_indication :: 1 :: [ protéger ]
marqueurs_niveau3 :: 1 :: [ ouvrir ]
marqueurs_niveau1 :: 1 :: [ libre ]
marqueurs_niveau0 :: 1 :: [ protéger ]
appreciatif_niveau1 :: 1 :: [ libre ]
boulique_niveau3 :: 1 :: [ ouvrir ]
pas_d_indication_niveau0 :: 1 :: [ protéger ]
Total feature counts: 12


====== Text Level Features ======

Features :: Feature-Counts :: Feature-Lemmas
--------------------------------------------
marqueurs :: 3 :: [ protéger, libre, ouvrir ]
appreciatif :: 1 :: [ libre ]
boulique :: 1 :: [ ouvrir ]
pas_d_indication :: 1 :: [ protéger ]
marqueurs_niveau3 :: 1 :: [ ouvrir ]
marqueurs_niveau1 :: 1 :: [ libre ]
marqueurs_niveau0 :: 1 :: [ protéger ]
appreciatif_niveau1 :: 1 :: [ libre ]
boulique_niveau3 :: 1 :: [ ouvrir ]
pas_d_indication_niveau0 :: 1 :: [ protéger ]
Total feature counts: 12

