
********** Entity Names Features **********
*******************************************

1. Sentence: de quels moyens disposerez-vous pour l ’ appliquer , notamment pour lutter contre la spéculation foncière  ?
No features found.


********** Emotions Features **********
***************************************

1. Sentence: de quels moyens disposerez-vous pour l ’ appliquer , notamment pour lutter contre la spéculation foncière  ?
No features found.


********** Modality Features **********
***************************************

1. Sentence: de quels moyens disposerez-vous pour l ’ appliquer , notamment pour lutter contre la spéculation foncière  ?
No features found.


********** Adverbiaux Temporels Features **********
********************************************************

1. Sentence: de quels moyens disposerez-vous pour l ’ appliquer , notamment pour lutter contre la spéculation foncière  ?
No features found.

