
********** Entity Names Features **********
*******************************************

1. Sentence: Prat . , v° . Voirie par terre , nos 1478 et suiv . ) .
Entity Name (Type) :: Voirie par terre (MISC)


********** Emotions Features **********
***************************************

1. Sentence: Prat . , v° . Voirie par terre , nos 1478 et suiv . ) .
No features found.


********** Modality Features **********
***************************************

1. Sentence: Prat . , v° . Voirie par terre , nos 1478 et suiv . ) .
No features found.


********** Adverbiaux Temporels Features **********
********************************************************

1. Sentence: Prat . , v° . Voirie par terre , nos 1478 et suiv . ) .
No features found.

