
********** Entity Names Features **********
*******************************************

1. Sentence: La vallée de l ' Oise
Entity Name (Type) :: Oise (LOC)


********** Emotions Features **********
***************************************

1. Sentence: La vallée de l ' Oise
No features found.


********** Modality Features **********
***************************************

1. Sentence: La vallée de l ' Oise
No features found.


********** Adverbiaux Temporels Features **********
********************************************************

1. Sentence: La vallée de l ' Oise
No features found.

