
********** Entity Names Features **********
*******************************************

1. Sentence: Les caves étaient utilisées par les habitants , depuis l ' origine , pour toutes sortes d ' activités de bricolage , les portes restaient ouvertes , et les gens s ' installaient devant quand il faisait beau .
No features found.


********** Emotions Features **********
***************************************

1. Sentence: Les caves étaient utilisées par les habitants , depuis l ' origine , pour toutes sortes d ' activités de bricolage , les portes restaient ouvertes , et les gens s ' installaient devant quand il faisait beau .
No features found.


********** Modality Features **********
***************************************

1. Sentence: Les caves étaient utilisées par les habitants , depuis l ' origine , pour toutes sortes d ' activités de bricolage , les portes restaient ouvertes , et les gens s ' installaient devant quand il faisait beau .
Features :: Feature-Counts :: Feature-Lemmas
--------------------------------------------
marqueurs :: 1 :: [ beau ]
appreciatif :: 1 :: [ beau ]
marqueurs_niveau3 :: 1 :: [ beau ]
appreciatif_niveau3 :: 1 :: [ beau ]
Total feature counts: 4


********** Adverbiaux Temporels Features **********
********************************************************

1. Sentence: Les caves étaient utilisées par les habitants , depuis l ' origine , pour toutes sortes d ' activités de bricolage , les portes restaient ouvertes , et les gens s ' installaient devant quand il faisait beau .
No features found.

