
********** Entity Names Features **********
*******************************************

1. Sentence: Et puisque cela ne me permet pas de vivre , je renoue avec une activité de photographe qui m ' avait aidé pendant mes études (suivi «magasin de porcelaine» urbain (la vieille ville) .
No features found.


********** Emotions Features **********
***************************************

1. Sentence: Et puisque cela ne me permet pas de vivre , je renoue avec une activité de photographe qui m ' avait aidé pendant mes études (suivi «magasin de porcelaine» urbain (la vieille ville) .
No features found.


********** Modality Features **********
***************************************

1. Sentence: Et puisque cela ne me permet pas de vivre , je renoue avec une activité de photographe qui m ' avait aidé pendant mes études (suivi «magasin de porcelaine» urbain (la vieille ville) .
Features :: Feature-Counts :: Feature-Lemmas
--------------------------------------------
marqueurs :: 2 :: [ permettre, vieux ]
deontique :: 1 :: [ permettre ]
pas_d_indication :: 1 :: [ vieux ]
marqueurs_niveau3 :: 1 :: [ permettre ]
marqueurs_niveau0 :: 1 :: [ vieux ]
deontique_niveau3 :: 1 :: [ permettre ]
pas_d_indication_niveau0 :: 1 :: [ vieux ]
Total feature counts: 8


********** Adverbiaux Temporels Features **********
********************************************************

1. Sentence: Et puisque cela ne me permet pas de vivre , je renoue avec une activité de photographe qui m ' avait aidé pendant mes études (suivi «magasin de porcelaine» urbain (la vieille ville) .
No features found.

