====== Sentence Level Features ======

1. Sentence: C ’ est un grossiste et en tant que tel il est justiciable d ’ un mode de financement à moyen terme .
Entity Name (Type) :: C (MISC)


====== Text Level Features ======

Entity Name (Entity Type)
-------------------------
C (MISC)
Total entitiy counts: 1

