
********** Entity Names Features **********
*******************************************

1. Sentence: À l ' image des systèmes de parcs d ' Olmsted , j ' imagine que l ' on peut «amplifier» cette nature en boisant les vallons qui relient le plateau et les vallées .
Entity Name (Type) :: Olmsted (LOC)


********** Emotions Features **********
***************************************

1. Sentence: À l ' image des systèmes de parcs d ' Olmsted , j ' imagine que l ' on peut «amplifier» cette nature en boisant les vallons qui relient le plateau et les vallées .
No features found.


********** Modality Features **********
***************************************

1. Sentence: À l ' image des systèmes de parcs d ' Olmsted , j ' imagine que l ' on peut «amplifier» cette nature en boisant les vallons qui relient le plateau et les vallées .
Features :: Feature-Counts :: Feature-Lemmas
--------------------------------------------
marqueurs :: 2 :: [ imaginer, pouvoir ]
epistemique :: 2 :: [ imaginer, pouvoir ]
marqueurs_niveau3 :: 2 :: [ imaginer, pouvoir ]
epistemique_niveau3 :: 2 :: [ imaginer, pouvoir ]
alethique :: 1 :: [ pouvoir ]
deontique :: 1 :: [ pouvoir ]
alethique_niveau3 :: 1 :: [ pouvoir ]
deontique_niveau3 :: 1 :: [ pouvoir ]
Total feature counts: 12


********** Adverbiaux Temporels Features **********
********************************************************

1. Sentence: À l ' image des systèmes de parcs d ' Olmsted , j ' imagine que l ' on peut «amplifier» cette nature en boisant les vallons qui relient le plateau et les vallées .
No features found.

