====== Sentence Level Features ======

1. Sentence: Moi pas !
Entity Name (Type) :: Moi pas ! (MISC)


====== Text Level Features ======

Entity Name (Entity Type)
-------------------------
Moi pas ! (MISC)
Total entitiy counts: 1

