====== Sentence Level Features ======

1. Sentence: Le Grand Prix de l ' urbanisme m ' en offre l ' occasion .
Features :: Feature-Counts :: Feature-Lemmas
--------------------------------------------
marqueurs :: 3 :: [ grand, prix, offrir ]
appreciatif :: 2 :: [ prix, offrir ]
marqueurs_niveau2 :: 2 :: [ prix, offrir ]
appreciatif_niveau2 :: 2 :: [ prix, offrir ]
axiologique :: 1 :: [ prix ]
epistemique :: 1 :: [ grand ]
marqueurs_niveau3 :: 1 :: [ grand ]
axiologique_niveau2 :: 1 :: [ prix ]
epistemique_niveau3 :: 1 :: [ grand ]
Total feature counts: 14


====== Text Level Features ======

Features :: Feature-Counts :: Feature-Lemmas
--------------------------------------------
marqueurs :: 3 :: [ grand, prix, offrir ]
appreciatif :: 2 :: [ prix, offrir ]
marqueurs_niveau2 :: 2 :: [ prix, offrir ]
appreciatif_niveau2 :: 2 :: [ prix, offrir ]
axiologique :: 1 :: [ prix ]
epistemique :: 1 :: [ grand ]
marqueurs_niveau3 :: 1 :: [ grand ]
axiologique_niveau2 :: 1 :: [ prix ]
epistemique_niveau3 :: 1 :: [ grand ]
Total feature counts: 14

