====== Sentence Level Features ======

1. Sentence: À partir du vide , une nouvelle spatialité émerge , se distinguant toujours plus clairement de la ville traditionnelle .
Features :: Feature-Counts :: Feature-Lemmas
--------------------------------------------
marqueurs :: 2 :: [ partir, toujours ]
alethique :: 2 :: [ partir, toujours ]
marqueurs_niveau3 :: 1 :: [ toujours ]
marqueurs_niveau1 :: 1 :: [ partir ]
alethique_niveau3 :: 1 :: [ toujours ]
alethique_niveau1 :: 1 :: [ partir ]
Total feature counts: 8


====== Text Level Features ======

Features :: Feature-Counts :: Feature-Lemmas
--------------------------------------------
marqueurs :: 2 :: [ partir, toujours ]
alethique :: 2 :: [ partir, toujours ]
marqueurs_niveau3 :: 1 :: [ toujours ]
marqueurs_niveau1 :: 1 :: [ partir ]
alethique_niveau3 :: 1 :: [ toujours ]
alethique_niveau1 :: 1 :: [ partir ]
Total feature counts: 8

