====== Sentence Level Features ======

1. Sentence: S ' appliquant à une population de 14 millions , ils ne sont basés pourtant que sur 2 , 2 à 2 , 5 déplacements quotidiens par personne .
Entity Name (Type) :: S (LOC)


====== Text Level Features ======

Entity Name (Entity Type)
-------------------------
S (LOC)
Total entitiy counts: 1

