
********** Entity Names Features **********
*******************************************

1. Sentence: Dans ma proposition , j ' ai mis tout ce que je connaissais , toute la culture que j ' avais accumulée .
No features found.


********** Emotions Features **********
***************************************

1. Sentence: Dans ma proposition , j ' ai mis tout ce que je connaissais , toute la culture que j ' avais accumulée .
No features found.


********** Modality Features **********
***************************************

1. Sentence: Dans ma proposition , j ' ai mis tout ce que je connaissais , toute la culture que j ' avais accumulée .
Features :: Feature-Counts :: Feature-Lemmas
--------------------------------------------
marqueurs :: 1 :: [ connaître ]
epistemique :: 1 :: [ connaître ]
marqueurs_niveau2 :: 1 :: [ connaître ]
epistemique_niveau2 :: 1 :: [ connaître ]
Total feature counts: 4


********** Adverbiaux Temporels Features **********
********************************************************

1. Sentence: Dans ma proposition , j ' ai mis tout ce que je connaissais , toute la culture que j ' avais accumulée .
No features found.

