
********** Entity Names Features **********
*******************************************

1. Sentence: Autant d ' artistes qui ont interrogé ma pratique avec un autre regard sur l ' archi tecture et la ville .
No features found.


********** Emotions Features **********
***************************************

1. Sentence: Autant d ' artistes qui ont interrogé ma pratique avec un autre regard sur l ' archi tecture et la ville .
No features found.


********** Modality Features **********
***************************************

1. Sentence: Autant d ' artistes qui ont interrogé ma pratique avec un autre regard sur l ' archi tecture et la ville .
No features found.


********** Adverbiaux Temporels Features **********
********************************************************

1. Sentence: Autant d ' artistes qui ont interrogé ma pratique avec un autre regard sur l ' archi tecture et la ville .
No features found.

