====== Sentence Level Features ======

1. Sentence: Parfois réduite autrefois à une fonction de «caution végétale optionnelle» , notre intervention est même devenue obligatoire .
Features :: Feature-Counts :: Feature-Lemmas
--------------------------------------------
marqueurs :: 2 :: [ parfois, obligatoire ]
marqueurs_niveau3 :: 2 :: [ parfois, obligatoire ]
alethique :: 1 :: [ parfois ]
deontique :: 1 :: [ obligatoire ]
alethique_niveau3 :: 1 :: [ parfois ]
deontique_niveau3 :: 1 :: [ obligatoire ]
Total feature counts: 8


====== Text Level Features ======

Features :: Feature-Counts :: Feature-Lemmas
--------------------------------------------
marqueurs :: 2 :: [ parfois, obligatoire ]
marqueurs_niveau3 :: 2 :: [ parfois, obligatoire ]
alethique :: 1 :: [ parfois ]
deontique :: 1 :: [ obligatoire ]
alethique_niveau3 :: 1 :: [ parfois ]
deontique_niveau3 :: 1 :: [ obligatoire ]
Total feature counts: 8

