
********** Entity Names Features **********
*******************************************

1. Sentence: Il s ' agit donc de construire le plus possible autour de la question de la centralité .
No features found.


********** Emotions Features **********
***************************************

1. Sentence: Il s ' agit donc de construire le plus possible autour de la question de la centralité .
No features found.


********** Modality Features **********
***************************************

1. Sentence: Il s ' agit donc de construire le plus possible autour de la question de la centralité .
Features :: Feature-Counts :: Feature-Lemmas
--------------------------------------------
marqueurs :: 1 :: [ possible ]
alethique :: 1 :: [ possible ]
marqueurs_niveau3 :: 1 :: [ possible ]
alethique_niveau3 :: 1 :: [ possible ]
Total feature counts: 4


********** Adverbiaux Temporels Features **********
********************************************************

1. Sentence: Il s ' agit donc de construire le plus possible autour de la question de la centralité .
No features found.

