
********** Entity Names Features **********
*******************************************

1. Sentence: La vallée de la Marne en amont de Chelles offre de grandes possibilités d ' aménagement .
Entity Name (Type) :: Chelles (LOC)


********** Emotions Features **********
***************************************

1. Sentence: La vallée de la Marne en amont de Chelles offre de grandes possibilités d ' aménagement .
No features found.


********** Modality Features **********
***************************************

1. Sentence: La vallée de la Marne en amont de Chelles offre de grandes possibilités d ' aménagement .
Features :: Feature-Counts :: Feature-Lemmas
--------------------------------------------
marqueurs :: 3 :: [ offrir, grand, possibilité ]
marqueurs_niveau3 :: 2 :: [ grand, possibilité ]
alethique :: 1 :: [ possibilité ]
appreciatif :: 1 :: [ offrir ]
epistemique :: 1 :: [ grand ]
marqueurs_niveau2 :: 1 :: [ offrir ]
alethique_niveau3 :: 1 :: [ possibilité ]
appreciatif_niveau2 :: 1 :: [ offrir ]
epistemique_niveau3 :: 1 :: [ grand ]
Total feature counts: 12


********** Adverbiaux Temporels Features **********
********************************************************

1. Sentence: La vallée de la Marne en amont de Chelles offre de grandes possibilités d ' aménagement .
No features found.

