====== Sentence Level Features ======

1. Sentence: Pierre Veltz  : Ma réflexion émane de deux constats .
Entity Name (Type) :: Pierre Veltz (PER)


====== Text Level Features ======

Entity Name (Entity Type)
-------------------------
Pierre Veltz (PER)
Total entitiy counts: 1

