
********** Entity Names Features **********
*******************************************

1. Sentence: Mais l ’ opposition des autorités et collectivités locales de Seine-et-Oise demeurera très vraisemblablement ce qu ’ elle a toujours été;
Entity Name (Type) :: Seine-et-Oise (LOC)


********** Emotions Features **********
***************************************

1. Sentence: Mais l ’ opposition des autorités et collectivités locales de Seine-et-Oise demeurera très vraisemblablement ce qu ’ elle a toujours été;
No features found.


********** Modality Features **********
***************************************

1. Sentence: Mais l ’ opposition des autorités et collectivités locales de Seine-et-Oise demeurera très vraisemblablement ce qu ’ elle a toujours été;
Features :: Feature-Counts :: Feature-Lemmas
--------------------------------------------
marqueurs :: 2 :: [ autorité, toujours ]
alethique :: 1 :: [ toujours ]
pas_d_indication :: 1 :: [ autorité ]
marqueurs_niveau3 :: 1 :: [ toujours ]
marqueurs_niveau0 :: 1 :: [ autorité ]
alethique_niveau3 :: 1 :: [ toujours ]
pas_d_indication_niveau0 :: 1 :: [ autorité ]
Total feature counts: 8


********** Adverbiaux Temporels Features **********
********************************************************

1. Sentence: Mais l ’ opposition des autorités et collectivités locales de Seine-et-Oise demeurera très vraisemblablement ce qu ’ elle a toujours été;
Features :: Feature-Counts :: Feature-Texts
--------------------------------------------
adverbiaux_temporels::1::['toujours']
adverbiaux_duratifs_iteratifs::1::['toujours']

