
********** Entity Names Features **********
*******************************************

1. Sentence: Plus ou moins serrés selon la densité des zones desservies , les nœuds du système sont espacés de deux à six kilomètres .
No features found.


********** Emotions Features **********
***************************************

1. Sentence: Plus ou moins serrés selon la densité des zones desservies , les nœuds du système sont espacés de deux à six kilomètres .
No features found.


********** Modality Features **********
***************************************

1. Sentence: Plus ou moins serrés selon la densité des zones desservies , les nœuds du système sont espacés de deux à six kilomètres .
Features :: Feature-Counts :: Feature-Lemmas
--------------------------------------------
marqueurs :: 1 :: [ selon ]
epistemique :: 1 :: [ selon ]
marqueurs_niveau3 :: 1 :: [ selon ]
epistemique_niveau3 :: 1 :: [ selon ]
Total feature counts: 4


********** Adverbiaux Temporels Features **********
********************************************************

1. Sentence: Plus ou moins serrés selon la densité des zones desservies , les nœuds du système sont espacés de deux à six kilomètres .
No features found.

