
********** Entity Names Features **********
*******************************************

1. Sentence: Il en va de la crédibilité du projet et de son acceptation par les habitants et les Le stoïcisme est loin d ' être synonyme du goût de la souffrance .
Entity Name (Type) :: Le stoïcisme (MISC)


********** Emotions Features **********
***************************************

1. Sentence: Il en va de la crédibilité du projet et de son acceptation par les habitants et les Le stoïcisme est loin d ' être synonyme du goût de la souffrance .
No features found.


********** Modality Features **********
***************************************

1. Sentence: Il en va de la crédibilité du projet et de son acceptation par les habitants et les Le stoïcisme est loin d ' être synonyme du goût de la souffrance .
Features :: Feature-Counts :: Feature-Lemmas
--------------------------------------------
marqueurs :: 2 :: [ aller, souffrance ]
alethique :: 1 :: [ aller ]
appreciatif :: 1 :: [ souffrance ]
marqueurs_niveau3 :: 1 :: [ souffrance ]
marqueurs_niveau1 :: 1 :: [ aller ]
alethique_niveau1 :: 1 :: [ aller ]
appreciatif_niveau3 :: 1 :: [ souffrance ]
Total feature counts: 8


********** Adverbiaux Temporels Features **********
********************************************************

1. Sentence: Il en va de la crédibilité du projet et de son acceptation par les habitants et les Le stoïcisme est loin d ' être synonyme du goût de la souffrance .
No features found.

