====== Sentence Level Features ======

1. Sentence: Mais les établissements les moins gênants pourront aussi s ' implanter de manière plus dispersée , en s ' intégrant au milieu urbain .
Features :: Feature-Counts :: Feature-Lemmas
--------------------------------------------
marqueurs :: 2 :: [ gênant, pouvoir ]
alethique :: 1 :: [ pouvoir ]
deontique :: 1 :: [ pouvoir ]
epistemique :: 1 :: [ pouvoir ]
pas_d_indication :: 1 :: [ gênant ]
marqueurs_niveau3 :: 1 :: [ pouvoir ]
marqueurs_niveau0 :: 1 :: [ gênant ]
alethique_niveau3 :: 1 :: [ pouvoir ]
deontique_niveau3 :: 1 :: [ pouvoir ]
epistemique_niveau3 :: 1 :: [ pouvoir ]
pas_d_indication_niveau0 :: 1 :: [ gênant ]
Total feature counts: 12


====== Text Level Features ======

Features :: Feature-Counts :: Feature-Lemmas
--------------------------------------------
marqueurs :: 2 :: [ gênant, pouvoir ]
alethique :: 1 :: [ pouvoir ]
deontique :: 1 :: [ pouvoir ]
epistemique :: 1 :: [ pouvoir ]
pas_d_indication :: 1 :: [ gênant ]
marqueurs_niveau3 :: 1 :: [ pouvoir ]
marqueurs_niveau0 :: 1 :: [ gênant ]
alethique_niveau3 :: 1 :: [ pouvoir ]
deontique_niveau3 :: 1 :: [ pouvoir ]
epistemique_niveau3 :: 1 :: [ pouvoir ]
pas_d_indication_niveau0 :: 1 :: [ gênant ]
Total feature counts: 12

