
********** Entity Names Features **********
*******************************************

1. Sentence: C ' est alors l ' instrument courant et commun de l ' urbaniste .
Entity Name (Type) :: C (LOC)


********** Emotions Features **********
***************************************

1. Sentence: C ' est alors l ' instrument courant et commun de l ' urbaniste .
No features found.


********** Modality Features **********
***************************************

1. Sentence: C ' est alors l ' instrument courant et commun de l ' urbaniste .
No features found.


********** Adverbiaux Temporels Features **********
********************************************************

1. Sentence: C ' est alors l ' instrument courant et commun de l ' urbaniste .
No features found.

