====== Sentence Level Features ======

1. Sentence: Un cloisonnement plus systématique des différents secteurs de l ' économie , concevable pour une petite ville , ne pourrait devenir le principe d ' organisation de six millions d ' emplois .
Features :: Feature-Counts :: Feature-Lemmas
--------------------------------------------
marqueurs :: 3 :: [ petit, pouvoir, emploi ]
epistemique :: 2 :: [ petit, pouvoir ]
marqueurs_niveau3 :: 2 :: [ petit, pouvoir ]
epistemique_niveau3 :: 2 :: [ petit, pouvoir ]
alethique :: 1 :: [ pouvoir ]
appreciatif :: 1 :: [ emploi ]
deontique :: 1 :: [ pouvoir ]
marqueurs_niveau2 :: 1 :: [ emploi ]
alethique_niveau3 :: 1 :: [ pouvoir ]
appreciatif_niveau2 :: 1 :: [ emploi ]
deontique_niveau3 :: 1 :: [ pouvoir ]
Total feature counts: 16


====== Text Level Features ======

Features :: Feature-Counts :: Feature-Lemmas
--------------------------------------------
marqueurs :: 3 :: [ petit, pouvoir, emploi ]
epistemique :: 2 :: [ petit, pouvoir ]
marqueurs_niveau3 :: 2 :: [ petit, pouvoir ]
epistemique_niveau3 :: 2 :: [ petit, pouvoir ]
alethique :: 1 :: [ pouvoir ]
appreciatif :: 1 :: [ emploi ]
deontique :: 1 :: [ pouvoir ]
marqueurs_niveau2 :: 1 :: [ emploi ]
alethique_niveau3 :: 1 :: [ pouvoir ]
appreciatif_niveau2 :: 1 :: [ emploi ]
deontique_niveau3 :: 1 :: [ pouvoir ]
Total feature counts: 16

