
********** Entity Names Features **********
*******************************************

1. Sentence: certains le comprennent .
No features found.


********** Emotions Features **********
***************************************

1. Sentence: certains le comprennent .
No features found.


********** Modality Features **********
***************************************

1. Sentence: certains le comprennent .
Features :: Feature-Counts :: Feature-Lemmas
--------------------------------------------
marqueurs :: 1 :: [ certain ]
epistemique :: 1 :: [ certain ]
marqueurs_niveau3 :: 1 :: [ certain ]
epistemique_niveau3 :: 1 :: [ certain ]
Total feature counts: 4


********** Adverbiaux Temporels Features **********
********************************************************

1. Sentence: certains le comprennent .
No features found.

