
********** Entity Names Features **********
*******************************************

1. Sentence: Il faut donc savoir produire des espaces de qualité avec des densités faibles .
No features found.


********** Emotions Features **********
***************************************

1. Sentence: Il faut donc savoir produire des espaces de qualité avec des densités faibles .
No features found.


********** Modality Features **********
***************************************

1. Sentence: Il faut donc savoir produire des espaces de qualité avec des densités faibles .
Features :: Feature-Counts :: Feature-Lemmas
--------------------------------------------
marqueurs :: 2 :: [ falloir, savoir ]
marqueurs_niveau3 :: 2 :: [ falloir, savoir ]
deontique :: 1 :: [ falloir ]
epistemique :: 1 :: [ savoir ]
deontique_niveau3 :: 1 :: [ falloir ]
epistemique_niveau3 :: 1 :: [ savoir ]
Total feature counts: 8


********** Adverbiaux Temporels Features **********
********************************************************

1. Sentence: Il faut donc savoir produire des espaces de qualité avec des densités faibles .
No features found.

