
********** Entity Names Features **********
*******************************************

1. Sentence: Saint-Nazaire , ville portuaire et maritime , doutait de son identité .
Entity Name (Type) :: Saint-Nazaire (LOC)


********** Emotions Features **********
***************************************

1. Sentence: Saint-Nazaire , ville portuaire et maritime , doutait de son identité .
No features found.


********** Modality Features **********
***************************************

1. Sentence: Saint-Nazaire , ville portuaire et maritime , doutait de son identité .
Features :: Feature-Counts :: Feature-Lemmas
--------------------------------------------
marqueurs :: 1 :: [ douter ]
epistemique :: 1 :: [ douter ]
marqueurs_niveau3 :: 1 :: [ douter ]
epistemique_niveau3 :: 1 :: [ douter ]
Total feature counts: 4


********** Adverbiaux Temporels Features **********
********************************************************

1. Sentence: Saint-Nazaire , ville portuaire et maritime , doutait de son identité .
No features found.

