
********** Entity Names Features **********
*******************************************

1. Sentence: Il faudrait encore y ajouter l ' apport , mal connu , des autres moyens de transport , vraisemblablement de l ' ordre de 7 à 8 millions (5) .
No features found.


********** Emotions Features **********
***************************************

1. Sentence: Il faudrait encore y ajouter l ' apport , mal connu , des autres moyens de transport , vraisemblablement de l ' ordre de 7 à 8 millions (5) .
No features found.


********** Modality Features **********
***************************************

1. Sentence: Il faudrait encore y ajouter l ' apport , mal connu , des autres moyens de transport , vraisemblablement de l ' ordre de 7 à 8 millions (5) .
Features :: Feature-Counts :: Feature-Lemmas
--------------------------------------------
marqueurs :: 4 :: [ falloir, mal, connaître, ordre ]
deontique :: 2 :: [ falloir, ordre ]
marqueurs_niveau3 :: 2 :: [ falloir, mal ]
marqueurs_niveau2 :: 2 :: [ connaître, ordre ]
appreciatif :: 1 :: [ mal ]
axiologique :: 1 :: [ mal ]
epistemique :: 1 :: [ connaître ]
appreciatif_niveau3 :: 1 :: [ mal ]
axiologique_niveau3 :: 1 :: [ mal ]
deontique_niveau3 :: 1 :: [ falloir ]
deontique_niveau2 :: 1 :: [ ordre ]
epistemique_niveau2 :: 1 :: [ connaître ]
Total feature counts: 18


********** Adverbiaux Temporels Features **********
********************************************************

1. Sentence: Il faudrait encore y ajouter l ' apport , mal connu , des autres moyens de transport , vraisemblablement de l ' ordre de 7 à 8 millions (5) .
Features :: Feature-Counts :: Feature-Texts
--------------------------------------------
adverbiaux_temporels::1::['encore']
adverbiaux_duratifs_iteratifs::1::['encore']
adverbiaux_pointage_non_absolu::1::['encore']
adverbiaux_dur_iter_relatif::1::['encore']

