
********** Entity Names Features **********
*******************************************

1. Sentence: Le projet peut permettre de changer la donne en surmontant ces contraintes .
No features found.


********** Emotions Features **********
***************************************

1. Sentence: Le projet peut permettre de changer la donne en surmontant ces contraintes .
No features found.


********** Modality Features **********
***************************************

1. Sentence: Le projet peut permettre de changer la donne en surmontant ces contraintes .
Features :: Feature-Counts :: Feature-Lemmas
--------------------------------------------
marqueurs :: 2 :: [ pouvoir, permettre ]
deontique :: 2 :: [ pouvoir, permettre ]
marqueurs_niveau3 :: 2 :: [ pouvoir, permettre ]
deontique_niveau3 :: 2 :: [ pouvoir, permettre ]
alethique :: 1 :: [ pouvoir ]
epistemique :: 1 :: [ pouvoir ]
alethique_niveau3 :: 1 :: [ pouvoir ]
epistemique_niveau3 :: 1 :: [ pouvoir ]
Total feature counts: 12


********** Adverbiaux Temporels Features **********
********************************************************

1. Sentence: Le projet peut permettre de changer la donne en surmontant ces contraintes .
No features found.

