
********** Entity Names Features **********
*******************************************

1. Sentence: Grâce à lui peut-être , Sébastien Marot écrit ce texte fondateur : L ' alternative du paysage . 1984 .
Entity Name (Type) :: L ' alternative du paysage (MISC)


********** Emotions Features **********
***************************************

1. Sentence: Grâce à lui peut-être , Sébastien Marot écrit ce texte fondateur : L ' alternative du paysage . 1984 .
No features found.


********** Modality Features **********
***************************************

1. Sentence: Grâce à lui peut-être , Sébastien Marot écrit ce texte fondateur : L ' alternative du paysage . 1984 .
Features :: Feature-Counts :: Feature-Lemmas
--------------------------------------------
marqueurs :: 2 :: [ lui, peut-être ]
epistemique :: 2 :: [ lui, peut-être ]
marqueurs_niveau3 :: 2 :: [ lui, peut-être ]
epistemique_niveau3 :: 2 :: [ lui, peut-être ]
alethique :: 1 :: [ lui ]
alethique_niveau3 :: 1 :: [ lui ]
Total feature counts: 10


********** Adverbiaux Temporels Features **********
********************************************************

1. Sentence: Grâce à lui peut-être , Sébastien Marot écrit ce texte fondateur : L ' alternative du paysage . 1984 .
No features found.

