
********** Entity Names Features **********
*******************************************

1. Sentence: La doctrine a fait l ' objet de nombreuses interprétations .
No features found.


********** Emotions Features **********
***************************************

1. Sentence: La doctrine a fait l ' objet de nombreuses interprétations .
No features found.


********** Modality Features **********
***************************************

1. Sentence: La doctrine a fait l ' objet de nombreuses interprétations .
No features found.


********** Adverbiaux Temporels Features **********
********************************************************

1. Sentence: La doctrine a fait l ' objet de nombreuses interprétations .
No features found.

