====== Sentence Level Features ======

1. Sentence: Le développement des TIC a aussi des effets paradoxaux : tout ce qui se médiatise audiovisuellement tend à se banaliser grâce au développement accéléré des performances dans ce secteur .
Features :: Feature-Counts :: Feature-Lemmas
--------------------------------------------
marqueurs :: 1 :: [ tendre ]
pas_d_indication :: 1 :: [ tendre ]
marqueurs_niveau0 :: 1 :: [ tendre ]
pas_d_indication_niveau0 :: 1 :: [ tendre ]
Total feature counts: 4


====== Text Level Features ======

Features :: Feature-Counts :: Feature-Lemmas
--------------------------------------------
marqueurs :: 1 :: [ tendre ]
pas_d_indication :: 1 :: [ tendre ]
marqueurs_niveau0 :: 1 :: [ tendre ]
pas_d_indication_niveau0 :: 1 :: [ tendre ]
Total feature counts: 4

