
********** Entity Names Features **********
*******************************************

1. Sentence: Dans la vallée de la Durance , les grands parcs sont en altitude et manquent de connexion .
Entity Name (Type) :: Durance (LOC)


********** Emotions Features **********
***************************************

1. Sentence: Dans la vallée de la Durance , les grands parcs sont en altitude et manquent de connexion .
No features found.


********** Modality Features **********
***************************************

1. Sentence: Dans la vallée de la Durance , les grands parcs sont en altitude et manquent de connexion .
Features :: Feature-Counts :: Feature-Lemmas
--------------------------------------------
marqueurs :: 1 :: [ grand ]
epistemique :: 1 :: [ grand ]
marqueurs_niveau3 :: 1 :: [ grand ]
epistemique_niveau3 :: 1 :: [ grand ]
Total feature counts: 4


********** Adverbiaux Temporels Features **********
********************************************************

1. Sentence: Dans la vallée de la Durance , les grands parcs sont en altitude et manquent de connexion .
No features found.

