
********** Entity Names Features **********
*******************************************

1. Sentence: AVANT-PROPOS
Entity Name (Type) :: AVANT-PROPOS (LOC)


********** Emotions Features **********
***************************************

1. Sentence: AVANT-PROPOS
No features found.


********** Modality Features **********
***************************************

1. Sentence: AVANT-PROPOS
No features found.


********** Adverbiaux Temporels Features **********
********************************************************

1. Sentence: AVANT-PROPOS
No features found.

