
********** Entity Names Features **********
*******************************************

1. Sentence: Et faire le pas , décider enfin , faire autrement , amender , changer de cap .
No features found.


********** Emotions Features **********
***************************************

1. Sentence: Et faire le pas , décider enfin , faire autrement , amender , changer de cap .
No features found.


********** Modality Features **********
***************************************

1. Sentence: Et faire le pas , décider enfin , faire autrement , amender , changer de cap .
Features :: Feature-Counts :: Feature-Lemmas
--------------------------------------------
marqueurs :: 1 :: [ décider ]
boulique :: 1 :: [ décider ]
epistemique :: 1 :: [ décider ]
marqueurs_niveau3 :: 1 :: [ décider ]
boulique_niveau3 :: 1 :: [ décider ]
epistemique_niveau3 :: 1 :: [ décider ]
Total feature counts: 6


********** Adverbiaux Temporels Features **********
********************************************************

1. Sentence: Et faire le pas , décider enfin , faire autrement , amender , changer de cap .
No features found.

