====== Sentence Level Features ======

1. Sentence: Même s ' il y faut vingt ans , que sont vingt ans dans la vie d ' une ville ?
Entity Name (Type) :: Même (LOC)


====== Text Level Features ======

Entity Name (Entity Type)
-------------------------
Même (LOC)
Total entitiy counts: 1

