====== Sentence Level Features ======

1. Sentence: Je suis d ' ailleurs fasciné par ce moment décisif du départ .
Features :: Feature-Counts :: Feature-Lemmas
--------------------------------------------
marqueurs :: 1 :: [ fasciner ]
appreciatif :: 1 :: [ fasciner ]
marqueurs_niveau2 :: 1 :: [ fasciner ]
appreciatif_niveau2 :: 1 :: [ fasciner ]
Total feature counts: 4


====== Text Level Features ======

Features :: Feature-Counts :: Feature-Lemmas
--------------------------------------------
marqueurs :: 1 :: [ fasciner ]
appreciatif :: 1 :: [ fasciner ]
marqueurs_niveau2 :: 1 :: [ fasciner ]
appreciatif_niveau2 :: 1 :: [ fasciner ]
Total feature counts: 4

