====== Sentence Level Features ======

1. Sentence: Dans ses séminaires , il nous conduisait à travers ses souvenirs savants et ses images récurrentes , entre Queneau et Malevitch .
Features :: Feature-Counts :: Feature-Lemmas
--------------------------------------------
marqueurs :: 1 :: [ souvenir ]
pas_d_indication :: 1 :: [ souvenir ]
marqueurs_niveau0 :: 1 :: [ souvenir ]
pas_d_indication_niveau0 :: 1 :: [ souvenir ]
Total feature counts: 4


====== Text Level Features ======

Features :: Feature-Counts :: Feature-Lemmas
--------------------------------------------
marqueurs :: 1 :: [ souvenir ]
pas_d_indication :: 1 :: [ souvenir ]
marqueurs_niveau0 :: 1 :: [ souvenir ]
pas_d_indication_niveau0 :: 1 :: [ souvenir ]
Total feature counts: 4

