
********** Entity Names Features **********
*******************************************

1. Sentence: Le résultat de ce processus de réflexion n ' est pas la solution , ou plutôt faut-il dire que ces cas admettent plusieurs solutions .
No features found.


********** Emotions Features **********
***************************************

1. Sentence: Le résultat de ce processus de réflexion n ' est pas la solution , ou plutôt faut-il dire que ces cas admettent plusieurs solutions .
No features found.


********** Modality Features **********
***************************************

1. Sentence: Le résultat de ce processus de réflexion n ' est pas la solution , ou plutôt faut-il dire que ces cas admettent plusieurs solutions .
Features :: Feature-Counts :: Feature-Lemmas
--------------------------------------------
marqueurs :: 2 :: [ falloir, dire ]
marqueurs_niveau3 :: 2 :: [ falloir, dire ]
boulique :: 1 :: [ dire ]
deontique :: 1 :: [ falloir ]
boulique_niveau3 :: 1 :: [ dire ]
deontique_niveau3 :: 1 :: [ falloir ]
Total feature counts: 8


********** Adverbiaux Temporels Features **********
********************************************************

1. Sentence: Le résultat de ce processus de réflexion n ' est pas la solution , ou plutôt faut-il dire que ces cas admettent plusieurs solutions .
No features found.

