
********** Entity Names Features **********
*******************************************

1. Sentence: Avantages et limites de la réglementation
No features found.


********** Emotions Features **********
***************************************

1. Sentence: Avantages et limites de la réglementation
No features found.


********** Modality Features **********
***************************************

1. Sentence: Avantages et limites de la réglementation
No features found.


********** Adverbiaux Temporels Features **********
********************************************************

1. Sentence: Avantages et limites de la réglementation
No features found.

