====== Sentence Level Features ======

1. Sentence: Aujourd ' hui , il est vital de se dégager de l ' excès de dépendance par rapport aux pouvoirs locaux , car l ' intérêt général transcende ces pouvoirs .
Features :: Feature-Counts :: Feature-Lemmas
--------------------------------------------
marqueurs :: 3 :: [ pouvoir, intérêt, pouvoir ]
alethique :: 2 :: [ pouvoir, pouvoir ]
deontique :: 2 :: [ pouvoir, pouvoir ]
epistemique :: 2 :: [ pouvoir, pouvoir ]
marqueurs_niveau3 :: 2 :: [ pouvoir, pouvoir ]
alethique_niveau3 :: 2 :: [ pouvoir, pouvoir ]
deontique_niveau3 :: 2 :: [ pouvoir, pouvoir ]
epistemique_niveau3 :: 2 :: [ pouvoir, pouvoir ]
boulique :: 1 :: [ intérêt ]
marqueurs_niveau2 :: 1 :: [ intérêt ]
boulique_niveau2 :: 1 :: [ intérêt ]
Total feature counts: 20


====== Text Level Features ======

Features :: Feature-Counts :: Feature-Lemmas
--------------------------------------------
marqueurs :: 3 :: [ pouvoir, intérêt, pouvoir ]
alethique :: 2 :: [ pouvoir, pouvoir ]
deontique :: 2 :: [ pouvoir, pouvoir ]
epistemique :: 2 :: [ pouvoir, pouvoir ]
marqueurs_niveau3 :: 2 :: [ pouvoir, pouvoir ]
alethique_niveau3 :: 2 :: [ pouvoir, pouvoir ]
deontique_niveau3 :: 2 :: [ pouvoir, pouvoir ]
epistemique_niveau3 :: 2 :: [ pouvoir, pouvoir ]
boulique :: 1 :: [ intérêt ]
marqueurs_niveau2 :: 1 :: [ intérêt ]
boulique_niveau2 :: 1 :: [ intérêt ]
Total feature counts: 20

