
********** Entity Names Features **********
*******************************************

1. Sentence: Autant que les besoins croissants de la région parisienne , le développement économique de la province concourt à intensifier les échanges entre l ' une et l ' autre .
No features found.


********** Emotions Features **********
***************************************

1. Sentence: Autant que les besoins croissants de la région parisienne , le développement économique de la province concourt à intensifier les échanges entre l ' une et l ' autre .
No features found.


********** Modality Features **********
***************************************

1. Sentence: Autant que les besoins croissants de la région parisienne , le développement économique de la province concourt à intensifier les échanges entre l ' une et l ' autre .
Features :: Feature-Counts :: Feature-Lemmas
--------------------------------------------
marqueurs :: 2 :: [ besoin, croissant ]
alethique :: 1 :: [ besoin ]
appreciatif :: 1 :: [ croissant ]
boulique :: 1 :: [ besoin ]
marqueurs_niveau3 :: 1 :: [ besoin ]
marqueurs_niveau2 :: 1 :: [ croissant ]
alethique_niveau3 :: 1 :: [ besoin ]
appreciatif_niveau2 :: 1 :: [ croissant ]
boulique_niveau3 :: 1 :: [ besoin ]
Total feature counts: 10


********** Adverbiaux Temporels Features **********
********************************************************

1. Sentence: Autant que les besoins croissants de la région parisienne , le développement économique de la province concourt à intensifier les échanges entre l ' une et l ' autre .
No features found.

