====== Sentence Level Features ======

1. Sentence: Issu d ' un milieu de très petits commerçants , sans capital culturel ni social , j ' ai été emporté dans la connaissance par l ' école communale du quartier de la place de la République à Paris .
Features :: Feature-Counts :: Feature-Lemmas
--------------------------------------------
marqueurs :: 2 :: [ petit, école ]
alethique :: 1 :: [ école ]
epistemique :: 1 :: [ petit ]
marqueurs_niveau3 :: 1 :: [ petit ]
marqueurs_niveau1 :: 1 :: [ école ]
alethique_niveau1 :: 1 :: [ école ]
epistemique_niveau3 :: 1 :: [ petit ]
Total feature counts: 8


====== Text Level Features ======

Features :: Feature-Counts :: Feature-Lemmas
--------------------------------------------
marqueurs :: 2 :: [ petit, école ]
alethique :: 1 :: [ école ]
epistemique :: 1 :: [ petit ]
marqueurs_niveau3 :: 1 :: [ petit ]
marqueurs_niveau1 :: 1 :: [ école ]
alethique_niveau1 :: 1 :: [ école ]
epistemique_niveau3 :: 1 :: [ petit ]
Total feature counts: 8

