
********** Entity Names Features **********
*******************************************

1. Sentence: En effet ,  l ' avenir de la partie centrale de Paris est indissociable de l ' avenir de la région tout entière .
Entity Name (Type) :: Paris (LOC)


********** Emotions Features **********
***************************************

1. Sentence: En effet ,  l ' avenir de la partie centrale de Paris est indissociable de l ' avenir de la région tout entière .
No features found.


********** Modality Features **********
***************************************

1. Sentence: En effet ,  l ' avenir de la partie centrale de Paris est indissociable de l ' avenir de la région tout entière .
No features found.


********** Adverbiaux Temporels Features **********
********************************************************

1. Sentence: En effet ,  l ' avenir de la partie centrale de Paris est indissociable de l ' avenir de la région tout entière .
No features found.

