
********** Entity Names Features **********
*******************************************

1. Sentence: Institut national agronomique (I . N . A . ) , École polytechnique , Collège des techniques avancées et extensions nouvelles de la Faculté des sciences d ' Orsay .
Entity Name (Type) :: Faculté des sciences d ' Orsay (LOC)


********** Emotions Features **********
***************************************

1. Sentence: Institut national agronomique (I . N . A . ) , École polytechnique , Collège des techniques avancées et extensions nouvelles de la Faculté des sciences d ' Orsay .
No features found.


********** Modality Features **********
***************************************

1. Sentence: Institut national agronomique (I . N . A . ) , École polytechnique , Collège des techniques avancées et extensions nouvelles de la Faculté des sciences d ' Orsay .
Features :: Feature-Counts :: Feature-Lemmas
--------------------------------------------
marqueurs :: 1 :: [ école ]
alethique :: 1 :: [ école ]
marqueurs_niveau1 :: 1 :: [ école ]
alethique_niveau1 :: 1 :: [ école ]
Total feature counts: 4


********** Adverbiaux Temporels Features **********
********************************************************

1. Sentence: Institut national agronomique (I . N . A . ) , École polytechnique , Collège des techniques avancées et extensions nouvelles de la Faculté des sciences d ' Orsay .
No features found.

