
********** Entity Names Features **********
*******************************************

1. Sentence: J ' imaginais des plateformes libres où chacun aménagerait son logement à son gré et le ferait évoluer dans des structures en hauteur libérant de grands espaces de nature .
No features found.


********** Emotions Features **********
***************************************

1. Sentence: J ' imaginais des plateformes libres où chacun aménagerait son logement à son gré et le ferait évoluer dans des structures en hauteur libérant de grands espaces de nature .
No features found.


********** Modality Features **********
***************************************

1. Sentence: J ' imaginais des plateformes libres où chacun aménagerait son logement à son gré et le ferait évoluer dans des structures en hauteur libérant de grands espaces de nature .
Features :: Feature-Counts :: Feature-Lemmas
--------------------------------------------
marqueurs :: 3 :: [ imaginer, libre, grand ]
epistemique :: 2 :: [ imaginer, grand ]
marqueurs_niveau3 :: 2 :: [ imaginer, grand ]
epistemique_niveau3 :: 2 :: [ imaginer, grand ]
appreciatif :: 1 :: [ libre ]
marqueurs_niveau1 :: 1 :: [ libre ]
appreciatif_niveau1 :: 1 :: [ libre ]
Total feature counts: 12


********** Adverbiaux Temporels Features **********
********************************************************

1. Sentence: J ' imaginais des plateformes libres où chacun aménagerait son logement à son gré et le ferait évoluer dans des structures en hauteur libérant de grands espaces de nature .
No features found.

