
********** Entity Names Features **********
*******************************************

1. Sentence: Une gare parmi les 6 000 fermées en France , cas récurrent de service public abandonné dans les territoires moins peuplés .
Entity Name (Type) :: France (LOC)


********** Emotions Features **********
***************************************

1. Sentence: Une gare parmi les 6 000 fermées en France , cas récurrent de service public abandonné dans les territoires moins peuplés .
No features found.


********** Modality Features **********
***************************************

1. Sentence: Une gare parmi les 6 000 fermées en France , cas récurrent de service public abandonné dans les territoires moins peuplés .
Features :: Feature-Counts :: Feature-Lemmas
--------------------------------------------
marqueurs :: 1 :: [ abandonner ]
boulique :: 1 :: [ abandonner ]
epistemique :: 1 :: [ abandonner ]
marqueurs_niveau2 :: 1 :: [ abandonner ]
boulique_niveau2 :: 1 :: [ abandonner ]
epistemique_niveau2 :: 1 :: [ abandonner ]
Total feature counts: 6


********** Adverbiaux Temporels Features **********
********************************************************

1. Sentence: Une gare parmi les 6 000 fermées en France , cas récurrent de service public abandonné dans les territoires moins peuplés .
No features found.

