
********** Entity Names Features **********
*******************************************

1. Sentence: Heureusement , bien des questions restent ouvertes !
No features found.


********** Emotions Features **********
***************************************

1. Sentence: Heureusement , bien des questions restent ouvertes !
Tokens having emotion: [ Heureusement ]
Lemmas having emotion: [ heureusement ]
Categories of the emotion lemmas: [ joie ]


********** Modality Features **********
***************************************

1. Sentence: Heureusement , bien des questions restent ouvertes !
Features :: Feature-Counts :: Feature-Lemmas
--------------------------------------------
marqueurs :: 2 :: [ heureusement, bien ]
appreciatif :: 2 :: [ heureusement, bien ]
marqueurs_niveau3 :: 2 :: [ heureusement, bien ]
appreciatif_niveau3 :: 2 :: [ heureusement, bien ]
axiologique :: 1 :: [ bien ]
axiologique_niveau3 :: 1 :: [ bien ]
Total feature counts: 10


********** Adverbiaux Temporels Features **********
********************************************************

1. Sentence: Heureusement , bien des questions restent ouvertes !
No features found.

