====== Sentence Level Features ======

1. Sentence: J ' avais pensé , il faut le dire , à la fin des années soixante-dix , faire une sorte de projet de ville utopique , théorique avec ses îlots ouverts .
Features :: Feature-Counts :: Feature-Lemmas
--------------------------------------------
marqueurs :: 3 :: [ penser, falloir, dire ]
marqueurs_niveau3 :: 3 :: [ penser, falloir, dire ]
boulique :: 1 :: [ dire ]
deontique :: 1 :: [ falloir ]
epistemique :: 1 :: [ penser ]
boulique_niveau3 :: 1 :: [ dire ]
deontique_niveau3 :: 1 :: [ falloir ]
epistemique_niveau3 :: 1 :: [ penser ]
Total feature counts: 12


====== Text Level Features ======

Features :: Feature-Counts :: Feature-Lemmas
--------------------------------------------
marqueurs :: 3 :: [ penser, falloir, dire ]
marqueurs_niveau3 :: 3 :: [ penser, falloir, dire ]
boulique :: 1 :: [ dire ]
deontique :: 1 :: [ falloir ]
epistemique :: 1 :: [ penser ]
boulique_niveau3 :: 1 :: [ dire ]
deontique_niveau3 :: 1 :: [ falloir ]
epistemique_niveau3 :: 1 :: [ penser ]
Total feature counts: 12

