====== Sentence Level Features ======

1. Sentence: Il m ' est venu  l ' idée de les assembler  au vieux mur du potager .
Features :: Feature-Counts :: Feature-Lemmas
--------------------------------------------
marqueurs :: 2 :: [ venir, vieux ]
alethique :: 1 :: [ venir ]
pas_d_indication :: 1 :: [ vieux ]
marqueurs_niveau3 :: 1 :: [ venir ]
marqueurs_niveau0 :: 1 :: [ vieux ]
alethique_niveau3 :: 1 :: [ venir ]
pas_d_indication_niveau0 :: 1 :: [ vieux ]
Total feature counts: 8


====== Text Level Features ======

Features :: Feature-Counts :: Feature-Lemmas
--------------------------------------------
marqueurs :: 2 :: [ venir, vieux ]
alethique :: 1 :: [ venir ]
pas_d_indication :: 1 :: [ vieux ]
marqueurs_niveau3 :: 1 :: [ venir ]
marqueurs_niveau0 :: 1 :: [ vieux ]
alethique_niveau3 :: 1 :: [ venir ]
pas_d_indication_niveau0 :: 1 :: [ vieux ]
Total feature counts: 8

