
********** Entity Names Features **********
*******************************************

2. Sentence: A .
Entity Name (Type) :: A (LOC)


********** Emotions Features **********
***************************************

2. Sentence: A .
No features found.


********** Modality Features **********
***************************************

2. Sentence: A .
No features found.


********** Adverbiaux Temporels Features **********
********************************************************

2. Sentence: A .
No features found.

