====== Sentence Level Features ======

1. Sentence: Cela a permis de recréer une culture urbaine et de donner des rythmes propres à chaque projet – un dispositif dans lequel toute une population a retrouvé sa fierté et le goût du projet urbain .
Features :: Feature-Counts :: Feature-Lemmas
--------------------------------------------
marqueurs :: 2 :: [ permettre, fierté ]
appreciatif :: 1 :: [ fierté ]
axiologique :: 1 :: [ fierté ]
deontique :: 1 :: [ permettre ]
marqueurs_niveau3 :: 1 :: [ permettre ]
marqueurs_niveau1 :: 1 :: [ fierté ]
appreciatif_niveau1 :: 1 :: [ fierté ]
axiologique_niveau1 :: 1 :: [ fierté ]
deontique_niveau3 :: 1 :: [ permettre ]
Total feature counts: 10


====== Text Level Features ======

Features :: Feature-Counts :: Feature-Lemmas
--------------------------------------------
marqueurs :: 2 :: [ permettre, fierté ]
appreciatif :: 1 :: [ fierté ]
axiologique :: 1 :: [ fierté ]
deontique :: 1 :: [ permettre ]
marqueurs_niveau3 :: 1 :: [ permettre ]
marqueurs_niveau1 :: 1 :: [ fierté ]
appreciatif_niveau1 :: 1 :: [ fierté ]
axiologique_niveau1 :: 1 :: [ fierté ]
deontique_niveau3 :: 1 :: [ permettre ]
Total feature counts: 10

