====== Sentence Level Features ======

1. Sentence: Il me semble que malgré les controverses qui agitent — certes encore trop souvent — les médias , un consensus dans les territoires est en train de se former autour du dépassement de cette opposition .
Features :: Feature-Counts :: Feature-Lemmas
--------------------------------------------
marqueurs :: 3 :: [ sembler, malgré, souvent ]
marqueurs_niveau3 :: 2 :: [ sembler, souvent ]
alethique :: 1 :: [ souvent ]
epistemique :: 1 :: [ sembler ]
pas_d_indication :: 1 :: [ malgré ]
marqueurs_niveau0 :: 1 :: [ malgré ]
alethique_niveau3 :: 1 :: [ souvent ]
epistemique_niveau3 :: 1 :: [ sembler ]
pas_d_indication_niveau0 :: 1 :: [ malgré ]
Total feature counts: 12


====== Text Level Features ======

Features :: Feature-Counts :: Feature-Lemmas
--------------------------------------------
marqueurs :: 3 :: [ sembler, malgré, souvent ]
marqueurs_niveau3 :: 2 :: [ sembler, souvent ]
alethique :: 1 :: [ souvent ]
epistemique :: 1 :: [ sembler ]
pas_d_indication :: 1 :: [ malgré ]
marqueurs_niveau0 :: 1 :: [ malgré ]
alethique_niveau3 :: 1 :: [ souvent ]
epistemique_niveau3 :: 1 :: [ sembler ]
pas_d_indication_niveau0 :: 1 :: [ malgré ]
Total feature counts: 12

