====== Sentence Level Features ======

1. Sentence: Pour le plaisir d ' entrer dans Paris L ' avenue de la Porte de Vincennes est une courte séquence sur l ' axe historique qui reliait le château de Vincennes au centre de Paris .
Features :: Feature-Counts :: Feature-Lemmas
--------------------------------------------
marqueurs :: 2 :: [ plaisir, château ]
appreciatif :: 2 :: [ plaisir, château ]
marqueurs_niveau3 :: 2 :: [ plaisir, château ]
appreciatif_niveau3 :: 2 :: [ plaisir, château ]
epistemique :: 1 :: [ château ]
epistemique_niveau3 :: 1 :: [ château ]
Total feature counts: 10


====== Text Level Features ======

Features :: Feature-Counts :: Feature-Lemmas
--------------------------------------------
marqueurs :: 2 :: [ plaisir, château ]
appreciatif :: 2 :: [ plaisir, château ]
marqueurs_niveau3 :: 2 :: [ plaisir, château ]
appreciatif_niveau3 :: 2 :: [ plaisir, château ]
epistemique :: 1 :: [ château ]
epistemique_niveau3 :: 1 :: [ château ]
Total feature counts: 10

