====== Sentence Level Features ======

1. Sentence: Dès 1985 , les habitants de ce pays - 48 millions en 1965 - seront 60 millions .
No features found.


====== Text Level Features ======

No features found.

