====== Sentence Level Features ======

1. Sentence: Fig .
Entity Name (Type) :: Fig (MISC)


====== Text Level Features ======

Entity Name (Entity Type)
-------------------------
Fig (MISC)
Total entitiy counts: 1

