
********** Entity Names Features **********
*******************************************

1. Sentence: Ce sont largement des couches favorisées .
No features found.


********** Emotions Features **********
***************************************

1. Sentence: Ce sont largement des couches favorisées .
No features found.


********** Modality Features **********
***************************************

1. Sentence: Ce sont largement des couches favorisées .
Features :: Feature-Counts :: Feature-Lemmas
--------------------------------------------
marqueurs :: 1 :: [ favoriser ]
appreciatif :: 1 :: [ favoriser ]
marqueurs_niveau1 :: 1 :: [ favoriser ]
appreciatif_niveau1 :: 1 :: [ favoriser ]
Total feature counts: 4


********** Adverbiaux Temporels Features **********
********************************************************

1. Sentence: Ce sont largement des couches favorisées .
No features found.

