
********** Entity Names Features **********
*******************************************

1. Sentence: Cette interview constitue la contribution de François Ascher à ce débat .
Entity Name (Type) :: François Ascher (PER)


********** Emotions Features **********
***************************************

1. Sentence: Cette interview constitue la contribution de François Ascher à ce débat .
No features found.


********** Modality Features **********
***************************************

1. Sentence: Cette interview constitue la contribution de François Ascher à ce débat .
No features found.


********** Adverbiaux Temporels Features **********
********************************************************

1. Sentence: Cette interview constitue la contribution de François Ascher à ce débat .
No features found.

