====== Sentence Level Features ======

1. Sentence: D ' une ville à l ' autre , les différences résultent d ' un choix : choix d ' un type d ' urbanisation , choix d ' une politique de transport .
Features :: Feature-Counts :: Feature-Lemmas
--------------------------------------------
marqueurs :: 3 :: [ choix, choix, choix ]
boulique :: 3 :: [ choix, choix, choix ]
marqueurs_niveau2 :: 3 :: [ choix, choix, choix ]
boulique_niveau2 :: 3 :: [ choix, choix, choix ]
Total feature counts: 12


====== Text Level Features ======

Features :: Feature-Counts :: Feature-Lemmas
--------------------------------------------
marqueurs :: 3 :: [ choix, choix, choix ]
boulique :: 3 :: [ choix, choix, choix ]
marqueurs_niveau2 :: 3 :: [ choix, choix, choix ]
boulique_niveau2 :: 3 :: [ choix, choix, choix ]
Total feature counts: 12

