====== Sentence Level Features ======

1. Sentence: 2 - PRINCIPES D ' AMÉNAGEMENT
Entity Name (Type) :: AMÉNAGEMENT (ORG)


====== Text Level Features ======

Entity Name (Entity Type)
-------------------------
AMÉNAGEMENT (ORG)
Total entitiy counts: 1

