
********** Entity Names Features **********
*******************************************

1. Sentence: Si c ’ est les Pouvoirs publics qui anticipent sur les décisions privées on est dans un stade d ’ urbanisme d ’ un pays où l ’ on fait de l ’ urbanisme;
Entity Name (Type) :: Pouvoirs publics (ORG)


********** Emotions Features **********
***************************************

1. Sentence: Si c ’ est les Pouvoirs publics qui anticipent sur les décisions privées on est dans un stade d ’ urbanisme d ’ un pays où l ’ on fait de l ’ urbanisme;
No features found.


********** Modality Features **********
***************************************

1. Sentence: Si c ’ est les Pouvoirs publics qui anticipent sur les décisions privées on est dans un stade d ’ urbanisme d ’ un pays où l ’ on fait de l ’ urbanisme;
Features :: Feature-Counts :: Feature-Lemmas
--------------------------------------------
marqueurs :: 2 :: [ pouvoir, décision ]
epistemique :: 2 :: [ pouvoir, décision ]
alethique :: 1 :: [ pouvoir ]
boulique :: 1 :: [ décision ]
deontique :: 1 :: [ pouvoir ]
marqueurs_niveau3 :: 1 :: [ pouvoir ]
marqueurs_niveau2 :: 1 :: [ décision ]
alethique_niveau3 :: 1 :: [ pouvoir ]
boulique_niveau2 :: 1 :: [ décision ]
deontique_niveau3 :: 1 :: [ pouvoir ]
epistemique_niveau3 :: 1 :: [ pouvoir ]
epistemique_niveau2 :: 1 :: [ décision ]
Total feature counts: 14


********** Adverbiaux Temporels Features **********
********************************************************

1. Sentence: Si c ’ est les Pouvoirs publics qui anticipent sur les décisions privées on est dans un stade d ’ urbanisme d ’ un pays où l ’ on fait de l ’ urbanisme;
No features found.

