
********** Entity Names Features **********
*******************************************

1. Sentence: J ' ai , en effet , été l ' inspirateur de tous ces dispositifs et j ' ai convaincu , au passage , Georges Mercadal de «dévorer» le Plan urbain pour mêler les cultures .
Entity Name (Type) :: Plan urbain (MISC)


********** Emotions Features **********
***************************************

1. Sentence: J ' ai , en effet , été l ' inspirateur de tous ces dispositifs et j ' ai convaincu , au passage , Georges Mercadal de «dévorer» le Plan urbain pour mêler les cultures .
No features found.


********** Modality Features **********
***************************************

1. Sentence: J ' ai , en effet , été l ' inspirateur de tous ces dispositifs et j ' ai convaincu , au passage , Georges Mercadal de «dévorer» le Plan urbain pour mêler les cultures .
Features :: Feature-Counts :: Feature-Lemmas
--------------------------------------------
marqueurs :: 1 :: [ dévorer ]
epistemique :: 1 :: [ dévorer ]
marqueurs_niveau1 :: 1 :: [ dévorer ]
epistemique_niveau1 :: 1 :: [ dévorer ]
Total feature counts: 4


********** Adverbiaux Temporels Features **********
********************************************************

1. Sentence: J ' ai , en effet , été l ' inspirateur de tous ces dispositifs et j ' ai convaincu , au passage , Georges Mercadal de «dévorer» le Plan urbain pour mêler les cultures .
No features found.

