
********** Entity Names Features **********
*******************************************

1. Sentence: Vingt ans plus tard , à quelques centaines de mètres de là , c ' est le site de l ' Union à Roubaix qu ' il s ' agit de transformer sur 70 hectares inscrits dans les traces du parcellaire industriel .
Entity Name (Type) :: Union à Roubaix (LOC)


********** Emotions Features **********
***************************************

1. Sentence: Vingt ans plus tard , à quelques centaines de mètres de là , c ' est le site de l ' Union à Roubaix qu ' il s ' agit de transformer sur 70 hectares inscrits dans les traces du parcellaire industriel .
No features found.


********** Modality Features **********
***************************************

1. Sentence: Vingt ans plus tard , à quelques centaines de mètres de là , c ' est le site de l ' Union à Roubaix qu ' il s ' agit de transformer sur 70 hectares inscrits dans les traces du parcellaire industriel .
No features found.


********** Adverbiaux Temporels Features **********
********************************************************

1. Sentence: Vingt ans plus tard , à quelques centaines de mètres de là , c ' est le site de l ' Union à Roubaix qu ' il s ' agit de transformer sur 70 hectares inscrits dans les traces du parcellaire industriel .
Features :: Feature-Counts :: Feature-Texts
--------------------------------------------
adverbiaux_temporels::1::['plus tard']
adverbiaux_localisation_temporelle::1::['plus tard']
adverbiaux_pointage_non_absolu::1::['plus tard']
adverbiaux_loc_temp_regionalisation_id::1::['plus tard']
adverbiaux_loc_temp_pointage_non_absolu::1::['plus tard']

