
********** Entity Names Features **********
*******************************************

1. Sentence: L ' analyse de Pierre Veltz au niveau mondial interroge sur la place de notre territoire .
Entity Name (Type) :: Pierre Veltz (PER)


********** Emotions Features **********
***************************************

1. Sentence: L ' analyse de Pierre Veltz au niveau mondial interroge sur la place de notre territoire .
No features found.


********** Modality Features **********
***************************************

1. Sentence: L ' analyse de Pierre Veltz au niveau mondial interroge sur la place de notre territoire .
No features found.


********** Adverbiaux Temporels Features **********
********************************************************

1. Sentence: L ' analyse de Pierre Veltz au niveau mondial interroge sur la place de notre territoire .
No features found.

