====== Sentence Level Features ======

1. Sentence: Les défis et leçons de la Preuve par 7 À mi-parcours de la démarche , tirer quelques leçons (encore provisoires) du dispositif montre à quel point la Preuve par 7 peut faire système dans la manière d ' aborder les questions urbaines .
Features :: Feature-Counts :: Feature-Lemmas
--------------------------------------------
marqueurs :: 4 :: [ preuve, tirer, preuve, pouvoir ]
pas_d_indication :: 3 :: [ preuve, tirer, preuve ]
marqueurs_niveau0 :: 3 :: [ preuve, tirer, preuve ]
pas_d_indication_niveau0 :: 3 :: [ preuve, tirer, preuve ]
alethique :: 1 :: [ pouvoir ]
deontique :: 1 :: [ pouvoir ]
epistemique :: 1 :: [ pouvoir ]
marqueurs_niveau3 :: 1 :: [ pouvoir ]
alethique_niveau3 :: 1 :: [ pouvoir ]
deontique_niveau3 :: 1 :: [ pouvoir ]
epistemique_niveau3 :: 1 :: [ pouvoir ]
Total feature counts: 20


====== Text Level Features ======

Features :: Feature-Counts :: Feature-Lemmas
--------------------------------------------
marqueurs :: 4 :: [ preuve, tirer, preuve, pouvoir ]
pas_d_indication :: 3 :: [ preuve, tirer, preuve ]
marqueurs_niveau0 :: 3 :: [ preuve, tirer, preuve ]
pas_d_indication_niveau0 :: 3 :: [ preuve, tirer, preuve ]
alethique :: 1 :: [ pouvoir ]
deontique :: 1 :: [ pouvoir ]
epistemique :: 1 :: [ pouvoir ]
marqueurs_niveau3 :: 1 :: [ pouvoir ]
alethique_niveau3 :: 1 :: [ pouvoir ]
deontique_niveau3 :: 1 :: [ pouvoir ]
epistemique_niveau3 :: 1 :: [ pouvoir ]
Total feature counts: 20

