
********** Entity Names Features **********
*******************************************

1. Sentence: À quels espaces renvoient les villes et leur évolution ?
No features found.


********** Emotions Features **********
***************************************

1. Sentence: À quels espaces renvoient les villes et leur évolution ?
No features found.


********** Modality Features **********
***************************************

1. Sentence: À quels espaces renvoient les villes et leur évolution ?
No features found.


********** Adverbiaux Temporels Features **********
********************************************************

1. Sentence: À quels espaces renvoient les villes et leur évolution ?
No features found.

