====== Sentence Level Features ======

1. Sentence: Beijing logistic port , Pékin , Chine (2003) À Pékin , en ces années d ' une croissance urbaine qu ' aucune ville n ' a jamais connue à ce rythme effréné et à cette échelle , on compte par centaines les « poches » , les camps résidentiels fermés et les condominiums en chantier .
Features :: Feature-Counts :: Feature-Lemmas
--------------------------------------------
marqueurs :: 3 :: [ aucun, jamais, connaître ]
alethique :: 2 :: [ aucun, jamais ]
marqueurs_niveau3 :: 2 :: [ aucun, jamais ]
alethique_niveau3 :: 2 :: [ aucun, jamais ]
epistemique :: 1 :: [ connaître ]
marqueurs_niveau2 :: 1 :: [ connaître ]
epistemique_niveau2 :: 1 :: [ connaître ]
Total feature counts: 12


====== Text Level Features ======

Features :: Feature-Counts :: Feature-Lemmas
--------------------------------------------
marqueurs :: 3 :: [ aucun, jamais, connaître ]
alethique :: 2 :: [ aucun, jamais ]
marqueurs_niveau3 :: 2 :: [ aucun, jamais ]
alethique_niveau3 :: 2 :: [ aucun, jamais ]
epistemique :: 1 :: [ connaître ]
marqueurs_niveau2 :: 1 :: [ connaître ]
epistemique_niveau2 :: 1 :: [ connaître ]
Total feature counts: 12

