====== Sentence Level Features ======

1. Sentence: cela évite de Grand Prix de l ' urbanisme 2007
Entity Name (Type) :: Grand Prix de l ' urbanisme 2007 (MISC)


====== Text Level Features ======

Entity Name (Entity Type)
-------------------------
Grand Prix de l ' urbanisme 2007 (MISC)
Total entitiy counts: 1

