
********** Entity Names Features **********
*******************************************

1. Sentence: — Affirmer la volonté d ' associer densité et qualité urbaine ,  l ' écodensité dans la variété des formes de ville que la densité autorise .
Entity Name (Type) :: Affirmer (LOC)


********** Emotions Features **********
***************************************

1. Sentence: — Affirmer la volonté d ' associer densité et qualité urbaine ,  l ' écodensité dans la variété des formes de ville que la densité autorise .
No features found.


********** Modality Features **********
***************************************

1. Sentence: — Affirmer la volonté d ' associer densité et qualité urbaine ,  l ' écodensité dans la variété des formes de ville que la densité autorise .
Features :: Feature-Counts :: Feature-Lemmas
--------------------------------------------
marqueurs :: 2 :: [ affirmer, volonté ]
boulique :: 1 :: [ volonté ]
pas_d_indication :: 1 :: [ affirmer ]
marqueurs_niveau3 :: 1 :: [ volonté ]
marqueurs_niveau0 :: 1 :: [ affirmer ]
boulique_niveau3 :: 1 :: [ volonté ]
pas_d_indication_niveau0 :: 1 :: [ affirmer ]
Total feature counts: 8


********** Adverbiaux Temporels Features **********
********************************************************

1. Sentence: — Affirmer la volonté d ' associer densité et qualité urbaine ,  l ' écodensité dans la variété des formes de ville que la densité autorise .
No features found.

