====== Sentence Level Features ======

1. Sentence: À partir d ' une situation donnée , naît l ' intuition d ' une transformation possible , transposée dans le réel .
Features :: Feature-Counts :: Feature-Lemmas
--------------------------------------------
marqueurs :: 2 :: [ partir, possible ]
alethique :: 2 :: [ partir, possible ]
marqueurs_niveau3 :: 1 :: [ possible ]
marqueurs_niveau1 :: 1 :: [ partir ]
alethique_niveau3 :: 1 :: [ possible ]
alethique_niveau1 :: 1 :: [ partir ]
Total feature counts: 8


====== Text Level Features ======

Features :: Feature-Counts :: Feature-Lemmas
--------------------------------------------
marqueurs :: 2 :: [ partir, possible ]
alethique :: 2 :: [ partir, possible ]
marqueurs_niveau3 :: 1 :: [ possible ]
marqueurs_niveau1 :: 1 :: [ partir ]
alethique_niveau3 :: 1 :: [ possible ]
alethique_niveau1 :: 1 :: [ partir ]
Total feature counts: 8

