====== Sentence Level Features ======

1. Sentence: Donnons aux gens le désir d ' entrer dans la danse , de s ' enlacer (à la ville) sans se lasser .
Features :: Feature-Counts :: Feature-Lemmas
--------------------------------------------
marqueurs :: 1 :: [ désir ]
boulique :: 1 :: [ désir ]
marqueurs_niveau3 :: 1 :: [ désir ]
boulique_niveau3 :: 1 :: [ désir ]
Total feature counts: 4


====== Text Level Features ======

Features :: Feature-Counts :: Feature-Lemmas
--------------------------------------------
marqueurs :: 1 :: [ désir ]
boulique :: 1 :: [ désir ]
marqueurs_niveau3 :: 1 :: [ désir ]
boulique_niveau3 :: 1 :: [ désir ]
Total feature counts: 4

