====== Sentence Level Features ======

1. Sentence: Il apparaît enfin que l ' urbanisation est un facteur d ' accélération de la demande de loisirs , et plus particulièrement du besoin d ' évasion vers la nature .
Features :: Feature-Counts :: Feature-Lemmas
--------------------------------------------
marqueurs :: 2 :: [ loisir, besoin ]
alethique :: 1 :: [ besoin ]
appreciatif :: 1 :: [ loisir ]
boulique :: 1 :: [ besoin ]
marqueurs_niveau3 :: 1 :: [ besoin ]
marqueurs_niveau2 :: 1 :: [ loisir ]
alethique_niveau3 :: 1 :: [ besoin ]
appreciatif_niveau2 :: 1 :: [ loisir ]
boulique_niveau3 :: 1 :: [ besoin ]
Total feature counts: 10


====== Text Level Features ======

Features :: Feature-Counts :: Feature-Lemmas
--------------------------------------------
marqueurs :: 2 :: [ loisir, besoin ]
alethique :: 1 :: [ besoin ]
appreciatif :: 1 :: [ loisir ]
boulique :: 1 :: [ besoin ]
marqueurs_niveau3 :: 1 :: [ besoin ]
marqueurs_niveau2 :: 1 :: [ loisir ]
alethique_niveau3 :: 1 :: [ besoin ]
appreciatif_niveau2 :: 1 :: [ loisir ]
boulique_niveau3 :: 1 :: [ besoin ]
Total feature counts: 10

