====== Sentence Level Features ======

1. Sentence: De manière générale , tous les sujets qui mettent en jeu des biens communs (environnement , santé , inclusion sociale) appellent des actions correctrices .
Features :: Feature-Counts :: Feature-Lemmas
--------------------------------------------
marqueurs :: 2 :: [ bien, santé ]
appreciatif :: 1 :: [ bien ]
axiologique :: 1 :: [ bien ]
pas_d_indication :: 1 :: [ santé ]
marqueurs_niveau3 :: 1 :: [ bien ]
marqueurs_niveau0 :: 1 :: [ santé ]
appreciatif_niveau3 :: 1 :: [ bien ]
axiologique_niveau3 :: 1 :: [ bien ]
pas_d_indication_niveau0 :: 1 :: [ santé ]
Total feature counts: 10


====== Text Level Features ======

Features :: Feature-Counts :: Feature-Lemmas
--------------------------------------------
marqueurs :: 2 :: [ bien, santé ]
appreciatif :: 1 :: [ bien ]
axiologique :: 1 :: [ bien ]
pas_d_indication :: 1 :: [ santé ]
marqueurs_niveau3 :: 1 :: [ bien ]
marqueurs_niveau0 :: 1 :: [ santé ]
appreciatif_niveau3 :: 1 :: [ bien ]
axiologique_niveau3 :: 1 :: [ bien ]
pas_d_indication_niveau0 :: 1 :: [ santé ]
Total feature counts: 10

