
********** Entity Names Features **********
*******************************************

2. Sentence: Paris-Rive-Gauche , secteur Masséna (1994)
Entity Name (Type) :: Masséna (PER)


********** Emotions Features **********
***************************************

2. Sentence: Paris-Rive-Gauche , secteur Masséna (1994)
No features found.


********** Modality Features **********
***************************************

2. Sentence: Paris-Rive-Gauche , secteur Masséna (1994)
No features found.


********** Adverbiaux Temporels Features **********
********************************************************

2. Sentence: Paris-Rive-Gauche , secteur Masséna (1994)
No features found.

