
********** Entity Names Features **********
*******************************************

1. Sentence: L ' urbaniste tranche , dessine une ville qui devra vivre des dizaines d ' années ou plus .
Entity Name (Type) :: L (LOC)


********** Emotions Features **********
***************************************

1. Sentence: L ' urbaniste tranche , dessine une ville qui devra vivre des dizaines d ' années ou plus .
No features found.


********** Modality Features **********
***************************************

1. Sentence: L ' urbaniste tranche , dessine une ville qui devra vivre des dizaines d ' années ou plus .
Features :: Feature-Counts :: Feature-Lemmas
--------------------------------------------
marqueurs :: 1 :: [ devoir ]
alethique :: 1 :: [ devoir ]
deontique :: 1 :: [ devoir ]
epistemique :: 1 :: [ devoir ]
marqueurs_niveau3 :: 1 :: [ devoir ]
alethique_niveau3 :: 1 :: [ devoir ]
deontique_niveau3 :: 1 :: [ devoir ]
epistemique_niveau3 :: 1 :: [ devoir ]
Total feature counts: 8


********** Adverbiaux Temporels Features **********
********************************************************

1. Sentence: L ' urbaniste tranche , dessine une ville qui devra vivre des dizaines d ' années ou plus .
No features found.

