
********** Entity Names Features **********
*******************************************

1. Sentence: (4) Chaque jour , 750 .
No features found.


********** Emotions Features **********
***************************************

1. Sentence: (4) Chaque jour , 750 .
No features found.


********** Modality Features **********
***************************************

1. Sentence: (4) Chaque jour , 750 .
No features found.


********** Adverbiaux Temporels Features **********
********************************************************

1. Sentence: (4) Chaque jour , 750 .
Features :: Feature-Counts :: Feature-Texts
--------------------------------------------
adverbiaux_temporels::1::['Chaque jour']
adverbiaux_purement_iteratifs::1::['Chaque jour']
adverbiaux_loc_temp_focalisation_id::1::['Chaque jour']
adverbiaux_loc_temp_regionalisation_id::1::['Chaque jour']
adverbiaux_iterateur_calendaire::1::['Chaque jour']

