====== Sentence Level Features ======

1. Sentence: Public , il permettrait de sortir de la logique de camp .
Entity Name (Type) :: Public (MISC)


====== Text Level Features ======

Entity Name (Entity Type)
-------------------------
Public (MISC)
Total entitiy counts: 1

