
********** Entity Names Features **********
*******************************************

1. Sentence: C ' est un sujet local et national .
Entity Name (Type) :: C (MISC)


********** Emotions Features **********
***************************************

1. Sentence: C ' est un sujet local et national .
No features found.


********** Modality Features **********
***************************************

1. Sentence: C ' est un sujet local et national .
No features found.


********** Adverbiaux Temporels Features **********
********************************************************

1. Sentence: C ' est un sujet local et national .
No features found.

