====== Sentence Level Features ======

1. Sentence: Plus que la rapidité , l ' automobile procure à son utilisateur une grande liberté de mouvement .
Features :: Feature-Counts :: Feature-Lemmas
--------------------------------------------
marqueurs :: 2 :: [ grand, liberté ]
appreciatif :: 1 :: [ liberté ]
epistemique :: 1 :: [ grand ]
marqueurs_niveau3 :: 1 :: [ grand ]
marqueurs_niveau1 :: 1 :: [ liberté ]
appreciatif_niveau1 :: 1 :: [ liberté ]
epistemique_niveau3 :: 1 :: [ grand ]
Total feature counts: 8


====== Text Level Features ======

Features :: Feature-Counts :: Feature-Lemmas
--------------------------------------------
marqueurs :: 2 :: [ grand, liberté ]
appreciatif :: 1 :: [ liberté ]
epistemique :: 1 :: [ grand ]
marqueurs_niveau3 :: 1 :: [ grand ]
marqueurs_niveau1 :: 1 :: [ liberté ]
appreciatif_niveau1 :: 1 :: [ liberté ]
epistemique_niveau3 :: 1 :: [ grand ]
Total feature counts: 8

