
********** Entity Names Features **********
*******************************************

1. Sentence: Il propose un schéma en archipel , le seul possible , lié par une chaîne d ' espaces publics majeurs , et des trames viaires simples , en grille .
No features found.


********** Emotions Features **********
***************************************

1. Sentence: Il propose un schéma en archipel , le seul possible , lié par une chaîne d ' espaces publics majeurs , et des trames viaires simples , en grille .
No features found.


********** Modality Features **********
***************************************

1. Sentence: Il propose un schéma en archipel , le seul possible , lié par une chaîne d ' espaces publics majeurs , et des trames viaires simples , en grille .
Features :: Feature-Counts :: Feature-Lemmas
--------------------------------------------
marqueurs :: 1 :: [ possible ]
alethique :: 1 :: [ possible ]
marqueurs_niveau3 :: 1 :: [ possible ]
alethique_niveau3 :: 1 :: [ possible ]
Total feature counts: 4


********** Adverbiaux Temporels Features **********
********************************************************

1. Sentence: Il propose un schéma en archipel , le seul possible , lié par une chaîne d ' espaces publics majeurs , et des trames viaires simples , en grille .
No features found.

