====== Sentence Level Features ======

1. Sentence: On peut je crois parler ici de prévision créatrice .
Features :: Feature-Counts :: Feature-Lemmas
--------------------------------------------
marqueurs :: 2 :: [ pouvoir, croire ]
epistemique :: 2 :: [ pouvoir, croire ]
marqueurs_niveau3 :: 2 :: [ pouvoir, croire ]
epistemique_niveau3 :: 2 :: [ pouvoir, croire ]
alethique :: 1 :: [ pouvoir ]
deontique :: 1 :: [ pouvoir ]
alethique_niveau3 :: 1 :: [ pouvoir ]
deontique_niveau3 :: 1 :: [ pouvoir ]
Total feature counts: 12


====== Text Level Features ======

Features :: Feature-Counts :: Feature-Lemmas
--------------------------------------------
marqueurs :: 2 :: [ pouvoir, croire ]
epistemique :: 2 :: [ pouvoir, croire ]
marqueurs_niveau3 :: 2 :: [ pouvoir, croire ]
epistemique_niveau3 :: 2 :: [ pouvoir, croire ]
alethique :: 1 :: [ pouvoir ]
deontique :: 1 :: [ pouvoir ]
alethique_niveau3 :: 1 :: [ pouvoir ]
deontique_niveau3 :: 1 :: [ pouvoir ]
Total feature counts: 12

