====== Sentence Level Features ======

1. Sentence: 000 habitants exactement cinq fois les équipements nécessaires pour 10 . 000 .
Features :: Feature-Counts :: Feature-Lemmas
--------------------------------------------
marqueurs :: 1 :: [ nécessaire ]
alethique :: 1 :: [ nécessaire ]
marqueurs_niveau3 :: 1 :: [ nécessaire ]
alethique_niveau3 :: 1 :: [ nécessaire ]
Total feature counts: 4


====== Text Level Features ======

Features :: Feature-Counts :: Feature-Lemmas
--------------------------------------------
marqueurs :: 1 :: [ nécessaire ]
alethique :: 1 :: [ nécessaire ]
marqueurs_niveau3 :: 1 :: [ nécessaire ]
alethique_niveau3 :: 1 :: [ nécessaire ]
Total feature counts: 4

