
********** Entity Names Features **********
*******************************************

1. Sentence: LE RÉSEAU ROUTIER
Entity Name (Type) :: RÉSEAU ROUTIER (ORG)


********** Emotions Features **********
***************************************

1. Sentence: LE RÉSEAU ROUTIER
No features found.


********** Modality Features **********
***************************************

1. Sentence: LE RÉSEAU ROUTIER
No features found.


********** Adverbiaux Temporels Features **********
********************************************************

1. Sentence: LE RÉSEAU ROUTIER
No features found.

