
********** Entity Names Features **********
*******************************************

1. Sentence: Elle a fait place à un ample boulevard planté , avec ses trottoirs , son stationnement et elle restitue l ' emprise de ses talus à la ville habitée .
No features found.


********** Emotions Features **********
***************************************

1. Sentence: Elle a fait place à un ample boulevard planté , avec ses trottoirs , son stationnement et elle restitue l ' emprise de ses talus à la ville habitée .
No features found.


********** Modality Features **********
***************************************

1. Sentence: Elle a fait place à un ample boulevard planté , avec ses trottoirs , son stationnement et elle restitue l ' emprise de ses talus à la ville habitée .
No features found.


********** Adverbiaux Temporels Features **********
********************************************************

1. Sentence: Elle a fait place à un ample boulevard planté , avec ses trottoirs , son stationnement et elle restitue l ' emprise de ses talus à la ville habitée .
No features found.

