
********** Entity Names Features **********
*******************************************

1. Sentence: Il est évident que seules des études techniques approfondies permettront dans chaque cas de préciser le tracé exact de la voie ferrée ou de la route .
No features found.


********** Emotions Features **********
***************************************

1. Sentence: Il est évident que seules des études techniques approfondies permettront dans chaque cas de préciser le tracé exact de la voie ferrée ou de la route .
No features found.


********** Modality Features **********
***************************************

1. Sentence: Il est évident que seules des études techniques approfondies permettront dans chaque cas de préciser le tracé exact de la voie ferrée ou de la route .
Features :: Feature-Counts :: Feature-Lemmas
--------------------------------------------
marqueurs :: 1 :: [ permettre ]
deontique :: 1 :: [ permettre ]
marqueurs_niveau3 :: 1 :: [ permettre ]
deontique_niveau3 :: 1 :: [ permettre ]
Total feature counts: 4


********** Adverbiaux Temporels Features **********
********************************************************

1. Sentence: Il est évident que seules des études techniques approfondies permettront dans chaque cas de préciser le tracé exact de la voie ferrée ou de la route .
No features found.

