====== Sentence Level Features ======

1. Sentence: In ﬁne , j ' ai dessiné un lieu de rencontres et de loisirs .
Entity Name (Type) :: In (LOC)


====== Text Level Features ======

Entity Name (Entity Type)
-------------------------
In (LOC)
Total entitiy counts: 1

