====== Sentence Level Features ======

1. Sentence: In ﬁne , j ' ai dessiné un lieu de rencontres et de loisirs .
Features :: Feature-Counts :: Feature-Lemmas
--------------------------------------------
marqueurs :: 1 :: [ loisir ]
appreciatif :: 1 :: [ loisir ]
marqueurs_niveau2 :: 1 :: [ loisir ]
appreciatif_niveau2 :: 1 :: [ loisir ]
Total feature counts: 4


====== Text Level Features ======

Features :: Feature-Counts :: Feature-Lemmas
--------------------------------------------
marqueurs :: 1 :: [ loisir ]
appreciatif :: 1 :: [ loisir ]
marqueurs_niveau2 :: 1 :: [ loisir ]
appreciatif_niveau2 :: 1 :: [ loisir ]
Total feature counts: 4

