
********** Entity Names Features **********
*******************************************

1. Sentence: C ' est la seule manière en effet , de ne pas éloigner davantage les huit millions de personnes qui habitent dans cette dernière des zones de campagne , de verdure et de loisirs .
Entity Name (Type) :: C (LOC)


********** Emotions Features **********
***************************************

1. Sentence: C ' est la seule manière en effet , de ne pas éloigner davantage les huit millions de personnes qui habitent dans cette dernière des zones de campagne , de verdure et de loisirs .
No features found.


********** Modality Features **********
***************************************

1. Sentence: C ' est la seule manière en effet , de ne pas éloigner davantage les huit millions de personnes qui habitent dans cette dernière des zones de campagne , de verdure et de loisirs .
Features :: Feature-Counts :: Feature-Lemmas
--------------------------------------------
marqueurs :: 2 :: [ personne, loisir ]
marqueurs_niveau2 :: 2 :: [ personne, loisir ]
alethique :: 1 :: [ personne ]
appreciatif :: 1 :: [ loisir ]
alethique_niveau2 :: 1 :: [ personne ]
appreciatif_niveau2 :: 1 :: [ loisir ]
Total feature counts: 8


********** Adverbiaux Temporels Features **********
********************************************************

1. Sentence: C ' est la seule manière en effet , de ne pas éloigner davantage les huit millions de personnes qui habitent dans cette dernière des zones de campagne , de verdure et de loisirs .
No features found.

