====== Sentence Level Features ======

1. Sentence: C ' est donc un espace de conflit , mais c ' est également le lieu et l ' occasion de la médiation entre acteurs , où l ' on décide du comment «vivre ensemble» .
Features :: Feature-Counts :: Feature-Lemmas
--------------------------------------------
marqueurs :: 2 :: [ conflit, décider ]
axiologique :: 1 :: [ conflit ]
boulique :: 1 :: [ décider ]
epistemique :: 1 :: [ décider ]
marqueurs_niveau3 :: 1 :: [ décider ]
marqueurs_niveau2 :: 1 :: [ conflit ]
axiologique_niveau2 :: 1 :: [ conflit ]
boulique_niveau3 :: 1 :: [ décider ]
epistemique_niveau3 :: 1 :: [ décider ]
Total feature counts: 10


====== Text Level Features ======

Features :: Feature-Counts :: Feature-Lemmas
--------------------------------------------
marqueurs :: 2 :: [ conflit, décider ]
axiologique :: 1 :: [ conflit ]
boulique :: 1 :: [ décider ]
epistemique :: 1 :: [ décider ]
marqueurs_niveau3 :: 1 :: [ décider ]
marqueurs_niveau2 :: 1 :: [ conflit ]
axiologique_niveau2 :: 1 :: [ conflit ]
boulique_niveau3 :: 1 :: [ décider ]
epistemique_niveau3 :: 1 :: [ décider ]
Total feature counts: 10

