====== Sentence Level Features ======

1. Sentence: Devenus jeunes adultes ,  les arbres sont  progressivement sélectionnés ,  en veillant à ne  pas exposer violemment les troncs à la lumière .
Features :: Feature-Counts :: Feature-Lemmas
--------------------------------------------
marqueurs :: 2 :: [ jeune, lumière ]
alethique :: 1 :: [ lumière ]
appreciatif :: 1 :: [ lumière ]
pas_d_indication :: 1 :: [ jeune ]
marqueurs_niveau1 :: 1 :: [ lumière ]
marqueurs_niveau0 :: 1 :: [ jeune ]
alethique_niveau1 :: 1 :: [ lumière ]
appreciatif_niveau1 :: 1 :: [ lumière ]
pas_d_indication_niveau0 :: 1 :: [ jeune ]
Total feature counts: 10


====== Text Level Features ======

Features :: Feature-Counts :: Feature-Lemmas
--------------------------------------------
marqueurs :: 2 :: [ jeune, lumière ]
alethique :: 1 :: [ lumière ]
appreciatif :: 1 :: [ lumière ]
pas_d_indication :: 1 :: [ jeune ]
marqueurs_niveau1 :: 1 :: [ lumière ]
marqueurs_niveau0 :: 1 :: [ jeune ]
alethique_niveau1 :: 1 :: [ lumière ]
appreciatif_niveau1 :: 1 :: [ lumière ]
pas_d_indication_niveau0 :: 1 :: [ jeune ]
Total feature counts: 10

