
********** Entity Names Features **********
*******************************************

1. Sentence: non seulement sur le plan de la politique foncière , mais sur le plan de la conception même de la ville .
No features found.


********** Emotions Features **********
***************************************

1. Sentence: non seulement sur le plan de la politique foncière , mais sur le plan de la conception même de la ville .
No features found.


********** Modality Features **********
***************************************

1. Sentence: non seulement sur le plan de la politique foncière , mais sur le plan de la conception même de la ville .
No features found.


********** Adverbiaux Temporels Features **********
********************************************************

1. Sentence: non seulement sur le plan de la politique foncière , mais sur le plan de la conception même de la ville .
No features found.

