====== Sentence Level Features ======

1. Sentence: C ' est ce qui s ' est passé à Beaumont , où le chantier , mené par l ' architecte Loïc Julienne , a vu la participation active des habitants à la construction et aujourd ' hui la transformation de leur lieu de vie  :  l ' autonomie et le « faire soi-même » des habitants montrent une voie tout à fait crédible face à l ' hyper normativité qui sévit en milieu urbain .
Features :: Feature-Counts :: Feature-Lemmas
--------------------------------------------
marqueurs :: 2 :: [ autonomie, sévir ]
appreciatif :: 1 :: [ sévir ]
axiologique :: 1 :: [ sévir ]
pas_d_indication :: 1 :: [ autonomie ]
marqueurs_niveau2 :: 1 :: [ sévir ]
marqueurs_niveau0 :: 1 :: [ autonomie ]
appreciatif_niveau2 :: 1 :: [ sévir ]
axiologique_niveau2 :: 1 :: [ sévir ]
pas_d_indication_niveau0 :: 1 :: [ autonomie ]
Total feature counts: 10


====== Text Level Features ======

Features :: Feature-Counts :: Feature-Lemmas
--------------------------------------------
marqueurs :: 2 :: [ autonomie, sévir ]
appreciatif :: 1 :: [ sévir ]
axiologique :: 1 :: [ sévir ]
pas_d_indication :: 1 :: [ autonomie ]
marqueurs_niveau2 :: 1 :: [ sévir ]
marqueurs_niveau0 :: 1 :: [ autonomie ]
appreciatif_niveau2 :: 1 :: [ sévir ]
axiologique_niveau2 :: 1 :: [ sévir ]
pas_d_indication_niveau0 :: 1 :: [ autonomie ]
Total feature counts: 10

