====== Sentence Level Features ======

1. Sentence: Notre projet vise à apporter la continuité urbaine dont le XVIIe arrondissement a ici un besoin crucial , en créant un grand parc « tentaculaire » qui va chercher la vie urbaine où elle est .
Features :: Feature-Counts :: Feature-Lemmas
--------------------------------------------
marqueurs :: 4 :: [ besoin, grand, aller, chercher ]
marqueurs_niveau3 :: 3 :: [ besoin, grand, chercher ]
alethique :: 2 :: [ besoin, aller ]
boulique :: 2 :: [ besoin, chercher ]
boulique_niveau3 :: 2 :: [ besoin, chercher ]
epistemique :: 1 :: [ grand ]
marqueurs_niveau1 :: 1 :: [ aller ]
alethique_niveau3 :: 1 :: [ besoin ]
alethique_niveau1 :: 1 :: [ aller ]
epistemique_niveau3 :: 1 :: [ grand ]
Total feature counts: 18


====== Text Level Features ======

Features :: Feature-Counts :: Feature-Lemmas
--------------------------------------------
marqueurs :: 4 :: [ besoin, grand, aller, chercher ]
marqueurs_niveau3 :: 3 :: [ besoin, grand, chercher ]
alethique :: 2 :: [ besoin, aller ]
boulique :: 2 :: [ besoin, chercher ]
boulique_niveau3 :: 2 :: [ besoin, chercher ]
epistemique :: 1 :: [ grand ]
marqueurs_niveau1 :: 1 :: [ aller ]
alethique_niveau3 :: 1 :: [ besoin ]
alethique_niveau1 :: 1 :: [ aller ]
epistemique_niveau3 :: 1 :: [ grand ]
Total feature counts: 18

