
********** Entity Names Features **********
*******************************************

1. Sentence: Mes interventions ont toujours été que chaque cas est un cas unique .
Entity Name (Type) :: Mes (LOC)


********** Emotions Features **********
***************************************

1. Sentence: Mes interventions ont toujours été que chaque cas est un cas unique .
No features found.


********** Modality Features **********
***************************************

1. Sentence: Mes interventions ont toujours été que chaque cas est un cas unique .
Features :: Feature-Counts :: Feature-Lemmas
--------------------------------------------
marqueurs :: 2 :: [ toujours, unique ]
alethique :: 1 :: [ toujours ]
appreciatif :: 1 :: [ unique ]
marqueurs_niveau3 :: 1 :: [ toujours ]
marqueurs_niveau1 :: 1 :: [ unique ]
alethique_niveau3 :: 1 :: [ toujours ]
appreciatif_niveau1 :: 1 :: [ unique ]
Total feature counts: 8


********** Adverbiaux Temporels Features **********
********************************************************

1. Sentence: Mes interventions ont toujours été que chaque cas est un cas unique .
Features :: Feature-Counts :: Feature-Texts
--------------------------------------------
adverbiaux_temporels::1::['toujours']
adverbiaux_duratifs_iteratifs::1::['toujours']

