====== Sentence Level Features ======

1. Sentence: La crise , puis la guerre , ont empêché de réaliser ces projets et seule l ' autoroute de l ' Ouest a vu le jour avant 1940 .
Features :: Feature-Counts :: Feature-Lemmas
--------------------------------------------
marqueurs :: 4 :: [ crise, guerre, empêcher, réaliser ]
alethique :: 1 :: [ réaliser ]
appreciatif :: 1 :: [ crise ]
axiologique :: 1 :: [ guerre ]
epistemique :: 1 :: [ crise ]
pas_d_indication :: 1 :: [ empêcher ]
marqueurs_niveau3 :: 1 :: [ guerre ]
marqueurs_niveau2 :: 1 :: [ crise ]
marqueurs_niveau1 :: 1 :: [ réaliser ]
marqueurs_niveau0 :: 1 :: [ empêcher ]
alethique_niveau1 :: 1 :: [ réaliser ]
appreciatif_niveau2 :: 1 :: [ crise ]
axiologique_niveau3 :: 1 :: [ guerre ]
epistemique_niveau2 :: 1 :: [ crise ]
pas_d_indication_niveau0 :: 1 :: [ empêcher ]
Total feature counts: 18


====== Text Level Features ======

Features :: Feature-Counts :: Feature-Lemmas
--------------------------------------------
marqueurs :: 4 :: [ crise, guerre, empêcher, réaliser ]
alethique :: 1 :: [ réaliser ]
appreciatif :: 1 :: [ crise ]
axiologique :: 1 :: [ guerre ]
epistemique :: 1 :: [ crise ]
pas_d_indication :: 1 :: [ empêcher ]
marqueurs_niveau3 :: 1 :: [ guerre ]
marqueurs_niveau2 :: 1 :: [ crise ]
marqueurs_niveau1 :: 1 :: [ réaliser ]
marqueurs_niveau0 :: 1 :: [ empêcher ]
alethique_niveau1 :: 1 :: [ réaliser ]
appreciatif_niveau2 :: 1 :: [ crise ]
axiologique_niveau3 :: 1 :: [ guerre ]
epistemique_niveau2 :: 1 :: [ crise ]
pas_d_indication_niveau0 :: 1 :: [ empêcher ]
Total feature counts: 18

