
********** Entity Names Features **********
*******************************************

1. Sentence: On y découvrait par exemple les villes qui se parlent et celles qui ne se parlent pas (Lyon et Marseille par exemple) .
Entity Name (Type) :: Marseille (LOC)


********** Emotions Features **********
***************************************

1. Sentence: On y découvrait par exemple les villes qui se parlent et celles qui ne se parlent pas (Lyon et Marseille par exemple) .
No features found.


********** Modality Features **********
***************************************

1. Sentence: On y découvrait par exemple les villes qui se parlent et celles qui ne se parlent pas (Lyon et Marseille par exemple) .
Features :: Feature-Counts :: Feature-Lemmas
--------------------------------------------
marqueurs :: 1 :: [ découvrir ]
pas_d_indication :: 1 :: [ découvrir ]
marqueurs_niveau0 :: 1 :: [ découvrir ]
pas_d_indication_niveau0 :: 1 :: [ découvrir ]
Total feature counts: 4


********** Adverbiaux Temporels Features **********
********************************************************

1. Sentence: On y découvrait par exemple les villes qui se parlent et celles qui ne se parlent pas (Lyon et Marseille par exemple) .
No features found.

