====== Sentence Level Features ======

1. Sentence: Si le temps le permet la prochaine fois peut-être , j ' emmènerai les enfants à la pêche .
Entity Name (Type) :: Si (MISC)


====== Text Level Features ======

Entity Name (Entity Type)
-------------------------
Si (MISC)
Total entitiy counts: 1

