====== Sentence Level Features ======

1. Sentence: Ce qu ' on peut essayer de faire , c ' est utiliser le plus rationnellement possible les espaces disponibles .
Features :: Feature-Counts :: Feature-Lemmas
--------------------------------------------
marqueurs :: 3 :: [ pouvoir, essayer, possible ]
marqueurs_niveau3 :: 3 :: [ pouvoir, essayer, possible ]
alethique :: 2 :: [ pouvoir, possible ]
epistemique :: 2 :: [ pouvoir, essayer ]
alethique_niveau3 :: 2 :: [ pouvoir, possible ]
epistemique_niveau3 :: 2 :: [ pouvoir, essayer ]
boulique :: 1 :: [ essayer ]
deontique :: 1 :: [ pouvoir ]
boulique_niveau3 :: 1 :: [ essayer ]
deontique_niveau3 :: 1 :: [ pouvoir ]
Total feature counts: 18


====== Text Level Features ======

Features :: Feature-Counts :: Feature-Lemmas
--------------------------------------------
marqueurs :: 3 :: [ pouvoir, essayer, possible ]
marqueurs_niveau3 :: 3 :: [ pouvoir, essayer, possible ]
alethique :: 2 :: [ pouvoir, possible ]
epistemique :: 2 :: [ pouvoir, essayer ]
alethique_niveau3 :: 2 :: [ pouvoir, possible ]
epistemique_niveau3 :: 2 :: [ pouvoir, essayer ]
boulique :: 1 :: [ essayer ]
deontique :: 1 :: [ pouvoir ]
boulique_niveau3 :: 1 :: [ essayer ]
deontique_niveau3 :: 1 :: [ pouvoir ]
Total feature counts: 18

