====== Sentence Level Features ======

1. Sentence: On entretient avec lui une relation familière l ' interactivité réserve des surprises — , plus proche de la culture numérique des nouvelles générations , habituées aux jeux de simulation et aux tamagotchis .
Features :: Feature-Counts :: Feature-Lemmas
--------------------------------------------
marqueurs :: 2 :: [ lui, surprise ]
alethique :: 1 :: [ lui ]
epistemique :: 1 :: [ lui ]
pas_d_indication :: 1 :: [ surprise ]
marqueurs_niveau3 :: 1 :: [ lui ]
marqueurs_niveau0 :: 1 :: [ surprise ]
alethique_niveau3 :: 1 :: [ lui ]
epistemique_niveau3 :: 1 :: [ lui ]
pas_d_indication_niveau0 :: 1 :: [ surprise ]
Total feature counts: 10


====== Text Level Features ======

Features :: Feature-Counts :: Feature-Lemmas
--------------------------------------------
marqueurs :: 2 :: [ lui, surprise ]
alethique :: 1 :: [ lui ]
epistemique :: 1 :: [ lui ]
pas_d_indication :: 1 :: [ surprise ]
marqueurs_niveau3 :: 1 :: [ lui ]
marqueurs_niveau0 :: 1 :: [ surprise ]
alethique_niveau3 :: 1 :: [ lui ]
epistemique_niveau3 :: 1 :: [ lui ]
pas_d_indication_niveau0 :: 1 :: [ surprise ]
Total feature counts: 10

