====== Sentence Level Features ======

1. Sentence: Il s ' y est créé une dynamique — un système qui avance en marchant , ouvert à toutes les initiatives .
Features :: Feature-Counts :: Feature-Lemmas
--------------------------------------------
marqueurs :: 2 :: [ marcher, ouvrir ]
boulique :: 2 :: [ marcher, ouvrir ]
marqueurs_niveau3 :: 2 :: [ marcher, ouvrir ]
boulique_niveau3 :: 2 :: [ marcher, ouvrir ]
Total feature counts: 8


====== Text Level Features ======

Features :: Feature-Counts :: Feature-Lemmas
--------------------------------------------
marqueurs :: 2 :: [ marcher, ouvrir ]
boulique :: 2 :: [ marcher, ouvrir ]
marqueurs_niveau3 :: 2 :: [ marcher, ouvrir ]
boulique_niveau3 :: 2 :: [ marcher, ouvrir ]
Total feature counts: 8

