====== Sentence Level Features ======

1. Sentence: Au moins faut-il tenter d ' esquisser les tendances les plus importantes .
Features :: Feature-Counts :: Feature-Lemmas
--------------------------------------------
marqueurs :: 3 :: [ falloir, tenter, important ]
appreciatif :: 1 :: [ important ]
axiologique :: 1 :: [ important ]
boulique :: 1 :: [ tenter ]
deontique :: 1 :: [ falloir ]
epistemique :: 1 :: [ important ]
marqueurs_niveau3 :: 1 :: [ falloir ]
marqueurs_niveau2 :: 1 :: [ tenter ]
marqueurs_niveau1 :: 1 :: [ important ]
appreciatif_niveau1 :: 1 :: [ important ]
axiologique_niveau1 :: 1 :: [ important ]
boulique_niveau2 :: 1 :: [ tenter ]
deontique_niveau3 :: 1 :: [ falloir ]
epistemique_niveau1 :: 1 :: [ important ]
Total feature counts: 16


====== Text Level Features ======

Features :: Feature-Counts :: Feature-Lemmas
--------------------------------------------
marqueurs :: 3 :: [ falloir, tenter, important ]
appreciatif :: 1 :: [ important ]
axiologique :: 1 :: [ important ]
boulique :: 1 :: [ tenter ]
deontique :: 1 :: [ falloir ]
epistemique :: 1 :: [ important ]
marqueurs_niveau3 :: 1 :: [ falloir ]
marqueurs_niveau2 :: 1 :: [ tenter ]
marqueurs_niveau1 :: 1 :: [ important ]
appreciatif_niveau1 :: 1 :: [ important ]
axiologique_niveau1 :: 1 :: [ important ]
boulique_niveau2 :: 1 :: [ tenter ]
deontique_niveau3 :: 1 :: [ falloir ]
epistemique_niveau1 :: 1 :: [ important ]
Total feature counts: 16

