====== Sentence Level Features ======

1. Sentence: La reconversion passe par le dialogue entre les bâtiments anciens et nouveaux , de part et d ' autre des bassins ﬁltrants créés ou des grands portiques conservés .
Features :: Feature-Counts :: Feature-Lemmas
--------------------------------------------
marqueurs :: 1 :: [ grand ]
epistemique :: 1 :: [ grand ]
marqueurs_niveau3 :: 1 :: [ grand ]
epistemique_niveau3 :: 1 :: [ grand ]
Total feature counts: 4


====== Text Level Features ======

Features :: Feature-Counts :: Feature-Lemmas
--------------------------------------------
marqueurs :: 1 :: [ grand ]
epistemique :: 1 :: [ grand ]
marqueurs_niveau3 :: 1 :: [ grand ]
epistemique_niveau3 :: 1 :: [ grand ]
Total feature counts: 4

