
********** Entity Names Features **********
*******************************************

1. Sentence: Dans cette perspective , le millefeuille administratif est plus un atout qu ' une contrainte si l ' on apprend à travailler avec !
No features found.


********** Emotions Features **********
***************************************

1. Sentence: Dans cette perspective , le millefeuille administratif est plus un atout qu ' une contrainte si l ' on apprend à travailler avec !
No features found.


********** Modality Features **********
***************************************

1. Sentence: Dans cette perspective , le millefeuille administratif est plus un atout qu ' une contrainte si l ' on apprend à travailler avec !
Features :: Feature-Counts :: Feature-Lemmas
--------------------------------------------
marqueurs :: 1 :: [ travailler ]
appreciatif :: 1 :: [ travailler ]
marqueurs_niveau2 :: 1 :: [ travailler ]
appreciatif_niveau2 :: 1 :: [ travailler ]
Total feature counts: 4


********** Adverbiaux Temporels Features **********
********************************************************

1. Sentence: Dans cette perspective , le millefeuille administratif est plus un atout qu ' une contrainte si l ' on apprend à travailler avec !
No features found.

