
********** Entity Names Features **********
*******************************************

1. Sentence: (4) Exactement 952 hectares pour le bois de Boulogne et 995 hectares pour le bois de Vincennes .
Entity Name (Type) :: bois de Vincennes (LOC)


********** Emotions Features **********
***************************************

1. Sentence: (4) Exactement 952 hectares pour le bois de Boulogne et 995 hectares pour le bois de Vincennes .
No features found.


********** Modality Features **********
***************************************

1. Sentence: (4) Exactement 952 hectares pour le bois de Boulogne et 995 hectares pour le bois de Vincennes .
No features found.


********** Adverbiaux Temporels Features **********
********************************************************

1. Sentence: (4) Exactement 952 hectares pour le bois de Boulogne et 995 hectares pour le bois de Vincennes .
No features found.

