
********** Entity Names Features **********
*******************************************

1. Sentence: La mécanique ,  l ' électricité , la soudure s ' enchevêtraient .
No features found.


********** Emotions Features **********
***************************************

1. Sentence: La mécanique ,  l ' électricité , la soudure s ' enchevêtraient .
No features found.


********** Modality Features **********
***************************************

1. Sentence: La mécanique ,  l ' électricité , la soudure s ' enchevêtraient .
No features found.


********** Adverbiaux Temporels Features **********
********************************************************

1. Sentence: La mécanique ,  l ' électricité , la soudure s ' enchevêtraient .
No features found.

