
********** Entity Names Features **********
*******************************************

1. Sentence: Le croquis à main levée a le pouvoir de maintenir en éveil le fil de la pensée (leçon que j ' ai apprise auprès de Renzo Piano) .
Entity Name (Type) :: Renzo Piano (PER)


********** Emotions Features **********
***************************************

1. Sentence: Le croquis à main levée a le pouvoir de maintenir en éveil le fil de la pensée (leçon que j ' ai apprise auprès de Renzo Piano) .
No features found.


********** Modality Features **********
***************************************

1. Sentence: Le croquis à main levée a le pouvoir de maintenir en éveil le fil de la pensée (leçon que j ' ai apprise auprès de Renzo Piano) .
Features :: Feature-Counts :: Feature-Lemmas
--------------------------------------------
marqueurs :: 1 :: [ pouvoir ]
alethique :: 1 :: [ pouvoir ]
deontique :: 1 :: [ pouvoir ]
epistemique :: 1 :: [ pouvoir ]
marqueurs_niveau3 :: 1 :: [ pouvoir ]
alethique_niveau3 :: 1 :: [ pouvoir ]
deontique_niveau3 :: 1 :: [ pouvoir ]
epistemique_niveau3 :: 1 :: [ pouvoir ]
Total feature counts: 8


********** Adverbiaux Temporels Features **********
********************************************************

1. Sentence: Le croquis à main levée a le pouvoir de maintenir en éveil le fil de la pensée (leçon que j ' ai apprise auprès de Renzo Piano) .
No features found.

