
********** Entity Names Features **********
*******************************************

1. Sentence: Gérard Pénot française et qui offrait à des salariés la possibilité d ' accéder aux études supérieures , donc de changer d ' itinéraire social .
Entity Name (Type) :: Gérard Pénot (PER)


********** Emotions Features **********
***************************************

1. Sentence: Gérard Pénot française et qui offrait à des salariés la possibilité d ' accéder aux études supérieures , donc de changer d ' itinéraire social .
No features found.


********** Modality Features **********
***************************************

1. Sentence: Gérard Pénot française et qui offrait à des salariés la possibilité d ' accéder aux études supérieures , donc de changer d ' itinéraire social .
Features :: Feature-Counts :: Feature-Lemmas
--------------------------------------------
marqueurs :: 2 :: [ offrir, possibilité ]
alethique :: 1 :: [ possibilité ]
appreciatif :: 1 :: [ offrir ]
marqueurs_niveau3 :: 1 :: [ possibilité ]
marqueurs_niveau2 :: 1 :: [ offrir ]
alethique_niveau3 :: 1 :: [ possibilité ]
appreciatif_niveau2 :: 1 :: [ offrir ]
Total feature counts: 8


********** Adverbiaux Temporels Features **********
********************************************************

1. Sentence: Gérard Pénot française et qui offrait à des salariés la possibilité d ' accéder aux études supérieures , donc de changer d ' itinéraire social .
No features found.

