
********** Entity Names Features **********
*******************************************

1. Sentence: Parce que la société est inégalitaire , il faut savoir de quel côté on se met : du côté du renforcement des inégalités ou des possibilités d ' un nouvel équilibre ?
Entity Name (Type) :: Parce (LOC)


********** Emotions Features **********
***************************************

1. Sentence: Parce que la société est inégalitaire , il faut savoir de quel côté on se met : du côté du renforcement des inégalités ou des possibilités d ' un nouvel équilibre ?
No features found.


********** Modality Features **********
***************************************

1. Sentence: Parce que la société est inégalitaire , il faut savoir de quel côté on se met : du côté du renforcement des inégalités ou des possibilités d ' un nouvel équilibre ?
Features :: Feature-Counts :: Feature-Lemmas
--------------------------------------------
marqueurs :: 4 :: [ falloir, savoir, inégalité, possibilité ]
marqueurs_niveau3 :: 3 :: [ falloir, savoir, possibilité ]
alethique :: 1 :: [ possibilité ]
deontique :: 1 :: [ falloir ]
epistemique :: 1 :: [ savoir ]
pas_d_indication :: 1 :: [ inégalité ]
marqueurs_niveau0 :: 1 :: [ inégalité ]
alethique_niveau3 :: 1 :: [ possibilité ]
deontique_niveau3 :: 1 :: [ falloir ]
epistemique_niveau3 :: 1 :: [ savoir ]
pas_d_indication_niveau0 :: 1 :: [ inégalité ]
Total feature counts: 16


********** Adverbiaux Temporels Features **********
********************************************************

1. Sentence: Parce que la société est inégalitaire , il faut savoir de quel côté on se met : du côté du renforcement des inégalités ou des possibilités d ' un nouvel équilibre ?
No features found.

