====== Sentence Level Features ======

1. Sentence: Tous droits de reproduction , de traduction , d ' adaptation et d ' exécution , réservés pour tous pays y compris / ' U . R . S . S .
Features :: Feature-Counts :: Feature-Lemmas
--------------------------------------------
marqueurs :: 1 :: [ droit ]
deontique :: 1 :: [ droit ]
marqueurs_niveau3 :: 1 :: [ droit ]
deontique_niveau3 :: 1 :: [ droit ]
Total feature counts: 4


====== Text Level Features ======

Features :: Feature-Counts :: Feature-Lemmas
--------------------------------------------
marqueurs :: 1 :: [ droit ]
deontique :: 1 :: [ droit ]
marqueurs_niveau3 :: 1 :: [ droit ]
deontique_niveau3 :: 1 :: [ droit ]
Total feature counts: 4

