
********** Entity Names Features **********
*******************************************

1. Sentence: Processus et permanence La Métavilla de Venise , en 2006 , est à l ' origine d ' un basculement dans ma pratique .
Entity Name (Type) :: La Métavilla de Venise (MISC)


********** Emotions Features **********
***************************************

1. Sentence: Processus et permanence La Métavilla de Venise , en 2006 , est à l ' origine d ' un basculement dans ma pratique .
No features found.


********** Modality Features **********
***************************************

1. Sentence: Processus et permanence La Métavilla de Venise , en 2006 , est à l ' origine d ' un basculement dans ma pratique .
No features found.


********** Adverbiaux Temporels Features **********
********************************************************

1. Sentence: Processus et permanence La Métavilla de Venise , en 2006 , est à l ' origine d ' un basculement dans ma pratique .
Features :: Feature-Counts :: Feature-Texts
--------------------------------------------
adverbiaux_temporels::1::['en 2006']
adverbiaux_localisation_temporelle::1::['en 2006']
adverbiaux_pointage_absolu::1::['en 2006']
adverbiaux_pointage_non_absolu::1::['en 2006']
adverbiaux_loc_temp_focalisation_id::1::['en 2006']
adverbiaux_loc_temp_regionalisation_id::1::['en 2006']
adverbiaux_loc_temp_pointage_non_absolu::1::['en 2006']
adverbiaux_dur_iter_absolu::1::['en 2006']

