====== Sentence Level Features ======

1. Sentence: C ' est en amont de Persan-Beaumont , à partir de Creil , que l ' expansion urbaine et industrielle devrait être la plus vigoureuse , aidée par les relations directes avec Paris grâce à l ' autoroute du Nord et à la grande ligne ferrée Paris-Nord de la France .
Features :: Feature-Counts :: Feature-Lemmas
--------------------------------------------
marqueurs :: 3 :: [ partir, devoir, grand ]
alethique :: 2 :: [ partir, devoir ]
epistemique :: 2 :: [ devoir, grand ]
marqueurs_niveau3 :: 2 :: [ devoir, grand ]
epistemique_niveau3 :: 2 :: [ devoir, grand ]
deontique :: 1 :: [ devoir ]
marqueurs_niveau1 :: 1 :: [ partir ]
alethique_niveau3 :: 1 :: [ devoir ]
alethique_niveau1 :: 1 :: [ partir ]
deontique_niveau3 :: 1 :: [ devoir ]
Total feature counts: 16


====== Text Level Features ======

Features :: Feature-Counts :: Feature-Lemmas
--------------------------------------------
marqueurs :: 3 :: [ partir, devoir, grand ]
alethique :: 2 :: [ partir, devoir ]
epistemique :: 2 :: [ devoir, grand ]
marqueurs_niveau3 :: 2 :: [ devoir, grand ]
epistemique_niveau3 :: 2 :: [ devoir, grand ]
deontique :: 1 :: [ devoir ]
marqueurs_niveau1 :: 1 :: [ partir ]
alethique_niveau3 :: 1 :: [ devoir ]
alethique_niveau1 :: 1 :: [ partir ]
deontique_niveau3 :: 1 :: [ devoir ]
Total feature counts: 16

