====== Sentence Level Features ======

1. Sentence: Mais pour le plus grand nombre , elle se dilue dans des territoires mal définis , sur les autoroutes et voies rapides , dans la vitesse et la violence .
Features :: Feature-Counts :: Feature-Lemmas
--------------------------------------------
marqueurs :: 3 :: [ grand, mal, rapide ]
marqueurs_niveau3 :: 3 :: [ grand, mal, rapide ]
epistemique :: 2 :: [ grand, rapide ]
epistemique_niveau3 :: 2 :: [ grand, rapide ]
appreciatif :: 1 :: [ mal ]
axiologique :: 1 :: [ mal ]
appreciatif_niveau3 :: 1 :: [ mal ]
axiologique_niveau3 :: 1 :: [ mal ]
Total feature counts: 14


====== Text Level Features ======

Features :: Feature-Counts :: Feature-Lemmas
--------------------------------------------
marqueurs :: 3 :: [ grand, mal, rapide ]
marqueurs_niveau3 :: 3 :: [ grand, mal, rapide ]
epistemique :: 2 :: [ grand, rapide ]
epistemique_niveau3 :: 2 :: [ grand, rapide ]
appreciatif :: 1 :: [ mal ]
axiologique :: 1 :: [ mal ]
appreciatif_niveau3 :: 1 :: [ mal ]
axiologique_niveau3 :: 1 :: [ mal ]
Total feature counts: 14

