
********** Entity Names Features **********
*******************************************

1. Sentence: À nouveau , les choix cruciaux (usage des sols , densités , etc . ) sont , in fine , dans la main des élus locaux .
No features found.


********** Emotions Features **********
***************************************

1. Sentence: À nouveau , les choix cruciaux (usage des sols , densités , etc . ) sont , in fine , dans la main des élus locaux .
No features found.


********** Modality Features **********
***************************************

1. Sentence: À nouveau , les choix cruciaux (usage des sols , densités , etc . ) sont , in fine , dans la main des élus locaux .
Features :: Feature-Counts :: Feature-Lemmas
--------------------------------------------
marqueurs :: 2 :: [ choix, élu ]
boulique :: 1 :: [ choix ]
pas_d_indication :: 1 :: [ élu ]
marqueurs_niveau2 :: 1 :: [ choix ]
marqueurs_niveau0 :: 1 :: [ élu ]
boulique_niveau2 :: 1 :: [ choix ]
pas_d_indication_niveau0 :: 1 :: [ élu ]
Total feature counts: 8


********** Adverbiaux Temporels Features **********
********************************************************

1. Sentence: À nouveau , les choix cruciaux (usage des sols , densités , etc . ) sont , in fine , dans la main des élus locaux .
Features :: Feature-Counts :: Feature-Texts
--------------------------------------------
adverbiaux_temporels::1::['À nouveau']
adverbiaux_purement_iteratifs::1::['À nouveau']
adverbiaux_iterateur_quantificationnel::1::['À nouveau']

