
********** Entity Names Features **********
*******************************************

1. Sentence: Petit à petit , les esprits ont évolué .
No features found.


********** Emotions Features **********
***************************************

1. Sentence: Petit à petit , les esprits ont évolué .
No features found.


********** Modality Features **********
***************************************

1. Sentence: Petit à petit , les esprits ont évolué .
Features :: Feature-Counts :: Feature-Lemmas
--------------------------------------------
marqueurs :: 3 :: [ petit, petit, esprit ]
epistemique :: 3 :: [ petit, petit, esprit ]
marqueurs_niveau3 :: 3 :: [ petit, petit, esprit ]
epistemique_niveau3 :: 3 :: [ petit, petit, esprit ]
Total feature counts: 12


********** Adverbiaux Temporels Features **********
********************************************************

1. Sentence: Petit à petit , les esprits ont évolué .
No features found.

