
********** Entity Names Features **********
*******************************************

1. Sentence: Les EMGP sont la porte Sud de la Plaine , sa vitrine sur le boulevard périphérique , son lien avec Paris .
Entity Name (Type) :: Paris (LOC)


********** Emotions Features **********
***************************************

1. Sentence: Les EMGP sont la porte Sud de la Plaine , sa vitrine sur le boulevard périphérique , son lien avec Paris .
No features found.


********** Modality Features **********
***************************************

1. Sentence: Les EMGP sont la porte Sud de la Plaine , sa vitrine sur le boulevard périphérique , son lien avec Paris .
No features found.


********** Adverbiaux Temporels Features **********
********************************************************

1. Sentence: Les EMGP sont la porte Sud de la Plaine , sa vitrine sur le boulevard périphérique , son lien avec Paris .
No features found.

