====== Sentence Level Features ======

1. Sentence: Même si la population cessait d ' augmenter , les habitants de la région se déplaceraient plus souvent et plus loin .
Features :: Feature-Counts :: Feature-Lemmas
--------------------------------------------
marqueurs :: 1 :: [ souvent ]
alethique :: 1 :: [ souvent ]
marqueurs_niveau3 :: 1 :: [ souvent ]
alethique_niveau3 :: 1 :: [ souvent ]
Total feature counts: 4


====== Text Level Features ======

Features :: Feature-Counts :: Feature-Lemmas
--------------------------------------------
marqueurs :: 1 :: [ souvent ]
alethique :: 1 :: [ souvent ]
marqueurs_niveau3 :: 1 :: [ souvent ]
alethique_niveau3 :: 1 :: [ souvent ]
Total feature counts: 4

