
********** Entity Names Features **********
*******************************************

1. Sentence: Soixante projets avaient été établis sur ce site depuis 1970 , mais l ' enjeu olympique et un climat d ' extrême urgence ont levé les tabous liés à sa transformation .
No features found.


********** Emotions Features **********
***************************************

1. Sentence: Soixante projets avaient été établis sur ce site depuis 1970 , mais l ' enjeu olympique et un climat d ' extrême urgence ont levé les tabous liés à sa transformation .
No features found.


********** Modality Features **********
***************************************

1. Sentence: Soixante projets avaient été établis sur ce site depuis 1970 , mais l ' enjeu olympique et un climat d ' extrême urgence ont levé les tabous liés à sa transformation .
Features :: Feature-Counts :: Feature-Lemmas
--------------------------------------------
marqueurs :: 1 :: [ urgence ]
pas_d_indication :: 1 :: [ urgence ]
marqueurs_niveau0 :: 1 :: [ urgence ]
pas_d_indication_niveau0 :: 1 :: [ urgence ]
Total feature counts: 4


********** Adverbiaux Temporels Features **********
********************************************************

1. Sentence: Soixante projets avaient été établis sur ce site depuis 1970 , mais l ' enjeu olympique et un climat d ' extrême urgence ont levé les tabous liés à sa transformation .
Features :: Feature-Counts :: Feature-Texts
--------------------------------------------
adverbiaux_temporels::1::['depuis 1970']
adverbiaux_duratifs_iteratifs::1::['depuis 1970']
adverbiaux_pointage_absolu::1::['depuis 1970']
adverbiaux_loc_temp_focalisation_id::1::['depuis 1970']
adverbiaux_loc_temp_regionalisation_non_id::1::['depuis 1970']
adverbiaux_dur_iter_absolu::1::['depuis 1970']

