====== Sentence Level Features ======

1. Sentence: Elles auront les caractéristiques de l ' Auto-Route :
Entity Name (Type) :: Auto-Route (MISC)


====== Text Level Features ======

Entity Name (Entity Type)
-------------------------
Auto-Route (MISC)
Total entitiy counts: 1

