====== Sentence Level Features ======

1. Sentence: J ' aime bien À bâtons rompus Entretien avec François Ascher par Ariella Masboungi les 30 avril , 7 mai , 14 mai , 19 mai , 27 mai et 3 juin 2009 , avec la collaboration d ' Olivia Barbet-Massin . défricher .
Features :: Feature-Counts :: Feature-Lemmas
--------------------------------------------
marqueurs :: 3 :: [ aimer, bien, collaboration ]
marqueurs_niveau3 :: 3 :: [ aimer, bien, collaboration ]
appreciatif :: 2 :: [ aimer, bien ]
axiologique :: 2 :: [ bien, collaboration ]
appreciatif_niveau3 :: 2 :: [ aimer, bien ]
axiologique_niveau3 :: 2 :: [ bien, collaboration ]
Total feature counts: 14


====== Text Level Features ======

Features :: Feature-Counts :: Feature-Lemmas
--------------------------------------------
marqueurs :: 3 :: [ aimer, bien, collaboration ]
marqueurs_niveau3 :: 3 :: [ aimer, bien, collaboration ]
appreciatif :: 2 :: [ aimer, bien ]
axiologique :: 2 :: [ bien, collaboration ]
appreciatif_niveau3 :: 2 :: [ aimer, bien ]
axiologique_niveau3 :: 2 :: [ bien, collaboration ]
Total feature counts: 14

