
********** Entity Names Features **********
*******************************************

1. Sentence: quelles personnes , quels groupes , quels objets , quels réseaux , quelles matières , quels cycles , quels usages sont éphémères , recyclables , inondables…
No features found.


********** Emotions Features **********
***************************************

1. Sentence: quelles personnes , quels groupes , quels objets , quels réseaux , quelles matières , quels cycles , quels usages sont éphémères , recyclables , inondables…
No features found.


********** Modality Features **********
***************************************

1. Sentence: quelles personnes , quels groupes , quels objets , quels réseaux , quelles matières , quels cycles , quels usages sont éphémères , recyclables , inondables…
Features :: Feature-Counts :: Feature-Lemmas
--------------------------------------------
marqueurs :: 1 :: [ personne ]
alethique :: 1 :: [ personne ]
marqueurs_niveau2 :: 1 :: [ personne ]
alethique_niveau2 :: 1 :: [ personne ]
Total feature counts: 4


********** Adverbiaux Temporels Features **********
********************************************************

1. Sentence: quelles personnes , quels groupes , quels objets , quels réseaux , quelles matières , quels cycles , quels usages sont éphémères , recyclables , inondables…
No features found.

