====== Sentence Level Features ======

1. Sentence: Pierre Veltz  : Je suis d ' accord , mais j ' apprécie pour ma part cette passion des Français pour l ' égalité .
Features :: Feature-Counts :: Feature-Lemmas
--------------------------------------------
marqueurs :: 1 :: [ apprécier ]
appreciatif :: 1 :: [ apprécier ]
marqueurs_niveau3 :: 1 :: [ apprécier ]
appreciatif_niveau3 :: 1 :: [ apprécier ]
Total feature counts: 4


====== Text Level Features ======

Features :: Feature-Counts :: Feature-Lemmas
--------------------------------------------
marqueurs :: 1 :: [ apprécier ]
appreciatif :: 1 :: [ apprécier ]
marqueurs_niveau3 :: 1 :: [ apprécier ]
appreciatif_niveau3 :: 1 :: [ apprécier ]
Total feature counts: 4

