
********** Entity Names Features **********
*******************************************

1. Sentence: Construire des scénarios de projet urbain pour la ville peu dense
No features found.


********** Emotions Features **********
***************************************

1. Sentence: Construire des scénarios de projet urbain pour la ville peu dense
No features found.


********** Modality Features **********
***************************************

1. Sentence: Construire des scénarios de projet urbain pour la ville peu dense
No features found.


********** Adverbiaux Temporels Features **********
********************************************************

1. Sentence: Construire des scénarios de projet urbain pour la ville peu dense
No features found.

