
********** Entity Names Features **********
*******************************************

1. Sentence: Le projet s ' installe dans l ' épaisseur de la matière urbaine .
No features found.


********** Emotions Features **********
***************************************

1. Sentence: Le projet s ' installe dans l ' épaisseur de la matière urbaine .
No features found.


********** Modality Features **********
***************************************

1. Sentence: Le projet s ' installe dans l ' épaisseur de la matière urbaine .
No features found.


********** Adverbiaux Temporels Features **********
********************************************************

1. Sentence: Le projet s ' installe dans l ' épaisseur de la matière urbaine .
No features found.

