====== Sentence Level Features ======

1. Sentence: Comme partout , le rôle de l ' informatique s ' accroît , au point que l ' on semble avoir perdu la faculté de dessiner à main levée .
Features :: Feature-Counts :: Feature-Lemmas
--------------------------------------------
marqueurs :: 3 :: [ partout, sembler, perdre ]
marqueurs_niveau2 :: 2 :: [ partout, perdre ]
alethique :: 1 :: [ partout ]
appreciatif :: 1 :: [ perdre ]
epistemique :: 1 :: [ sembler ]
marqueurs_niveau3 :: 1 :: [ sembler ]
alethique_niveau2 :: 1 :: [ partout ]
appreciatif_niveau2 :: 1 :: [ perdre ]
epistemique_niveau3 :: 1 :: [ sembler ]
Total feature counts: 12


====== Text Level Features ======

Features :: Feature-Counts :: Feature-Lemmas
--------------------------------------------
marqueurs :: 3 :: [ partout, sembler, perdre ]
marqueurs_niveau2 :: 2 :: [ partout, perdre ]
alethique :: 1 :: [ partout ]
appreciatif :: 1 :: [ perdre ]
epistemique :: 1 :: [ sembler ]
marqueurs_niveau3 :: 1 :: [ sembler ]
alethique_niveau2 :: 1 :: [ partout ]
appreciatif_niveau2 :: 1 :: [ perdre ]
epistemique_niveau3 :: 1 :: [ sembler ]
Total feature counts: 12

