====== Sentence Level Features ======

1. Sentence: elle part de la Ruhr par Aix la Chapelle rejoint la Hollande , l ’ urbanisation complète de la Belgique du Nord de la France , et elle arrive à 150 kilomètres de Paris à Calvin;
Features :: Feature-Counts :: Feature-Lemmas
--------------------------------------------
marqueurs :: 2 :: [ partir, arriver ]
alethique :: 2 :: [ partir, arriver ]
marqueurs_niveau2 :: 1 :: [ arriver ]
marqueurs_niveau1 :: 1 :: [ partir ]
alethique_niveau2 :: 1 :: [ arriver ]
alethique_niveau1 :: 1 :: [ partir ]
Total feature counts: 8


====== Text Level Features ======

Features :: Feature-Counts :: Feature-Lemmas
--------------------------------------------
marqueurs :: 2 :: [ partir, arriver ]
alethique :: 2 :: [ partir, arriver ]
marqueurs_niveau2 :: 1 :: [ arriver ]
marqueurs_niveau1 :: 1 :: [ partir ]
alethique_niveau2 :: 1 :: [ arriver ]
alethique_niveau1 :: 1 :: [ partir ]
Total feature counts: 8

