
********** Entity Names Features **********
*******************************************

1. Sentence: Le projet court est rapidement visible , palpable , il peut être manifeste ;
No features found.


********** Emotions Features **********
***************************************

1. Sentence: Le projet court est rapidement visible , palpable , il peut être manifeste ;
No features found.


********** Modality Features **********
***************************************

1. Sentence: Le projet court est rapidement visible , palpable , il peut être manifeste ;
Features :: Feature-Counts :: Feature-Lemmas
--------------------------------------------
marqueurs :: 3 :: [ rapidement, pouvoir, manifester ]
epistemique :: 2 :: [ rapidement, pouvoir ]
marqueurs_niveau3 :: 2 :: [ rapidement, pouvoir ]
epistemique_niveau3 :: 2 :: [ rapidement, pouvoir ]
alethique :: 1 :: [ pouvoir ]
deontique :: 1 :: [ pouvoir ]
pas_d_indication :: 1 :: [ manifester ]
marqueurs_niveau0 :: 1 :: [ manifester ]
alethique_niveau3 :: 1 :: [ pouvoir ]
deontique_niveau3 :: 1 :: [ pouvoir ]
pas_d_indication_niveau0 :: 1 :: [ manifester ]
Total feature counts: 16


********** Adverbiaux Temporels Features **********
********************************************************

1. Sentence: Le projet court est rapidement visible , palpable , il peut être manifeste ;
No features found.

