====== Sentence Level Features ======

1. Sentence: Aujourd ' hui , je sais qu ' une parole facile mais originale , celle de Le Corbusier , peut , sur les considérations urbaines , être parole de charlatan .
Features :: Feature-Counts :: Feature-Lemmas
--------------------------------------------
marqueurs :: 3 :: [ savoir, facile, pouvoir ]
epistemique :: 3 :: [ savoir, facile, pouvoir ]
marqueurs_niveau3 :: 2 :: [ savoir, pouvoir ]
epistemique_niveau3 :: 2 :: [ savoir, pouvoir ]
alethique :: 1 :: [ pouvoir ]
appreciatif :: 1 :: [ facile ]
deontique :: 1 :: [ pouvoir ]
marqueurs_niveau2 :: 1 :: [ facile ]
alethique_niveau3 :: 1 :: [ pouvoir ]
appreciatif_niveau2 :: 1 :: [ facile ]
deontique_niveau3 :: 1 :: [ pouvoir ]
epistemique_niveau2 :: 1 :: [ facile ]
Total feature counts: 18


====== Text Level Features ======

Features :: Feature-Counts :: Feature-Lemmas
--------------------------------------------
marqueurs :: 3 :: [ savoir, facile, pouvoir ]
epistemique :: 3 :: [ savoir, facile, pouvoir ]
marqueurs_niveau3 :: 2 :: [ savoir, pouvoir ]
epistemique_niveau3 :: 2 :: [ savoir, pouvoir ]
alethique :: 1 :: [ pouvoir ]
appreciatif :: 1 :: [ facile ]
deontique :: 1 :: [ pouvoir ]
marqueurs_niveau2 :: 1 :: [ facile ]
alethique_niveau3 :: 1 :: [ pouvoir ]
appreciatif_niveau2 :: 1 :: [ facile ]
deontique_niveau3 :: 1 :: [ pouvoir ]
epistemique_niveau2 :: 1 :: [ facile ]
Total feature counts: 18

