
********** Entity Names Features **********
*******************************************

1. Sentence: Espace(s) accessible(s) aux résidents , aux visiteurs , aux passants .
Entity Name (Type) :: Espace( (LOC)


********** Emotions Features **********
***************************************

1. Sentence: Espace(s) accessible(s) aux résidents , aux visiteurs , aux passants .
No features found.


********** Modality Features **********
***************************************

1. Sentence: Espace(s) accessible(s) aux résidents , aux visiteurs , aux passants .
No features found.


********** Adverbiaux Temporels Features **********
********************************************************

1. Sentence: Espace(s) accessible(s) aux résidents , aux visiteurs , aux passants .
No features found.

