
********** Entity Names Features **********
*******************************************

1. Sentence: Le Scot de Strasbourg conditionne l ' urbanisation de la réserve foncière de 50 hectares à la résorption des problèmes d ' accès à la zone et aux bourgs alentour .
Entity Name (Type) :: Scot de Strasbourg (LOC)


********** Emotions Features **********
***************************************

1. Sentence: Le Scot de Strasbourg conditionne l ' urbanisation de la réserve foncière de 50 hectares à la résorption des problèmes d ' accès à la zone et aux bourgs alentour .
No features found.


********** Modality Features **********
***************************************

1. Sentence: Le Scot de Strasbourg conditionne l ' urbanisation de la réserve foncière de 50 hectares à la résorption des problèmes d ' accès à la zone et aux bourgs alentour .
Features :: Feature-Counts :: Feature-Lemmas
--------------------------------------------
marqueurs :: 1 :: [ problème ]
appreciatif :: 1 :: [ problème ]
marqueurs_niveau2 :: 1 :: [ problème ]
appreciatif_niveau2 :: 1 :: [ problème ]
Total feature counts: 4


********** Adverbiaux Temporels Features **********
********************************************************

1. Sentence: Le Scot de Strasbourg conditionne l ' urbanisation de la réserve foncière de 50 hectares à la résorption des problèmes d ' accès à la zone et aux bourgs alentour .
No features found.

