
********** Entity Names Features **********
*******************************************

1. Sentence: Mais , à l ' endroit du parc où s ' épuisent leurs influences , au-delà des ombres portées , le sol allégé se gonfle , se soulève;
No features found.


********** Emotions Features **********
***************************************

1. Sentence: Mais , à l ' endroit du parc où s ' épuisent leurs influences , au-delà des ombres portées , le sol allégé se gonfle , se soulève;
No features found.


********** Modality Features **********
***************************************

1. Sentence: Mais , à l ' endroit du parc où s ' épuisent leurs influences , au-delà des ombres portées , le sol allégé se gonfle , se soulève;
Features :: Feature-Counts :: Feature-Lemmas
--------------------------------------------
marqueurs :: 1 :: [ soulever ]
pas_d_indication :: 1 :: [ soulever ]
marqueurs_niveau0 :: 1 :: [ soulever ]
pas_d_indication_niveau0 :: 1 :: [ soulever ]
Total feature counts: 4


********** Adverbiaux Temporels Features **********
********************************************************

1. Sentence: Mais , à l ' endroit du parc où s ' épuisent leurs influences , au-delà des ombres portées , le sol allégé se gonfle , se soulève;
No features found.

