
********** Entity Names Features **********
*******************************************

1. Sentence: A - L ' espace nécessaire : la région urbaine
No features found.


********** Emotions Features **********
***************************************

1. Sentence: A - L ' espace nécessaire : la région urbaine
No features found.


********** Modality Features **********
***************************************

1. Sentence: A - L ' espace nécessaire : la région urbaine
Features :: Feature-Counts :: Feature-Lemmas
--------------------------------------------
marqueurs :: 1 :: [ nécessaire ]
alethique :: 1 :: [ nécessaire ]
marqueurs_niveau3 :: 1 :: [ nécessaire ]
alethique_niveau3 :: 1 :: [ nécessaire ]
Total feature counts: 4


********** Adverbiaux Temporels Features **********
********************************************************

1. Sentence: A - L ' espace nécessaire : la région urbaine
No features found.

