====== Sentence Level Features ======

1. Sentence: On nous reproche un manque d ' ambition : nous plaidons que la valorisation des vastes emprises d ' entrepôts hétéroclites ne pourra s ' opérer qu ' à la faveur d ' un processus progressif de mutation urbaine .
Features :: Feature-Counts :: Feature-Lemmas
--------------------------------------------
marqueurs :: 3 :: [ reprocher, plaire, pouvoir ]
marqueurs_niveau2 :: 2 :: [ reprocher, plaire ]
alethique :: 1 :: [ pouvoir ]
appreciatif :: 1 :: [ plaire ]
axiologique :: 1 :: [ reprocher ]
deontique :: 1 :: [ pouvoir ]
epistemique :: 1 :: [ pouvoir ]
marqueurs_niveau3 :: 1 :: [ pouvoir ]
alethique_niveau3 :: 1 :: [ pouvoir ]
appreciatif_niveau2 :: 1 :: [ plaire ]
axiologique_niveau2 :: 1 :: [ reprocher ]
deontique_niveau3 :: 1 :: [ pouvoir ]
epistemique_niveau3 :: 1 :: [ pouvoir ]
Total feature counts: 16


====== Text Level Features ======

Features :: Feature-Counts :: Feature-Lemmas
--------------------------------------------
marqueurs :: 3 :: [ reprocher, plaire, pouvoir ]
marqueurs_niveau2 :: 2 :: [ reprocher, plaire ]
alethique :: 1 :: [ pouvoir ]
appreciatif :: 1 :: [ plaire ]
axiologique :: 1 :: [ reprocher ]
deontique :: 1 :: [ pouvoir ]
epistemique :: 1 :: [ pouvoir ]
marqueurs_niveau3 :: 1 :: [ pouvoir ]
alethique_niveau3 :: 1 :: [ pouvoir ]
appreciatif_niveau2 :: 1 :: [ plaire ]
axiologique_niveau2 :: 1 :: [ reprocher ]
deontique_niveau3 :: 1 :: [ pouvoir ]
epistemique_niveau3 :: 1 :: [ pouvoir ]
Total feature counts: 16

