====== Sentence Level Features ======

1. Sentence: et au mépris du respect de la hiérarchie , nous avons convoqué les ingénieurs d ’ arrondissement et non les ingénieurs en chef .
Features :: Feature-Counts :: Feature-Lemmas
--------------------------------------------
marqueurs :: 2 :: [ respect, convoquer ]
marqueurs_niveau2 :: 2 :: [ respect, convoquer ]
appreciatif :: 1 :: [ respect ]
axiologique :: 1 :: [ respect ]
deontique :: 1 :: [ convoquer ]
appreciatif_niveau2 :: 1 :: [ respect ]
axiologique_niveau2 :: 1 :: [ respect ]
deontique_niveau2 :: 1 :: [ convoquer ]
Total feature counts: 10


====== Text Level Features ======

Features :: Feature-Counts :: Feature-Lemmas
--------------------------------------------
marqueurs :: 2 :: [ respect, convoquer ]
marqueurs_niveau2 :: 2 :: [ respect, convoquer ]
appreciatif :: 1 :: [ respect ]
axiologique :: 1 :: [ respect ]
deontique :: 1 :: [ convoquer ]
appreciatif_niveau2 :: 1 :: [ respect ]
axiologique_niveau2 :: 1 :: [ respect ]
deontique_niveau2 :: 1 :: [ convoquer ]
Total feature counts: 10

