
********** Entity Names Features **********
*******************************************

1. Sentence: Que va-t-il se passer avec les projets urbains autour des gares du Grand Paris Express ?
Entity Name (Type) :: Grand Paris Express (LOC)


********** Emotions Features **********
***************************************

1. Sentence: Que va-t-il se passer avec les projets urbains autour des gares du Grand Paris Express ?
No features found.


********** Modality Features **********
***************************************

1. Sentence: Que va-t-il se passer avec les projets urbains autour des gares du Grand Paris Express ?
Features :: Feature-Counts :: Feature-Lemmas
--------------------------------------------
marqueurs :: 2 :: [ aller, grand ]
alethique :: 1 :: [ aller ]
epistemique :: 1 :: [ grand ]
marqueurs_niveau3 :: 1 :: [ grand ]
marqueurs_niveau1 :: 1 :: [ aller ]
alethique_niveau1 :: 1 :: [ aller ]
epistemique_niveau3 :: 1 :: [ grand ]
Total feature counts: 8


********** Adverbiaux Temporels Features **********
********************************************************

1. Sentence: Que va-t-il se passer avec les projets urbains autour des gares du Grand Paris Express ?
No features found.

