
********** Entity Names Features **********
*******************************************

1. Sentence: Cette étude questionne aussi l ' organisation des métiers de l ' urbanisme .
Entity Name (Type) :: Cette (LOC)


********** Emotions Features **********
***************************************

1. Sentence: Cette étude questionne aussi l ' organisation des métiers de l ' urbanisme .
No features found.


********** Modality Features **********
***************************************

1. Sentence: Cette étude questionne aussi l ' organisation des métiers de l ' urbanisme .
No features found.


********** Adverbiaux Temporels Features **********
********************************************************

1. Sentence: Cette étude questionne aussi l ' organisation des métiers de l ' urbanisme .
No features found.

