
********** Entity Names Features **********
*******************************************

2. Sentence: Il faut éviter cela .
No features found.


********** Emotions Features **********
***************************************

2. Sentence: Il faut éviter cela .
No features found.


********** Modality Features **********
***************************************

2. Sentence: Il faut éviter cela .
Features :: Feature-Counts :: Feature-Lemmas
--------------------------------------------
marqueurs :: 1 :: [ falloir ]
deontique :: 1 :: [ falloir ]
marqueurs_niveau3 :: 1 :: [ falloir ]
deontique_niveau3 :: 1 :: [ falloir ]
Total feature counts: 4


********** Adverbiaux Temporels Features **********
********************************************************

2. Sentence: Il faut éviter cela .
No features found.

