====== Sentence Level Features ======

1. Sentence: Pour l ' urbanisme , la croissance économique est sans doute plus déterminante encore que la croissance démographique;
Features :: Feature-Counts :: Feature-Lemmas
--------------------------------------------
marqueurs :: 1 :: [ doute ]
epistemique :: 1 :: [ doute ]
marqueurs_niveau3 :: 1 :: [ doute ]
epistemique_niveau3 :: 1 :: [ doute ]
Total feature counts: 4


====== Text Level Features ======

Features :: Feature-Counts :: Feature-Lemmas
--------------------------------------------
marqueurs :: 1 :: [ doute ]
epistemique :: 1 :: [ doute ]
marqueurs_niveau3 :: 1 :: [ doute ]
epistemique_niveau3 :: 1 :: [ doute ]
Total feature counts: 4

