
********** Entity Names Features **********
*******************************************

1. Sentence: Dans cette mesure , la manière dont je travaille doit en être imprégnée .
No features found.


********** Emotions Features **********
***************************************

1. Sentence: Dans cette mesure , la manière dont je travaille doit en être imprégnée .
No features found.


********** Modality Features **********
***************************************

1. Sentence: Dans cette mesure , la manière dont je travaille doit en être imprégnée .
Features :: Feature-Counts :: Feature-Lemmas
--------------------------------------------
marqueurs :: 2 :: [ travailler, devoir ]
alethique :: 1 :: [ devoir ]
appreciatif :: 1 :: [ travailler ]
deontique :: 1 :: [ devoir ]
epistemique :: 1 :: [ devoir ]
marqueurs_niveau3 :: 1 :: [ devoir ]
marqueurs_niveau2 :: 1 :: [ travailler ]
alethique_niveau3 :: 1 :: [ devoir ]
appreciatif_niveau2 :: 1 :: [ travailler ]
deontique_niveau3 :: 1 :: [ devoir ]
epistemique_niveau3 :: 1 :: [ devoir ]
Total feature counts: 12


********** Adverbiaux Temporels Features **********
********************************************************

1. Sentence: Dans cette mesure , la manière dont je travaille doit en être imprégnée .
No features found.

