====== Sentence Level Features ======

1. Sentence: Je me réjouis de cette situation où la société est mûre pour envisager la transformation de ses territoires .
Features :: Feature-Counts :: Feature-Lemmas
--------------------------------------------
marqueurs :: 1 :: [ réjouir ]
appreciatif :: 1 :: [ réjouir ]
marqueurs_niveau3 :: 1 :: [ réjouir ]
appreciatif_niveau3 :: 1 :: [ réjouir ]
Total feature counts: 4


====== Text Level Features ======

Features :: Feature-Counts :: Feature-Lemmas
--------------------------------------------
marqueurs :: 1 :: [ réjouir ]
appreciatif :: 1 :: [ réjouir ]
marqueurs_niveau3 :: 1 :: [ réjouir ]
appreciatif_niveau3 :: 1 :: [ réjouir ]
Total feature counts: 4

