====== Sentence Level Features ======

1. Sentence: Paris , les centres de villes nouvelles , les centres urbains nouveaux en banlieue actuelle constituent les pôles d ' activités tertiaires autour desquels la région va s ' organiser .
Features :: Feature-Counts :: Feature-Lemmas
--------------------------------------------
marqueurs :: 1 :: [ aller ]
alethique :: 1 :: [ aller ]
marqueurs_niveau1 :: 1 :: [ aller ]
alethique_niveau1 :: 1 :: [ aller ]
Total feature counts: 4


====== Text Level Features ======

Features :: Feature-Counts :: Feature-Lemmas
--------------------------------------------
marqueurs :: 1 :: [ aller ]
alethique :: 1 :: [ aller ]
marqueurs_niveau1 :: 1 :: [ aller ]
alethique_niveau1 :: 1 :: [ aller ]
Total feature counts: 4

