
********** Entity Names Features **********
*******************************************

1. Sentence: Il faudra quand même réserver des espaces autour de ces cités pour que les équipements collectifs du cœur de cité puissent trouver un jour à s ’ instaurer .
No features found.


********** Emotions Features **********
***************************************

1. Sentence: Il faudra quand même réserver des espaces autour de ces cités pour que les équipements collectifs du cœur de cité puissent trouver un jour à s ’ instaurer .
No features found.


********** Modality Features **********
***************************************

1. Sentence: Il faudra quand même réserver des espaces autour de ces cités pour que les équipements collectifs du cœur de cité puissent trouver un jour à s ’ instaurer .
Features :: Feature-Counts :: Feature-Lemmas
--------------------------------------------
marqueurs :: 2 :: [ falloir, pouvoir ]
deontique :: 2 :: [ falloir, pouvoir ]
marqueurs_niveau3 :: 2 :: [ falloir, pouvoir ]
deontique_niveau3 :: 2 :: [ falloir, pouvoir ]
alethique :: 1 :: [ pouvoir ]
epistemique :: 1 :: [ pouvoir ]
alethique_niveau3 :: 1 :: [ pouvoir ]
epistemique_niveau3 :: 1 :: [ pouvoir ]
Total feature counts: 12


********** Adverbiaux Temporels Features **********
********************************************************

1. Sentence: Il faudra quand même réserver des espaces autour de ces cités pour que les équipements collectifs du cœur de cité puissent trouver un jour à s ’ instaurer .
No features found.

