
********** Entity Names Features **********
*******************************************

1. Sentence: Dans le cas du permis de faire , ces derniers disent qu ' il faut  : — « Déplacer les lignes en matière de décision de dérogation pour placer le processus expérimental et le projet architectural au centre .
No features found.


********** Emotions Features **********
***************************************

1. Sentence: Dans le cas du permis de faire , ces derniers disent qu ' il faut  : — « Déplacer les lignes en matière de décision de dérogation pour placer le processus expérimental et le projet architectural au centre .
No features found.


********** Modality Features **********
***************************************

1. Sentence: Dans le cas du permis de faire , ces derniers disent qu ' il faut  : — « Déplacer les lignes en matière de décision de dérogation pour placer le processus expérimental et le projet architectural au centre .
Features :: Feature-Counts :: Feature-Lemmas
--------------------------------------------
marqueurs :: 3 :: [ dire, falloir, décision ]
boulique :: 2 :: [ dire, décision ]
marqueurs_niveau3 :: 2 :: [ dire, falloir ]
deontique :: 1 :: [ falloir ]
epistemique :: 1 :: [ décision ]
marqueurs_niveau2 :: 1 :: [ décision ]
boulique_niveau3 :: 1 :: [ dire ]
boulique_niveau2 :: 1 :: [ décision ]
deontique_niveau3 :: 1 :: [ falloir ]
epistemique_niveau2 :: 1 :: [ décision ]
Total feature counts: 14


********** Adverbiaux Temporels Features **********
********************************************************

1. Sentence: Dans le cas du permis de faire , ces derniers disent qu ' il faut  : — « Déplacer les lignes en matière de décision de dérogation pour placer le processus expérimental et le projet architectural au centre .
No features found.

