====== Sentence Level Features ======

1. Sentence: ÉCHELLE : 1/500 . 000
Entity Name (Type) :: ÉCHELLE (LOC)


====== Text Level Features ======

Entity Name (Entity Type)
-------------------------
ÉCHELLE (LOC)
Total entitiy counts: 1

