====== Sentence Level Features ======

1. Sentence: Rien ne venait séparer l ' élévation du terrassement , les cadrages du paysage étaient conçus avec le plan de l ' édifice dessiné avec la forme du sol .
Features :: Feature-Counts :: Feature-Lemmas
--------------------------------------------
marqueurs :: 2 :: [ rien, venir ]
alethique :: 2 :: [ rien, venir ]
marqueurs_niveau3 :: 1 :: [ venir ]
marqueurs_niveau2 :: 1 :: [ rien ]
alethique_niveau3 :: 1 :: [ venir ]
alethique_niveau2 :: 1 :: [ rien ]
Total feature counts: 8


====== Text Level Features ======

Features :: Feature-Counts :: Feature-Lemmas
--------------------------------------------
marqueurs :: 2 :: [ rien, venir ]
alethique :: 2 :: [ rien, venir ]
marqueurs_niveau3 :: 1 :: [ venir ]
marqueurs_niveau2 :: 1 :: [ rien ]
alethique_niveau3 :: 1 :: [ venir ]
alethique_niveau2 :: 1 :: [ rien ]
Total feature counts: 8

