
********** Entity Names Features **********
*******************************************

1. Sentence: Mais la collectivité publique locale doit surtout commencer par bien faire son boulot de base , c ' est-à-dire fabriquer des villes où les gens se sentent bien !
No features found.


********** Emotions Features **********
***************************************

1. Sentence: Mais la collectivité publique locale doit surtout commencer par bien faire son boulot de base , c ' est-à-dire fabriquer des villes où les gens se sentent bien !
No features found.


********** Modality Features **********
***************************************

1. Sentence: Mais la collectivité publique locale doit surtout commencer par bien faire son boulot de base , c ' est-à-dire fabriquer des villes où les gens se sentent bien !
Features :: Feature-Counts :: Feature-Lemmas
--------------------------------------------
marqueurs :: 3 :: [ devoir, bien, bien ]
marqueurs_niveau3 :: 3 :: [ devoir, bien, bien ]
appreciatif :: 2 :: [ bien, bien ]
axiologique :: 2 :: [ bien, bien ]
appreciatif_niveau3 :: 2 :: [ bien, bien ]
axiologique_niveau3 :: 2 :: [ bien, bien ]
alethique :: 1 :: [ devoir ]
deontique :: 1 :: [ devoir ]
epistemique :: 1 :: [ devoir ]
alethique_niveau3 :: 1 :: [ devoir ]
deontique_niveau3 :: 1 :: [ devoir ]
epistemique_niveau3 :: 1 :: [ devoir ]
Total feature counts: 20


********** Adverbiaux Temporels Features **********
********************************************************

1. Sentence: Mais la collectivité publique locale doit surtout commencer par bien faire son boulot de base , c ' est-à-dire fabriquer des villes où les gens se sentent bien !
No features found.

