
********** Entity Names Features **********
*******************************************

1. Sentence: Entre ces " doigts de gant " nouveaux , des espaces , pour le moment , demeurent libres .
No features found.


********** Emotions Features **********
***************************************

1. Sentence: Entre ces " doigts de gant " nouveaux , des espaces , pour le moment , demeurent libres .
No features found.


********** Modality Features **********
***************************************

1. Sentence: Entre ces " doigts de gant " nouveaux , des espaces , pour le moment , demeurent libres .
Features :: Feature-Counts :: Feature-Lemmas
--------------------------------------------
marqueurs :: 1 :: [ libre ]
appreciatif :: 1 :: [ libre ]
marqueurs_niveau1 :: 1 :: [ libre ]
appreciatif_niveau1 :: 1 :: [ libre ]
Total feature counts: 4


********** Adverbiaux Temporels Features **********
********************************************************

1. Sentence: Entre ces " doigts de gant " nouveaux , des espaces , pour le moment , demeurent libres .
Features :: Feature-Counts :: Feature-Texts
--------------------------------------------
adverbiaux_temporels::1::['pour le moment']
adverbiaux_duratifs_iteratifs::1::['pour le moment']
adverbiaux_pointage_non_absolu::1::['pour le moment']
adverbiaux_loc_temp_focalisation_id::1::['pour le moment']
adverbiaux_loc_temp_regionalisation_id::1::['pour le moment']
adverbiaux_dur_iter_deictique::1::['pour le moment']

