====== Sentence Level Features ======

1. Sentence: Mais ils ne permettent pas , à eux seuls , d ' aller n ' importe ou .
Features :: Feature-Counts :: Feature-Lemmas
--------------------------------------------
marqueurs :: 3 :: [ permettre, lui, aller ]
alethique :: 2 :: [ lui, aller ]
marqueurs_niveau3 :: 2 :: [ permettre, lui ]
deontique :: 1 :: [ permettre ]
epistemique :: 1 :: [ lui ]
marqueurs_niveau1 :: 1 :: [ aller ]
alethique_niveau3 :: 1 :: [ lui ]
alethique_niveau1 :: 1 :: [ aller ]
deontique_niveau3 :: 1 :: [ permettre ]
epistemique_niveau3 :: 1 :: [ lui ]
Total feature counts: 14


====== Text Level Features ======

Features :: Feature-Counts :: Feature-Lemmas
--------------------------------------------
marqueurs :: 3 :: [ permettre, lui, aller ]
alethique :: 2 :: [ lui, aller ]
marqueurs_niveau3 :: 2 :: [ permettre, lui ]
deontique :: 1 :: [ permettre ]
epistemique :: 1 :: [ lui ]
marqueurs_niveau1 :: 1 :: [ aller ]
alethique_niveau3 :: 1 :: [ lui ]
alethique_niveau1 :: 1 :: [ aller ]
deontique_niveau3 :: 1 :: [ permettre ]
epistemique_niveau3 :: 1 :: [ lui ]
Total feature counts: 14

