
********** Entity Names Features **********
*******************************************

1. Sentence: « Il n ' y avait pas de gens comme moi , ils ne voyaient pas comment m ' utiliser : je ne fais La ville au corps à corps pas de projet seul , il faut qu ' on me pose des questions .
No features found.


********** Emotions Features **********
***************************************

1. Sentence: « Il n ' y avait pas de gens comme moi , ils ne voyaient pas comment m ' utiliser : je ne fais La ville au corps à corps pas de projet seul , il faut qu ' on me pose des questions .
No features found.


********** Modality Features **********
***************************************

1. Sentence: « Il n ' y avait pas de gens comme moi , ils ne voyaient pas comment m ' utiliser : je ne fais La ville au corps à corps pas de projet seul , il faut qu ' on me pose des questions .
Features :: Feature-Counts :: Feature-Lemmas
--------------------------------------------
marqueurs :: 2 :: [ lui, falloir ]
marqueurs_niveau3 :: 2 :: [ lui, falloir ]
alethique :: 1 :: [ lui ]
deontique :: 1 :: [ falloir ]
epistemique :: 1 :: [ lui ]
alethique_niveau3 :: 1 :: [ lui ]
deontique_niveau3 :: 1 :: [ falloir ]
epistemique_niveau3 :: 1 :: [ lui ]
Total feature counts: 10


********** Adverbiaux Temporels Features **********
********************************************************

1. Sentence: « Il n ' y avait pas de gens comme moi , ils ne voyaient pas comment m ' utiliser : je ne fais La ville au corps à corps pas de projet seul , il faut qu ' on me pose des questions .
No features found.

