
********** Entity Names Features **********
*******************************************

1. Sentence: A Paris , même , la création du C . N . l . T . n ' a pas été étrangère au développement qu ' a connu ensuite le projet d ' aménagement du rond-point de la Défense et de ses abords .
Entity Name (Type) :: la Défense (LOC)


********** Emotions Features **********
***************************************

1. Sentence: A Paris , même , la création du C . N . l . T . n ' a pas été étrangère au développement qu ' a connu ensuite le projet d ' aménagement du rond-point de la Défense et de ses abords .
No features found.


********** Modality Features **********
***************************************

1. Sentence: A Paris , même , la création du C . N . l . T . n ' a pas été étrangère au développement qu ' a connu ensuite le projet d ' aménagement du rond-point de la Défense et de ses abords .
Features :: Feature-Counts :: Feature-Lemmas
--------------------------------------------
marqueurs :: 1 :: [ connaître ]
epistemique :: 1 :: [ connaître ]
marqueurs_niveau2 :: 1 :: [ connaître ]
epistemique_niveau2 :: 1 :: [ connaître ]
Total feature counts: 4


********** Adverbiaux Temporels Features **********
********************************************************

1. Sentence: A Paris , même , la création du C . N . l . T . n ' a pas été étrangère au développement qu ' a connu ensuite le projet d ' aménagement du rond-point de la Défense et de ses abords .
No features found.

