====== Sentence Level Features ======

1. Sentence: 1%	{ Elbeuf Vierzon	38 . 000 29 . 000		41 . 000 3 1 .
Entity Name (Type) :: Vierzon (LOC)

2. Sentence: 000
No features found.


====== Text Level Features ======

Entity Name (Entity Type)
-------------------------
Elbeuf (LOC)
Vierzon (LOC)
Total entitiy counts: 2

