====== Sentence Level Features ======

1. Sentence: 1%	{ Elbeuf Vierzon	38 . 000 29 . 000		41 . 000 3 1 .
No features found.

2. Sentence: 000
No features found.


====== Text Level Features ======

No features found.

