
********** Entity Names Features **********
*******************************************

1. Sentence: Parmi ces mouvements , les allers et retours quotidiens du domicile au bureau ou à l ' usine , les " migrations alternantes " , occupent une place importante .
No features found.


********** Emotions Features **********
***************************************

1. Sentence: Parmi ces mouvements , les allers et retours quotidiens du domicile au bureau ou à l ' usine , les " migrations alternantes " , occupent une place importante .
No features found.


********** Modality Features **********
***************************************

1. Sentence: Parmi ces mouvements , les allers et retours quotidiens du domicile au bureau ou à l ' usine , les " migrations alternantes " , occupent une place importante .
Features :: Feature-Counts :: Feature-Lemmas
--------------------------------------------
marqueurs :: 2 :: [ aller, important ]
marqueurs_niveau1 :: 2 :: [ aller, important ]
alethique :: 1 :: [ aller ]
appreciatif :: 1 :: [ important ]
axiologique :: 1 :: [ important ]
epistemique :: 1 :: [ important ]
alethique_niveau1 :: 1 :: [ aller ]
appreciatif_niveau1 :: 1 :: [ important ]
axiologique_niveau1 :: 1 :: [ important ]
epistemique_niveau1 :: 1 :: [ important ]
Total feature counts: 12


********** Adverbiaux Temporels Features **********
********************************************************

1. Sentence: Parmi ces mouvements , les allers et retours quotidiens du domicile au bureau ou à l ' usine , les " migrations alternantes " , occupent une place importante .
No features found.

