====== Sentence Level Features ======

1. Sentence: Je pense que deux positions s ' affrontent dans l ' urbanisme d ' aujourd ' hui .
Features :: Feature-Counts :: Feature-Lemmas
--------------------------------------------
marqueurs :: 2 :: [ penser, affronter ]
axiologique :: 1 :: [ affronter ]
epistemique :: 1 :: [ penser ]
marqueurs_niveau3 :: 1 :: [ penser ]
marqueurs_niveau1 :: 1 :: [ affronter ]
axiologique_niveau1 :: 1 :: [ affronter ]
epistemique_niveau3 :: 1 :: [ penser ]
Total feature counts: 8


====== Text Level Features ======

Features :: Feature-Counts :: Feature-Lemmas
--------------------------------------------
marqueurs :: 2 :: [ penser, affronter ]
axiologique :: 1 :: [ affronter ]
epistemique :: 1 :: [ penser ]
marqueurs_niveau3 :: 1 :: [ penser ]
marqueurs_niveau1 :: 1 :: [ affronter ]
axiologique_niveau1 :: 1 :: [ affronter ]
epistemique_niveau3 :: 1 :: [ penser ]
Total feature counts: 8

