====== Sentence Level Features ======

1. Sentence: Et nous avons rapidement réuni une équipe magnifique , très jeune .
Features :: Feature-Counts :: Feature-Lemmas
--------------------------------------------
marqueurs :: 3 :: [ rapidement, magnifique, jeune ]
marqueurs_niveau3 :: 2 :: [ rapidement, magnifique ]
appreciatif :: 1 :: [ magnifique ]
epistemique :: 1 :: [ rapidement ]
pas_d_indication :: 1 :: [ jeune ]
marqueurs_niveau0 :: 1 :: [ jeune ]
appreciatif_niveau3 :: 1 :: [ magnifique ]
epistemique_niveau3 :: 1 :: [ rapidement ]
pas_d_indication_niveau0 :: 1 :: [ jeune ]
Total feature counts: 12


====== Text Level Features ======

Features :: Feature-Counts :: Feature-Lemmas
--------------------------------------------
marqueurs :: 3 :: [ rapidement, magnifique, jeune ]
marqueurs_niveau3 :: 2 :: [ rapidement, magnifique ]
appreciatif :: 1 :: [ magnifique ]
epistemique :: 1 :: [ rapidement ]
pas_d_indication :: 1 :: [ jeune ]
marqueurs_niveau0 :: 1 :: [ jeune ]
appreciatif_niveau3 :: 1 :: [ magnifique ]
epistemique_niveau3 :: 1 :: [ rapidement ]
pas_d_indication_niveau0 :: 1 :: [ jeune ]
Total feature counts: 12

