
********** Entity Names Features **********
*******************************************

1. Sentence: PRINCIPAUX AXES ROUTIERS ET FERRÉS DANS L ' AGGLOMÉRATION
Entity Name (Type) :: DANS L ' AGGLOMÉRATION (ORG)


********** Emotions Features **********
***************************************

1. Sentence: PRINCIPAUX AXES ROUTIERS ET FERRÉS DANS L ' AGGLOMÉRATION
No features found.


********** Modality Features **********
***************************************

1. Sentence: PRINCIPAUX AXES ROUTIERS ET FERRÉS DANS L ' AGGLOMÉRATION
No features found.


********** Adverbiaux Temporels Features **********
********************************************************

1. Sentence: PRINCIPAUX AXES ROUTIERS ET FERRÉS DANS L ' AGGLOMÉRATION
No features found.

