
********** Entity Names Features **********
*******************************************

1. Sentence: La durée moyenne des opérations étant estimée à 8 ans , on peut considérer que 4 . 000 à 5 .
No features found.


********** Emotions Features **********
***************************************

1. Sentence: La durée moyenne des opérations étant estimée à 8 ans , on peut considérer que 4 . 000 à 5 .
Tokens having emotion: [ estimée, considérer ]
Lemmas having emotion: [ estimer, considérer ]
Categories of the emotion lemmas: [ admiration, admiration ]


********** Modality Features **********
***************************************

1. Sentence: La durée moyenne des opérations étant estimée à 8 ans , on peut considérer que 4 . 000 à 5 .
Features :: Feature-Counts :: Feature-Lemmas
--------------------------------------------
marqueurs :: 2 :: [ pouvoir, considérer ]
epistemique :: 2 :: [ pouvoir, considérer ]
marqueurs_niveau3 :: 2 :: [ pouvoir, considérer ]
epistemique_niveau3 :: 2 :: [ pouvoir, considérer ]
alethique :: 1 :: [ pouvoir ]
deontique :: 1 :: [ pouvoir ]
alethique_niveau3 :: 1 :: [ pouvoir ]
deontique_niveau3 :: 1 :: [ pouvoir ]
Total feature counts: 12


********** Adverbiaux Temporels Features **********
********************************************************

1. Sentence: La durée moyenne des opérations étant estimée à 8 ans , on peut considérer que 4 . 000 à 5 .
No features found.

