====== Sentence Level Features ======

1. Sentence: Le paradoxe , du reste , est que ce caractère indéfini renvoie à un monde globalement fini , fermé , sans échappatoire , sans extérieur , alors que l ' espace bien délimité du paysage classique se définissait au contraire sur le fond d ' un extérieur immense et inconnu .
Features :: Feature-Counts :: Feature-Lemmas
--------------------------------------------
marqueurs :: 2 :: [ bien, immense ]
appreciatif :: 1 :: [ bien ]
axiologique :: 1 :: [ bien ]
epistemique :: 1 :: [ immense ]
marqueurs_niveau3 :: 1 :: [ bien ]
marqueurs_niveau2 :: 1 :: [ immense ]
appreciatif_niveau3 :: 1 :: [ bien ]
axiologique_niveau3 :: 1 :: [ bien ]
epistemique_niveau2 :: 1 :: [ immense ]
Total feature counts: 10


====== Text Level Features ======

Features :: Feature-Counts :: Feature-Lemmas
--------------------------------------------
marqueurs :: 2 :: [ bien, immense ]
appreciatif :: 1 :: [ bien ]
axiologique :: 1 :: [ bien ]
epistemique :: 1 :: [ immense ]
marqueurs_niveau3 :: 1 :: [ bien ]
marqueurs_niveau2 :: 1 :: [ immense ]
appreciatif_niveau3 :: 1 :: [ bien ]
axiologique_niveau3 :: 1 :: [ bien ]
epistemique_niveau2 :: 1 :: [ immense ]
Total feature counts: 10

