
********** Entity Names Features **********
*******************************************

1. Sentence: Leur densité sera dans l ' ensemble modérée , de l ' ordre de 60 à 80 habitants à l ' hectare , leur infrastructure sera généreusement tracée .
Entity Name (Type) :: Leur (LOC)


********** Emotions Features **********
***************************************

1. Sentence: Leur densité sera dans l ' ensemble modérée , de l ' ordre de 60 à 80 habitants à l ' hectare , leur infrastructure sera généreusement tracée .
No features found.


********** Modality Features **********
***************************************

1. Sentence: Leur densité sera dans l ' ensemble modérée , de l ' ordre de 60 à 80 habitants à l ' hectare , leur infrastructure sera généreusement tracée .
Features :: Feature-Counts :: Feature-Lemmas
--------------------------------------------
marqueurs :: 1 :: [ ordre ]
deontique :: 1 :: [ ordre ]
marqueurs_niveau2 :: 1 :: [ ordre ]
deontique_niveau2 :: 1 :: [ ordre ]
Total feature counts: 4


********** Adverbiaux Temporels Features **********
********************************************************

1. Sentence: Leur densité sera dans l ' ensemble modérée , de l ' ordre de 60 à 80 habitants à l ' hectare , leur infrastructure sera généreusement tracée .
No features found.

