====== Sentence Level Features ======

1. Sentence: Leur diversité offre à la population de plus grandes possibilités d ' emplois (1) .
Entity Name (Type) :: Leur (LOC)


====== Text Level Features ======

Entity Name (Entity Type)
-------------------------
Leur (LOC)
Total entitiy counts: 1

