====== Sentence Level Features ======

1. Sentence: Le lieu est très populaire .
Features :: Feature-Counts :: Feature-Lemmas
--------------------------------------------
marqueurs :: 1 :: [ populaire ]
pas_d_indication :: 1 :: [ populaire ]
marqueurs_niveau0 :: 1 :: [ populaire ]
pas_d_indication_niveau0 :: 1 :: [ populaire ]
Total feature counts: 4


====== Text Level Features ======

Features :: Feature-Counts :: Feature-Lemmas
--------------------------------------------
marqueurs :: 1 :: [ populaire ]
pas_d_indication :: 1 :: [ populaire ]
marqueurs_niveau0 :: 1 :: [ populaire ]
pas_d_indication_niveau0 :: 1 :: [ populaire ]
Total feature counts: 4

