====== Sentence Level Features ======

1. Sentence: Au nord , le jardin de l ' Europe réalisé par François Grether est entouré d ' une petite voie qui dessert les bâtiments riverains .
Features :: Feature-Counts :: Feature-Lemmas
--------------------------------------------
marqueurs :: 2 :: [ réaliser, petit ]
alethique :: 1 :: [ réaliser ]
epistemique :: 1 :: [ petit ]
marqueurs_niveau3 :: 1 :: [ petit ]
marqueurs_niveau1 :: 1 :: [ réaliser ]
alethique_niveau1 :: 1 :: [ réaliser ]
epistemique_niveau3 :: 1 :: [ petit ]
Total feature counts: 8


====== Text Level Features ======

Features :: Feature-Counts :: Feature-Lemmas
--------------------------------------------
marqueurs :: 2 :: [ réaliser, petit ]
alethique :: 1 :: [ réaliser ]
epistemique :: 1 :: [ petit ]
marqueurs_niveau3 :: 1 :: [ petit ]
marqueurs_niveau1 :: 1 :: [ réaliser ]
alethique_niveau1 :: 1 :: [ réaliser ]
epistemique_niveau3 :: 1 :: [ petit ]
Total feature counts: 8

