
********** Entity Names Features **********
*******************************************

1. Sentence: Il a intégré l ' atelier en 2003 .
No features found.


********** Emotions Features **********
***************************************

1. Sentence: Il a intégré l ' atelier en 2003 .
No features found.


********** Modality Features **********
***************************************

1. Sentence: Il a intégré l ' atelier en 2003 .
No features found.


********** Adverbiaux Temporels Features **********
********************************************************

1. Sentence: Il a intégré l ' atelier en 2003 .
Features :: Feature-Counts :: Feature-Texts
--------------------------------------------
adverbiaux_temporels::1::['en 2003']
adverbiaux_localisation_temporelle::1::['en 2003']
adverbiaux_pointage_absolu::1::['en 2003']
adverbiaux_pointage_non_absolu::1::['en 2003']
adverbiaux_loc_temp_focalisation_id::1::['en 2003']
adverbiaux_loc_temp_regionalisation_id::1::['en 2003']
adverbiaux_loc_temp_pointage_non_absolu::1::['en 2003']
adverbiaux_dur_iter_absolu::1::['en 2003']

