
********** Entity Names Features **********
*******************************************

1. Sentence: il est la trame des plans d ' urbanisme et des programmes d ' équipement , parce qu ' il définit les orientations majeures - les " structures " - dans ces deux domaines .
No features found.


********** Emotions Features **********
***************************************

1. Sentence: il est la trame des plans d ' urbanisme et des programmes d ' équipement , parce qu ' il définit les orientations majeures - les " structures " - dans ces deux domaines .
No features found.


********** Modality Features **********
***************************************

1. Sentence: il est la trame des plans d ' urbanisme et des programmes d ' équipement , parce qu ' il définit les orientations majeures - les " structures " - dans ces deux domaines .
No features found.


********** Adverbiaux Temporels Features **********
********************************************************

1. Sentence: il est la trame des plans d ' urbanisme et des programmes d ' équipement , parce qu ' il définit les orientations majeures - les " structures " - dans ces deux domaines .
No features found.

