
********** Entity Names Features **********
*******************************************

1. Sentence: Il ne s ' agissait pas de panser momentanément les maux ;
No features found.


********** Emotions Features **********
***************************************

1. Sentence: Il ne s ' agissait pas de panser momentanément les maux ;
No features found.


********** Modality Features **********
***************************************

1. Sentence: Il ne s ' agissait pas de panser momentanément les maux ;
Features :: Feature-Counts :: Feature-Lemmas
--------------------------------------------
marqueurs :: 1 :: [ mal ]
appreciatif :: 1 :: [ mal ]
axiologique :: 1 :: [ mal ]
marqueurs_niveau3 :: 1 :: [ mal ]
appreciatif_niveau3 :: 1 :: [ mal ]
axiologique_niveau3 :: 1 :: [ mal ]
Total feature counts: 6


********** Adverbiaux Temporels Features **********
********************************************************

1. Sentence: Il ne s ' agissait pas de panser momentanément les maux ;
No features found.

