====== Sentence Level Features ======

1. Sentence: Tel est aussi l ' ordre de ce chapitre .
Entity Name (Type) :: Tel (MISC)


====== Text Level Features ======

Entity Name (Entity Type)
-------------------------
Tel (MISC)
Total entitiy counts: 1

