
********** Entity Names Features **********
*******************************************

1. Sentence: À l ' époque , personne ne de Saint-Denis — expériences montrant le rôle que les transports ont dans le chômage dans la mesure où ils permettent l ' accès à l ' emploi des personnes peu mobiles .
Entity Name (Type) :: Saint-Denis (LOC)


********** Emotions Features **********
***************************************

1. Sentence: À l ' époque , personne ne de Saint-Denis — expériences montrant le rôle que les transports ont dans le chômage dans la mesure où ils permettent l ' accès à l ' emploi des personnes peu mobiles .
No features found.


********** Modality Features **********
***************************************

1. Sentence: À l ' époque , personne ne de Saint-Denis — expériences montrant le rôle que les transports ont dans le chômage dans la mesure où ils permettent l ' accès à l ' emploi des personnes peu mobiles .
Features :: Feature-Counts :: Feature-Lemmas
--------------------------------------------
marqueurs :: 5 :: [ personne, chômage, permettre, emploi, personne ]
marqueurs_niveau2 :: 4 :: [ personne, chômage, emploi, personne ]
alethique :: 2 :: [ personne, personne ]
appreciatif :: 2 :: [ chômage, emploi ]
alethique_niveau2 :: 2 :: [ personne, personne ]
appreciatif_niveau2 :: 2 :: [ chômage, emploi ]
deontique :: 1 :: [ permettre ]
marqueurs_niveau3 :: 1 :: [ permettre ]
deontique_niveau3 :: 1 :: [ permettre ]
Total feature counts: 20


********** Adverbiaux Temporels Features **********
********************************************************

1. Sentence: À l ' époque , personne ne de Saint-Denis — expériences montrant le rôle que les transports ont dans le chômage dans la mesure où ils permettent l ' accès à l ' emploi des personnes peu mobiles .
No features found.

