
********** Entity Names Features **********
*******************************************

1. Sentence: Mais comment se traduit concrètement le risque associé au changement climatique qui redessine la relation de la ville avec l ' eau ?
No features found.


********** Emotions Features **********
***************************************

1. Sentence: Mais comment se traduit concrètement le risque associé au changement climatique qui redessine la relation de la ville avec l ' eau ?
No features found.


********** Modality Features **********
***************************************

1. Sentence: Mais comment se traduit concrètement le risque associé au changement climatique qui redessine la relation de la ville avec l ' eau ?
No features found.


********** Adverbiaux Temporels Features **********
********************************************************

1. Sentence: Mais comment se traduit concrètement le risque associé au changement climatique qui redessine la relation de la ville avec l ' eau ?
No features found.

