
********** Entity Names Features **********
*******************************************

1. Sentence: Il jongle avec les règles en les détournant pour parvenir à ses fins en toute légalité , au profit du projet .
No features found.


********** Emotions Features **********
***************************************

1. Sentence: Il jongle avec les règles en les détournant pour parvenir à ses fins en toute légalité , au profit du projet .
No features found.


********** Modality Features **********
***************************************

1. Sentence: Il jongle avec les règles en les détournant pour parvenir à ses fins en toute légalité , au profit du projet .
No features found.


********** Adverbiaux Temporels Features **********
********************************************************

1. Sentence: Il jongle avec les règles en les détournant pour parvenir à ses fins en toute légalité , au profit du projet .
No features found.

