====== Sentence Level Features ======

1. Sentence: Il est souhaitable qu ' elle demeure importante , non loin du niveau actuel .
Features :: Feature-Counts :: Feature-Lemmas
--------------------------------------------
marqueurs :: 2 :: [ souhaitable, important ]
appreciatif :: 1 :: [ important ]
axiologique :: 1 :: [ important ]
boulique :: 1 :: [ souhaitable ]
epistemique :: 1 :: [ important ]
marqueurs_niveau3 :: 1 :: [ souhaitable ]
marqueurs_niveau1 :: 1 :: [ important ]
appreciatif_niveau1 :: 1 :: [ important ]
axiologique_niveau1 :: 1 :: [ important ]
boulique_niveau3 :: 1 :: [ souhaitable ]
epistemique_niveau1 :: 1 :: [ important ]
Total feature counts: 12


====== Text Level Features ======

Features :: Feature-Counts :: Feature-Lemmas
--------------------------------------------
marqueurs :: 2 :: [ souhaitable, important ]
appreciatif :: 1 :: [ important ]
axiologique :: 1 :: [ important ]
boulique :: 1 :: [ souhaitable ]
epistemique :: 1 :: [ important ]
marqueurs_niveau3 :: 1 :: [ souhaitable ]
marqueurs_niveau1 :: 1 :: [ important ]
appreciatif_niveau1 :: 1 :: [ important ]
axiologique_niveau1 :: 1 :: [ important ]
boulique_niveau3 :: 1 :: [ souhaitable ]
epistemique_niveau1 :: 1 :: [ important ]
Total feature counts: 12

