====== Sentence Level Features ======

1. Sentence: Animal ou humain , on s ' approprie un espace quand on y mange , dort , aime et accueille .
Entity Name (Type) :: Animal (MISC)


====== Text Level Features ======

Entity Name (Entity Type)
-------------------------
Animal (MISC)
Total entitiy counts: 1

