
********** Entity Names Features **********
*******************************************

1. Sentence: Une géographie inversée ,  l ' expansion de Rotterdam à l ' échelle d ' un delta et de ses inondations .
Entity Name (Type) :: Rotterdam (LOC)


********** Emotions Features **********
***************************************

1. Sentence: Une géographie inversée ,  l ' expansion de Rotterdam à l ' échelle d ' un delta et de ses inondations .
No features found.


********** Modality Features **********
***************************************

1. Sentence: Une géographie inversée ,  l ' expansion de Rotterdam à l ' échelle d ' un delta et de ses inondations .
Features :: Feature-Counts :: Feature-Lemmas
--------------------------------------------
marqueurs :: 1 :: [ inondation ]
alethique :: 1 :: [ inondation ]
appreciatif :: 1 :: [ inondation ]
marqueurs_niveau1 :: 1 :: [ inondation ]
alethique_niveau1 :: 1 :: [ inondation ]
appreciatif_niveau1 :: 1 :: [ inondation ]
Total feature counts: 6


********** Adverbiaux Temporels Features **********
********************************************************

1. Sentence: Une géographie inversée ,  l ' expansion de Rotterdam à l ' échelle d ' un delta et de ses inondations .
No features found.

