====== Sentence Level Features ======

1. Sentence: Entre les deux derniers recensements (1954 et 1962) , c ' est-à-dire avant que le rôle particulier qui leur revient dans l ' aménagement du territoire ait été défini , aucune d ' entre elles n ' avait atteint le taux annuel de croissance de 3 % qui assure un triplement en trente-cinq ans (2);
Features :: Feature-Counts :: Feature-Lemmas
--------------------------------------------
marqueurs :: 2 :: [ lui, aucun ]
alethique :: 2 :: [ lui, aucun ]
marqueurs_niveau3 :: 2 :: [ lui, aucun ]
alethique_niveau3 :: 2 :: [ lui, aucun ]
epistemique :: 1 :: [ lui ]
epistemique_niveau3 :: 1 :: [ lui ]
Total feature counts: 10


====== Text Level Features ======

Features :: Feature-Counts :: Feature-Lemmas
--------------------------------------------
marqueurs :: 2 :: [ lui, aucun ]
alethique :: 2 :: [ lui, aucun ]
marqueurs_niveau3 :: 2 :: [ lui, aucun ]
alethique_niveau3 :: 2 :: [ lui, aucun ]
epistemique :: 1 :: [ lui ]
epistemique_niveau3 :: 1 :: [ lui ]
Total feature counts: 10

