====== Sentence Level Features ======

1. Sentence: ils apportent sur les années à venir des précisions qu ' il eut été illusoire de vouloir étendre aux périodes suivantes , et constituent ainsi le cadre de la programmation proprement dite des équipements ;
Features :: Feature-Counts :: Feature-Lemmas
--------------------------------------------
marqueurs :: 3 :: [ venir, vouloir, dire ]
marqueurs_niveau3 :: 3 :: [ venir, vouloir, dire ]
boulique :: 2 :: [ vouloir, dire ]
boulique_niveau3 :: 2 :: [ vouloir, dire ]
alethique :: 1 :: [ venir ]
alethique_niveau3 :: 1 :: [ venir ]
Total feature counts: 12


====== Text Level Features ======

Features :: Feature-Counts :: Feature-Lemmas
--------------------------------------------
marqueurs :: 3 :: [ venir, vouloir, dire ]
marqueurs_niveau3 :: 3 :: [ venir, vouloir, dire ]
boulique :: 2 :: [ vouloir, dire ]
boulique_niveau3 :: 2 :: [ vouloir, dire ]
alethique :: 1 :: [ venir ]
alethique_niveau3 :: 1 :: [ venir ]
Total feature counts: 12

