====== Sentence Level Features ======

1. Sentence: Je redis ce que j ' écrivais il y a deux ans1 , il s ' agit pour moi de créer des convergences dans le disparate , de saisir le dépôt des siècles dans une même trame , de nature et d ' urbain , c ' est-à-dire un socle liant toutes les strates — géologie , géographie , histoire et mémoire — , un socle et un sol fertiles à tous points de vue , pour un urbanisme qui soit cette alliance générale qui est pour moi un objectif essentiel du paysagiste-urbaniste .
Features :: Feature-Counts :: Feature-Lemmas
--------------------------------------------
marqueurs :: 2 :: [ lui, lui ]
alethique :: 2 :: [ lui, lui ]
epistemique :: 2 :: [ lui, lui ]
marqueurs_niveau3 :: 2 :: [ lui, lui ]
alethique_niveau3 :: 2 :: [ lui, lui ]
epistemique_niveau3 :: 2 :: [ lui, lui ]
Total feature counts: 12


====== Text Level Features ======

Features :: Feature-Counts :: Feature-Lemmas
--------------------------------------------
marqueurs :: 2 :: [ lui, lui ]
alethique :: 2 :: [ lui, lui ]
epistemique :: 2 :: [ lui, lui ]
marqueurs_niveau3 :: 2 :: [ lui, lui ]
alethique_niveau3 :: 2 :: [ lui, lui ]
epistemique_niveau3 :: 2 :: [ lui, lui ]
Total feature counts: 12

