
********** Entity Names Features **********
*******************************************

1. Sentence: En fait , je n ' ai jamais été « moderne » – ce qui a influencé ma vision ultérieure de la ville .
No features found.


********** Emotions Features **********
***************************************

1. Sentence: En fait , je n ' ai jamais été « moderne » – ce qui a influencé ma vision ultérieure de la ville .
No features found.


********** Modality Features **********
***************************************

1. Sentence: En fait , je n ' ai jamais été « moderne » – ce qui a influencé ma vision ultérieure de la ville .
Features :: Feature-Counts :: Feature-Lemmas
--------------------------------------------
marqueurs :: 2 :: [ jamais, moderne ]
alethique :: 1 :: [ jamais ]
pas_d_indication :: 1 :: [ moderne ]
marqueurs_niveau3 :: 1 :: [ jamais ]
marqueurs_niveau0 :: 1 :: [ moderne ]
alethique_niveau3 :: 1 :: [ jamais ]
pas_d_indication_niveau0 :: 1 :: [ moderne ]
Total feature counts: 8


********** Adverbiaux Temporels Features **********
********************************************************

1. Sentence: En fait , je n ' ai jamais été « moderne » – ce qui a influencé ma vision ultérieure de la ville .
Features :: Feature-Counts :: Feature-Texts
--------------------------------------------
adverbiaux_temporels::1::['jamais']
adverbiaux_purement_iteratifs::1::['jamais']
adverbiaux_iterateur_frequentiel::1::['jamais']

