
********** Entity Names Features **********
*******************************************

1. Sentence: La sauvegarde du patrimoine suppose , vous le savez , des moyens importants et un effort constant .
No features found.


********** Emotions Features **********
***************************************

1. Sentence: La sauvegarde du patrimoine suppose , vous le savez , des moyens importants et un effort constant .
No features found.


********** Modality Features **********
***************************************

1. Sentence: La sauvegarde du patrimoine suppose , vous le savez , des moyens importants et un effort constant .
Features :: Feature-Counts :: Feature-Lemmas
--------------------------------------------
marqueurs :: 2 :: [ savoir, important ]
epistemique :: 2 :: [ savoir, important ]
appreciatif :: 1 :: [ important ]
axiologique :: 1 :: [ important ]
marqueurs_niveau3 :: 1 :: [ savoir ]
marqueurs_niveau1 :: 1 :: [ important ]
appreciatif_niveau1 :: 1 :: [ important ]
axiologique_niveau1 :: 1 :: [ important ]
epistemique_niveau3 :: 1 :: [ savoir ]
epistemique_niveau1 :: 1 :: [ important ]
Total feature counts: 12


********** Adverbiaux Temporels Features **********
********************************************************

1. Sentence: La sauvegarde du patrimoine suppose , vous le savez , des moyens importants et un effort constant .
No features found.

