====== Sentence Level Features ======

1. Sentence: Ils ont contesté vigoureusement le projet de métro automatique , la plupart étant favorables à des réseaux aériens .
Features :: Feature-Counts :: Feature-Lemmas
--------------------------------------------
marqueurs :: 1 :: [ contester ]
boulique :: 1 :: [ contester ]
epistemique :: 1 :: [ contester ]
marqueurs_niveau2 :: 1 :: [ contester ]
boulique_niveau2 :: 1 :: [ contester ]
epistemique_niveau2 :: 1 :: [ contester ]
Total feature counts: 6


====== Text Level Features ======

Features :: Feature-Counts :: Feature-Lemmas
--------------------------------------------
marqueurs :: 1 :: [ contester ]
boulique :: 1 :: [ contester ]
epistemique :: 1 :: [ contester ]
marqueurs_niveau2 :: 1 :: [ contester ]
boulique_niveau2 :: 1 :: [ contester ]
epistemique_niveau2 :: 1 :: [ contester ]
Total feature counts: 6

