====== Sentence Level Features ======

1. Sentence: - la création à Rosny d ' un centre commercial et d ' activités tertiaires , apportant à toute une partie de ce secteur des emplois qui lui font actuellement défaut ;
Features :: Feature-Counts :: Feature-Lemmas
--------------------------------------------
marqueurs :: 2 :: [ emploi, lui ]
alethique :: 1 :: [ lui ]
appreciatif :: 1 :: [ emploi ]
epistemique :: 1 :: [ lui ]
marqueurs_niveau3 :: 1 :: [ lui ]
marqueurs_niveau2 :: 1 :: [ emploi ]
alethique_niveau3 :: 1 :: [ lui ]
appreciatif_niveau2 :: 1 :: [ emploi ]
epistemique_niveau3 :: 1 :: [ lui ]
Total feature counts: 10


====== Text Level Features ======

Features :: Feature-Counts :: Feature-Lemmas
--------------------------------------------
marqueurs :: 2 :: [ emploi, lui ]
alethique :: 1 :: [ lui ]
appreciatif :: 1 :: [ emploi ]
epistemique :: 1 :: [ lui ]
marqueurs_niveau3 :: 1 :: [ lui ]
marqueurs_niveau2 :: 1 :: [ emploi ]
alethique_niveau3 :: 1 :: [ lui ]
appreciatif_niveau2 :: 1 :: [ emploi ]
epistemique_niveau3 :: 1 :: [ lui ]
Total feature counts: 10

