====== Sentence Level Features ======

1. Sentence: Le Nord
Entity Name (Type) :: Nord (LOC)


====== Text Level Features ======

Entity Name (Entity Type)
-------------------------
Nord (LOC)
Total entitiy counts: 1

