
********** Entity Names Features **********
*******************************************

1. Sentence: Comment ces lotissements écologiques seront-ils organisés ?
No features found.


********** Emotions Features **********
***************************************

1. Sentence: Comment ces lotissements écologiques seront-ils organisés ?
No features found.


********** Modality Features **********
***************************************

1. Sentence: Comment ces lotissements écologiques seront-ils organisés ?
No features found.


********** Adverbiaux Temporels Features **********
********************************************************

1. Sentence: Comment ces lotissements écologiques seront-ils organisés ?
No features found.

