
********** Entity Names Features **********
*******************************************

1. Sentence: La conception d ' études de cas et la réalisation de «prototypes» permet de fonder une esthétique de cette transformation tout en rendant possible le partage d ' une culture .
No features found.


********** Emotions Features **********
***************************************

1. Sentence: La conception d ' études de cas et la réalisation de «prototypes» permet de fonder une esthétique de cette transformation tout en rendant possible le partage d ' une culture .
No features found.


********** Modality Features **********
***************************************

1. Sentence: La conception d ' études de cas et la réalisation de «prototypes» permet de fonder une esthétique de cette transformation tout en rendant possible le partage d ' une culture .
Features :: Feature-Counts :: Feature-Lemmas
--------------------------------------------
marqueurs :: 2 :: [ permettre, possible ]
marqueurs_niveau3 :: 2 :: [ permettre, possible ]
alethique :: 1 :: [ possible ]
deontique :: 1 :: [ permettre ]
alethique_niveau3 :: 1 :: [ possible ]
deontique_niveau3 :: 1 :: [ permettre ]
Total feature counts: 8


********** Adverbiaux Temporels Features **********
********************************************************

1. Sentence: La conception d ' études de cas et la réalisation de «prototypes» permet de fonder une esthétique de cette transformation tout en rendant possible le partage d ' une culture .
No features found.

