====== Sentence Level Features ======

1. Sentence: Mais il faut prendre conscience de la limite des services qui peuvent être rendus par ces équipements;
Features :: Feature-Counts :: Feature-Lemmas
--------------------------------------------
marqueurs :: 2 :: [ falloir, pouvoir ]
deontique :: 2 :: [ falloir, pouvoir ]
marqueurs_niveau3 :: 2 :: [ falloir, pouvoir ]
deontique_niveau3 :: 2 :: [ falloir, pouvoir ]
alethique :: 1 :: [ pouvoir ]
epistemique :: 1 :: [ pouvoir ]
alethique_niveau3 :: 1 :: [ pouvoir ]
epistemique_niveau3 :: 1 :: [ pouvoir ]
Total feature counts: 12


====== Text Level Features ======

Features :: Feature-Counts :: Feature-Lemmas
--------------------------------------------
marqueurs :: 2 :: [ falloir, pouvoir ]
deontique :: 2 :: [ falloir, pouvoir ]
marqueurs_niveau3 :: 2 :: [ falloir, pouvoir ]
deontique_niveau3 :: 2 :: [ falloir, pouvoir ]
alethique :: 1 :: [ pouvoir ]
epistemique :: 1 :: [ pouvoir ]
alethique_niveau3 :: 1 :: [ pouvoir ]
epistemique_niveau3 :: 1 :: [ pouvoir ]
Total feature counts: 12

