
********** Entity Names Features **********
*******************************************

1. Sentence: Les enjeux sont d ' ailleurs plus complexes et les solutions plus diversifiées que les poncifs habituels sur le sujet .
No features found.


********** Emotions Features **********
***************************************

1. Sentence: Les enjeux sont d ' ailleurs plus complexes et les solutions plus diversifiées que les poncifs habituels sur le sujet .
No features found.


********** Modality Features **********
***************************************

1. Sentence: Les enjeux sont d ' ailleurs plus complexes et les solutions plus diversifiées que les poncifs habituels sur le sujet .
No features found.


********** Adverbiaux Temporels Features **********
********************************************************

1. Sentence: Les enjeux sont d ' ailleurs plus complexes et les solutions plus diversifiées que les poncifs habituels sur le sujet .
No features found.

