====== Sentence Level Features ======

1. Sentence: Au cœur du projet , Angers veut que la Maine oriente à nouveau le devenir de la ville , son agrément et son rayonnement .
Features :: Feature-Counts :: Feature-Lemmas
--------------------------------------------
marqueurs :: 1 :: [ vouloir ]
boulique :: 1 :: [ vouloir ]
marqueurs_niveau3 :: 1 :: [ vouloir ]
boulique_niveau3 :: 1 :: [ vouloir ]
Total feature counts: 4


====== Text Level Features ======

Features :: Feature-Counts :: Feature-Lemmas
--------------------------------------------
marqueurs :: 1 :: [ vouloir ]
boulique :: 1 :: [ vouloir ]
marqueurs_niveau3 :: 1 :: [ vouloir ]
boulique_niveau3 :: 1 :: [ vouloir ]
Total feature counts: 4

