====== Sentence Level Features ======

1. Sentence: À Skolkovo comme à Doha , j ' « invente » les vallons , j ' amplifie les reliefs , je viabilise les crêtes .
Entity Name (Type) :: Doha (LOC)


====== Text Level Features ======

Entity Name (Entity Type)
-------------------------
Skolkovo (LOC)
Doha (LOC)
Total entitiy counts: 2

