
********** Entity Names Features **********
*******************************************

1. Sentence: Parfois réduite autrefois à une fonction de «caution végétale optionnelle» , notre intervention est même devenue obligatoire .
No features found.


********** Emotions Features **********
***************************************

1. Sentence: Parfois réduite autrefois à une fonction de «caution végétale optionnelle» , notre intervention est même devenue obligatoire .
No features found.


********** Modality Features **********
***************************************

1. Sentence: Parfois réduite autrefois à une fonction de «caution végétale optionnelle» , notre intervention est même devenue obligatoire .
Features :: Feature-Counts :: Feature-Lemmas
--------------------------------------------
marqueurs :: 2 :: [ parfois, obligatoire ]
marqueurs_niveau3 :: 2 :: [ parfois, obligatoire ]
alethique :: 1 :: [ parfois ]
deontique :: 1 :: [ obligatoire ]
alethique_niveau3 :: 1 :: [ parfois ]
deontique_niveau3 :: 1 :: [ obligatoire ]
Total feature counts: 8


********** Adverbiaux Temporels Features **********
********************************************************

1. Sentence: Parfois réduite autrefois à une fonction de «caution végétale optionnelle» , notre intervention est même devenue obligatoire .
Features :: Feature-Counts :: Feature-Texts
--------------------------------------------
adverbiaux_temporels::2::['autrefois', 'Parfois']
adverbiaux_localisation_temporelle::1::['autrefois']
adverbiaux_purement_iteratifs::1::['Parfois']
adverbiaux_pointage_non_absolu::1::['autrefois']
adverbiaux_loc_temp_regionalisation_id::1::['autrefois']
adverbiaux_loc_temp_pointage_non_absolu::1::['autrefois']
adverbiaux_iterateur_frequentiel::1::['Parfois']

