====== Sentence Level Features ======

1. Sentence: Beaucoup d ' images étaient spatialement décoiffantes , mais finalement assez peu d ' interrogations ont émergé sur ce que seront demain les formes de la vie urbaine .
Features :: Feature-Counts :: Feature-Lemmas
--------------------------------------------
marqueurs :: 1 :: [ beaucoup ]
epistemique :: 1 :: [ beaucoup ]
marqueurs_niveau1 :: 1 :: [ beaucoup ]
epistemique_niveau1 :: 1 :: [ beaucoup ]
Total feature counts: 4


====== Text Level Features ======

Features :: Feature-Counts :: Feature-Lemmas
--------------------------------------------
marqueurs :: 1 :: [ beaucoup ]
epistemique :: 1 :: [ beaucoup ]
marqueurs_niveau1 :: 1 :: [ beaucoup ]
epistemique_niveau1 :: 1 :: [ beaucoup ]
Total feature counts: 4

