
********** Entity Names Features **********
*******************************************

1. Sentence: Le long du Canal , nous cherchons l ' unité , une certaine régularité aussi .
Entity Name (Type) :: Canal (LOC)


********** Emotions Features **********
***************************************

1. Sentence: Le long du Canal , nous cherchons l ' unité , une certaine régularité aussi .
No features found.


********** Modality Features **********
***************************************

1. Sentence: Le long du Canal , nous cherchons l ' unité , une certaine régularité aussi .
Features :: Feature-Counts :: Feature-Lemmas
--------------------------------------------
marqueurs :: 3 :: [ long, chercher, certain ]
epistemique :: 2 :: [ long, certain ]
marqueurs_niveau3 :: 2 :: [ chercher, certain ]
boulique :: 1 :: [ chercher ]
marqueurs_niveau2 :: 1 :: [ long ]
boulique_niveau3 :: 1 :: [ chercher ]
epistemique_niveau3 :: 1 :: [ certain ]
epistemique_niveau2 :: 1 :: [ long ]
Total feature counts: 12


********** Adverbiaux Temporels Features **********
********************************************************

1. Sentence: Le long du Canal , nous cherchons l ' unité , une certaine régularité aussi .
No features found.

