
********** Entity Names Features **********
*******************************************

1. Sentence: Lorsque le programme de tels équipements était connu , leur localisation a été précisée dans le schéma directeur .
No features found.


********** Emotions Features **********
***************************************

1. Sentence: Lorsque le programme de tels équipements était connu , leur localisation a été précisée dans le schéma directeur .
No features found.


********** Modality Features **********
***************************************

1. Sentence: Lorsque le programme de tels équipements était connu , leur localisation a été précisée dans le schéma directeur .
Features :: Feature-Counts :: Feature-Lemmas
--------------------------------------------
marqueurs :: 1 :: [ connaître ]
epistemique :: 1 :: [ connaître ]
marqueurs_niveau2 :: 1 :: [ connaître ]
epistemique_niveau2 :: 1 :: [ connaître ]
Total feature counts: 4


********** Adverbiaux Temporels Features **********
********************************************************

1. Sentence: Lorsque le programme de tels équipements était connu , leur localisation a été précisée dans le schéma directeur .
No features found.

