====== Sentence Level Features ======

1. Sentence: L ' extension en tache d ' huile peut être délibérément rejetée comme un parti inacceptable (1) .
Entity Name (Type) :: L (MISC)


====== Text Level Features ======

Entity Name (Entity Type)
-------------------------
L (MISC)
Total entitiy counts: 1

