====== Sentence Level Features ======

1. Sentence: mais ce triplement parisien était dû surtout à l ' immigration : peu de temps avant la guerre de 1939 , les décès l ' emportaient même , dans l ' agglomération , sur les naissances .
Features :: Feature-Counts :: Feature-Lemmas
--------------------------------------------
marqueurs :: 3 :: [ devoir, guerre, décès ]
marqueurs_niveau3 :: 2 :: [ devoir, guerre ]
alethique :: 1 :: [ devoir ]
appreciatif :: 1 :: [ décès ]
axiologique :: 1 :: [ guerre ]
deontique :: 1 :: [ devoir ]
epistemique :: 1 :: [ devoir ]
marqueurs_niveau2 :: 1 :: [ décès ]
alethique_niveau3 :: 1 :: [ devoir ]
appreciatif_niveau2 :: 1 :: [ décès ]
axiologique_niveau3 :: 1 :: [ guerre ]
deontique_niveau3 :: 1 :: [ devoir ]
epistemique_niveau3 :: 1 :: [ devoir ]
Total feature counts: 16


====== Text Level Features ======

Features :: Feature-Counts :: Feature-Lemmas
--------------------------------------------
marqueurs :: 3 :: [ devoir, guerre, décès ]
marqueurs_niveau3 :: 2 :: [ devoir, guerre ]
alethique :: 1 :: [ devoir ]
appreciatif :: 1 :: [ décès ]
axiologique :: 1 :: [ guerre ]
deontique :: 1 :: [ devoir ]
epistemique :: 1 :: [ devoir ]
marqueurs_niveau2 :: 1 :: [ décès ]
alethique_niveau3 :: 1 :: [ devoir ]
appreciatif_niveau2 :: 1 :: [ décès ]
axiologique_niveau3 :: 1 :: [ guerre ]
deontique_niveau3 :: 1 :: [ devoir ]
epistemique_niveau3 :: 1 :: [ devoir ]
Total feature counts: 16

