====== Sentence Level Features ======

1. Sentence: Alors , ce n ’ est pas parfait , je ne peux pas dire que je suis entièrement satisfait , mais il y a tout de même un démarrage sur ce point .
Features :: Feature-Counts :: Feature-Lemmas
--------------------------------------------
marqueurs :: 4 :: [ parfait, pouvoir, dire, satisfaire ]
appreciatif :: 2 :: [ parfait, satisfaire ]
marqueurs_niveau3 :: 2 :: [ pouvoir, dire ]
marqueurs_niveau2 :: 2 :: [ parfait, satisfaire ]
appreciatif_niveau2 :: 2 :: [ parfait, satisfaire ]
alethique :: 1 :: [ pouvoir ]
axiologique :: 1 :: [ parfait ]
boulique :: 1 :: [ dire ]
deontique :: 1 :: [ pouvoir ]
epistemique :: 1 :: [ pouvoir ]
alethique_niveau3 :: 1 :: [ pouvoir ]
axiologique_niveau2 :: 1 :: [ parfait ]
boulique_niveau3 :: 1 :: [ dire ]
deontique_niveau3 :: 1 :: [ pouvoir ]
epistemique_niveau3 :: 1 :: [ pouvoir ]
Total feature counts: 22


====== Text Level Features ======

Features :: Feature-Counts :: Feature-Lemmas
--------------------------------------------
marqueurs :: 4 :: [ parfait, pouvoir, dire, satisfaire ]
appreciatif :: 2 :: [ parfait, satisfaire ]
marqueurs_niveau3 :: 2 :: [ pouvoir, dire ]
marqueurs_niveau2 :: 2 :: [ parfait, satisfaire ]
appreciatif_niveau2 :: 2 :: [ parfait, satisfaire ]
alethique :: 1 :: [ pouvoir ]
axiologique :: 1 :: [ parfait ]
boulique :: 1 :: [ dire ]
deontique :: 1 :: [ pouvoir ]
epistemique :: 1 :: [ pouvoir ]
alethique_niveau3 :: 1 :: [ pouvoir ]
axiologique_niveau2 :: 1 :: [ parfait ]
boulique_niveau3 :: 1 :: [ dire ]
deontique_niveau3 :: 1 :: [ pouvoir ]
epistemique_niveau3 :: 1 :: [ pouvoir ]
Total feature counts: 22

