====== Sentence Level Features ======

1. Sentence: Au cours des quatre prochaines décennies , elles devraient progresser moitié moins vite que la population à l ' extérieur de Paris (environ 40 % pour les migrations , 102 % pour la population) .
Features :: Feature-Counts :: Feature-Lemmas
--------------------------------------------
marqueurs :: 3 :: [ devoir, progresser, vite ]
epistemique :: 2 :: [ devoir, vite ]
marqueurs_niveau3 :: 2 :: [ devoir, vite ]
epistemique_niveau3 :: 2 :: [ devoir, vite ]
alethique :: 1 :: [ devoir ]
deontique :: 1 :: [ devoir ]
pas_d_indication :: 1 :: [ progresser ]
marqueurs_niveau0 :: 1 :: [ progresser ]
alethique_niveau3 :: 1 :: [ devoir ]
deontique_niveau3 :: 1 :: [ devoir ]
pas_d_indication_niveau0 :: 1 :: [ progresser ]
Total feature counts: 16


====== Text Level Features ======

Features :: Feature-Counts :: Feature-Lemmas
--------------------------------------------
marqueurs :: 3 :: [ devoir, progresser, vite ]
epistemique :: 2 :: [ devoir, vite ]
marqueurs_niveau3 :: 2 :: [ devoir, vite ]
epistemique_niveau3 :: 2 :: [ devoir, vite ]
alethique :: 1 :: [ devoir ]
deontique :: 1 :: [ devoir ]
pas_d_indication :: 1 :: [ progresser ]
marqueurs_niveau0 :: 1 :: [ progresser ]
alethique_niveau3 :: 1 :: [ devoir ]
deontique_niveau3 :: 1 :: [ devoir ]
pas_d_indication_niveau0 :: 1 :: [ progresser ]
Total feature counts: 16

