====== Sentence Level Features ======

1. Sentence: à l ' inverse , l ' action sélective de la décentralisation , les grands établissements industriels pouvant plus aisément s ' éloigner de Paris que les petits* .
Features :: Feature-Counts :: Feature-Lemmas
--------------------------------------------
marqueurs :: 3 :: [ grand, pouvoir, petit ]
epistemique :: 3 :: [ grand, pouvoir, petit ]
marqueurs_niveau3 :: 3 :: [ grand, pouvoir, petit ]
epistemique_niveau3 :: 3 :: [ grand, pouvoir, petit ]
alethique :: 1 :: [ pouvoir ]
deontique :: 1 :: [ pouvoir ]
alethique_niveau3 :: 1 :: [ pouvoir ]
deontique_niveau3 :: 1 :: [ pouvoir ]
Total feature counts: 16


====== Text Level Features ======

Features :: Feature-Counts :: Feature-Lemmas
--------------------------------------------
marqueurs :: 3 :: [ grand, pouvoir, petit ]
epistemique :: 3 :: [ grand, pouvoir, petit ]
marqueurs_niveau3 :: 3 :: [ grand, pouvoir, petit ]
epistemique_niveau3 :: 3 :: [ grand, pouvoir, petit ]
alethique :: 1 :: [ pouvoir ]
deontique :: 1 :: [ pouvoir ]
alethique_niveau3 :: 1 :: [ pouvoir ]
deontique_niveau3 :: 1 :: [ pouvoir ]
Total feature counts: 16

