
********** Entity Names Features **********
*******************************************

1. Sentence: Je l ' ai longuement écrit à Jean Peyrelevade , directeur-adjoint du cabinet de Pierre Mauroy , dès les premiers jours de mai 1981 .
Entity Name (Type) :: Pierre Mauroy (PER)


********** Emotions Features **********
***************************************

1. Sentence: Je l ' ai longuement écrit à Jean Peyrelevade , directeur-adjoint du cabinet de Pierre Mauroy , dès les premiers jours de mai 1981 .
No features found.


********** Modality Features **********
***************************************

1. Sentence: Je l ' ai longuement écrit à Jean Peyrelevade , directeur-adjoint du cabinet de Pierre Mauroy , dès les premiers jours de mai 1981 .
No features found.


********** Adverbiaux Temporels Features **********
********************************************************

1. Sentence: Je l ' ai longuement écrit à Jean Peyrelevade , directeur-adjoint du cabinet de Pierre Mauroy , dès les premiers jours de mai 1981 .
Features :: Feature-Counts :: Feature-Texts
--------------------------------------------
adverbiaux_temporels::1::['de mai 1981']
adverbiaux_localisation_temporelle::1::['de mai 1981']
adverbiaux_pointage_absolu::1::['de mai 1981']
adverbiaux_loc_temp_focalisation_id::1::['de mai 1981']
adverbiaux_loc_temp_regionalisation_id::1::['de mai 1981']
adverbiaux_loc_temp_pointage_absolu::1::['de mai 1981']

