====== Sentence Level Features ======

1. Sentence: J ' irai voir le maire d ' Angers , en 1969 , pour qu ' il fonde une agence d ' urbanisme : les choses n ' étaient pas mûres .
Entity Name (Type) :: Angers (LOC)


====== Text Level Features ======

Entity Name (Entity Type)
-------------------------
Angers (LOC)
Total entitiy counts: 1

