====== Sentence Level Features ======

1. Sentence: Opposez-vous , au contraire , à ceux qui amoncellent un fatras d ' objets , parfois bien dessinés et très photogéniques , mais qui participe à la surcharge générale du paysage .
Features :: Feature-Counts :: Feature-Lemmas
--------------------------------------------
marqueurs :: 2 :: [ parfois, bien ]
marqueurs_niveau3 :: 2 :: [ parfois, bien ]
alethique :: 1 :: [ parfois ]
appreciatif :: 1 :: [ bien ]
axiologique :: 1 :: [ bien ]
alethique_niveau3 :: 1 :: [ parfois ]
appreciatif_niveau3 :: 1 :: [ bien ]
axiologique_niveau3 :: 1 :: [ bien ]
Total feature counts: 10


====== Text Level Features ======

Features :: Feature-Counts :: Feature-Lemmas
--------------------------------------------
marqueurs :: 2 :: [ parfois, bien ]
marqueurs_niveau3 :: 2 :: [ parfois, bien ]
alethique :: 1 :: [ parfois ]
appreciatif :: 1 :: [ bien ]
axiologique :: 1 :: [ bien ]
alethique_niveau3 :: 1 :: [ parfois ]
appreciatif_niveau3 :: 1 :: [ bien ]
axiologique_niveau3 :: 1 :: [ bien ]
Total feature counts: 10

