====== Sentence Level Features ======

1. Sentence: Après une stagnation de plusieurs décennies , la pression des besoins a été ressentie avec force , et dès 1960 un programme triennal a fait démarrer de grands travaux d ' équipement public dans la région de Paris : les crédits de paiement , pour l ' ensemble des équipements publics en cette région , d ' un milliard de francs en 1960 , avaient doublé en 1963;
Features :: Feature-Counts :: Feature-Lemmas
--------------------------------------------
marqueurs :: 5 :: [ pression, besoin, force, grand, travail ]
marqueurs_niveau3 :: 3 :: [ besoin, grand, travail ]
pas_d_indication :: 2 :: [ pression, force ]
marqueurs_niveau0 :: 2 :: [ pression, force ]
pas_d_indication_niveau0 :: 2 :: [ pression, force ]
alethique :: 1 :: [ besoin ]
appreciatif :: 1 :: [ travail ]
boulique :: 1 :: [ besoin ]
epistemique :: 1 :: [ grand ]
alethique_niveau3 :: 1 :: [ besoin ]
appreciatif_niveau3 :: 1 :: [ travail ]
boulique_niveau3 :: 1 :: [ besoin ]
epistemique_niveau3 :: 1 :: [ grand ]
Total feature counts: 22


====== Text Level Features ======

Features :: Feature-Counts :: Feature-Lemmas
--------------------------------------------
marqueurs :: 5 :: [ pression, besoin, force, grand, travail ]
marqueurs_niveau3 :: 3 :: [ besoin, grand, travail ]
pas_d_indication :: 2 :: [ pression, force ]
marqueurs_niveau0 :: 2 :: [ pression, force ]
pas_d_indication_niveau0 :: 2 :: [ pression, force ]
alethique :: 1 :: [ besoin ]
appreciatif :: 1 :: [ travail ]
boulique :: 1 :: [ besoin ]
epistemique :: 1 :: [ grand ]
alethique_niveau3 :: 1 :: [ besoin ]
appreciatif_niveau3 :: 1 :: [ travail ]
boulique_niveau3 :: 1 :: [ besoin ]
epistemique_niveau3 :: 1 :: [ grand ]
Total feature counts: 22

