====== Sentence Level Features ======

1. Sentence: Nous n ' aurons réussi que si , bâtisseurs de Paris à leur tour , nos descendants peuvent s ' assigner comme but de n ' être pas indignes du Paris que notre génération va bâtir .
Features :: Feature-Counts :: Feature-Lemmas
--------------------------------------------
marqueurs :: 4 :: [ réussir, pouvoir, indigne, aller ]
alethique :: 2 :: [ pouvoir, aller ]
marqueurs_niveau3 :: 2 :: [ réussir, pouvoir ]
appreciatif :: 1 :: [ réussir ]
axiologique :: 1 :: [ indigne ]
deontique :: 1 :: [ pouvoir ]
epistemique :: 1 :: [ pouvoir ]
marqueurs_niveau2 :: 1 :: [ indigne ]
marqueurs_niveau1 :: 1 :: [ aller ]
alethique_niveau3 :: 1 :: [ pouvoir ]
alethique_niveau1 :: 1 :: [ aller ]
appreciatif_niveau3 :: 1 :: [ réussir ]
axiologique_niveau2 :: 1 :: [ indigne ]
deontique_niveau3 :: 1 :: [ pouvoir ]
epistemique_niveau3 :: 1 :: [ pouvoir ]
Total feature counts: 20


====== Text Level Features ======

Features :: Feature-Counts :: Feature-Lemmas
--------------------------------------------
marqueurs :: 4 :: [ réussir, pouvoir, indigne, aller ]
alethique :: 2 :: [ pouvoir, aller ]
marqueurs_niveau3 :: 2 :: [ réussir, pouvoir ]
appreciatif :: 1 :: [ réussir ]
axiologique :: 1 :: [ indigne ]
deontique :: 1 :: [ pouvoir ]
epistemique :: 1 :: [ pouvoir ]
marqueurs_niveau2 :: 1 :: [ indigne ]
marqueurs_niveau1 :: 1 :: [ aller ]
alethique_niveau3 :: 1 :: [ pouvoir ]
alethique_niveau1 :: 1 :: [ aller ]
appreciatif_niveau3 :: 1 :: [ réussir ]
axiologique_niveau2 :: 1 :: [ indigne ]
deontique_niveau3 :: 1 :: [ pouvoir ]
epistemique_niveau3 :: 1 :: [ pouvoir ]
Total feature counts: 20

