====== Sentence Level Features ======

1. Sentence: Partout où l ' ingénierie est défaillante — et c ' est le cas de l ' immense majorité des situations — émerge la demande d ' une vision transversale , d ' une approche de projet .
Features :: Feature-Counts :: Feature-Lemmas
--------------------------------------------
marqueurs :: 2 :: [ partout, immense ]
marqueurs_niveau2 :: 2 :: [ partout, immense ]
alethique :: 1 :: [ partout ]
epistemique :: 1 :: [ immense ]
alethique_niveau2 :: 1 :: [ partout ]
epistemique_niveau2 :: 1 :: [ immense ]
Total feature counts: 8


====== Text Level Features ======

Features :: Feature-Counts :: Feature-Lemmas
--------------------------------------------
marqueurs :: 2 :: [ partout, immense ]
marqueurs_niveau2 :: 2 :: [ partout, immense ]
alethique :: 1 :: [ partout ]
epistemique :: 1 :: [ immense ]
alethique_niveau2 :: 1 :: [ partout ]
epistemique_niveau2 :: 1 :: [ immense ]
Total feature counts: 8

