
********** Entity Names Features **********
*******************************************

1. Sentence: Ni restauration , ni reconquête , c ' est une invention singulière . 1994-1998 .
Entity Name (Type) :: Ni (LOC)


********** Emotions Features **********
***************************************

1. Sentence: Ni restauration , ni reconquête , c ' est une invention singulière . 1994-1998 .
No features found.


********** Modality Features **********
***************************************

1. Sentence: Ni restauration , ni reconquête , c ' est une invention singulière . 1994-1998 .
No features found.


********** Adverbiaux Temporels Features **********
********************************************************

1. Sentence: Ni restauration , ni reconquête , c ' est une invention singulière . 1994-1998 .
Features :: Feature-Counts :: Feature-Texts
--------------------------------------------
adverbiaux_temporels::1::['1994_1998']
adverbiaux_localisation_temporelle::1::['1994_1998']
adverbiaux_pointage_absolu::1::['1994_1998']
adverbiaux_loc_temp_focalisation_id::1::['1994_1998']
adverbiaux_loc_temp_regionalisation_id::1::['1994_1998']
adverbiaux_loc_temp_pointage_absolu::1::['1994_1998']

