
********** Entity Names Features **********
*******************************************

1. Sentence: Mais largement construit avant la première guerre mondiale , ce réseau ferré n ' a guère évolué jusqu ' à une date récente .
No features found.


********** Emotions Features **********
***************************************

1. Sentence: Mais largement construit avant la première guerre mondiale , ce réseau ferré n ' a guère évolué jusqu ' à une date récente .
No features found.


********** Modality Features **********
***************************************

1. Sentence: Mais largement construit avant la première guerre mondiale , ce réseau ferré n ' a guère évolué jusqu ' à une date récente .
Features :: Feature-Counts :: Feature-Lemmas
--------------------------------------------
marqueurs :: 1 :: [ guerre ]
axiologique :: 1 :: [ guerre ]
marqueurs_niveau3 :: 1 :: [ guerre ]
axiologique_niveau3 :: 1 :: [ guerre ]
Total feature counts: 4


********** Adverbiaux Temporels Features **********
********************************************************

1. Sentence: Mais largement construit avant la première guerre mondiale , ce réseau ferré n ' a guère évolué jusqu ' à une date récente .
No features found.

