====== Sentence Level Features ======

1. Sentence: Il m ' apparaît que s ' imposent aujourd ' hui deux espaces majeurs : les agglomérations et les grands territoires .
Features :: Feature-Counts :: Feature-Lemmas
--------------------------------------------
marqueurs :: 2 :: [ imposer, grand ]
deontique :: 1 :: [ imposer ]
epistemique :: 1 :: [ grand ]
marqueurs_niveau3 :: 1 :: [ grand ]
marqueurs_niveau2 :: 1 :: [ imposer ]
deontique_niveau2 :: 1 :: [ imposer ]
epistemique_niveau3 :: 1 :: [ grand ]
Total feature counts: 8


====== Text Level Features ======

Features :: Feature-Counts :: Feature-Lemmas
--------------------------------------------
marqueurs :: 2 :: [ imposer, grand ]
deontique :: 1 :: [ imposer ]
epistemique :: 1 :: [ grand ]
marqueurs_niveau3 :: 1 :: [ grand ]
marqueurs_niveau2 :: 1 :: [ imposer ]
deontique_niveau2 :: 1 :: [ imposer ]
epistemique_niveau3 :: 1 :: [ grand ]
Total feature counts: 8

