====== Sentence Level Features ======

1. Sentence: Le désir de construction se déplace de l ' objet spectaculaire — la fameuse médiathèque du maire et de l ' architecte , vers de plus modestes prototypes des projets territoriaux .
Features :: Feature-Counts :: Feature-Lemmas
--------------------------------------------
marqueurs :: 2 :: [ désir, spectaculaire ]
appreciatif :: 1 :: [ spectaculaire ]
boulique :: 1 :: [ désir ]
marqueurs_niveau3 :: 1 :: [ désir ]
marqueurs_niveau2 :: 1 :: [ spectaculaire ]
appreciatif_niveau2 :: 1 :: [ spectaculaire ]
boulique_niveau3 :: 1 :: [ désir ]
Total feature counts: 8


====== Text Level Features ======

Features :: Feature-Counts :: Feature-Lemmas
--------------------------------------------
marqueurs :: 2 :: [ désir, spectaculaire ]
appreciatif :: 1 :: [ spectaculaire ]
boulique :: 1 :: [ désir ]
marqueurs_niveau3 :: 1 :: [ désir ]
marqueurs_niveau2 :: 1 :: [ spectaculaire ]
appreciatif_niveau2 :: 1 :: [ spectaculaire ]
boulique_niveau3 :: 1 :: [ désir ]
Total feature counts: 8

