
********** Entity Names Features **********
*******************************************

1. Sentence: Le coût global , matériel , écologique , social est irrationnel .
No features found.


********** Emotions Features **********
***************************************

1. Sentence: Le coût global , matériel , écologique , social est irrationnel .
No features found.


********** Modality Features **********
***************************************

1. Sentence: Le coût global , matériel , écologique , social est irrationnel .
No features found.


********** Adverbiaux Temporels Features **********
********************************************************

1. Sentence: Le coût global , matériel , écologique , social est irrationnel .
No features found.

