====== Sentence Level Features ======

1. Sentence: Le grand prix est mon seul diplôme , obtenu à 75 ans , à la fin de l ' école .
Features :: Feature-Counts :: Feature-Lemmas
--------------------------------------------
marqueurs :: 3 :: [ grand, prix, école ]
alethique :: 1 :: [ école ]
appreciatif :: 1 :: [ prix ]
axiologique :: 1 :: [ prix ]
epistemique :: 1 :: [ grand ]
marqueurs_niveau3 :: 1 :: [ grand ]
marqueurs_niveau2 :: 1 :: [ prix ]
marqueurs_niveau1 :: 1 :: [ école ]
alethique_niveau1 :: 1 :: [ école ]
appreciatif_niveau2 :: 1 :: [ prix ]
axiologique_niveau2 :: 1 :: [ prix ]
epistemique_niveau3 :: 1 :: [ grand ]
Total feature counts: 14


====== Text Level Features ======

Features :: Feature-Counts :: Feature-Lemmas
--------------------------------------------
marqueurs :: 3 :: [ grand, prix, école ]
alethique :: 1 :: [ école ]
appreciatif :: 1 :: [ prix ]
axiologique :: 1 :: [ prix ]
epistemique :: 1 :: [ grand ]
marqueurs_niveau3 :: 1 :: [ grand ]
marqueurs_niveau2 :: 1 :: [ prix ]
marqueurs_niveau1 :: 1 :: [ école ]
alethique_niveau1 :: 1 :: [ école ]
appreciatif_niveau2 :: 1 :: [ prix ]
axiologique_niveau2 :: 1 :: [ prix ]
epistemique_niveau3 :: 1 :: [ grand ]
Total feature counts: 14

