====== Sentence Level Features ======

1. Sentence: Il faut accepter cette fragilité qui permet de fabriquer de vastes territoires dans la durée .
Features :: Feature-Counts :: Feature-Lemmas
--------------------------------------------
marqueurs :: 2 :: [ falloir, permettre ]
deontique :: 2 :: [ falloir, permettre ]
marqueurs_niveau3 :: 2 :: [ falloir, permettre ]
deontique_niveau3 :: 2 :: [ falloir, permettre ]
Total feature counts: 8


====== Text Level Features ======

Features :: Feature-Counts :: Feature-Lemmas
--------------------------------------------
marqueurs :: 2 :: [ falloir, permettre ]
deontique :: 2 :: [ falloir, permettre ]
marqueurs_niveau3 :: 2 :: [ falloir, permettre ]
deontique_niveau3 :: 2 :: [ falloir, permettre ]
Total feature counts: 8

