====== Sentence Level Features ======

1. Sentence: Cela dit : bien joué !
Features :: Feature-Counts :: Feature-Lemmas
--------------------------------------------
marqueurs :: 3 :: [ dire, bien, jouer ]
appreciatif :: 2 :: [ bien, jouer ]
marqueurs_niveau3 :: 2 :: [ dire, bien ]
axiologique :: 1 :: [ bien ]
boulique :: 1 :: [ dire ]
marqueurs_niveau2 :: 1 :: [ jouer ]
appreciatif_niveau3 :: 1 :: [ bien ]
appreciatif_niveau2 :: 1 :: [ jouer ]
axiologique_niveau3 :: 1 :: [ bien ]
boulique_niveau3 :: 1 :: [ dire ]
Total feature counts: 14


====== Text Level Features ======

Features :: Feature-Counts :: Feature-Lemmas
--------------------------------------------
marqueurs :: 3 :: [ dire, bien, jouer ]
appreciatif :: 2 :: [ bien, jouer ]
marqueurs_niveau3 :: 2 :: [ dire, bien ]
axiologique :: 1 :: [ bien ]
boulique :: 1 :: [ dire ]
marqueurs_niveau2 :: 1 :: [ jouer ]
appreciatif_niveau3 :: 1 :: [ bien ]
appreciatif_niveau2 :: 1 :: [ jouer ]
axiologique_niveau3 :: 1 :: [ bien ]
boulique_niveau3 :: 1 :: [ dire ]
Total feature counts: 14

