
********** Entity Names Features **********
*******************************************

1. Sentence: Les Grands Ensembles comme territoire de projet
Entity Name (Type) :: Grands Ensembles (LOC)


********** Emotions Features **********
***************************************

1. Sentence: Les Grands Ensembles comme territoire de projet
No features found.


********** Modality Features **********
***************************************

1. Sentence: Les Grands Ensembles comme territoire de projet
No features found.


********** Adverbiaux Temporels Features **********
********************************************************

1. Sentence: Les Grands Ensembles comme territoire de projet
No features found.

