
********** Entity Names Features **********
*******************************************

1. Sentence: Je défends l ' idée que la planification — domaine essentiel — se nourrisse profondément d ' une vision du territoire dans sa globalité , de manière stratégique .
No features found.


********** Emotions Features **********
***************************************

1. Sentence: Je défends l ' idée que la planification — domaine essentiel — se nourrisse profondément d ' une vision du territoire dans sa globalité , de manière stratégique .
No features found.


********** Modality Features **********
***************************************

1. Sentence: Je défends l ' idée que la planification — domaine essentiel — se nourrisse profondément d ' une vision du territoire dans sa globalité , de manière stratégique .
Features :: Feature-Counts :: Feature-Lemmas
--------------------------------------------
marqueurs :: 1 :: [ défendre ]
axiologique :: 1 :: [ défendre ]
marqueurs_niveau1 :: 1 :: [ défendre ]
axiologique_niveau1 :: 1 :: [ défendre ]
Total feature counts: 4


********** Adverbiaux Temporels Features **********
********************************************************

1. Sentence: Je défends l ' idée que la planification — domaine essentiel — se nourrisse profondément d ' une vision du territoire dans sa globalité , de manière stratégique .
No features found.

