
********** Entity Names Features **********
*******************************************

1. Sentence: elle renforce leur pouvoir attractif , non seulement pour attirer l ' implantation d ' équipements complémentaires mais encore pour faciliter la création du centre lui-même .
No features found.


********** Emotions Features **********
***************************************

1. Sentence: elle renforce leur pouvoir attractif , non seulement pour attirer l ' implantation d ' équipements complémentaires mais encore pour faciliter la création du centre lui-même .
No features found.


********** Modality Features **********
***************************************

1. Sentence: elle renforce leur pouvoir attractif , non seulement pour attirer l ' implantation d ' équipements complémentaires mais encore pour faciliter la création du centre lui-même .
Features :: Feature-Counts :: Feature-Lemmas
--------------------------------------------
marqueurs :: 1 :: [ pouvoir ]
alethique :: 1 :: [ pouvoir ]
deontique :: 1 :: [ pouvoir ]
epistemique :: 1 :: [ pouvoir ]
marqueurs_niveau3 :: 1 :: [ pouvoir ]
alethique_niveau3 :: 1 :: [ pouvoir ]
deontique_niveau3 :: 1 :: [ pouvoir ]
epistemique_niveau3 :: 1 :: [ pouvoir ]
Total feature counts: 8


********** Adverbiaux Temporels Features **********
********************************************************

1. Sentence: elle renforce leur pouvoir attractif , non seulement pour attirer l ' implantation d ' équipements complémentaires mais encore pour faciliter la création du centre lui-même .
Features :: Feature-Counts :: Feature-Texts
--------------------------------------------
adverbiaux_temporels::1::['encore']
adverbiaux_duratifs_iteratifs::1::['encore']
adverbiaux_pointage_non_absolu::1::['encore']
adverbiaux_dur_iter_relatif::1::['encore']

