
********** Entity Names Features **********
*******************************************

1. Sentence: il y avait une difficulté politique : expliquer qu ’ il fallait faire 10 villes nouvelles dans la région parisienne dont le Centre soit capable de desservir de 500 . 000 à 800 .
Entity Name (Type) :: Centre (LOC)


********** Emotions Features **********
***************************************

1. Sentence: il y avait une difficulté politique : expliquer qu ’ il fallait faire 10 villes nouvelles dans la région parisienne dont le Centre soit capable de desservir de 500 . 000 à 800 .
No features found.


********** Modality Features **********
***************************************

1. Sentence: il y avait une difficulté politique : expliquer qu ’ il fallait faire 10 villes nouvelles dans la région parisienne dont le Centre soit capable de desservir de 500 . 000 à 800 .
Features :: Feature-Counts :: Feature-Lemmas
--------------------------------------------
marqueurs :: 2 :: [ difficulté, falloir ]
deontique :: 1 :: [ falloir ]
pas_d_indication :: 1 :: [ difficulté ]
marqueurs_niveau3 :: 1 :: [ falloir ]
marqueurs_niveau0 :: 1 :: [ difficulté ]
deontique_niveau3 :: 1 :: [ falloir ]
pas_d_indication_niveau0 :: 1 :: [ difficulté ]
Total feature counts: 8


********** Adverbiaux Temporels Features **********
********************************************************

1. Sentence: il y avait une difficulté politique : expliquer qu ’ il fallait faire 10 villes nouvelles dans la région parisienne dont le Centre soit capable de desservir de 500 . 000 à 800 .
No features found.

