====== Sentence Level Features ======

1. Sentence: I - Les plus anciennes - et les plus connues - des servitudes qui frappent la propriété privée sont inscrites dans l ’ édit de décembre 1607 toujours en vigueur (Crim .
Features :: Feature-Counts :: Feature-Lemmas
--------------------------------------------
marqueurs :: 3 :: [ connaître, frapper, toujours ]
alethique :: 1 :: [ toujours ]
appreciatif :: 1 :: [ frapper ]
axiologique :: 1 :: [ frapper ]
epistemique :: 1 :: [ connaître ]
marqueurs_niveau3 :: 1 :: [ toujours ]
marqueurs_niveau2 :: 1 :: [ connaître ]
marqueurs_niveau1 :: 1 :: [ frapper ]
alethique_niveau3 :: 1 :: [ toujours ]
appreciatif_niveau1 :: 1 :: [ frapper ]
axiologique_niveau1 :: 1 :: [ frapper ]
epistemique_niveau2 :: 1 :: [ connaître ]
Total feature counts: 14


====== Text Level Features ======

Features :: Feature-Counts :: Feature-Lemmas
--------------------------------------------
marqueurs :: 3 :: [ connaître, frapper, toujours ]
alethique :: 1 :: [ toujours ]
appreciatif :: 1 :: [ frapper ]
axiologique :: 1 :: [ frapper ]
epistemique :: 1 :: [ connaître ]
marqueurs_niveau3 :: 1 :: [ toujours ]
marqueurs_niveau2 :: 1 :: [ connaître ]
marqueurs_niveau1 :: 1 :: [ frapper ]
alethique_niveau3 :: 1 :: [ toujours ]
appreciatif_niveau1 :: 1 :: [ frapper ]
axiologique_niveau1 :: 1 :: [ frapper ]
epistemique_niveau2 :: 1 :: [ connaître ]
Total feature counts: 14

