====== Sentence Level Features ======

1. Sentence: La situation en France est , sur ce plan , désastreuse .
Features :: Feature-Counts :: Feature-Lemmas
--------------------------------------------
marqueurs :: 1 :: [ désastreux ]
appreciatif :: 1 :: [ désastreux ]
marqueurs_niveau2 :: 1 :: [ désastreux ]
appreciatif_niveau2 :: 1 :: [ désastreux ]
Total feature counts: 4


====== Text Level Features ======

Features :: Feature-Counts :: Feature-Lemmas
--------------------------------------------
marqueurs :: 1 :: [ désastreux ]
appreciatif :: 1 :: [ désastreux ]
marqueurs_niveau2 :: 1 :: [ désastreux ]
appreciatif_niveau2 :: 1 :: [ désastreux ]
Total feature counts: 4

