====== Sentence Level Features ======

1. Sentence: Depuis l ' École de Chicago de Burgess et Park , sociologues , géographes , urbanistes et experts de l ' immo bilier utilisent des concepts émanant des recherches de botanistes et écologistes pour lire la ville et pour construire ensuite des modèles d ' interprétation et de réglementation .
Features :: Feature-Counts :: Feature-Lemmas
--------------------------------------------
marqueurs :: 2 :: [ école, lire ]
alethique :: 1 :: [ école ]
boulique :: 1 :: [ lire ]
marqueurs_niveau3 :: 1 :: [ lire ]
marqueurs_niveau1 :: 1 :: [ école ]
alethique_niveau1 :: 1 :: [ école ]
boulique_niveau3 :: 1 :: [ lire ]
Total feature counts: 8


====== Text Level Features ======

Features :: Feature-Counts :: Feature-Lemmas
--------------------------------------------
marqueurs :: 2 :: [ école, lire ]
alethique :: 1 :: [ école ]
boulique :: 1 :: [ lire ]
marqueurs_niveau3 :: 1 :: [ lire ]
marqueurs_niveau1 :: 1 :: [ école ]
alethique_niveau1 :: 1 :: [ école ]
boulique_niveau3 :: 1 :: [ lire ]
Total feature counts: 8

