
********** Entity Names Features **********
*******************************************

1. Sentence: C ' est pourquoi il faut commencer par la question du développement de la région , c ' est-à-dire par un véritable schéma directeur , un schéma stratégique de développement de la région .
No features found.


********** Emotions Features **********
***************************************

1. Sentence: C ' est pourquoi il faut commencer par la question du développement de la région , c ' est-à-dire par un véritable schéma directeur , un schéma stratégique de développement de la région .
No features found.


********** Modality Features **********
***************************************

1. Sentence: C ' est pourquoi il faut commencer par la question du développement de la région , c ' est-à-dire par un véritable schéma directeur , un schéma stratégique de développement de la région .
Features :: Feature-Counts :: Feature-Lemmas
--------------------------------------------
marqueurs :: 2 :: [ falloir, véritable ]
deontique :: 1 :: [ falloir ]
pas_d_indication :: 1 :: [ véritable ]
marqueurs_niveau3 :: 1 :: [ falloir ]
marqueurs_niveau0 :: 1 :: [ véritable ]
deontique_niveau3 :: 1 :: [ falloir ]
pas_d_indication_niveau0 :: 1 :: [ véritable ]
Total feature counts: 8


********** Adverbiaux Temporels Features **********
********************************************************

1. Sentence: C ' est pourquoi il faut commencer par la question du développement de la région , c ' est-à-dire par un véritable schéma directeur , un schéma stratégique de développement de la région .
No features found.

