
********** Entity Names Features **********
*******************************************

1. Sentence: Car je ne crois pas que , là comme ailleurs , il soit possible de dessiner d ' une seule main et une fois pour toutes 55 hectares de ville .
Entity Name (Type) :: Car (LOC)


********** Emotions Features **********
***************************************

1. Sentence: Car je ne crois pas que , là comme ailleurs , il soit possible de dessiner d ' une seule main et une fois pour toutes 55 hectares de ville .
No features found.


********** Modality Features **********
***************************************

1. Sentence: Car je ne crois pas que , là comme ailleurs , il soit possible de dessiner d ' une seule main et une fois pour toutes 55 hectares de ville .
Features :: Feature-Counts :: Feature-Lemmas
--------------------------------------------
marqueurs :: 2 :: [ croire, possible ]
marqueurs_niveau3 :: 2 :: [ croire, possible ]
alethique :: 1 :: [ possible ]
epistemique :: 1 :: [ croire ]
alethique_niveau3 :: 1 :: [ possible ]
epistemique_niveau3 :: 1 :: [ croire ]
Total feature counts: 8


********** Adverbiaux Temporels Features **********
********************************************************

1. Sentence: Car je ne crois pas que , là comme ailleurs , il soit possible de dessiner d ' une seule main et une fois pour toutes 55 hectares de ville .
No features found.

