
********** Entity Names Features **********
*******************************************

1. Sentence: Le traumatisme de la fermeture des chantiers n ' était pas encore digéré .
No features found.


********** Emotions Features **********
***************************************

1. Sentence: Le traumatisme de la fermeture des chantiers n ' était pas encore digéré .
No features found.


********** Modality Features **********
***************************************

1. Sentence: Le traumatisme de la fermeture des chantiers n ' était pas encore digéré .
Features :: Feature-Counts :: Feature-Lemmas
--------------------------------------------
marqueurs :: 1 :: [ traumatisme ]
appreciatif :: 1 :: [ traumatisme ]
marqueurs_niveau2 :: 1 :: [ traumatisme ]
appreciatif_niveau2 :: 1 :: [ traumatisme ]
Total feature counts: 4


********** Adverbiaux Temporels Features **********
********************************************************

1. Sentence: Le traumatisme de la fermeture des chantiers n ' était pas encore digéré .
Features :: Feature-Counts :: Feature-Texts
--------------------------------------------
adverbiaux_temporels::1::['pas encore']
adverbiaux_duratifs_iteratifs::1::['pas encore']
adverbiaux_pointage_non_absolu::1::['pas encore']
adverbiaux_dur_iter_relatif::1::['pas encore']

