====== Sentence Level Features ======

1. Sentence: J ' engage les jeunes urbanistes à le faire .
Entity Name (Type) :: J (PER)


====== Text Level Features ======

Entity Name (Entity Type)
-------------------------
J (PER)
Total entitiy counts: 1

