====== Sentence Level Features ======

1. Sentence: L ' AGGLOMÉRATION PARISIENNE EN 1965
Entity Name (Type) :: EN (LOC)


====== Text Level Features ======

Entity Name (Entity Type)
-------------------------
AGGLOMÉRATION PARISIENNE (ORG)
EN (LOC)
Total entitiy counts: 2

