
********** Entity Names Features **********
*******************************************

1. Sentence: Une triple crise économique , écologique et sociale est évoquée .
Entity Name (Type) :: Une (LOC)


********** Emotions Features **********
***************************************

1. Sentence: Une triple crise économique , écologique et sociale est évoquée .
No features found.


********** Modality Features **********
***************************************

1. Sentence: Une triple crise économique , écologique et sociale est évoquée .
Features :: Feature-Counts :: Feature-Lemmas
--------------------------------------------
marqueurs :: 1 :: [ crise ]
appreciatif :: 1 :: [ crise ]
epistemique :: 1 :: [ crise ]
marqueurs_niveau2 :: 1 :: [ crise ]
appreciatif_niveau2 :: 1 :: [ crise ]
epistemique_niveau2 :: 1 :: [ crise ]
Total feature counts: 6


********** Adverbiaux Temporels Features **********
********************************************************

1. Sentence: Une triple crise économique , écologique et sociale est évoquée .
No features found.

