
********** Entity Names Features **********
*******************************************

1. Sentence: Ce récit révèle avec clarté et humour l ' obsolescence du système représentatif actuel .
No features found.


********** Emotions Features **********
***************************************

1. Sentence: Ce récit révèle avec clarté et humour l ' obsolescence du système représentatif actuel .
No features found.


********** Modality Features **********
***************************************

1. Sentence: Ce récit révèle avec clarté et humour l ' obsolescence du système représentatif actuel .
No features found.


********** Adverbiaux Temporels Features **********
********************************************************

1. Sentence: Ce récit révèle avec clarté et humour l ' obsolescence du système représentatif actuel .
No features found.

