====== Sentence Level Features ======

1. Sentence: Pourtant personne , en France , ne s ' en rendait compte .
Features :: Feature-Counts :: Feature-Lemmas
--------------------------------------------
marqueurs :: 1 :: [ personne ]
alethique :: 1 :: [ personne ]
marqueurs_niveau2 :: 1 :: [ personne ]
alethique_niveau2 :: 1 :: [ personne ]
Total feature counts: 4


====== Text Level Features ======

Features :: Feature-Counts :: Feature-Lemmas
--------------------------------------------
marqueurs :: 1 :: [ personne ]
alethique :: 1 :: [ personne ]
marqueurs_niveau2 :: 1 :: [ personne ]
alethique_niveau2 :: 1 :: [ personne ]
Total feature counts: 4

