
********** Entity Names Features **********
*******************************************

1. Sentence: cela étant , pour les motifs que l ' on vient d ' indiquer , il est préférable que ces activités s ' installent dans les villes du bassin parisien existant à plus de 80 ou 100 kilomètres .
No features found.


********** Emotions Features **********
***************************************

1. Sentence: cela étant , pour les motifs que l ' on vient d ' indiquer , il est préférable que ces activités s ' installent dans les villes du bassin parisien existant à plus de 80 ou 100 kilomètres .
No features found.


********** Modality Features **********
***************************************

1. Sentence: cela étant , pour les motifs que l ' on vient d ' indiquer , il est préférable que ces activités s ' installent dans les villes du bassin parisien existant à plus de 80 ou 100 kilomètres .
Features :: Feature-Counts :: Feature-Lemmas
--------------------------------------------
marqueurs :: 1 :: [ venir ]
alethique :: 1 :: [ venir ]
marqueurs_niveau3 :: 1 :: [ venir ]
alethique_niveau3 :: 1 :: [ venir ]
Total feature counts: 4


********** Adverbiaux Temporels Features **********
********************************************************

1. Sentence: cela étant , pour les motifs que l ' on vient d ' indiquer , il est préférable que ces activités s ' installent dans les villes du bassin parisien existant à plus de 80 ou 100 kilomètres .
No features found.

