====== Sentence Level Features ======

1. Sentence: - Le pouvoir d ' achat des années 1960-1965 sera , en moyenne par personne , multiplié par 2 , 5 vers 1985 , et par 3 , 5 environ , vers 2000 .
No features found.


====== Text Level Features ======

No features found.

