
********** Entity Names Features **********
*******************************************

1. Sentence: Au contraire , on travaille des processus , qui vont évoluer .
No features found.


********** Emotions Features **********
***************************************

1. Sentence: Au contraire , on travaille des processus , qui vont évoluer .
No features found.


********** Modality Features **********
***************************************

1. Sentence: Au contraire , on travaille des processus , qui vont évoluer .
Features :: Feature-Counts :: Feature-Lemmas
--------------------------------------------
marqueurs :: 2 :: [ travailler, aller ]
alethique :: 1 :: [ aller ]
appreciatif :: 1 :: [ travailler ]
marqueurs_niveau2 :: 1 :: [ travailler ]
marqueurs_niveau1 :: 1 :: [ aller ]
alethique_niveau1 :: 1 :: [ aller ]
appreciatif_niveau2 :: 1 :: [ travailler ]
Total feature counts: 8


********** Adverbiaux Temporels Features **********
********************************************************

1. Sentence: Au contraire , on travaille des processus , qui vont évoluer .
No features found.

