====== Sentence Level Features ======

1. Sentence: Certains « joueurs» , les promoteurs en l ' occurrence , misent avant même que les règles ne soient connues .
Features :: Feature-Counts :: Feature-Lemmas
--------------------------------------------
marqueurs :: 2 :: [ certain, connaître ]
epistemique :: 2 :: [ certain, connaître ]
marqueurs_niveau3 :: 1 :: [ certain ]
marqueurs_niveau2 :: 1 :: [ connaître ]
epistemique_niveau3 :: 1 :: [ certain ]
epistemique_niveau2 :: 1 :: [ connaître ]
Total feature counts: 8


====== Text Level Features ======

Features :: Feature-Counts :: Feature-Lemmas
--------------------------------------------
marqueurs :: 2 :: [ certain, connaître ]
epistemique :: 2 :: [ certain, connaître ]
marqueurs_niveau3 :: 1 :: [ certain ]
marqueurs_niveau2 :: 1 :: [ connaître ]
epistemique_niveau3 :: 1 :: [ certain ]
epistemique_niveau2 :: 1 :: [ connaître ]
Total feature counts: 8

