
********** Entity Names Features **********
*******************************************

1. Sentence: Une antichambre de la ville : le parc de la Villeneuve de Grenoble J ' ai rencontré Henri Ciriani chez Gomis .
Entity Name (Type) :: Gomis (PER)


********** Emotions Features **********
***************************************

1. Sentence: Une antichambre de la ville : le parc de la Villeneuve de Grenoble J ' ai rencontré Henri Ciriani chez Gomis .
No features found.


********** Modality Features **********
***************************************

1. Sentence: Une antichambre de la ville : le parc de la Villeneuve de Grenoble J ' ai rencontré Henri Ciriani chez Gomis .
No features found.


********** Adverbiaux Temporels Features **********
********************************************************

1. Sentence: Une antichambre de la ville : le parc de la Villeneuve de Grenoble J ' ai rencontré Henri Ciriani chez Gomis .
No features found.

