====== Sentence Level Features ======

1. Sentence: Cette solution peut paraître à la fois novatrice et raisonnable;
Features :: Feature-Counts :: Feature-Lemmas
--------------------------------------------
marqueurs :: 2 :: [ pouvoir, paraître ]
epistemique :: 2 :: [ pouvoir, paraître ]
marqueurs_niveau3 :: 2 :: [ pouvoir, paraître ]
epistemique_niveau3 :: 2 :: [ pouvoir, paraître ]
alethique :: 1 :: [ pouvoir ]
deontique :: 1 :: [ pouvoir ]
alethique_niveau3 :: 1 :: [ pouvoir ]
deontique_niveau3 :: 1 :: [ pouvoir ]
Total feature counts: 12


====== Text Level Features ======

Features :: Feature-Counts :: Feature-Lemmas
--------------------------------------------
marqueurs :: 2 :: [ pouvoir, paraître ]
epistemique :: 2 :: [ pouvoir, paraître ]
marqueurs_niveau3 :: 2 :: [ pouvoir, paraître ]
epistemique_niveau3 :: 2 :: [ pouvoir, paraître ]
alethique :: 1 :: [ pouvoir ]
deontique :: 1 :: [ pouvoir ]
alethique_niveau3 :: 1 :: [ pouvoir ]
deontique_niveau3 :: 1 :: [ pouvoir ]
Total feature counts: 12

