
********** Entity Names Features **********
*******************************************

1. Sentence: L ' image d ' ensemble devient floue .
No features found.


********** Emotions Features **********
***************************************

1. Sentence: L ' image d ' ensemble devient floue .
No features found.


********** Modality Features **********
***************************************

1. Sentence: L ' image d ' ensemble devient floue .
No features found.


********** Adverbiaux Temporels Features **********
********************************************************

1. Sentence: L ' image d ' ensemble devient floue .
No features found.

