====== Sentence Level Features ======

1. Sentence: L ' Île de Nantes verra intervenir de nouveaux acteurs pendant longtemps encore , qui varieront les orientations préalables établies par les trois premières équipes choisies pour son aménagement .
Features :: Feature-Counts :: Feature-Lemmas
--------------------------------------------
marqueurs :: 2 :: [ longtemps, choisir ]
boulique :: 1 :: [ choisir ]
epistemique :: 1 :: [ longtemps ]
marqueurs_niveau2 :: 1 :: [ choisir ]
marqueurs_niveau1 :: 1 :: [ longtemps ]
boulique_niveau2 :: 1 :: [ choisir ]
epistemique_niveau1 :: 1 :: [ longtemps ]
Total feature counts: 8


====== Text Level Features ======

Features :: Feature-Counts :: Feature-Lemmas
--------------------------------------------
marqueurs :: 2 :: [ longtemps, choisir ]
boulique :: 1 :: [ choisir ]
epistemique :: 1 :: [ longtemps ]
marqueurs_niveau2 :: 1 :: [ choisir ]
marqueurs_niveau1 :: 1 :: [ longtemps ]
boulique_niveau2 :: 1 :: [ choisir ]
epistemique_niveau1 :: 1 :: [ longtemps ]
Total feature counts: 8

