
********** Entity Names Features **********
*******************************************

1. Sentence: l ' animation pour transcrire les temporalités et les incertitudes
No features found.


********** Emotions Features **********
***************************************

1. Sentence: l ' animation pour transcrire les temporalités et les incertitudes
No features found.


********** Modality Features **********
***************************************

1. Sentence: l ' animation pour transcrire les temporalités et les incertitudes
No features found.


********** Adverbiaux Temporels Features **********
********************************************************

1. Sentence: l ' animation pour transcrire les temporalités et les incertitudes
No features found.

