====== Sentence Level Features ======

1. Sentence: POPULATION ACTIVE EMPLOYÉE DANS LE SECTEUR TERTIAIRE EN 1962
Features :: Feature-Counts :: Feature-Texts
--------------------------------------------
adverbiaux_temporels::1::['EN 1962']
adverbiaux_localisation_temporelle::1::['EN 1962']
adverbiaux_pointage_absolu::1::['EN 1962']
adverbiaux_pointage_non_absolu::1::['EN 1962']
adverbiaux_loc_temp_focalisation_id::1::['EN 1962']
adverbiaux_loc_temp_regionalisation_id::1::['EN 1962']
adverbiaux_loc_temp_pointage_non_absolu::1::['EN 1962']
adverbiaux_dur_iter_absolu::1::['EN 1962']


====== Text Level Features ======

Features :: Feature-Counts :: Feature-Texts
--------------------------------------------
adverbiaux_temporels::1::['EN 1962']
adverbiaux_localisation_temporelle::1::['EN 1962']
adverbiaux_pointage_absolu::1::['EN 1962']
adverbiaux_pointage_non_absolu::1::['EN 1962']
adverbiaux_loc_temp_focalisation_id::1::['EN 1962']
adverbiaux_loc_temp_regionalisation_id::1::['EN 1962']
adverbiaux_loc_temp_pointage_non_absolu::1::['EN 1962']
adverbiaux_dur_iter_absolu::1::['EN 1962']
Total feature counts: 8

