
********** Entity Names Features **********
*******************************************

2. Sentence: confiance envers les « paysages en gestation » .
No features found.


********** Emotions Features **********
***************************************

2. Sentence: confiance envers les « paysages en gestation » .
Tokens having emotion: [ confiance ]
Lemmas having emotion: [ confiance ]
Categories of the emotion lemmas: [ audace ]


********** Modality Features **********
***************************************

2. Sentence: confiance envers les « paysages en gestation » .
Features :: Feature-Counts :: Feature-Lemmas
--------------------------------------------
marqueurs :: 1 :: [ confiance ]
epistemique :: 1 :: [ confiance ]
marqueurs_niveau2 :: 1 :: [ confiance ]
epistemique_niveau2 :: 1 :: [ confiance ]
Total feature counts: 4


********** Adverbiaux Temporels Features **********
********************************************************

2. Sentence: confiance envers les « paysages en gestation » .
No features found.

