
********** Entity Names Features **********
*******************************************

1. Sentence: Intervenir sur un site , c ' est autant une question humaine qu ' une durée .
No features found.


********** Emotions Features **********
***************************************

1. Sentence: Intervenir sur un site , c ' est autant une question humaine qu ' une durée .
No features found.


********** Modality Features **********
***************************************

1. Sentence: Intervenir sur un site , c ' est autant une question humaine qu ' une durée .
No features found.


********** Adverbiaux Temporels Features **********
********************************************************

1. Sentence: Intervenir sur un site , c ' est autant une question humaine qu ' une durée .
No features found.

