====== Sentence Level Features ======

1. Sentence: Paradoxe de l ' envolée : elle voulait s ' emparer de l ' espace , rejoindre la nature ses Constellations de galets) , elle n ' a fait que les massacrer .
Features :: Feature-Counts :: Feature-Lemmas
--------------------------------------------
marqueurs :: 1 :: [ vouloir ]
boulique :: 1 :: [ vouloir ]
marqueurs_niveau3 :: 1 :: [ vouloir ]
boulique_niveau3 :: 1 :: [ vouloir ]
Total feature counts: 4


====== Text Level Features ======

Features :: Feature-Counts :: Feature-Lemmas
--------------------------------------------
marqueurs :: 1 :: [ vouloir ]
boulique :: 1 :: [ vouloir ]
marqueurs_niveau3 :: 1 :: [ vouloir ]
boulique_niveau3 :: 1 :: [ vouloir ]
Total feature counts: 4

