====== Sentence Level Features ======

1. Sentence: Il vous faut prendre de la distance , rejoindre les limites pour y découvrir les différentes issues par lesquelles s ' évader .
Features :: Feature-Counts :: Feature-Lemmas
--------------------------------------------
marqueurs :: 2 :: [ falloir, découvrir ]
deontique :: 1 :: [ falloir ]
pas_d_indication :: 1 :: [ découvrir ]
marqueurs_niveau3 :: 1 :: [ falloir ]
marqueurs_niveau0 :: 1 :: [ découvrir ]
deontique_niveau3 :: 1 :: [ falloir ]
pas_d_indication_niveau0 :: 1 :: [ découvrir ]
Total feature counts: 8


====== Text Level Features ======

Features :: Feature-Counts :: Feature-Lemmas
--------------------------------------------
marqueurs :: 2 :: [ falloir, découvrir ]
deontique :: 1 :: [ falloir ]
pas_d_indication :: 1 :: [ découvrir ]
marqueurs_niveau3 :: 1 :: [ falloir ]
marqueurs_niveau0 :: 1 :: [ découvrir ]
deontique_niveau3 :: 1 :: [ falloir ]
pas_d_indication_niveau0 :: 1 :: [ découvrir ]
Total feature counts: 8

