====== Sentence Level Features ======

1. Sentence: ce qui n ' est pas aisé quand toute une ville (mais pas Pierre Mauroy) , lasse des prouesses , aspire au retour au calme , à la banalité et éprouve la tentation de l ' architecture régionale , de la couleur locale .
Features :: Feature-Counts :: Feature-Lemmas
--------------------------------------------
marqueurs :: 1 :: [ prouesse ]
appreciatif :: 1 :: [ prouesse ]
axiologique :: 1 :: [ prouesse ]
marqueurs_niveau2 :: 1 :: [ prouesse ]
appreciatif_niveau2 :: 1 :: [ prouesse ]
axiologique_niveau2 :: 1 :: [ prouesse ]
Total feature counts: 6


====== Text Level Features ======

Features :: Feature-Counts :: Feature-Lemmas
--------------------------------------------
marqueurs :: 1 :: [ prouesse ]
appreciatif :: 1 :: [ prouesse ]
axiologique :: 1 :: [ prouesse ]
marqueurs_niveau2 :: 1 :: [ prouesse ]
appreciatif_niveau2 :: 1 :: [ prouesse ]
axiologique_niveau2 :: 1 :: [ prouesse ]
Total feature counts: 6

