
********** Entity Names Features **********
*******************************************

1. Sentence: Pierre Veltz  : Un grand projet , ce sont des batailles incessantes , un feuilleton continu .
Entity Name (Type) :: Pierre Veltz (PER)


********** Emotions Features **********
***************************************

1. Sentence: Pierre Veltz  : Un grand projet , ce sont des batailles incessantes , un feuilleton continu .
No features found.


********** Modality Features **********
***************************************

1. Sentence: Pierre Veltz  : Un grand projet , ce sont des batailles incessantes , un feuilleton continu .
Features :: Feature-Counts :: Feature-Lemmas
--------------------------------------------
marqueurs :: 2 :: [ grand, bataille ]
axiologique :: 1 :: [ bataille ]
epistemique :: 1 :: [ grand ]
marqueurs_niveau3 :: 1 :: [ grand ]
marqueurs_niveau2 :: 1 :: [ bataille ]
axiologique_niveau2 :: 1 :: [ bataille ]
epistemique_niveau3 :: 1 :: [ grand ]
Total feature counts: 8


********** Adverbiaux Temporels Features **********
********************************************************

1. Sentence: Pierre Veltz  : Un grand projet , ce sont des batailles incessantes , un feuilleton continu .
No features found.

