====== Sentence Level Features ======

1. Sentence: Tous les efforts se portent désormais sur les écoquartiers .
Entity Name (Type) :: Tous (LOC)


====== Text Level Features ======

Entity Name (Entity Type)
-------------------------
Tous (LOC)
Total entitiy counts: 1

