
********** Entity Names Features **********
*******************************************

1. Sentence: Si l ' hyperville suisse nous a appris beaucoup , notamment sur les réseaux , sur la gestion écologique du territoire , la mégalopole parisienne , elle , a interrogé les étudiants de Lausanne sur le monde .
Entity Name (Type) :: Lausanne (LOC)


********** Emotions Features **********
***************************************

1. Sentence: Si l ' hyperville suisse nous a appris beaucoup , notamment sur les réseaux , sur la gestion écologique du territoire , la mégalopole parisienne , elle , a interrogé les étudiants de Lausanne sur le monde .
No features found.


********** Modality Features **********
***************************************

1. Sentence: Si l ' hyperville suisse nous a appris beaucoup , notamment sur les réseaux , sur la gestion écologique du territoire , la mégalopole parisienne , elle , a interrogé les étudiants de Lausanne sur le monde .
Features :: Feature-Counts :: Feature-Lemmas
--------------------------------------------
marqueurs :: 1 :: [ beaucoup ]
epistemique :: 1 :: [ beaucoup ]
marqueurs_niveau1 :: 1 :: [ beaucoup ]
epistemique_niveau1 :: 1 :: [ beaucoup ]
Total feature counts: 4


********** Adverbiaux Temporels Features **********
********************************************************

1. Sentence: Si l ' hyperville suisse nous a appris beaucoup , notamment sur les réseaux , sur la gestion écologique du territoire , la mégalopole parisienne , elle , a interrogé les étudiants de Lausanne sur le monde .
No features found.

