
********** Entity Names Features **********
*******************************************

1. Sentence: Notre patrimoine et notre histoire ne nous donnent pas la même vision de la modernité , même si des ressemblances apparaissent .
No features found.


********** Emotions Features **********
***************************************

1. Sentence: Notre patrimoine et notre histoire ne nous donnent pas la même vision de la modernité , même si des ressemblances apparaissent .
No features found.


********** Modality Features **********
***************************************

1. Sentence: Notre patrimoine et notre histoire ne nous donnent pas la même vision de la modernité , même si des ressemblances apparaissent .
No features found.


********** Adverbiaux Temporels Features **********
********************************************************

1. Sentence: Notre patrimoine et notre histoire ne nous donnent pas la même vision de la modernité , même si des ressemblances apparaissent .
No features found.

