====== Sentence Level Features ======

1. Sentence: Je n ' ai pas beaucoup d ' idées personnelles , mais je sais utiliser les idées des autres dans un autre contexte .
Features :: Feature-Counts :: Feature-Lemmas
--------------------------------------------
marqueurs :: 2 :: [ beaucoup, savoir ]
epistemique :: 2 :: [ beaucoup, savoir ]
marqueurs_niveau3 :: 1 :: [ savoir ]
marqueurs_niveau1 :: 1 :: [ beaucoup ]
epistemique_niveau3 :: 1 :: [ savoir ]
epistemique_niveau1 :: 1 :: [ beaucoup ]
Total feature counts: 8


====== Text Level Features ======

Features :: Feature-Counts :: Feature-Lemmas
--------------------------------------------
marqueurs :: 2 :: [ beaucoup, savoir ]
epistemique :: 2 :: [ beaucoup, savoir ]
marqueurs_niveau3 :: 1 :: [ savoir ]
marqueurs_niveau1 :: 1 :: [ beaucoup ]
epistemique_niveau3 :: 1 :: [ savoir ]
epistemique_niveau1 :: 1 :: [ beaucoup ]
Total feature counts: 8

