
********** Entity Names Features **********
*******************************************

1. Sentence: Votre analyse devra s ' appuyer sur une approche comparative avec les principales expériences menées par d ' autres métropoles , notamment au niveau européen .
Entity Name (Type) :: Votre (LOC)


********** Emotions Features **********
***************************************

1. Sentence: Votre analyse devra s ' appuyer sur une approche comparative avec les principales expériences menées par d ' autres métropoles , notamment au niveau européen .
No features found.


********** Modality Features **********
***************************************

1. Sentence: Votre analyse devra s ' appuyer sur une approche comparative avec les principales expériences menées par d ' autres métropoles , notamment au niveau européen .
Features :: Feature-Counts :: Feature-Lemmas
--------------------------------------------
marqueurs :: 1 :: [ devoir ]
alethique :: 1 :: [ devoir ]
deontique :: 1 :: [ devoir ]
epistemique :: 1 :: [ devoir ]
marqueurs_niveau3 :: 1 :: [ devoir ]
alethique_niveau3 :: 1 :: [ devoir ]
deontique_niveau3 :: 1 :: [ devoir ]
epistemique_niveau3 :: 1 :: [ devoir ]
Total feature counts: 8


********** Adverbiaux Temporels Features **********
********************************************************

1. Sentence: Votre analyse devra s ' appuyer sur une approche comparative avec les principales expériences menées par d ' autres métropoles , notamment au niveau européen .
No features found.

