====== Sentence Level Features ======

1. Sentence: Ce qui rend impossible sa délocalisation .
Features :: Feature-Counts :: Feature-Lemmas
--------------------------------------------
marqueurs :: 1 :: [ impossible ]
alethique :: 1 :: [ impossible ]
marqueurs_niveau3 :: 1 :: [ impossible ]
alethique_niveau3 :: 1 :: [ impossible ]
Total feature counts: 4


====== Text Level Features ======

Features :: Feature-Counts :: Feature-Lemmas
--------------------------------------------
marqueurs :: 1 :: [ impossible ]
alethique :: 1 :: [ impossible ]
marqueurs_niveau3 :: 1 :: [ impossible ]
alethique_niveau3 :: 1 :: [ impossible ]
Total feature counts: 4

