
********** Entity Names Features **********
*******************************************

2. Sentence: Protection des Sites
Entity Name (Type) :: Sites (MISC)


********** Emotions Features **********
***************************************

2. Sentence: Protection des Sites
No features found.


********** Modality Features **********
***************************************

2. Sentence: Protection des Sites
No features found.


********** Adverbiaux Temporels Features **********
********************************************************

2. Sentence: Protection des Sites
No features found.

