====== Sentence Level Features ======

1. Sentence: Autre élément fondateur pour moi : le numéro 87-88 de la revue Edilizia Moderna , intitulé « La forma del territorio » , qui paraît en 1965 .
Features :: Feature-Counts :: Feature-Lemmas
--------------------------------------------
marqueurs :: 2 :: [ lui, paraître ]
epistemique :: 2 :: [ lui, paraître ]
marqueurs_niveau3 :: 2 :: [ lui, paraître ]
epistemique_niveau3 :: 2 :: [ lui, paraître ]
alethique :: 1 :: [ lui ]
alethique_niveau3 :: 1 :: [ lui ]
Total feature counts: 10


====== Text Level Features ======

Features :: Feature-Counts :: Feature-Lemmas
--------------------------------------------
marqueurs :: 2 :: [ lui, paraître ]
epistemique :: 2 :: [ lui, paraître ]
marqueurs_niveau3 :: 2 :: [ lui, paraître ]
epistemique_niveau3 :: 2 :: [ lui, paraître ]
alethique :: 1 :: [ lui ]
alethique_niveau3 :: 1 :: [ lui ]
Total feature counts: 10

