====== Sentence Level Features ======

1. Sentence: Si le texte de loi est technique , les éléments de langage sont les bons véhicules pour la décrire .
Features :: Feature-Counts :: Feature-Lemmas
--------------------------------------------
marqueurs :: 2 :: [ loi, bon ]
appreciatif :: 1 :: [ bon ]
axiologique :: 1 :: [ bon ]
deontique :: 1 :: [ loi ]
marqueurs_niveau3 :: 1 :: [ bon ]
marqueurs_niveau2 :: 1 :: [ loi ]
appreciatif_niveau3 :: 1 :: [ bon ]
axiologique_niveau3 :: 1 :: [ bon ]
deontique_niveau2 :: 1 :: [ loi ]
Total feature counts: 10


====== Text Level Features ======

Features :: Feature-Counts :: Feature-Lemmas
--------------------------------------------
marqueurs :: 2 :: [ loi, bon ]
appreciatif :: 1 :: [ bon ]
axiologique :: 1 :: [ bon ]
deontique :: 1 :: [ loi ]
marqueurs_niveau3 :: 1 :: [ bon ]
marqueurs_niveau2 :: 1 :: [ loi ]
appreciatif_niveau3 :: 1 :: [ bon ]
axiologique_niveau3 :: 1 :: [ bon ]
deontique_niveau2 :: 1 :: [ loi ]
Total feature counts: 10

