====== Sentence Level Features ======

1. Sentence: Tout détruire est aussi impensable que tout conserver .
Features :: Feature-Counts :: Feature-Lemmas
--------------------------------------------
marqueurs :: 1 :: [ détruire ]
appreciatif :: 1 :: [ détruire ]
axiologique :: 1 :: [ détruire ]
marqueurs_niveau1 :: 1 :: [ détruire ]
appreciatif_niveau1 :: 1 :: [ détruire ]
axiologique_niveau1 :: 1 :: [ détruire ]
Total feature counts: 6


====== Text Level Features ======

Features :: Feature-Counts :: Feature-Lemmas
--------------------------------------------
marqueurs :: 1 :: [ détruire ]
appreciatif :: 1 :: [ détruire ]
axiologique :: 1 :: [ détruire ]
marqueurs_niveau1 :: 1 :: [ détruire ]
appreciatif_niveau1 :: 1 :: [ détruire ]
axiologique_niveau1 :: 1 :: [ détruire ]
Total feature counts: 6

