====== Sentence Level Features ======

1. Sentence: Stockholm	Ville " intérieure " (34 km2)	1950-1960	- 1 , 94%
Features :: Feature-Counts :: Feature-Texts
--------------------------------------------
adverbiaux_temporels::1::['1950_1960']
adverbiaux_localisation_temporelle::1::['1950_1960']
adverbiaux_pointage_absolu::1::['1950_1960']
adverbiaux_loc_temp_focalisation_id::1::['1950_1960']
adverbiaux_loc_temp_regionalisation_id::1::['1950_1960']
adverbiaux_loc_temp_pointage_absolu::1::['1950_1960']


====== Text Level Features ======

Features :: Feature-Counts :: Feature-Texts
--------------------------------------------
adverbiaux_temporels::1::['1950_1960']
adverbiaux_localisation_temporelle::1::['1950_1960']
adverbiaux_pointage_absolu::1::['1950_1960']
adverbiaux_loc_temp_focalisation_id::1::['1950_1960']
adverbiaux_loc_temp_regionalisation_id::1::['1950_1960']
adverbiaux_loc_temp_pointage_absolu::1::['1950_1960']
Total feature counts: 6

