
********** Entity Names Features **********
*******************************************

1. Sentence: Ils sont assis , il y a les forces de résistance qui viennent de la position stratégique des uns et des autres .
No features found.


********** Emotions Features **********
***************************************

1. Sentence: Ils sont assis , il y a les forces de résistance qui viennent de la position stratégique des uns et des autres .
No features found.


********** Modality Features **********
***************************************

1. Sentence: Ils sont assis , il y a les forces de résistance qui viennent de la position stratégique des uns et des autres .
Features :: Feature-Counts :: Feature-Lemmas
--------------------------------------------
marqueurs :: 3 :: [ force, résistance, venir ]
marqueurs_niveau3 :: 2 :: [ résistance, venir ]
alethique :: 1 :: [ venir ]
axiologique :: 1 :: [ résistance ]
pas_d_indication :: 1 :: [ force ]
marqueurs_niveau0 :: 1 :: [ force ]
alethique_niveau3 :: 1 :: [ venir ]
axiologique_niveau3 :: 1 :: [ résistance ]
pas_d_indication_niveau0 :: 1 :: [ force ]
Total feature counts: 12


********** Adverbiaux Temporels Features **********
********************************************************

1. Sentence: Ils sont assis , il y a les forces de résistance qui viennent de la position stratégique des uns et des autres .
No features found.

