====== Sentence Level Features ======

1. Sentence: Nous sommes capables de faire de grandes opérations urbaines de qualité et elles peuvent venir conforter de nouvelles centralités .
Features :: Feature-Counts :: Feature-Lemmas
--------------------------------------------
marqueurs :: 3 :: [ grand, pouvoir, venir ]
marqueurs_niveau3 :: 3 :: [ grand, pouvoir, venir ]
alethique :: 2 :: [ pouvoir, venir ]
epistemique :: 2 :: [ grand, pouvoir ]
alethique_niveau3 :: 2 :: [ pouvoir, venir ]
epistemique_niveau3 :: 2 :: [ grand, pouvoir ]
deontique :: 1 :: [ pouvoir ]
deontique_niveau3 :: 1 :: [ pouvoir ]
Total feature counts: 16


====== Text Level Features ======

Features :: Feature-Counts :: Feature-Lemmas
--------------------------------------------
marqueurs :: 3 :: [ grand, pouvoir, venir ]
marqueurs_niveau3 :: 3 :: [ grand, pouvoir, venir ]
alethique :: 2 :: [ pouvoir, venir ]
epistemique :: 2 :: [ grand, pouvoir ]
alethique_niveau3 :: 2 :: [ pouvoir, venir ]
epistemique_niveau3 :: 2 :: [ grand, pouvoir ]
deontique :: 1 :: [ pouvoir ]
deontique_niveau3 :: 1 :: [ pouvoir ]
Total feature counts: 16

