
********** Entity Names Features **********
*******************************************

1. Sentence: Qu ' est-ce qui distingue aujourd ' hui la plupart des tours de Shanghai de celles de São Paolo , de Mexico , de Singapour ?
Entity Name (Type) :: Singapour (LOC)


********** Emotions Features **********
***************************************

1. Sentence: Qu ' est-ce qui distingue aujourd ' hui la plupart des tours de Shanghai de celles de São Paolo , de Mexico , de Singapour ?
No features found.


********** Modality Features **********
***************************************

1. Sentence: Qu ' est-ce qui distingue aujourd ' hui la plupart des tours de Shanghai de celles de São Paolo , de Mexico , de Singapour ?
No features found.


********** Adverbiaux Temporels Features **********
********************************************************

1. Sentence: Qu ' est-ce qui distingue aujourd ' hui la plupart des tours de Shanghai de celles de São Paolo , de Mexico , de Singapour ?
No features found.

