====== Sentence Level Features ======

1. Sentence: En abordant une étude , je sais que je ne peux pas avoir réponse à tout , inutile de faire semblant .
Features :: Feature-Counts :: Feature-Lemmas
--------------------------------------------
marqueurs :: 4 :: [ savoir, pouvoir, inutile, sembler ]
epistemique :: 3 :: [ savoir, pouvoir, sembler ]
marqueurs_niveau3 :: 3 :: [ savoir, pouvoir, sembler ]
epistemique_niveau3 :: 3 :: [ savoir, pouvoir, sembler ]
alethique :: 1 :: [ pouvoir ]
appreciatif :: 1 :: [ inutile ]
deontique :: 1 :: [ pouvoir ]
marqueurs_niveau2 :: 1 :: [ inutile ]
alethique_niveau3 :: 1 :: [ pouvoir ]
appreciatif_niveau2 :: 1 :: [ inutile ]
deontique_niveau3 :: 1 :: [ pouvoir ]
Total feature counts: 20


====== Text Level Features ======

Features :: Feature-Counts :: Feature-Lemmas
--------------------------------------------
marqueurs :: 4 :: [ savoir, pouvoir, inutile, sembler ]
epistemique :: 3 :: [ savoir, pouvoir, sembler ]
marqueurs_niveau3 :: 3 :: [ savoir, pouvoir, sembler ]
epistemique_niveau3 :: 3 :: [ savoir, pouvoir, sembler ]
alethique :: 1 :: [ pouvoir ]
appreciatif :: 1 :: [ inutile ]
deontique :: 1 :: [ pouvoir ]
marqueurs_niveau2 :: 1 :: [ inutile ]
alethique_niveau3 :: 1 :: [ pouvoir ]
appreciatif_niveau2 :: 1 :: [ inutile ]
deontique_niveau3 :: 1 :: [ pouvoir ]
Total feature counts: 20

