====== Sentence Level Features ======

1. Sentence: Et puis d ’ un seul coup , alors que nous vivions sur des croissances régulières , il y a eu ce que j ' appellerai le coup de foudre , d ’ un seul coup , car en comparant les statistiques démographiques oubliées par l ’ INSEE , celles de 1964 et celles de 1962 , nous nous sommes d ’ un seul coup et ç ' a été une révélation et un changement de toutes nos conceptions urbanistiques qui est lié à ce problème , nous nous sommes aperçus que la courbe urbaine française était de forme absolument imprévue précédemment .
Features :: Feature-Counts :: Feature-Texts
--------------------------------------------
adverbiaux_temporels::2::['de 1964', 'de 1962']
adverbiaux_localisation_temporelle::2::['de 1964', 'de 1962']
adverbiaux_pointage_absolu::2::['de 1964', 'de 1962']
adverbiaux_loc_temp_focalisation_id::2::['de 1964', 'de 1962']
adverbiaux_loc_temp_regionalisation_id::2::['de 1964', 'de 1962']
adverbiaux_loc_temp_pointage_absolu::2::['de 1964', 'de 1962']


====== Text Level Features ======

Features :: Feature-Counts :: Feature-Texts
--------------------------------------------
adverbiaux_temporels::2::['de 1964', 'de 1962']
adverbiaux_localisation_temporelle::2::['de 1964', 'de 1962']
adverbiaux_pointage_absolu::2::['de 1964', 'de 1962']
adverbiaux_loc_temp_focalisation_id::2::['de 1964', 'de 1962']
adverbiaux_loc_temp_regionalisation_id::2::['de 1964', 'de 1962']
adverbiaux_loc_temp_pointage_absolu::2::['de 1964', 'de 1962']
Total feature counts: 12

