
********** Entity Names Features **********
*******************************************

1. Sentence: Dans l ' état actuel , ce système de transport est le fruit de décisions disparates et de carences multiples .
No features found.


********** Emotions Features **********
***************************************

1. Sentence: Dans l ' état actuel , ce système de transport est le fruit de décisions disparates et de carences multiples .
Tokens having emotion: [ état ]
Lemmas having emotion: [ état ]
Categories of the emotion lemmas: [ non_specifiee ]


********** Modality Features **********
***************************************

1. Sentence: Dans l ' état actuel , ce système de transport est le fruit de décisions disparates et de carences multiples .
Features :: Feature-Counts :: Feature-Lemmas
--------------------------------------------
marqueurs :: 1 :: [ décision ]
boulique :: 1 :: [ décision ]
epistemique :: 1 :: [ décision ]
marqueurs_niveau2 :: 1 :: [ décision ]
boulique_niveau2 :: 1 :: [ décision ]
epistemique_niveau2 :: 1 :: [ décision ]
Total feature counts: 6


********** Adverbiaux Temporels Features **********
********************************************************

1. Sentence: Dans l ' état actuel , ce système de transport est le fruit de décisions disparates et de carences multiples .
No features found.

