====== Sentence Level Features ======

1. Sentence: Quand les architectes ont eu à traiter deux angles et trois rues , sous la forme d ' une combinaison de plusieurs bâtiments , ils avaient beaucoup de marge et , visiblement , cela les amusait , de donner forme à des logements qui ont des vues un peu dans tous les sens .
Features :: Feature-Counts :: Feature-Lemmas
--------------------------------------------
marqueurs :: 3 :: [ traiter, beaucoup, amuser ]
appreciatif :: 1 :: [ amuser ]
epistemique :: 1 :: [ beaucoup ]
pas_d_indication :: 1 :: [ traiter ]
marqueurs_niveau3 :: 1 :: [ amuser ]
marqueurs_niveau1 :: 1 :: [ beaucoup ]
marqueurs_niveau0 :: 1 :: [ traiter ]
appreciatif_niveau3 :: 1 :: [ amuser ]
epistemique_niveau1 :: 1 :: [ beaucoup ]
pas_d_indication_niveau0 :: 1 :: [ traiter ]
Total feature counts: 12


====== Text Level Features ======

Features :: Feature-Counts :: Feature-Lemmas
--------------------------------------------
marqueurs :: 3 :: [ traiter, beaucoup, amuser ]
appreciatif :: 1 :: [ amuser ]
epistemique :: 1 :: [ beaucoup ]
pas_d_indication :: 1 :: [ traiter ]
marqueurs_niveau3 :: 1 :: [ amuser ]
marqueurs_niveau1 :: 1 :: [ beaucoup ]
marqueurs_niveau0 :: 1 :: [ traiter ]
appreciatif_niveau3 :: 1 :: [ amuser ]
epistemique_niveau1 :: 1 :: [ beaucoup ]
pas_d_indication_niveau0 :: 1 :: [ traiter ]
Total feature counts: 12

