
********** Entity Names Features **********
*******************************************

1. Sentence: 568 millions	11 , 7 milliards	-
No features found.


********** Emotions Features **********
***************************************

1. Sentence: 568 millions	11 , 7 milliards	-
No features found.


********** Modality Features **********
***************************************

1. Sentence: 568 millions	11 , 7 milliards	-
No features found.


********** Adverbiaux Temporels Features **********
********************************************************

1. Sentence: 568 millions	11 , 7 milliards	-
No features found.

