
********** Entity Names Features **********
*******************************************

1. Sentence: Cycle de vie Recycler ne veut donc pas simplement dire réutiliser mais , en reprenant l ' analogie avec le monde organique , proposer un nouveau cycle de vie .
Entity Name (Type) :: Cycle de vie Recycler (MISC)


********** Emotions Features **********
***************************************

1. Sentence: Cycle de vie Recycler ne veut donc pas simplement dire réutiliser mais , en reprenant l ' analogie avec le monde organique , proposer un nouveau cycle de vie .
No features found.


********** Modality Features **********
***************************************

1. Sentence: Cycle de vie Recycler ne veut donc pas simplement dire réutiliser mais , en reprenant l ' analogie avec le monde organique , proposer un nouveau cycle de vie .
Features :: Feature-Counts :: Feature-Lemmas
--------------------------------------------
marqueurs :: 2 :: [ vouloir, dire ]
boulique :: 2 :: [ vouloir, dire ]
marqueurs_niveau3 :: 2 :: [ vouloir, dire ]
boulique_niveau3 :: 2 :: [ vouloir, dire ]
Total feature counts: 8


********** Adverbiaux Temporels Features **********
********************************************************

1. Sentence: Cycle de vie Recycler ne veut donc pas simplement dire réutiliser mais , en reprenant l ' analogie avec le monde organique , proposer un nouveau cycle de vie .
No features found.

