
********** Entity Names Features **********
*******************************************

1. Sentence: DELOUVRIER , - La force obligatoire , en principe , l ' intitulé juridique de ce schéma directeur ce sera des instructions gouvernementales pour modifier le P .
Entity Name (Type) :: P (ORG)


********** Emotions Features **********
***************************************

1. Sentence: DELOUVRIER , - La force obligatoire , en principe , l ' intitulé juridique de ce schéma directeur ce sera des instructions gouvernementales pour modifier le P .
No features found.


********** Modality Features **********
***************************************

1. Sentence: DELOUVRIER , - La force obligatoire , en principe , l ' intitulé juridique de ce schéma directeur ce sera des instructions gouvernementales pour modifier le P .
Features :: Feature-Counts :: Feature-Lemmas
--------------------------------------------
marqueurs :: 2 :: [ force, obligatoire ]
deontique :: 1 :: [ obligatoire ]
pas_d_indication :: 1 :: [ force ]
marqueurs_niveau3 :: 1 :: [ obligatoire ]
marqueurs_niveau0 :: 1 :: [ force ]
deontique_niveau3 :: 1 :: [ obligatoire ]
pas_d_indication_niveau0 :: 1 :: [ force ]
Total feature counts: 8


********** Adverbiaux Temporels Features **********
********************************************************

1. Sentence: DELOUVRIER , - La force obligatoire , en principe , l ' intitulé juridique de ce schéma directeur ce sera des instructions gouvernementales pour modifier le P .
No features found.

