
********** Entity Names Features **********
*******************************************

1. Sentence: Il est donc marqué par une certaine pauvreté .
No features found.


********** Emotions Features **********
***************************************

1. Sentence: Il est donc marqué par une certaine pauvreté .
No features found.


********** Modality Features **********
***************************************

1. Sentence: Il est donc marqué par une certaine pauvreté .
Features :: Feature-Counts :: Feature-Lemmas
--------------------------------------------
marqueurs :: 2 :: [ certain, pauvreté ]
epistemique :: 1 :: [ certain ]
pas_d_indication :: 1 :: [ pauvreté ]
marqueurs_niveau3 :: 1 :: [ certain ]
marqueurs_niveau0 :: 1 :: [ pauvreté ]
epistemique_niveau3 :: 1 :: [ certain ]
pas_d_indication_niveau0 :: 1 :: [ pauvreté ]
Total feature counts: 8


********** Adverbiaux Temporels Features **********
********************************************************

1. Sentence: Il est donc marqué par une certaine pauvreté .
No features found.

