====== Sentence Level Features ======

1. Sentence: Elle est tenue dans le cadre des lois existantes sur les associations syndicales , de la loi de 1841 sur l ’ expropriation ravisée en 1919 en étendant à la région parisienne l ’ esprit de l ’ article de la loi du 4 Mars 1919 sur le remembrement dans les régions libérées .
Features :: Feature-Counts :: Feature-Texts
--------------------------------------------
adverbiaux_temporels::2::['de 1841', 'en 1919']
adverbiaux_localisation_temporelle::2::['de 1841', 'en 1919']
adverbiaux_pointage_absolu::2::['de 1841', 'en 1919']
adverbiaux_pointage_non_absolu::1::['en 1919']
adverbiaux_loc_temp_focalisation_id::2::['de 1841', 'en 1919']
adverbiaux_loc_temp_regionalisation_id::2::['de 1841', 'en 1919']
adverbiaux_loc_temp_pointage_absolu::1::['de 1841']
adverbiaux_loc_temp_pointage_non_absolu::1::['en 1919']
adverbiaux_dur_iter_absolu::1::['en 1919']


====== Text Level Features ======

Features :: Feature-Counts :: Feature-Texts
--------------------------------------------
adverbiaux_temporels::2::['de 1841', 'en 1919']
adverbiaux_localisation_temporelle::2::['de 1841', 'en 1919']
adverbiaux_pointage_absolu::2::['de 1841', 'en 1919']
adverbiaux_pointage_non_absolu::1::['en 1919']
adverbiaux_loc_temp_focalisation_id::2::['de 1841', 'en 1919']
adverbiaux_loc_temp_regionalisation_id::2::['de 1841', 'en 1919']
adverbiaux_loc_temp_pointage_absolu::1::['de 1841']
adverbiaux_loc_temp_pointage_non_absolu::1::['en 1919']
adverbiaux_dur_iter_absolu::1::['en 1919']
Total feature counts: 14

