
********** Entity Names Features **********
*******************************************

1. Sentence: Son métier est simple  : acheter les terrains , les équiper et les revendre .
No features found.


********** Emotions Features **********
***************************************

1. Sentence: Son métier est simple  : acheter les terrains , les équiper et les revendre .
No features found.


********** Modality Features **********
***************************************

1. Sentence: Son métier est simple  : acheter les terrains , les équiper et les revendre .
No features found.


********** Adverbiaux Temporels Features **********
********************************************************

1. Sentence: Son métier est simple  : acheter les terrains , les équiper et les revendre .
No features found.

