====== Sentence Level Features ======

1. Sentence: Bert McClure , urbaniste américain avec lequel j ' ai partagé un long parcours professionnel — notamment en matière de recherche et d ' étude sur la représentation des projets — , m ' a éclairé à cet égard .
Features :: Feature-Counts :: Feature-Lemmas
--------------------------------------------
marqueurs :: 2 :: [ long, éclairer ]
epistemique :: 1 :: [ long ]
pas_d_indication :: 1 :: [ éclairer ]
marqueurs_niveau2 :: 1 :: [ long ]
marqueurs_niveau0 :: 1 :: [ éclairer ]
epistemique_niveau2 :: 1 :: [ long ]
pas_d_indication_niveau0 :: 1 :: [ éclairer ]
Total feature counts: 8


====== Text Level Features ======

Features :: Feature-Counts :: Feature-Lemmas
--------------------------------------------
marqueurs :: 2 :: [ long, éclairer ]
epistemique :: 1 :: [ long ]
pas_d_indication :: 1 :: [ éclairer ]
marqueurs_niveau2 :: 1 :: [ long ]
marqueurs_niveau0 :: 1 :: [ éclairer ]
epistemique_niveau2 :: 1 :: [ long ]
pas_d_indication_niveau0 :: 1 :: [ éclairer ]
Total feature counts: 8

