
********** Entity Names Features **********
*******************************************

1. Sentence: Mais c ' est aussi un contexte temporel car le débat sur l ' avenir dudit « Grand Paris» est déjà ancien et a déjà produit de multiples réflexions et propositions .
Entity Name (Type) :: Grand Paris (ORG)


********** Emotions Features **********
***************************************

1. Sentence: Mais c ' est aussi un contexte temporel car le débat sur l ' avenir dudit « Grand Paris» est déjà ancien et a déjà produit de multiples réflexions et propositions .
No features found.


********** Modality Features **********
***************************************

1. Sentence: Mais c ' est aussi un contexte temporel car le débat sur l ' avenir dudit « Grand Paris» est déjà ancien et a déjà produit de multiples réflexions et propositions .
Features :: Feature-Counts :: Feature-Lemmas
--------------------------------------------
marqueurs :: 1 :: [ grand ]
epistemique :: 1 :: [ grand ]
marqueurs_niveau3 :: 1 :: [ grand ]
epistemique_niveau3 :: 1 :: [ grand ]
Total feature counts: 4


********** Adverbiaux Temporels Features **********
********************************************************

1. Sentence: Mais c ' est aussi un contexte temporel car le débat sur l ' avenir dudit « Grand Paris» est déjà ancien et a déjà produit de multiples réflexions et propositions .
No features found.

