
********** Entity Names Features **********
*******************************************

1. Sentence: Sans un aménageur public puissant , on n ' y arrivera pas .
No features found.


********** Emotions Features **********
***************************************

1. Sentence: Sans un aménageur public puissant , on n ' y arrivera pas .
No features found.


********** Modality Features **********
***************************************

1. Sentence: Sans un aménageur public puissant , on n ' y arrivera pas .
Features :: Feature-Counts :: Feature-Lemmas
--------------------------------------------
marqueurs :: 2 :: [ puissant, arriver ]
alethique :: 1 :: [ arriver ]
pas_d_indication :: 1 :: [ puissant ]
marqueurs_niveau2 :: 1 :: [ arriver ]
marqueurs_niveau0 :: 1 :: [ puissant ]
alethique_niveau2 :: 1 :: [ arriver ]
pas_d_indication_niveau0 :: 1 :: [ puissant ]
Total feature counts: 8


********** Adverbiaux Temporels Features **********
********************************************************

1. Sentence: Sans un aménageur public puissant , on n ' y arrivera pas .
No features found.

