
********** Entity Names Features **********
*******************************************

1. Sentence: J ' ai participé à Dédale quelques années .
Entity Name (Type) :: Dédale (PER)


********** Emotions Features **********
***************************************

1. Sentence: J ' ai participé à Dédale quelques années .
No features found.


********** Modality Features **********
***************************************

1. Sentence: J ' ai participé à Dédale quelques années .
No features found.


********** Adverbiaux Temporels Features **********
********************************************************

1. Sentence: J ' ai participé à Dédale quelques années .
No features found.

