====== Sentence Level Features ======

1. Sentence: Ultérieurement , en fonction des besoins , certaines d ' entre elles pourraient constituer des points d ' arrêt supplémentaires pour la plupart des trains de grandes lignes .
Features :: Feature-Counts :: Feature-Lemmas
--------------------------------------------
marqueurs :: 4 :: [ besoin, certain, pouvoir, grand ]
marqueurs_niveau3 :: 4 :: [ besoin, certain, pouvoir, grand ]
epistemique :: 3 :: [ certain, pouvoir, grand ]
epistemique_niveau3 :: 3 :: [ certain, pouvoir, grand ]
alethique :: 2 :: [ besoin, pouvoir ]
alethique_niveau3 :: 2 :: [ besoin, pouvoir ]
boulique :: 1 :: [ besoin ]
deontique :: 1 :: [ pouvoir ]
boulique_niveau3 :: 1 :: [ besoin ]
deontique_niveau3 :: 1 :: [ pouvoir ]
Total feature counts: 22


====== Text Level Features ======

Features :: Feature-Counts :: Feature-Lemmas
--------------------------------------------
marqueurs :: 4 :: [ besoin, certain, pouvoir, grand ]
marqueurs_niveau3 :: 4 :: [ besoin, certain, pouvoir, grand ]
epistemique :: 3 :: [ certain, pouvoir, grand ]
epistemique_niveau3 :: 3 :: [ certain, pouvoir, grand ]
alethique :: 2 :: [ besoin, pouvoir ]
alethique_niveau3 :: 2 :: [ besoin, pouvoir ]
boulique :: 1 :: [ besoin ]
deontique :: 1 :: [ pouvoir ]
boulique_niveau3 :: 1 :: [ besoin ]
deontique_niveau3 :: 1 :: [ pouvoir ]
Total feature counts: 22

