
********** Entity Names Features **********
*******************************************

1. Sentence: L ' évaluation du risque , le discernement ,  l ' expérimentation doivent prendre le dessus sur l ' application littérale du règlement .
No features found.


********** Emotions Features **********
***************************************

1. Sentence: L ' évaluation du risque , le discernement ,  l ' expérimentation doivent prendre le dessus sur l ' application littérale du règlement .
No features found.


********** Modality Features **********
***************************************

1. Sentence: L ' évaluation du risque , le discernement ,  l ' expérimentation doivent prendre le dessus sur l ' application littérale du règlement .
Features :: Feature-Counts :: Feature-Lemmas
--------------------------------------------
marqueurs :: 1 :: [ devoir ]
alethique :: 1 :: [ devoir ]
deontique :: 1 :: [ devoir ]
epistemique :: 1 :: [ devoir ]
marqueurs_niveau3 :: 1 :: [ devoir ]
alethique_niveau3 :: 1 :: [ devoir ]
deontique_niveau3 :: 1 :: [ devoir ]
epistemique_niveau3 :: 1 :: [ devoir ]
Total feature counts: 8


********** Adverbiaux Temporels Features **********
********************************************************

1. Sentence: L ' évaluation du risque , le discernement ,  l ' expérimentation doivent prendre le dessus sur l ' application littérale du règlement .
No features found.

