
********** Entity Names Features **********
*******************************************

1. Sentence: Or , les demandes d ' actions de préfiguration sont de plus en plus pressantes .
Entity Name (Type) :: Or (LOC)


********** Emotions Features **********
***************************************

1. Sentence: Or , les demandes d ' actions de préfiguration sont de plus en plus pressantes .
No features found.


********** Modality Features **********
***************************************

1. Sentence: Or , les demandes d ' actions de préfiguration sont de plus en plus pressantes .
No features found.


********** Adverbiaux Temporels Features **********
********************************************************

1. Sentence: Or , les demandes d ' actions de préfiguration sont de plus en plus pressantes .
No features found.

