
********** Entity Names Features **********
*******************************************

1. Sentence: pourtant , il est un moyen de lutter contre le déclin et la désertification .
No features found.


********** Emotions Features **********
***************************************

1. Sentence: pourtant , il est un moyen de lutter contre le déclin et la désertification .
No features found.


********** Modality Features **********
***************************************

1. Sentence: pourtant , il est un moyen de lutter contre le déclin et la désertification .
No features found.


********** Adverbiaux Temporels Features **********
********************************************************

1. Sentence: pourtant , il est un moyen de lutter contre le déclin et la désertification .
No features found.

