
********** Entity Names Features **********
*******************************************

1. Sentence: À cet égard , le changement de regard qui s ' est opéré depuis une vingtaine d ' années sur le patrimoine industriel est une leçon .
No features found.


********** Emotions Features **********
***************************************

1. Sentence: À cet égard , le changement de regard qui s ' est opéré depuis une vingtaine d ' années sur le patrimoine industriel est une leçon .
Tokens having emotion: [ égard ]
Lemmas having emotion: [ égard ]
Categories of the emotion lemmas: [ admiration ]


********** Modality Features **********
***************************************

1. Sentence: À cet égard , le changement de regard qui s ' est opéré depuis une vingtaine d ' années sur le patrimoine industriel est une leçon .
No features found.


********** Adverbiaux Temporels Features **********
********************************************************

1. Sentence: À cet égard , le changement de regard qui s ' est opéré depuis une vingtaine d ' années sur le patrimoine industriel est une leçon .
No features found.

