
********** Entity Names Features **********
*******************************************

1. Sentence: Leur appréciation varie d ' ailleurs suivant leur niveau de vie et leur activité , suivant le but et l ' heure de leur déplacement , suivant la zone dans laquelle ils ont à circuler .
Entity Name (Type) :: Leur (LOC)


********** Emotions Features **********
***************************************

1. Sentence: Leur appréciation varie d ' ailleurs suivant leur niveau de vie et leur activité , suivant le but et l ' heure de leur déplacement , suivant la zone dans laquelle ils ont à circuler .
No features found.


********** Modality Features **********
***************************************

1. Sentence: Leur appréciation varie d ' ailleurs suivant leur niveau de vie et leur activité , suivant le but et l ' heure de leur déplacement , suivant la zone dans laquelle ils ont à circuler .
No features found.


********** Adverbiaux Temporels Features **********
********************************************************

1. Sentence: Leur appréciation varie d ' ailleurs suivant leur niveau de vie et leur activité , suivant le but et l ' heure de leur déplacement , suivant la zone dans laquelle ils ont à circuler .
No features found.

