====== Sentence Level Features ======

1. Sentence: L ' idée m ' est venue en constatant la difficulté en France de trouver des arbres à acheter pour les opérations urbaines .
Features :: Feature-Counts :: Feature-Lemmas
--------------------------------------------
marqueurs :: 2 :: [ venir, difficulté ]
alethique :: 1 :: [ venir ]
pas_d_indication :: 1 :: [ difficulté ]
marqueurs_niveau3 :: 1 :: [ venir ]
marqueurs_niveau0 :: 1 :: [ difficulté ]
alethique_niveau3 :: 1 :: [ venir ]
pas_d_indication_niveau0 :: 1 :: [ difficulté ]
Total feature counts: 8


====== Text Level Features ======

Features :: Feature-Counts :: Feature-Lemmas
--------------------------------------------
marqueurs :: 2 :: [ venir, difficulté ]
alethique :: 1 :: [ venir ]
pas_d_indication :: 1 :: [ difficulté ]
marqueurs_niveau3 :: 1 :: [ venir ]
marqueurs_niveau0 :: 1 :: [ difficulté ]
alethique_niveau3 :: 1 :: [ venir ]
pas_d_indication_niveau0 :: 1 :: [ difficulté ]
Total feature counts: 8

