====== Sentence Level Features ======

1. Sentence: Faire du minimalisme avec un monstre de béton n ' est pas à la portée de tous .
Features :: Feature-Counts :: Feature-Lemmas
--------------------------------------------
marqueurs :: 1 :: [ monstre ]
appreciatif :: 1 :: [ monstre ]
marqueurs_niveau2 :: 1 :: [ monstre ]
appreciatif_niveau2 :: 1 :: [ monstre ]
Total feature counts: 4


====== Text Level Features ======

Features :: Feature-Counts :: Feature-Lemmas
--------------------------------------------
marqueurs :: 1 :: [ monstre ]
appreciatif :: 1 :: [ monstre ]
marqueurs_niveau2 :: 1 :: [ monstre ]
appreciatif_niveau2 :: 1 :: [ monstre ]
Total feature counts: 4

