====== Sentence Level Features ======

1. Sentence: Les quatre mots simples ont été choisis car faciles à retenir et polysémiques .
Features :: Feature-Counts :: Feature-Lemmas
--------------------------------------------
marqueurs :: 2 :: [ choisir, facile ]
marqueurs_niveau2 :: 2 :: [ choisir, facile ]
appreciatif :: 1 :: [ facile ]
boulique :: 1 :: [ choisir ]
epistemique :: 1 :: [ facile ]
appreciatif_niveau2 :: 1 :: [ facile ]
boulique_niveau2 :: 1 :: [ choisir ]
epistemique_niveau2 :: 1 :: [ facile ]
Total feature counts: 10


====== Text Level Features ======

Features :: Feature-Counts :: Feature-Lemmas
--------------------------------------------
marqueurs :: 2 :: [ choisir, facile ]
marqueurs_niveau2 :: 2 :: [ choisir, facile ]
appreciatif :: 1 :: [ facile ]
boulique :: 1 :: [ choisir ]
epistemique :: 1 :: [ facile ]
appreciatif_niveau2 :: 1 :: [ facile ]
boulique_niveau2 :: 1 :: [ choisir ]
epistemique_niveau2 :: 1 :: [ facile ]
Total feature counts: 10

