
********** Entity Names Features **********
*******************************************

1. Sentence: Dans l ' aventure de l ' avancement des projets de transformation des villes , la responsabilité de chacun des acteurs est engagée .
No features found.


********** Emotions Features **********
***************************************

1. Sentence: Dans l ' aventure de l ' avancement des projets de transformation des villes , la responsabilité de chacun des acteurs est engagée .
No features found.


********** Modality Features **********
***************************************

1. Sentence: Dans l ' aventure de l ' avancement des projets de transformation des villes , la responsabilité de chacun des acteurs est engagée .
Features :: Feature-Counts :: Feature-Lemmas
--------------------------------------------
marqueurs :: 2 :: [ aventure, responsabilité ]
deontique :: 1 :: [ responsabilité ]
pas_d_indication :: 1 :: [ aventure ]
marqueurs_niveau2 :: 1 :: [ responsabilité ]
marqueurs_niveau0 :: 1 :: [ aventure ]
deontique_niveau2 :: 1 :: [ responsabilité ]
pas_d_indication_niveau0 :: 1 :: [ aventure ]
Total feature counts: 8


********** Adverbiaux Temporels Features **********
********************************************************

1. Sentence: Dans l ' aventure de l ' avancement des projets de transformation des villes , la responsabilité de chacun des acteurs est engagée .
No features found.

