
********** Entity Names Features **********
*******************************************

1. Sentence: Le cours de l ' eau impose son orientation territoriale .
No features found.


********** Emotions Features **********
***************************************

1. Sentence: Le cours de l ' eau impose son orientation territoriale .
No features found.


********** Modality Features **********
***************************************

1. Sentence: Le cours de l ' eau impose son orientation territoriale .
Features :: Feature-Counts :: Feature-Lemmas
--------------------------------------------
marqueurs :: 1 :: [ imposer ]
deontique :: 1 :: [ imposer ]
marqueurs_niveau2 :: 1 :: [ imposer ]
deontique_niveau2 :: 1 :: [ imposer ]
Total feature counts: 4


********** Adverbiaux Temporels Features **********
********************************************************

1. Sentence: Le cours de l ' eau impose son orientation territoriale .
No features found.

