
********** Entity Names Features **********
*******************************************

1. Sentence: Pendant toute cette période , j ' ai continué mes gammes sur ce thème urbain sans en prendre véritablement conscience .
No features found.


********** Emotions Features **********
***************************************

1. Sentence: Pendant toute cette période , j ' ai continué mes gammes sur ce thème urbain sans en prendre véritablement conscience .
No features found.


********** Modality Features **********
***************************************

1. Sentence: Pendant toute cette période , j ' ai continué mes gammes sur ce thème urbain sans en prendre véritablement conscience .
No features found.


********** Adverbiaux Temporels Features **********
********************************************************

1. Sentence: Pendant toute cette période , j ' ai continué mes gammes sur ce thème urbain sans en prendre véritablement conscience .
Features :: Feature-Counts :: Feature-Texts
--------------------------------------------
adverbiaux_temporels::1::['cette période']
adverbiaux_localisation_temporelle::1::['cette période']
adverbiaux_pointage_non_absolu::1::['cette période']
adverbiaux_loc_temp_focalisation_id::1::['cette période']
adverbiaux_loc_temp_regionalisation_id::1::['cette période']
adverbiaux_loc_temp_pointage_non_absolu::1::['cette période']

