
********** Entity Names Features **********
*******************************************

1. Sentence: dans ces conditions quels critères choisirez-vous pour calculer les subventions à attribuer à ces ensembles urbains pour démarrer .
No features found.


********** Emotions Features **********
***************************************

1. Sentence: dans ces conditions quels critères choisirez-vous pour calculer les subventions à attribuer à ces ensembles urbains pour démarrer .
No features found.


********** Modality Features **********
***************************************

1. Sentence: dans ces conditions quels critères choisirez-vous pour calculer les subventions à attribuer à ces ensembles urbains pour démarrer .
Features :: Feature-Counts :: Feature-Lemmas
--------------------------------------------
marqueurs :: 1 :: [ choisir ]
boulique :: 1 :: [ choisir ]
marqueurs_niveau2 :: 1 :: [ choisir ]
boulique_niveau2 :: 1 :: [ choisir ]
Total feature counts: 4


********** Adverbiaux Temporels Features **********
********************************************************

1. Sentence: dans ces conditions quels critères choisirez-vous pour calculer les subventions à attribuer à ces ensembles urbains pour démarrer .
No features found.

