
********** Entity Names Features **********
*******************************************

1. Sentence: L ' enjeu principal est ici de renforcer et d ' étendre le centre de la métropole
Entity Name (Type) :: L (LOC)


********** Emotions Features **********
***************************************

1. Sentence: L ' enjeu principal est ici de renforcer et d ' étendre le centre de la métropole
No features found.


********** Modality Features **********
***************************************

1. Sentence: L ' enjeu principal est ici de renforcer et d ' étendre le centre de la métropole
No features found.


********** Adverbiaux Temporels Features **********
********************************************************

1. Sentence: L ' enjeu principal est ici de renforcer et d ' étendre le centre de la métropole
No features found.

