
********** Entity Names Features **********
*******************************************

1. Sentence: - au sud de la Seine , entre le viaduc de Grenelle et l ' axe nord-sud , avec , en outre , un raccordement avec l ' autoroute de l ' Ouest qui doit être prolongé jusqu ' au boulevard périphérique .
Entity Name (Type) :: autoroute de l ' Ouest (LOC)


********** Emotions Features **********
***************************************

1. Sentence: - au sud de la Seine , entre le viaduc de Grenelle et l ' axe nord-sud , avec , en outre , un raccordement avec l ' autoroute de l ' Ouest qui doit être prolongé jusqu ' au boulevard périphérique .
No features found.


********** Modality Features **********
***************************************

1. Sentence: - au sud de la Seine , entre le viaduc de Grenelle et l ' axe nord-sud , avec , en outre , un raccordement avec l ' autoroute de l ' Ouest qui doit être prolongé jusqu ' au boulevard périphérique .
Features :: Feature-Counts :: Feature-Lemmas
--------------------------------------------
marqueurs :: 1 :: [ devoir ]
alethique :: 1 :: [ devoir ]
deontique :: 1 :: [ devoir ]
epistemique :: 1 :: [ devoir ]
marqueurs_niveau3 :: 1 :: [ devoir ]
alethique_niveau3 :: 1 :: [ devoir ]
deontique_niveau3 :: 1 :: [ devoir ]
epistemique_niveau3 :: 1 :: [ devoir ]
Total feature counts: 8


********** Adverbiaux Temporels Features **********
********************************************************

1. Sentence: - au sud de la Seine , entre le viaduc de Grenelle et l ' axe nord-sud , avec , en outre , un raccordement avec l ' autoroute de l ' Ouest qui doit être prolongé jusqu ' au boulevard périphérique .
No features found.

