====== Sentence Level Features ======

1. Sentence: Les classes dirigeantes n ' avaient pas alors la vision de la grande échelle métropolitaine .
Features :: Feature-Counts :: Feature-Lemmas
--------------------------------------------
marqueurs :: 1 :: [ grand ]
epistemique :: 1 :: [ grand ]
marqueurs_niveau3 :: 1 :: [ grand ]
epistemique_niveau3 :: 1 :: [ grand ]
Total feature counts: 4


====== Text Level Features ======

Features :: Feature-Counts :: Feature-Lemmas
--------------------------------------------
marqueurs :: 1 :: [ grand ]
epistemique :: 1 :: [ grand ]
marqueurs_niveau3 :: 1 :: [ grand ]
epistemique_niveau3 :: 1 :: [ grand ]
Total feature counts: 4

