====== Sentence Level Features ======

1. Sentence: Voilà les questions auxquelles il faut maintenant tenter de répondre .
Features :: Feature-Counts :: Feature-Lemmas
--------------------------------------------
marqueurs :: 2 :: [ falloir, tenter ]
boulique :: 1 :: [ tenter ]
deontique :: 1 :: [ falloir ]
marqueurs_niveau3 :: 1 :: [ falloir ]
marqueurs_niveau2 :: 1 :: [ tenter ]
boulique_niveau2 :: 1 :: [ tenter ]
deontique_niveau3 :: 1 :: [ falloir ]
Total feature counts: 8


====== Text Level Features ======

Features :: Feature-Counts :: Feature-Lemmas
--------------------------------------------
marqueurs :: 2 :: [ falloir, tenter ]
boulique :: 1 :: [ tenter ]
deontique :: 1 :: [ falloir ]
marqueurs_niveau3 :: 1 :: [ falloir ]
marqueurs_niveau2 :: 1 :: [ tenter ]
boulique_niveau2 :: 1 :: [ tenter ]
deontique_niveau3 :: 1 :: [ falloir ]
Total feature counts: 8

