
********** Entity Names Features **********
*******************************************

1. Sentence: Mais l ' effet de ces actions partielles s ' est rapidement dissipé , évitant seulement de franchir la limite précaire de l ' intolérable .
No features found.


********** Emotions Features **********
***************************************

1. Sentence: Mais l ' effet de ces actions partielles s ' est rapidement dissipé , évitant seulement de franchir la limite précaire de l ' intolérable .
Tokens having emotion: [ intolérable ]
Lemmas having emotion: [ intolérable ]
Categories of the emotion lemmas: [ colere ]


********** Modality Features **********
***************************************

1. Sentence: Mais l ' effet de ces actions partielles s ' est rapidement dissipé , évitant seulement de franchir la limite précaire de l ' intolérable .
Features :: Feature-Counts :: Feature-Lemmas
--------------------------------------------
marqueurs :: 1 :: [ rapidement ]
epistemique :: 1 :: [ rapidement ]
marqueurs_niveau3 :: 1 :: [ rapidement ]
epistemique_niveau3 :: 1 :: [ rapidement ]
Total feature counts: 4


********** Adverbiaux Temporels Features **********
********************************************************

1. Sentence: Mais l ' effet de ces actions partielles s ' est rapidement dissipé , évitant seulement de franchir la limite précaire de l ' intolérable .
No features found.

