
********** Entity Names Features **********
*******************************************

1. Sentence: S ' il n ' y a qu ' un programme dans l ' îlot , la liberté est grande .
No features found.


********** Emotions Features **********
***************************************

1. Sentence: S ' il n ' y a qu ' un programme dans l ' îlot , la liberté est grande .
No features found.


********** Modality Features **********
***************************************

1. Sentence: S ' il n ' y a qu ' un programme dans l ' îlot , la liberté est grande .
Features :: Feature-Counts :: Feature-Lemmas
--------------------------------------------
marqueurs :: 2 :: [ liberté, grand ]
appreciatif :: 1 :: [ liberté ]
epistemique :: 1 :: [ grand ]
marqueurs_niveau3 :: 1 :: [ grand ]
marqueurs_niveau1 :: 1 :: [ liberté ]
appreciatif_niveau1 :: 1 :: [ liberté ]
epistemique_niveau3 :: 1 :: [ grand ]
Total feature counts: 8


********** Adverbiaux Temporels Features **********
********************************************************

1. Sentence: S ' il n ' y a qu ' un programme dans l ' îlot , la liberté est grande .
No features found.

