====== Sentence Level Features ======

1. Sentence: C ' est l ' historien Alfred Marie 4 qui m ' ouvrira les yeux sur ces questions .
Entity Name (Type) :: Alfred Marie (PER)


====== Text Level Features ======

Entity Name (Entity Type)
-------------------------
Alfred Marie (PER)
Total entitiy counts: 1

