====== Sentence Level Features ======

1. Sentence: La Saem pouvait-elle prendre le risque d ' édifier un bâtiment sans précédent pour lequel il fallait , comme un promoteur , trouver l ' ensemble des financements par la vente des planchers ?
Features :: Feature-Counts :: Feature-Lemmas
--------------------------------------------
marqueurs :: 2 :: [ pouvoir, falloir ]
deontique :: 2 :: [ pouvoir, falloir ]
marqueurs_niveau3 :: 2 :: [ pouvoir, falloir ]
deontique_niveau3 :: 2 :: [ pouvoir, falloir ]
alethique :: 1 :: [ pouvoir ]
epistemique :: 1 :: [ pouvoir ]
alethique_niveau3 :: 1 :: [ pouvoir ]
epistemique_niveau3 :: 1 :: [ pouvoir ]
Total feature counts: 12


====== Text Level Features ======

Features :: Feature-Counts :: Feature-Lemmas
--------------------------------------------
marqueurs :: 2 :: [ pouvoir, falloir ]
deontique :: 2 :: [ pouvoir, falloir ]
marqueurs_niveau3 :: 2 :: [ pouvoir, falloir ]
deontique_niveau3 :: 2 :: [ pouvoir, falloir ]
alethique :: 1 :: [ pouvoir ]
epistemique :: 1 :: [ pouvoir ]
alethique_niveau3 :: 1 :: [ pouvoir ]
epistemique_niveau3 :: 1 :: [ pouvoir ]
Total feature counts: 12

