
********** Entity Names Features **********
*******************************************

1. Sentence: Ce sujet est difficile et l ' étude doit en être encore approfondie .
No features found.


********** Emotions Features **********
***************************************

1. Sentence: Ce sujet est difficile et l ' étude doit en être encore approfondie .
No features found.


********** Modality Features **********
***************************************

1. Sentence: Ce sujet est difficile et l ' étude doit en être encore approfondie .
Features :: Feature-Counts :: Feature-Lemmas
--------------------------------------------
marqueurs :: 2 :: [ difficile, devoir ]
epistemique :: 2 :: [ difficile, devoir ]
alethique :: 1 :: [ devoir ]
appreciatif :: 1 :: [ difficile ]
deontique :: 1 :: [ devoir ]
marqueurs_niveau3 :: 1 :: [ devoir ]
marqueurs_niveau2 :: 1 :: [ difficile ]
alethique_niveau3 :: 1 :: [ devoir ]
appreciatif_niveau2 :: 1 :: [ difficile ]
deontique_niveau3 :: 1 :: [ devoir ]
epistemique_niveau3 :: 1 :: [ devoir ]
epistemique_niveau2 :: 1 :: [ difficile ]
Total feature counts: 14


********** Adverbiaux Temporels Features **********
********************************************************

1. Sentence: Ce sujet est difficile et l ' étude doit en être encore approfondie .
Features :: Feature-Counts :: Feature-Texts
--------------------------------------------
adverbiaux_temporels::1::['encore']
adverbiaux_duratifs_iteratifs::1::['encore']
adverbiaux_pointage_non_absolu::1::['encore']
adverbiaux_dur_iter_relatif::1::['encore']

