
********** Entity Names Features **********
*******************************************

1. Sentence: Je me suis peu à peu forgé quelques convictions fortes .
No features found.


********** Emotions Features **********
***************************************

1. Sentence: Je me suis peu à peu forgé quelques convictions fortes .
No features found.


********** Modality Features **********
***************************************

1. Sentence: Je me suis peu à peu forgé quelques convictions fortes .
Features :: Feature-Counts :: Feature-Lemmas
--------------------------------------------
marqueurs :: 1 :: [ fort ]
pas_d_indication :: 1 :: [ fort ]
marqueurs_niveau0 :: 1 :: [ fort ]
pas_d_indication_niveau0 :: 1 :: [ fort ]
Total feature counts: 4


********** Adverbiaux Temporels Features **********
********************************************************

1. Sentence: Je me suis peu à peu forgé quelques convictions fortes .
No features found.

