====== Sentence Level Features ======

1. Sentence: Je suis très sûr de moi , fondamentalement .
Features :: Feature-Counts :: Feature-Lemmas
--------------------------------------------
marqueurs :: 2 :: [ sûr, lui ]
epistemique :: 2 :: [ sûr, lui ]
alethique :: 1 :: [ lui ]
marqueurs_niveau3 :: 1 :: [ lui ]
marqueurs_niveau2 :: 1 :: [ sûr ]
alethique_niveau3 :: 1 :: [ lui ]
epistemique_niveau3 :: 1 :: [ lui ]
epistemique_niveau2 :: 1 :: [ sûr ]
Total feature counts: 10


====== Text Level Features ======

Features :: Feature-Counts :: Feature-Lemmas
--------------------------------------------
marqueurs :: 2 :: [ sûr, lui ]
epistemique :: 2 :: [ sûr, lui ]
alethique :: 1 :: [ lui ]
marqueurs_niveau3 :: 1 :: [ lui ]
marqueurs_niveau2 :: 1 :: [ sûr ]
alethique_niveau3 :: 1 :: [ lui ]
epistemique_niveau3 :: 1 :: [ lui ]
epistemique_niveau2 :: 1 :: [ sûr ]
Total feature counts: 10

