====== Sentence Level Features ======

1. Sentence: Après les premiers échanges avec le maire de Sesto San Giovanni et les propriétaires du site , les grands patrons de l ' ancienne sidérurgie , il nous est apparu clair que rien ne se passerait .
Features :: Feature-Counts :: Feature-Lemmas
--------------------------------------------
marqueurs :: 2 :: [ grand, rien ]
alethique :: 1 :: [ rien ]
epistemique :: 1 :: [ grand ]
marqueurs_niveau3 :: 1 :: [ grand ]
marqueurs_niveau2 :: 1 :: [ rien ]
alethique_niveau2 :: 1 :: [ rien ]
epistemique_niveau3 :: 1 :: [ grand ]
Total feature counts: 8


====== Text Level Features ======

Features :: Feature-Counts :: Feature-Lemmas
--------------------------------------------
marqueurs :: 2 :: [ grand, rien ]
alethique :: 1 :: [ rien ]
epistemique :: 1 :: [ grand ]
marqueurs_niveau3 :: 1 :: [ grand ]
marqueurs_niveau2 :: 1 :: [ rien ]
alethique_niveau2 :: 1 :: [ rien ]
epistemique_niveau3 :: 1 :: [ grand ]
Total feature counts: 8

