
********** Entity Names Features **********
*******************************************

1. Sentence: INTRODUCTION
Entity Name (Type) :: INTRODUCTION (ORG)


********** Emotions Features **********
***************************************

1. Sentence: INTRODUCTION
No features found.


********** Modality Features **********
***************************************

1. Sentence: INTRODUCTION
No features found.


********** Adverbiaux Temporels Features **********
********************************************************

1. Sentence: INTRODUCTION
No features found.

