
********** Entity Names Features **********
*******************************************

1. Sentence: Ce n ' est pas en répétant les vieilles ritournelles antiurbaines l ' on affrontera nos vrais défis .
No features found.


********** Emotions Features **********
***************************************

1. Sentence: Ce n ' est pas en répétant les vieilles ritournelles antiurbaines l ' on affrontera nos vrais défis .
No features found.


********** Modality Features **********
***************************************

1. Sentence: Ce n ' est pas en répétant les vieilles ritournelles antiurbaines l ' on affrontera nos vrais défis .
Features :: Feature-Counts :: Feature-Lemmas
--------------------------------------------
marqueurs :: 3 :: [ vieux, affronter, vrai ]
marqueurs_niveau1 :: 2 :: [ affronter, vrai ]
alethique :: 1 :: [ vrai ]
axiologique :: 1 :: [ affronter ]
pas_d_indication :: 1 :: [ vieux ]
marqueurs_niveau0 :: 1 :: [ vieux ]
alethique_niveau1 :: 1 :: [ vrai ]
axiologique_niveau1 :: 1 :: [ affronter ]
pas_d_indication_niveau0 :: 1 :: [ vieux ]
Total feature counts: 12


********** Adverbiaux Temporels Features **********
********************************************************

1. Sentence: Ce n ' est pas en répétant les vieilles ritournelles antiurbaines l ' on affrontera nos vrais défis .
No features found.

