
********** Entity Names Features **********
*******************************************

1. Sentence: Pour l ' ensemble de l ' agglomération elle doit être comprise entre 6 . 000 et 7 . 000 hectares (4) .
No features found.


********** Emotions Features **********
***************************************

1. Sentence: Pour l ' ensemble de l ' agglomération elle doit être comprise entre 6 . 000 et 7 . 000 hectares (4) .
No features found.


********** Modality Features **********
***************************************

1. Sentence: Pour l ' ensemble de l ' agglomération elle doit être comprise entre 6 . 000 et 7 . 000 hectares (4) .
Features :: Feature-Counts :: Feature-Lemmas
--------------------------------------------
marqueurs :: 1 :: [ devoir ]
alethique :: 1 :: [ devoir ]
deontique :: 1 :: [ devoir ]
epistemique :: 1 :: [ devoir ]
marqueurs_niveau3 :: 1 :: [ devoir ]
alethique_niveau3 :: 1 :: [ devoir ]
deontique_niveau3 :: 1 :: [ devoir ]
epistemique_niveau3 :: 1 :: [ devoir ]
Total feature counts: 8


********** Adverbiaux Temporels Features **********
********************************************************

1. Sentence: Pour l ' ensemble de l ' agglomération elle doit être comprise entre 6 . 000 et 7 . 000 hectares (4) .
No features found.

