
********** Entity Names Features **********
*******************************************

1. Sentence: Vivante plutôt que morte , et , jusqu ' à nouvel ordre , impossible à placardiser .
No features found.


********** Emotions Features **********
***************************************

1. Sentence: Vivante plutôt que morte , et , jusqu ' à nouvel ordre , impossible à placardiser .
No features found.


********** Modality Features **********
***************************************

1. Sentence: Vivante plutôt que morte , et , jusqu ' à nouvel ordre , impossible à placardiser .
Features :: Feature-Counts :: Feature-Lemmas
--------------------------------------------
marqueurs :: 3 :: [ mourir, ordre, impossible ]
marqueurs_niveau2 :: 2 :: [ mourir, ordre ]
alethique :: 1 :: [ impossible ]
appreciatif :: 1 :: [ mourir ]
deontique :: 1 :: [ ordre ]
marqueurs_niveau3 :: 1 :: [ impossible ]
alethique_niveau3 :: 1 :: [ impossible ]
appreciatif_niveau2 :: 1 :: [ mourir ]
deontique_niveau2 :: 1 :: [ ordre ]
Total feature counts: 12


********** Adverbiaux Temporels Features **********
********************************************************

1. Sentence: Vivante plutôt que morte , et , jusqu ' à nouvel ordre , impossible à placardiser .
No features found.

