
********** Entity Names Features **********
*******************************************

1. Sentence: Il a offert une propriété de 7 hectares que j ’ ai visitée avec lui , qui était beaucoup trop petite .
No features found.


********** Emotions Features **********
***************************************

1. Sentence: Il a offert une propriété de 7 hectares que j ’ ai visitée avec lui , qui était beaucoup trop petite .
No features found.


********** Modality Features **********
***************************************

1. Sentence: Il a offert une propriété de 7 hectares que j ’ ai visitée avec lui , qui était beaucoup trop petite .
Features :: Feature-Counts :: Feature-Lemmas
--------------------------------------------
marqueurs :: 4 :: [ offrir, lui, beaucoup, petit ]
epistemique :: 3 :: [ lui, beaucoup, petit ]
marqueurs_niveau3 :: 2 :: [ lui, petit ]
epistemique_niveau3 :: 2 :: [ lui, petit ]
alethique :: 1 :: [ lui ]
appreciatif :: 1 :: [ offrir ]
marqueurs_niveau2 :: 1 :: [ offrir ]
marqueurs_niveau1 :: 1 :: [ beaucoup ]
alethique_niveau3 :: 1 :: [ lui ]
appreciatif_niveau2 :: 1 :: [ offrir ]
epistemique_niveau1 :: 1 :: [ beaucoup ]
Total feature counts: 18


********** Adverbiaux Temporels Features **********
********************************************************

1. Sentence: Il a offert une propriété de 7 hectares que j ’ ai visitée avec lui , qui était beaucoup trop petite .
No features found.

