
********** Entity Names Features **********
*******************************************

1. Sentence: Dans Paris , elle donnerait accès aux gares du Nord et de l ' Est , au secteur de la gare de Lyon et de la gare d ' Austerlitz .
Entity Name (Type) :: gare d ' Austerlitz (LOC)


********** Emotions Features **********
***************************************

1. Sentence: Dans Paris , elle donnerait accès aux gares du Nord et de l ' Est , au secteur de la gare de Lyon et de la gare d ' Austerlitz .
No features found.


********** Modality Features **********
***************************************

1. Sentence: Dans Paris , elle donnerait accès aux gares du Nord et de l ' Est , au secteur de la gare de Lyon et de la gare d ' Austerlitz .
No features found.


********** Adverbiaux Temporels Features **********
********************************************************

1. Sentence: Dans Paris , elle donnerait accès aux gares du Nord et de l ' Est , au secteur de la gare de Lyon et de la gare d ' Austerlitz .
No features found.

