
********** Entity Names Features **********
*******************************************

1. Sentence: Passer à l ' acte exigeait de créer une structure adéquate , autre que l ' association pour porter le projet .
No features found.


********** Emotions Features **********
***************************************

1. Sentence: Passer à l ' acte exigeait de créer une structure adéquate , autre que l ' association pour porter le projet .
No features found.


********** Modality Features **********
***************************************

1. Sentence: Passer à l ' acte exigeait de créer une structure adéquate , autre que l ' association pour porter le projet .
Features :: Feature-Counts :: Feature-Lemmas
--------------------------------------------
marqueurs :: 1 :: [ exiger ]
alethique :: 1 :: [ exiger ]
boulique :: 1 :: [ exiger ]
deontique :: 1 :: [ exiger ]
marqueurs_niveau3 :: 1 :: [ exiger ]
alethique_niveau3 :: 1 :: [ exiger ]
boulique_niveau3 :: 1 :: [ exiger ]
deontique_niveau3 :: 1 :: [ exiger ]
Total feature counts: 8


********** Adverbiaux Temporels Features **********
********************************************************

1. Sentence: Passer à l ' acte exigeait de créer une structure adéquate , autre que l ' association pour porter le projet .
No features found.

