====== Sentence Level Features ======

1. Sentence: C ' est à cette occasion que j ' ai découvert la différence entre des architectes formés à produire , in ﬁne , quelque chose , et les universitaires , centrés sur l ' analyse .
Features :: Feature-Counts :: Feature-Lemmas
--------------------------------------------
marqueurs :: 1 :: [ découvrir ]
pas_d_indication :: 1 :: [ découvrir ]
marqueurs_niveau0 :: 1 :: [ découvrir ]
pas_d_indication_niveau0 :: 1 :: [ découvrir ]
Total feature counts: 4


====== Text Level Features ======

Features :: Feature-Counts :: Feature-Lemmas
--------------------------------------------
marqueurs :: 1 :: [ découvrir ]
pas_d_indication :: 1 :: [ découvrir ]
marqueurs_niveau0 :: 1 :: [ découvrir ]
pas_d_indication_niveau0 :: 1 :: [ découvrir ]
Total feature counts: 4

