====== Sentence Level Features ======

1. Sentence: L ' approche urbanistique retenue a permis le dialogue avec les élus , la concertation .
Features :: Feature-Counts :: Feature-Lemmas
--------------------------------------------
marqueurs :: 2 :: [ permettre, élu ]
deontique :: 1 :: [ permettre ]
pas_d_indication :: 1 :: [ élu ]
marqueurs_niveau3 :: 1 :: [ permettre ]
marqueurs_niveau0 :: 1 :: [ élu ]
deontique_niveau3 :: 1 :: [ permettre ]
pas_d_indication_niveau0 :: 1 :: [ élu ]
Total feature counts: 8


====== Text Level Features ======

Features :: Feature-Counts :: Feature-Lemmas
--------------------------------------------
marqueurs :: 2 :: [ permettre, élu ]
deontique :: 1 :: [ permettre ]
pas_d_indication :: 1 :: [ élu ]
marqueurs_niveau3 :: 1 :: [ permettre ]
marqueurs_niveau0 :: 1 :: [ élu ]
deontique_niveau3 :: 1 :: [ permettre ]
pas_d_indication_niveau0 :: 1 :: [ élu ]
Total feature counts: 8

