====== Sentence Level Features ======

1. Sentence: En ville parfois cela fait « système » comme à Lyon ou Saint-Étienne avec les trolleys ;
Features :: Feature-Counts :: Feature-Lemmas
--------------------------------------------
marqueurs :: 1 :: [ parfois ]
alethique :: 1 :: [ parfois ]
marqueurs_niveau3 :: 1 :: [ parfois ]
alethique_niveau3 :: 1 :: [ parfois ]
Total feature counts: 4


====== Text Level Features ======

Features :: Feature-Counts :: Feature-Lemmas
--------------------------------------------
marqueurs :: 1 :: [ parfois ]
alethique :: 1 :: [ parfois ]
marqueurs_niveau3 :: 1 :: [ parfois ]
alethique_niveau3 :: 1 :: [ parfois ]
Total feature counts: 4

