====== Sentence Level Features ======

1. Sentence: C ' est particulièrement vrai de l ' architecture , qui est au croisement de toutes les techniques , de tous les savoirs , de toutes les croyances .
Features :: Feature-Counts :: Feature-Lemmas
--------------------------------------------
marqueurs :: 3 :: [ vrai, savoir, croyance ]
epistemique :: 2 :: [ savoir, croyance ]
marqueurs_niveau3 :: 2 :: [ savoir, croyance ]
epistemique_niveau3 :: 2 :: [ savoir, croyance ]
alethique :: 1 :: [ vrai ]
marqueurs_niveau1 :: 1 :: [ vrai ]
alethique_niveau1 :: 1 :: [ vrai ]
Total feature counts: 12


====== Text Level Features ======

Features :: Feature-Counts :: Feature-Lemmas
--------------------------------------------
marqueurs :: 3 :: [ vrai, savoir, croyance ]
epistemique :: 2 :: [ savoir, croyance ]
marqueurs_niveau3 :: 2 :: [ savoir, croyance ]
epistemique_niveau3 :: 2 :: [ savoir, croyance ]
alethique :: 1 :: [ vrai ]
marqueurs_niveau1 :: 1 :: [ vrai ]
alethique_niveau1 :: 1 :: [ vrai ]
Total feature counts: 12

