
********** Entity Names Features **********
*******************************************

1. Sentence: En ce sens , j ' évoque l ' idée d ' une monumentalité possible du fonds territorial .
No features found.


********** Emotions Features **********
***************************************

1. Sentence: En ce sens , j ' évoque l ' idée d ' une monumentalité possible du fonds territorial .
No features found.


********** Modality Features **********
***************************************

1. Sentence: En ce sens , j ' évoque l ' idée d ' une monumentalité possible du fonds territorial .
Features :: Feature-Counts :: Feature-Lemmas
--------------------------------------------
marqueurs :: 1 :: [ possible ]
alethique :: 1 :: [ possible ]
marqueurs_niveau3 :: 1 :: [ possible ]
alethique_niveau3 :: 1 :: [ possible ]
Total feature counts: 4


********** Adverbiaux Temporels Features **********
********************************************************

1. Sentence: En ce sens , j ' évoque l ' idée d ' une monumentalité possible du fonds territorial .
No features found.

