
********** Entity Names Features **********
*******************************************

1. Sentence: Un attachement de plus en plus marqué au contexte vous prédispose à regarder le territoire d ' une manière dynamique .
No features found.


********** Emotions Features **********
***************************************

1. Sentence: Un attachement de plus en plus marqué au contexte vous prédispose à regarder le territoire d ' une manière dynamique .
No features found.


********** Modality Features **********
***************************************

1. Sentence: Un attachement de plus en plus marqué au contexte vous prédispose à regarder le territoire d ' une manière dynamique .
No features found.


********** Adverbiaux Temporels Features **********
********************************************************

1. Sentence: Un attachement de plus en plus marqué au contexte vous prédispose à regarder le territoire d ' une manière dynamique .
No features found.

