
********** Entity Names Features **********
*******************************************

1. Sentence: J ' y suis resté vingt ans , pendant lesquels l ' École des ponts est devenue ma base pour de multiples activités internes mais aussi externes .
Entity Name (Type) :: École des ponts (ORG)


********** Emotions Features **********
***************************************

1. Sentence: J ' y suis resté vingt ans , pendant lesquels l ' École des ponts est devenue ma base pour de multiples activités internes mais aussi externes .
No features found.


********** Modality Features **********
***************************************

1. Sentence: J ' y suis resté vingt ans , pendant lesquels l ' École des ponts est devenue ma base pour de multiples activités internes mais aussi externes .
Features :: Feature-Counts :: Feature-Lemmas
--------------------------------------------
marqueurs :: 1 :: [ école ]
alethique :: 1 :: [ école ]
marqueurs_niveau1 :: 1 :: [ école ]
alethique_niveau1 :: 1 :: [ école ]
Total feature counts: 4


********** Adverbiaux Temporels Features **********
********************************************************

1. Sentence: J ' y suis resté vingt ans , pendant lesquels l ' École des ponts est devenue ma base pour de multiples activités internes mais aussi externes .
No features found.

