
********** Entity Names Features **********
*******************************************

1. Sentence: Lire les textes de loi m ' a ouvert les yeux sur leur potentiel et aidé à me libérer de contraintes que l ' on m ' a souvent opposées .
No features found.


********** Emotions Features **********
***************************************

1. Sentence: Lire les textes de loi m ' a ouvert les yeux sur leur potentiel et aidé à me libérer de contraintes que l ' on m ' a souvent opposées .
No features found.


********** Modality Features **********
***************************************

1. Sentence: Lire les textes de loi m ' a ouvert les yeux sur leur potentiel et aidé à me libérer de contraintes que l ' on m ' a souvent opposées .
Features :: Feature-Counts :: Feature-Lemmas
--------------------------------------------
marqueurs :: 4 :: [ lire, loi, ouvrir, souvent ]
marqueurs_niveau3 :: 3 :: [ lire, ouvrir, souvent ]
boulique :: 2 :: [ lire, ouvrir ]
boulique_niveau3 :: 2 :: [ lire, ouvrir ]
alethique :: 1 :: [ souvent ]
deontique :: 1 :: [ loi ]
marqueurs_niveau2 :: 1 :: [ loi ]
alethique_niveau3 :: 1 :: [ souvent ]
deontique_niveau2 :: 1 :: [ loi ]
Total feature counts: 16


********** Adverbiaux Temporels Features **********
********************************************************

1. Sentence: Lire les textes de loi m ' a ouvert les yeux sur leur potentiel et aidé à me libérer de contraintes que l ' on m ' a souvent opposées .
Features :: Feature-Counts :: Feature-Texts
--------------------------------------------
adverbiaux_temporels::1::['souvent']
adverbiaux_purement_iteratifs::1::['souvent']
adverbiaux_iterateur_frequentiel::1::['souvent']

