
********** Entity Names Features **********
*******************************************

1. Sentence: Manifeste pour un projet de territoire
No features found.


********** Emotions Features **********
***************************************

1. Sentence: Manifeste pour un projet de territoire
No features found.


********** Modality Features **********
***************************************

1. Sentence: Manifeste pour un projet de territoire
No features found.


********** Adverbiaux Temporels Features **********
********************************************************

1. Sentence: Manifeste pour un projet de territoire
No features found.

