
********** Entity Names Features **********
*******************************************

1. Sentence: Les Français veulent surtout le développement des activités économiques , au prix d ' un étalement de l ' urbanisation et de déplacements automobiles .
Entity Name (Type) :: Français (MISC)


********** Emotions Features **********
***************************************

1. Sentence: Les Français veulent surtout le développement des activités économiques , au prix d ' un étalement de l ' urbanisation et de déplacements automobiles .
No features found.


********** Modality Features **********
***************************************

1. Sentence: Les Français veulent surtout le développement des activités économiques , au prix d ' un étalement de l ' urbanisation et de déplacements automobiles .
Features :: Feature-Counts :: Feature-Lemmas
--------------------------------------------
marqueurs :: 2 :: [ vouloir, prix ]
appreciatif :: 1 :: [ prix ]
axiologique :: 1 :: [ prix ]
boulique :: 1 :: [ vouloir ]
marqueurs_niveau3 :: 1 :: [ vouloir ]
marqueurs_niveau2 :: 1 :: [ prix ]
appreciatif_niveau2 :: 1 :: [ prix ]
axiologique_niveau2 :: 1 :: [ prix ]
boulique_niveau3 :: 1 :: [ vouloir ]
Total feature counts: 10


********** Adverbiaux Temporels Features **********
********************************************************

1. Sentence: Les Français veulent surtout le développement des activités économiques , au prix d ' un étalement de l ' urbanisation et de déplacements automobiles .
No features found.

