
********** Entity Names Features **********
*******************************************

1. Sentence: Deux alignements sont prescrits :  
L ’ Alignement séparatif à la limite des terrains riverains et de l ’ emprise de la Voie publique .
Entity Name (Type) :: Voie publique (LOC)


********** Emotions Features **********
***************************************

1. Sentence: Deux alignements sont prescrits :  
L ’ Alignement séparatif à la limite des terrains riverains et de l ’ emprise de la Voie publique .
No features found.


********** Modality Features **********
***************************************

1. Sentence: Deux alignements sont prescrits :  
L ’ Alignement séparatif à la limite des terrains riverains et de l ’ emprise de la Voie publique .
No features found.


********** Adverbiaux Temporels Features **********
********************************************************

1. Sentence: Deux alignements sont prescrits :  
L ’ Alignement séparatif à la limite des terrains riverains et de l ’ emprise de la Voie publique .
No features found.

