
********** Entity Names Features **********
*******************************************

1. Sentence: La commande consistait à remplacer le faisceau de voies ferrées désaffectées de Burgos par des quartiers organisés autour d ' un boulevard .
Entity Name (Type) :: Burgos (LOC)


********** Emotions Features **********
***************************************

1. Sentence: La commande consistait à remplacer le faisceau de voies ferrées désaffectées de Burgos par des quartiers organisés autour d ' un boulevard .
No features found.


********** Modality Features **********
***************************************

1. Sentence: La commande consistait à remplacer le faisceau de voies ferrées désaffectées de Burgos par des quartiers organisés autour d ' un boulevard .
No features found.


********** Adverbiaux Temporels Features **********
********************************************************

1. Sentence: La commande consistait à remplacer le faisceau de voies ferrées désaffectées de Burgos par des quartiers organisés autour d ' un boulevard .
No features found.

