
********** Entity Names Features **********
*******************************************

1. Sentence: Face à un collège , il propose beaucoup de jeux et une grande prairie au soleil pour lancer le ballon , prendre des bains de soleil , organiser des pique-niques…
No features found.


********** Emotions Features **********
***************************************

1. Sentence: Face à un collège , il propose beaucoup de jeux et une grande prairie au soleil pour lancer le ballon , prendre des bains de soleil , organiser des pique-niques…
No features found.


********** Modality Features **********
***************************************

1. Sentence: Face à un collège , il propose beaucoup de jeux et une grande prairie au soleil pour lancer le ballon , prendre des bains de soleil , organiser des pique-niques…
Features :: Feature-Counts :: Feature-Lemmas
--------------------------------------------
marqueurs :: 5 :: [ beaucoup, grand, soleil, soleil, pique-nique ]
appreciatif :: 3 :: [ soleil, soleil, pique-nique ]
marqueurs_niveau3 :: 3 :: [ grand, soleil, soleil ]
epistemique :: 2 :: [ beaucoup, grand ]
marqueurs_niveau1 :: 2 :: [ beaucoup, pique-nique ]
appreciatif_niveau3 :: 2 :: [ soleil, soleil ]
alethique :: 1 :: [ pique-nique ]
alethique_niveau1 :: 1 :: [ pique-nique ]
appreciatif_niveau1 :: 1 :: [ pique-nique ]
epistemique_niveau3 :: 1 :: [ grand ]
epistemique_niveau1 :: 1 :: [ beaucoup ]
Total feature counts: 22


********** Adverbiaux Temporels Features **********
********************************************************

1. Sentence: Face à un collège , il propose beaucoup de jeux et une grande prairie au soleil pour lancer le ballon , prendre des bains de soleil , organiser des pique-niques…
No features found.

