
********** Entity Names Features **********
*******************************************

1. Sentence: 1 – ÉTAT ACTUEL
Entity Name (Type) :: ÉTAT ACTUEL (ORG)


********** Emotions Features **********
***************************************

1. Sentence: 1 – ÉTAT ACTUEL
No features found.


********** Modality Features **********
***************************************

1. Sentence: 1 – ÉTAT ACTUEL
No features found.


********** Adverbiaux Temporels Features **********
********************************************************

1. Sentence: 1 – ÉTAT ACTUEL
No features found.

