
********** Entity Names Features **********
*******************************************

1. Sentence: Très vite , la SEMAPA m ' a demandé de réétudier le plan sur la base d ' opérations de 40 à 50 logements .
Entity Name (Type) :: SEMAPA (LOC)


********** Emotions Features **********
***************************************

1. Sentence: Très vite , la SEMAPA m ' a demandé de réétudier le plan sur la base d ' opérations de 40 à 50 logements .
No features found.


********** Modality Features **********
***************************************

1. Sentence: Très vite , la SEMAPA m ' a demandé de réétudier le plan sur la base d ' opérations de 40 à 50 logements .
Features :: Feature-Counts :: Feature-Lemmas
--------------------------------------------
marqueurs :: 2 :: [ vite, demander ]
marqueurs_niveau3 :: 2 :: [ vite, demander ]
boulique :: 1 :: [ demander ]
epistemique :: 1 :: [ vite ]
boulique_niveau3 :: 1 :: [ demander ]
epistemique_niveau3 :: 1 :: [ vite ]
Total feature counts: 8


********** Adverbiaux Temporels Features **********
********************************************************

1. Sentence: Très vite , la SEMAPA m ' a demandé de réétudier le plan sur la base d ' opérations de 40 à 50 logements .
No features found.

