====== Sentence Level Features ======

1. Sentence: C ' est d ' abord la complicité amicale de trente années fructueuses avec Marc Bigarnet — nous étions en première année ensemble , à Saint-Étienne — qui a permis le projet d ' Alicante pour Europan 3 en 1994 , puis la fondation d ' Obras en 2003 .
Features :: Feature-Counts :: Feature-Lemmas
--------------------------------------------
marqueurs :: 1 :: [ permettre ]
deontique :: 1 :: [ permettre ]
marqueurs_niveau3 :: 1 :: [ permettre ]
deontique_niveau3 :: 1 :: [ permettre ]
Total feature counts: 4


====== Text Level Features ======

Features :: Feature-Counts :: Feature-Lemmas
--------------------------------------------
marqueurs :: 1 :: [ permettre ]
deontique :: 1 :: [ permettre ]
marqueurs_niveau3 :: 1 :: [ permettre ]
deontique_niveau3 :: 1 :: [ permettre ]
Total feature counts: 4

