====== Sentence Level Features ======

1. Sentence: Songez à ce qu ' aurait produit un projet barrant la perspective et tournant le dos à la banlieue (tel celui de Jean-Paul Viguier qui avait la préférence de bien des membres du jury Tête Défense) .
Features :: Feature-Counts :: Feature-Lemmas
--------------------------------------------
marqueurs :: 1 :: [ bien ]
appreciatif :: 1 :: [ bien ]
axiologique :: 1 :: [ bien ]
marqueurs_niveau3 :: 1 :: [ bien ]
appreciatif_niveau3 :: 1 :: [ bien ]
axiologique_niveau3 :: 1 :: [ bien ]
Total feature counts: 6


====== Text Level Features ======

Features :: Feature-Counts :: Feature-Lemmas
--------------------------------------------
marqueurs :: 1 :: [ bien ]
appreciatif :: 1 :: [ bien ]
axiologique :: 1 :: [ bien ]
marqueurs_niveau3 :: 1 :: [ bien ]
appreciatif_niveau3 :: 1 :: [ bien ]
axiologique_niveau3 :: 1 :: [ bien ]
Total feature counts: 6

