====== Sentence Level Features ======

1. Sentence: Ainsi débute un processus de rencontres qui ont jalonné l ' ensemble de mes chantiers presque toujours accompagnés de la création d ' une « université foraine » .
Features :: Feature-Counts :: Feature-Lemmas
--------------------------------------------
marqueurs :: 1 :: [ toujours ]
alethique :: 1 :: [ toujours ]
marqueurs_niveau3 :: 1 :: [ toujours ]
alethique_niveau3 :: 1 :: [ toujours ]
Total feature counts: 4


====== Text Level Features ======

Features :: Feature-Counts :: Feature-Lemmas
--------------------------------------------
marqueurs :: 1 :: [ toujours ]
alethique :: 1 :: [ toujours ]
marqueurs_niveau3 :: 1 :: [ toujours ]
alethique_niveau3 :: 1 :: [ toujours ]
Total feature counts: 4

