====== Sentence Level Features ======

1. Sentence: » Aujourd ' hui encore , malgré son expérience du projet urbain , elle se présente comme architecte — « élevée par Ciriani , qui a transmis son exigence , sa sensibilité à la forme et à l ' espace » .
Features :: Feature-Counts :: Feature-Lemmas
--------------------------------------------
marqueurs :: 1 :: [ malgré ]
pas_d_indication :: 1 :: [ malgré ]
marqueurs_niveau0 :: 1 :: [ malgré ]
pas_d_indication_niveau0 :: 1 :: [ malgré ]
Total feature counts: 4


====== Text Level Features ======

Features :: Feature-Counts :: Feature-Lemmas
--------------------------------------------
marqueurs :: 1 :: [ malgré ]
pas_d_indication :: 1 :: [ malgré ]
marqueurs_niveau0 :: 1 :: [ malgré ]
pas_d_indication_niveau0 :: 1 :: [ malgré ]
Total feature counts: 4

