
********** Entity Names Features **********
*******************************************

1. Sentence: 000 rapatriés . 
(5) Premier rapport de la C . N . A . T . (l964 , page 48) . 
(6) Ce doublement de population des agglomérations implique plus et mieux qu ' un doublement en superficie d ' un tissu urbain analogue à celui d ' aujourd ' hui .
Entity Name (Type) :: C (LOC)


********** Emotions Features **********
***************************************

1. Sentence: 000 rapatriés . 
(5) Premier rapport de la C . N . A . T . (l964 , page 48) . 
(6) Ce doublement de population des agglomérations implique plus et mieux qu ' un doublement en superficie d ' un tissu urbain analogue à celui d ' aujourd ' hui .
No features found.


********** Modality Features **********
***************************************

1. Sentence: 000 rapatriés . 
(5) Premier rapport de la C . N . A . T . (l964 , page 48) . 
(6) Ce doublement de population des agglomérations implique plus et mieux qu ' un doublement en superficie d ' un tissu urbain analogue à celui d ' aujourd ' hui .
Features :: Feature-Counts :: Feature-Lemmas
--------------------------------------------
marqueurs :: 1 :: [ mieux ]
appreciatif :: 1 :: [ mieux ]
axiologique :: 1 :: [ mieux ]
marqueurs_niveau2 :: 1 :: [ mieux ]
appreciatif_niveau2 :: 1 :: [ mieux ]
axiologique_niveau2 :: 1 :: [ mieux ]
Total feature counts: 6


********** Adverbiaux Temporels Features **********
********************************************************

1. Sentence: 000 rapatriés . 
(5) Premier rapport de la C . N . A . T . (l964 , page 48) . 
(6) Ce doublement de population des agglomérations implique plus et mieux qu ' un doublement en superficie d ' un tissu urbain analogue à celui d ' aujourd ' hui .
No features found.

