====== Sentence Level Features ======

1. Sentence: 000 habitants pour les uns , 500 . 000 ou 1 . 000 . 000 pour les autres .
No features found.


====== Text Level Features ======

No features found.

