
********** Entity Names Features **********
*******************************************

1. Sentence: De plus , en dehors des heures de pointe , l ' espacement des voitures est souvent trop grand pour assurer mieux qu ' une desserte de fortune .
No features found.


********** Emotions Features **********
***************************************

1. Sentence: De plus , en dehors des heures de pointe , l ' espacement des voitures est souvent trop grand pour assurer mieux qu ' une desserte de fortune .
No features found.


********** Modality Features **********
***************************************

1. Sentence: De plus , en dehors des heures de pointe , l ' espacement des voitures est souvent trop grand pour assurer mieux qu ' une desserte de fortune .
Features :: Feature-Counts :: Feature-Lemmas
--------------------------------------------
marqueurs :: 3 :: [ souvent, grand, mieux ]
marqueurs_niveau3 :: 2 :: [ souvent, grand ]
alethique :: 1 :: [ souvent ]
appreciatif :: 1 :: [ mieux ]
axiologique :: 1 :: [ mieux ]
epistemique :: 1 :: [ grand ]
marqueurs_niveau2 :: 1 :: [ mieux ]
alethique_niveau3 :: 1 :: [ souvent ]
appreciatif_niveau2 :: 1 :: [ mieux ]
axiologique_niveau2 :: 1 :: [ mieux ]
epistemique_niveau3 :: 1 :: [ grand ]
Total feature counts: 14


********** Adverbiaux Temporels Features **********
********************************************************

1. Sentence: De plus , en dehors des heures de pointe , l ' espacement des voitures est souvent trop grand pour assurer mieux qu ' une desserte de fortune .
Features :: Feature-Counts :: Feature-Texts
--------------------------------------------
adverbiaux_temporels::1::['souvent']
adverbiaux_purement_iteratifs::1::['souvent']
adverbiaux_iterateur_frequentiel::1::['souvent']

