====== Sentence Level Features ======

1. Sentence: Il y a du jeu dans le lancement des propositions , une vive excitation intellectuelle à préparer des dossiers convaincants , susceptibles d ' emporter l ' adhésion , à les défendre…
Features :: Feature-Counts :: Feature-Lemmas
--------------------------------------------
marqueurs :: 1 :: [ défendre ]
axiologique :: 1 :: [ défendre ]
marqueurs_niveau1 :: 1 :: [ défendre ]
axiologique_niveau1 :: 1 :: [ défendre ]
Total feature counts: 4


====== Text Level Features ======

Features :: Feature-Counts :: Feature-Lemmas
--------------------------------------------
marqueurs :: 1 :: [ défendre ]
axiologique :: 1 :: [ défendre ]
marqueurs_niveau1 :: 1 :: [ défendre ]
axiologique_niveau1 :: 1 :: [ défendre ]
Total feature counts: 4

