====== Sentence Level Features ======

1. Sentence: Le sujet même de la métropole a perdu de son actualité et chacun s ' est construit dans cette nouvelle sphère .
Features :: Feature-Counts :: Feature-Lemmas
--------------------------------------------
marqueurs :: 1 :: [ perdre ]
appreciatif :: 1 :: [ perdre ]
marqueurs_niveau2 :: 1 :: [ perdre ]
appreciatif_niveau2 :: 1 :: [ perdre ]
Total feature counts: 4


====== Text Level Features ======

Features :: Feature-Counts :: Feature-Lemmas
--------------------------------------------
marqueurs :: 1 :: [ perdre ]
appreciatif :: 1 :: [ perdre ]
marqueurs_niveau2 :: 1 :: [ perdre ]
appreciatif_niveau2 :: 1 :: [ perdre ]
Total feature counts: 4

