
********** Entity Names Features **********
*******************************************

1. Sentence: On pourra se faire livrer à domicile des produits choisis , cela en ville dense plus aisément qu ' en ville diffuse .
No features found.


********** Emotions Features **********
***************************************

1. Sentence: On pourra se faire livrer à domicile des produits choisis , cela en ville dense plus aisément qu ' en ville diffuse .
No features found.


********** Modality Features **********
***************************************

1. Sentence: On pourra se faire livrer à domicile des produits choisis , cela en ville dense plus aisément qu ' en ville diffuse .
Features :: Feature-Counts :: Feature-Lemmas
--------------------------------------------
marqueurs :: 2 :: [ pouvoir, choisir ]
alethique :: 1 :: [ pouvoir ]
boulique :: 1 :: [ choisir ]
deontique :: 1 :: [ pouvoir ]
epistemique :: 1 :: [ pouvoir ]
marqueurs_niveau3 :: 1 :: [ pouvoir ]
marqueurs_niveau2 :: 1 :: [ choisir ]
alethique_niveau3 :: 1 :: [ pouvoir ]
boulique_niveau2 :: 1 :: [ choisir ]
deontique_niveau3 :: 1 :: [ pouvoir ]
epistemique_niveau3 :: 1 :: [ pouvoir ]
Total feature counts: 12


********** Adverbiaux Temporels Features **********
********************************************************

1. Sentence: On pourra se faire livrer à domicile des produits choisis , cela en ville dense plus aisément qu ' en ville diffuse .
No features found.

