
********** Entity Names Features **********
*******************************************

1. Sentence: PCB/LG DIRECTION
COPIE
PARIS , le 10 Juillet 1958 . 
NOTE
pour Monsieur PELLETIER , MINISTRE de l ’ INTERIEUR
Entity Name (Type) :: INTERIEUR (ORG)


********** Emotions Features **********
***************************************

1. Sentence: PCB/LG DIRECTION
COPIE
PARIS , le 10 Juillet 1958 . 
NOTE
pour Monsieur PELLETIER , MINISTRE de l ’ INTERIEUR
No features found.


********** Modality Features **********
***************************************

1. Sentence: PCB/LG DIRECTION
COPIE
PARIS , le 10 Juillet 1958 . 
NOTE
pour Monsieur PELLETIER , MINISTRE de l ’ INTERIEUR
No features found.


********** Adverbiaux Temporels Features **********
********************************************************

1. Sentence: PCB/LG DIRECTION
COPIE
PARIS , le 10 Juillet 1958 . 
NOTE
pour Monsieur PELLETIER , MINISTRE de l ’ INTERIEUR
Features :: Feature-Counts :: Feature-Texts
--------------------------------------------
adverbiaux_temporels::1::['le 10 Juillet 1958']
adverbiaux_localisation_temporelle::1::['le 10 Juillet 1958']
adverbiaux_pointage_absolu::1::['le 10 Juillet 1958']
adverbiaux_pointage_non_absolu::1::['le 10 Juillet 1958']
adverbiaux_loc_temp_focalisation_id::1::['le 10 Juillet 1958']
adverbiaux_loc_temp_regionalisation_id::1::['le 10 Juillet 1958']
adverbiaux_loc_temp_pointage_non_absolu::1::['le 10 Juillet 1958']
adverbiaux_dur_iter_absolu::1::['le 10 Juillet 1958']

