====== Sentence Level Features ======

1. Sentence: L ' histoire est là pour témoigner qu ' à aucune époque il n ' y eut de grand pays de petites villes , ni de civilisation avancée d ' un peuple de villages .
Features :: Feature-Counts :: Feature-Lemmas
--------------------------------------------
marqueurs :: 3 :: [ aucun, grand, petit ]
marqueurs_niveau3 :: 3 :: [ aucun, grand, petit ]
epistemique :: 2 :: [ grand, petit ]
epistemique_niveau3 :: 2 :: [ grand, petit ]
alethique :: 1 :: [ aucun ]
alethique_niveau3 :: 1 :: [ aucun ]
Total feature counts: 12


====== Text Level Features ======

Features :: Feature-Counts :: Feature-Lemmas
--------------------------------------------
marqueurs :: 3 :: [ aucun, grand, petit ]
marqueurs_niveau3 :: 3 :: [ aucun, grand, petit ]
epistemique :: 2 :: [ grand, petit ]
epistemique_niveau3 :: 2 :: [ grand, petit ]
alethique :: 1 :: [ aucun ]
alethique_niveau3 :: 1 :: [ aucun ]
Total feature counts: 12

