
********** Entity Names Features **********
*******************************************

1. Sentence: Mais la procédure , la règle , puis le programme ne sauraient définir un carcan ni arrêter mouvement , une organisation et un jeu d ' acteurs .
No features found.


********** Emotions Features **********
***************************************

1. Sentence: Mais la procédure , la règle , puis le programme ne sauraient définir un carcan ni arrêter mouvement , une organisation et un jeu d ' acteurs .
No features found.


********** Modality Features **********
***************************************

1. Sentence: Mais la procédure , la règle , puis le programme ne sauraient définir un carcan ni arrêter mouvement , une organisation et un jeu d ' acteurs .
Features :: Feature-Counts :: Feature-Lemmas
--------------------------------------------
marqueurs :: 1 :: [ savoir ]
epistemique :: 1 :: [ savoir ]
marqueurs_niveau3 :: 1 :: [ savoir ]
epistemique_niveau3 :: 1 :: [ savoir ]
Total feature counts: 4


********** Adverbiaux Temporels Features **********
********************************************************

1. Sentence: Mais la procédure , la règle , puis le programme ne sauraient définir un carcan ni arrêter mouvement , une organisation et un jeu d ' acteurs .
No features found.

