====== Sentence Level Features ======

1. Sentence: Contrairement aux réalisations architecturales et immobilières ,  l ' élaboration de projets urbains continue à se développer , à s ' approfondir et se préciser , pendant sa mise en œuvre , en marchant .
Features :: Feature-Counts :: Feature-Lemmas
--------------------------------------------
marqueurs :: 1 :: [ marcher ]
boulique :: 1 :: [ marcher ]
marqueurs_niveau3 :: 1 :: [ marcher ]
boulique_niveau3 :: 1 :: [ marcher ]
Total feature counts: 4


====== Text Level Features ======

Features :: Feature-Counts :: Feature-Lemmas
--------------------------------------------
marqueurs :: 1 :: [ marcher ]
boulique :: 1 :: [ marcher ]
marqueurs_niveau3 :: 1 :: [ marcher ]
boulique_niveau3 :: 1 :: [ marcher ]
Total feature counts: 4

