
********** Entity Names Features **********
*******************************************

1. Sentence: Mais celle-ci a vite été dépassée par l ' arrivée des transferts de technologies mondialisés , des « nouvelles » images et des ensembliers .
No features found.


********** Emotions Features **********
***************************************

1. Sentence: Mais celle-ci a vite été dépassée par l ' arrivée des transferts de technologies mondialisés , des « nouvelles » images et des ensembliers .
No features found.


********** Modality Features **********
***************************************

1. Sentence: Mais celle-ci a vite été dépassée par l ' arrivée des transferts de technologies mondialisés , des « nouvelles » images et des ensembliers .
Features :: Feature-Counts :: Feature-Lemmas
--------------------------------------------
marqueurs :: 1 :: [ vite ]
epistemique :: 1 :: [ vite ]
marqueurs_niveau3 :: 1 :: [ vite ]
epistemique_niveau3 :: 1 :: [ vite ]
Total feature counts: 4


********** Adverbiaux Temporels Features **********
********************************************************

1. Sentence: Mais celle-ci a vite été dépassée par l ' arrivée des transferts de technologies mondialisés , des « nouvelles » images et des ensembliers .
No features found.

