
********** Entity Names Features **********
*******************************************

1. Sentence: Cette extension doit être d ' autant plus largement prévue que l ' on sait que la population va augmenter;
No features found.


********** Emotions Features **********
***************************************

1. Sentence: Cette extension doit être d ' autant plus largement prévue que l ' on sait que la population va augmenter;
No features found.


********** Modality Features **********
***************************************

1. Sentence: Cette extension doit être d ' autant plus largement prévue que l ' on sait que la population va augmenter;
Features :: Feature-Counts :: Feature-Lemmas
--------------------------------------------
marqueurs :: 3 :: [ devoir, savoir, aller ]
alethique :: 2 :: [ devoir, aller ]
epistemique :: 2 :: [ devoir, savoir ]
marqueurs_niveau3 :: 2 :: [ devoir, savoir ]
epistemique_niveau3 :: 2 :: [ devoir, savoir ]
deontique :: 1 :: [ devoir ]
marqueurs_niveau1 :: 1 :: [ aller ]
alethique_niveau3 :: 1 :: [ devoir ]
alethique_niveau1 :: 1 :: [ aller ]
deontique_niveau3 :: 1 :: [ devoir ]
Total feature counts: 16


********** Adverbiaux Temporels Features **********
********************************************************

1. Sentence: Cette extension doit être d ' autant plus largement prévue que l ' on sait que la population va augmenter;
No features found.

