
********** Entity Names Features **********
*******************************************

1. Sentence: (1) Sans tenir compte des déplacements à pied;
No features found.


********** Emotions Features **********
***************************************

1. Sentence: (1) Sans tenir compte des déplacements à pied;
No features found.


********** Modality Features **********
***************************************

1. Sentence: (1) Sans tenir compte des déplacements à pied;
No features found.


********** Adverbiaux Temporels Features **********
********************************************************

1. Sentence: (1) Sans tenir compte des déplacements à pied;
No features found.

