====== Sentence Level Features ======

1. Sentence: La finance , nerf de l ' urbanisme , doit jouer sa partie dans le concert de décisions sans lesquelles Paris ne serait plus que la cité du temps perdu et de la beauté passée .
Features :: Feature-Counts :: Feature-Lemmas
--------------------------------------------
marqueurs :: 3 :: [ devoir, jouer, décision ]
epistemique :: 2 :: [ devoir, décision ]
marqueurs_niveau2 :: 2 :: [ jouer, décision ]
alethique :: 1 :: [ devoir ]
appreciatif :: 1 :: [ jouer ]
boulique :: 1 :: [ décision ]
deontique :: 1 :: [ devoir ]
marqueurs_niveau3 :: 1 :: [ devoir ]
alethique_niveau3 :: 1 :: [ devoir ]
appreciatif_niveau2 :: 1 :: [ jouer ]
boulique_niveau2 :: 1 :: [ décision ]
deontique_niveau3 :: 1 :: [ devoir ]
epistemique_niveau3 :: 1 :: [ devoir ]
epistemique_niveau2 :: 1 :: [ décision ]
Total feature counts: 18


====== Text Level Features ======

Features :: Feature-Counts :: Feature-Lemmas
--------------------------------------------
marqueurs :: 3 :: [ devoir, jouer, décision ]
epistemique :: 2 :: [ devoir, décision ]
marqueurs_niveau2 :: 2 :: [ jouer, décision ]
alethique :: 1 :: [ devoir ]
appreciatif :: 1 :: [ jouer ]
boulique :: 1 :: [ décision ]
deontique :: 1 :: [ devoir ]
marqueurs_niveau3 :: 1 :: [ devoir ]
alethique_niveau3 :: 1 :: [ devoir ]
appreciatif_niveau2 :: 1 :: [ jouer ]
boulique_niveau2 :: 1 :: [ décision ]
deontique_niveau3 :: 1 :: [ devoir ]
epistemique_niveau3 :: 1 :: [ devoir ]
epistemique_niveau2 :: 1 :: [ décision ]
Total feature counts: 18

