====== Sentence Level Features ======

1. Sentence: Je suis un enfant de la République à double titre .
Entity Name (Type) :: République (ORG)


====== Text Level Features ======

Entity Name (Entity Type)
-------------------------
République (ORG)
Total entitiy counts: 1

