====== Sentence Level Features ======

1. Sentence: On peut tenter de répondre a ces questions , mais il ne faut pas se dissimuler que les réponses marquent surtout des intentions et des orientations .
Features :: Feature-Counts :: Feature-Lemmas
--------------------------------------------
marqueurs :: 4 :: [ pouvoir, tenter, falloir, intention ]
boulique :: 2 :: [ tenter, intention ]
deontique :: 2 :: [ pouvoir, falloir ]
marqueurs_niveau3 :: 2 :: [ pouvoir, falloir ]
marqueurs_niveau2 :: 2 :: [ tenter, intention ]
boulique_niveau2 :: 2 :: [ tenter, intention ]
deontique_niveau3 :: 2 :: [ pouvoir, falloir ]
alethique :: 1 :: [ pouvoir ]
epistemique :: 1 :: [ pouvoir ]
alethique_niveau3 :: 1 :: [ pouvoir ]
epistemique_niveau3 :: 1 :: [ pouvoir ]
Total feature counts: 20


====== Text Level Features ======

Features :: Feature-Counts :: Feature-Lemmas
--------------------------------------------
marqueurs :: 4 :: [ pouvoir, tenter, falloir, intention ]
boulique :: 2 :: [ tenter, intention ]
deontique :: 2 :: [ pouvoir, falloir ]
marqueurs_niveau3 :: 2 :: [ pouvoir, falloir ]
marqueurs_niveau2 :: 2 :: [ tenter, intention ]
boulique_niveau2 :: 2 :: [ tenter, intention ]
deontique_niveau3 :: 2 :: [ pouvoir, falloir ]
alethique :: 1 :: [ pouvoir ]
epistemique :: 1 :: [ pouvoir ]
alethique_niveau3 :: 1 :: [ pouvoir ]
epistemique_niveau3 :: 1 :: [ pouvoir ]
Total feature counts: 20

