
********** Entity Names Features **********
*******************************************

1. Sentence: Les opérations d ' intérêt métropolitain
No features found.


********** Emotions Features **********
***************************************

1. Sentence: Les opérations d ' intérêt métropolitain
Tokens having emotion: [ intérêt ]
Lemmas having emotion: [ intérêt ]
Categories of the emotion lemmas: [ desir ]


********** Modality Features **********
***************************************

1. Sentence: Les opérations d ' intérêt métropolitain
Features :: Feature-Counts :: Feature-Lemmas
--------------------------------------------
marqueurs :: 1 :: [ intérêt ]
boulique :: 1 :: [ intérêt ]
marqueurs_niveau2 :: 1 :: [ intérêt ]
boulique_niveau2 :: 1 :: [ intérêt ]
Total feature counts: 4


********** Adverbiaux Temporels Features **********
********************************************************

1. Sentence: Les opérations d ' intérêt métropolitain
No features found.

