
********** Entity Names Features **********
*******************************************

1. Sentence: L ' équipe Dusapin & Leclercq-Ter a été choisie à l ' issue d ' une procédure de marché de définition .
Entity Name (Type) :: Dusapin & Leclercq-Ter (ORG)


********** Emotions Features **********
***************************************

1. Sentence: L ' équipe Dusapin & Leclercq-Ter a été choisie à l ' issue d ' une procédure de marché de définition .
No features found.


********** Modality Features **********
***************************************

1. Sentence: L ' équipe Dusapin & Leclercq-Ter a été choisie à l ' issue d ' une procédure de marché de définition .
Features :: Feature-Counts :: Feature-Lemmas
--------------------------------------------
marqueurs :: 1 :: [ choisir ]
boulique :: 1 :: [ choisir ]
marqueurs_niveau2 :: 1 :: [ choisir ]
boulique_niveau2 :: 1 :: [ choisir ]
Total feature counts: 4


********** Adverbiaux Temporels Features **********
********************************************************

1. Sentence: L ' équipe Dusapin & Leclercq-Ter a été choisie à l ' issue d ' une procédure de marché de définition .
No features found.

