
********** Entity Names Features **********
*******************************************

1. Sentence: Le temps du politique , en inadéquation avec ce temps long de la fabrication de la ville , impose de montrer rapidement que quelque chose se passe sur le site à l ' étude .
No features found.


********** Emotions Features **********
***************************************

1. Sentence: Le temps du politique , en inadéquation avec ce temps long de la fabrication de la ville , impose de montrer rapidement que quelque chose se passe sur le site à l ' étude .
No features found.


********** Modality Features **********
***************************************

1. Sentence: Le temps du politique , en inadéquation avec ce temps long de la fabrication de la ville , impose de montrer rapidement que quelque chose se passe sur le site à l ' étude .
Features :: Feature-Counts :: Feature-Lemmas
--------------------------------------------
marqueurs :: 3 :: [ long, imposer, rapidement ]
epistemique :: 2 :: [ long, rapidement ]
marqueurs_niveau2 :: 2 :: [ long, imposer ]
deontique :: 1 :: [ imposer ]
marqueurs_niveau3 :: 1 :: [ rapidement ]
deontique_niveau2 :: 1 :: [ imposer ]
epistemique_niveau3 :: 1 :: [ rapidement ]
epistemique_niveau2 :: 1 :: [ long ]
Total feature counts: 12


********** Adverbiaux Temporels Features **********
********************************************************

1. Sentence: Le temps du politique , en inadéquation avec ce temps long de la fabrication de la ville , impose de montrer rapidement que quelque chose se passe sur le site à l ' étude .
Features :: Feature-Counts :: Feature-Texts
--------------------------------------------
adverbiaux_temporels::1::['ce temps']
adverbiaux_localisation_temporelle::1::['ce temps']
adverbiaux_pointage_non_absolu::1::['ce temps']
adverbiaux_loc_temp_focalisation_id::1::['ce temps']
adverbiaux_loc_temp_regionalisation_id::1::['ce temps']
adverbiaux_loc_temp_pointage_non_absolu::1::['ce temps']

