
********** Entity Names Features **********
*******************************************

1. Sentence: Il existe , datant de cette époque , des lotissements défectueux aujourd ' hui encore .
No features found.


********** Emotions Features **********
***************************************

1. Sentence: Il existe , datant de cette époque , des lotissements défectueux aujourd ' hui encore .
No features found.


********** Modality Features **********
***************************************

1. Sentence: Il existe , datant de cette époque , des lotissements défectueux aujourd ' hui encore .
No features found.


********** Adverbiaux Temporels Features **********
********************************************************

1. Sentence: Il existe , datant de cette époque , des lotissements défectueux aujourd ' hui encore .
Features :: Feature-Counts :: Feature-Texts
--------------------------------------------
adverbiaux_temporels::2::['de cette époque', 'encore']
adverbiaux_localisation_temporelle::1::['de cette époque']
adverbiaux_duratifs_iteratifs::1::['encore']
adverbiaux_pointage_non_absolu::2::['de cette époque', 'encore']
adverbiaux_loc_temp_focalisation_id::1::['de cette époque']
adverbiaux_loc_temp_regionalisation_id::1::['de cette époque']
adverbiaux_loc_temp_pointage_non_absolu::1::['de cette époque']
adverbiaux_dur_iter_relatif::1::['encore']

