
********** Entity Names Features **********
*******************************************

1. Sentence: Lors de ces concertations , j ' ai pris conscience qu ' il y a aussi un travail de cet ordre , presque pictural , à faire avec la ville .
No features found.


********** Emotions Features **********
***************************************

1. Sentence: Lors de ces concertations , j ' ai pris conscience qu ' il y a aussi un travail de cet ordre , presque pictural , à faire avec la ville .
No features found.


********** Modality Features **********
***************************************

1. Sentence: Lors de ces concertations , j ' ai pris conscience qu ' il y a aussi un travail de cet ordre , presque pictural , à faire avec la ville .
Features :: Feature-Counts :: Feature-Lemmas
--------------------------------------------
marqueurs :: 2 :: [ travail, ordre ]
appreciatif :: 1 :: [ travail ]
deontique :: 1 :: [ ordre ]
marqueurs_niveau3 :: 1 :: [ travail ]
marqueurs_niveau2 :: 1 :: [ ordre ]
appreciatif_niveau3 :: 1 :: [ travail ]
deontique_niveau2 :: 1 :: [ ordre ]
Total feature counts: 8


********** Adverbiaux Temporels Features **********
********************************************************

1. Sentence: Lors de ces concertations , j ' ai pris conscience qu ' il y a aussi un travail de cet ordre , presque pictural , à faire avec la ville .
No features found.

