====== Sentence Level Features ======

1. Sentence: Où vivent les électeurs de Le Pen ?
Entity Name (Type) :: Le Pen (PER)


====== Text Level Features ======

Entity Name (Entity Type)
-------------------------
Le Pen (PER)
Total entitiy counts: 1

