====== Sentence Level Features ======

1. Sentence: Diagonales Pierre Veltz L ' amour des villes Depuis mes premiers pas professionnels , mes travaux , de réflexion et d ' action ont tressé trois fils conducteurs  : celui de l ' urbanisme , des villes , des territoires ;
Features :: Feature-Counts :: Feature-Lemmas
--------------------------------------------
marqueurs :: 2 :: [ amour, travail ]
appreciatif :: 2 :: [ amour, travail ]
marqueurs_niveau3 :: 1 :: [ travail ]
marqueurs_niveau2 :: 1 :: [ amour ]
appreciatif_niveau3 :: 1 :: [ travail ]
appreciatif_niveau2 :: 1 :: [ amour ]
Total feature counts: 8


====== Text Level Features ======

Features :: Feature-Counts :: Feature-Lemmas
--------------------------------------------
marqueurs :: 2 :: [ amour, travail ]
appreciatif :: 2 :: [ amour, travail ]
marqueurs_niveau3 :: 1 :: [ travail ]
marqueurs_niveau2 :: 1 :: [ amour ]
appreciatif_niveau3 :: 1 :: [ travail ]
appreciatif_niveau2 :: 1 :: [ amour ]
Total feature counts: 8

