
********** Entity Names Features **********
*******************************************

1. Sentence: Ces possibles relations fines entre deux milieux sont des sources d ' inspiration prometteuses .
Entity Name (Type) :: Ces (LOC)


********** Emotions Features **********
***************************************

1. Sentence: Ces possibles relations fines entre deux milieux sont des sources d ' inspiration prometteuses .
No features found.


********** Modality Features **********
***************************************

1. Sentence: Ces possibles relations fines entre deux milieux sont des sources d ' inspiration prometteuses .
Features :: Feature-Counts :: Feature-Lemmas
--------------------------------------------
marqueurs :: 1 :: [ possible ]
alethique :: 1 :: [ possible ]
marqueurs_niveau3 :: 1 :: [ possible ]
alethique_niveau3 :: 1 :: [ possible ]
Total feature counts: 4


********** Adverbiaux Temporels Features **********
********************************************************

1. Sentence: Ces possibles relations fines entre deux milieux sont des sources d ' inspiration prometteuses .
No features found.

