====== Sentence Level Features ======

1. Sentence: Dans cette optique , le site de Saint-Sauveur , aujourd ' hui en friche , a un rôle clé à jouer .
Features :: Feature-Counts :: Feature-Lemmas
--------------------------------------------
marqueurs :: 1 :: [ jouer ]
appreciatif :: 1 :: [ jouer ]
marqueurs_niveau2 :: 1 :: [ jouer ]
appreciatif_niveau2 :: 1 :: [ jouer ]
Total feature counts: 4


====== Text Level Features ======

Features :: Feature-Counts :: Feature-Lemmas
--------------------------------------------
marqueurs :: 1 :: [ jouer ]
appreciatif :: 1 :: [ jouer ]
marqueurs_niveau2 :: 1 :: [ jouer ]
appreciatif_niveau2 :: 1 :: [ jouer ]
Total feature counts: 4

