
********** Entity Names Features **********
*******************************************

1. Sentence: New York : + 6 millions en 22 ans (de 17 à 23 millions . de 1963 à 1985) .
Entity Name (Type) :: New York (LOC)


********** Emotions Features **********
***************************************

1. Sentence: New York : + 6 millions en 22 ans (de 17 à 23 millions . de 1963 à 1985) .
No features found.


********** Modality Features **********
***************************************

1. Sentence: New York : + 6 millions en 22 ans (de 17 à 23 millions . de 1963 à 1985) .
No features found.


********** Adverbiaux Temporels Features **********
********************************************************

1. Sentence: New York : + 6 millions en 22 ans (de 17 à 23 millions . de 1963 à 1985) .
Features :: Feature-Counts :: Feature-Texts
--------------------------------------------
adverbiaux_temporels::2::['de 1963 à 1985', 'en 22 ans']
adverbiaux_localisation_temporelle::1::['de 1963 à 1985']
adverbiaux_purement_duratifs::1::['en 22 ans']
adverbiaux_pointage_absolu::1::['de 1963 à 1985']
adverbiaux_pointage_non_absolu::1::['en 22 ans']
adverbiaux_loc_temp_focalisation_id::1::['de 1963 à 1985']
adverbiaux_loc_temp_regionalisation_id::1::['de 1963 à 1985']
adverbiaux_loc_temp_pointage_absolu::1::['de 1963 à 1985']
adverbiaux_dur_iter_relatif::1::['en 22 ans']

