
********** Entity Names Features **********
*******************************************

1. Sentence: 15 qu ' il paraît nécessaire de doubler ultérieurement vers Paris par une voie supplémentaire;
Entity Name (Type) :: Paris (LOC)


********** Emotions Features **********
***************************************

1. Sentence: 15 qu ' il paraît nécessaire de doubler ultérieurement vers Paris par une voie supplémentaire;
No features found.


********** Modality Features **********
***************************************

1. Sentence: 15 qu ' il paraît nécessaire de doubler ultérieurement vers Paris par une voie supplémentaire;
Features :: Feature-Counts :: Feature-Lemmas
--------------------------------------------
marqueurs :: 2 :: [ paraître, nécessaire ]
marqueurs_niveau3 :: 2 :: [ paraître, nécessaire ]
alethique :: 1 :: [ nécessaire ]
epistemique :: 1 :: [ paraître ]
alethique_niveau3 :: 1 :: [ nécessaire ]
epistemique_niveau3 :: 1 :: [ paraître ]
Total feature counts: 8


********** Adverbiaux Temporels Features **********
********************************************************

1. Sentence: 15 qu ' il paraît nécessaire de doubler ultérieurement vers Paris par une voie supplémentaire;
No features found.

