====== Sentence Level Features ======

1. Sentence: Le départ des usines va s ' accélérer : compte tenu des besoins d ' extension et de rénovation , il faut envisager l ' hypothèse d ' un mouvement qui toucherait la moitié des emplois industriels existant aujourd ' hui dans Paris .
Features :: Feature-Counts :: Feature-Lemmas
--------------------------------------------
marqueurs :: 4 :: [ aller, besoin, falloir, emploi ]
alethique :: 2 :: [ aller, besoin ]
marqueurs_niveau3 :: 2 :: [ besoin, falloir ]
appreciatif :: 1 :: [ emploi ]
boulique :: 1 :: [ besoin ]
deontique :: 1 :: [ falloir ]
marqueurs_niveau2 :: 1 :: [ emploi ]
marqueurs_niveau1 :: 1 :: [ aller ]
alethique_niveau3 :: 1 :: [ besoin ]
alethique_niveau1 :: 1 :: [ aller ]
appreciatif_niveau2 :: 1 :: [ emploi ]
boulique_niveau3 :: 1 :: [ besoin ]
deontique_niveau3 :: 1 :: [ falloir ]
Total feature counts: 18


====== Text Level Features ======

Features :: Feature-Counts :: Feature-Lemmas
--------------------------------------------
marqueurs :: 4 :: [ aller, besoin, falloir, emploi ]
alethique :: 2 :: [ aller, besoin ]
marqueurs_niveau3 :: 2 :: [ besoin, falloir ]
appreciatif :: 1 :: [ emploi ]
boulique :: 1 :: [ besoin ]
deontique :: 1 :: [ falloir ]
marqueurs_niveau2 :: 1 :: [ emploi ]
marqueurs_niveau1 :: 1 :: [ aller ]
alethique_niveau3 :: 1 :: [ besoin ]
alethique_niveau1 :: 1 :: [ aller ]
appreciatif_niveau2 :: 1 :: [ emploi ]
boulique_niveau3 :: 1 :: [ besoin ]
deontique_niveau3 :: 1 :: [ falloir ]
Total feature counts: 18

