====== Sentence Level Features ======

1. Sentence: C ' est l ' enjeu majeur de l ' urbanisme de demain : dans l ' immense diversité , intégrer le médiocre ,  l ' ordinaire , voire le laid .
Features :: Feature-Counts :: Feature-Lemmas
--------------------------------------------
marqueurs :: 1 :: [ immense ]
epistemique :: 1 :: [ immense ]
marqueurs_niveau2 :: 1 :: [ immense ]
epistemique_niveau2 :: 1 :: [ immense ]
Total feature counts: 4


====== Text Level Features ======

Features :: Feature-Counts :: Feature-Lemmas
--------------------------------------------
marqueurs :: 1 :: [ immense ]
epistemique :: 1 :: [ immense ]
marqueurs_niveau2 :: 1 :: [ immense ]
epistemique_niveau2 :: 1 :: [ immense ]
Total feature counts: 4

