====== Sentence Level Features ======

1. Sentence: 1 , 5 %	ENSEMBLE	5 .
Entity Name (Type) :: ENSEMBLE (MISC)


====== Text Level Features ======

Entity Name (Entity Type)
-------------------------
ENSEMBLE (MISC)
Total entitiy counts: 1

