====== Sentence Level Features ======

1. Sentence: J ' envisage ensuite la transformation (souvent lointaine , hypothétique ou aléatoire) des grands sites avec la «mesure» de ces expériences et avec , pour les deux échelles , le même désir de «réalité» et «d ' architecture» .
Features :: Feature-Counts :: Feature-Lemmas
--------------------------------------------
marqueurs :: 4 :: [ souvent, grand, désir, réalité ]
marqueurs_niveau3 :: 3 :: [ souvent, grand, désir ]
alethique :: 2 :: [ souvent, réalité ]
boulique :: 1 :: [ désir ]
epistemique :: 1 :: [ grand ]
marqueurs_niveau1 :: 1 :: [ réalité ]
alethique_niveau3 :: 1 :: [ souvent ]
alethique_niveau1 :: 1 :: [ réalité ]
boulique_niveau3 :: 1 :: [ désir ]
epistemique_niveau3 :: 1 :: [ grand ]
Total feature counts: 16


====== Text Level Features ======

Features :: Feature-Counts :: Feature-Lemmas
--------------------------------------------
marqueurs :: 4 :: [ souvent, grand, désir, réalité ]
marqueurs_niveau3 :: 3 :: [ souvent, grand, désir ]
alethique :: 2 :: [ souvent, réalité ]
boulique :: 1 :: [ désir ]
epistemique :: 1 :: [ grand ]
marqueurs_niveau1 :: 1 :: [ réalité ]
alethique_niveau3 :: 1 :: [ souvent ]
alethique_niveau1 :: 1 :: [ réalité ]
boulique_niveau3 :: 1 :: [ désir ]
epistemique_niveau3 :: 1 :: [ grand ]
Total feature counts: 16

