====== Sentence Level Features ======

1. Sentence: pour un gouvernement c ' est toujours très difficile et très ennuyeux de réfléchir à 35 ans de temps ;
Features :: Feature-Counts :: Feature-Texts
--------------------------------------------
adverbiaux_temporels::1::['toujours']
adverbiaux_duratifs_iteratifs::1::['toujours']


====== Text Level Features ======

Features :: Feature-Counts :: Feature-Texts
--------------------------------------------
adverbiaux_temporels::1::['toujours']
adverbiaux_duratifs_iteratifs::1::['toujours']
Total feature counts: 2

