====== Sentence Level Features ======

1. Sentence: Je vais au cœur de la citta diffusa dans le Tessin , avec l ' hypothèse paradoxale qu ' elle pourrait devenir un référent .
Features :: Feature-Counts :: Feature-Lemmas
--------------------------------------------
marqueurs :: 2 :: [ aller, pouvoir ]
alethique :: 2 :: [ aller, pouvoir ]
deontique :: 1 :: [ pouvoir ]
epistemique :: 1 :: [ pouvoir ]
marqueurs_niveau3 :: 1 :: [ pouvoir ]
marqueurs_niveau1 :: 1 :: [ aller ]
alethique_niveau3 :: 1 :: [ pouvoir ]
alethique_niveau1 :: 1 :: [ aller ]
deontique_niveau3 :: 1 :: [ pouvoir ]
epistemique_niveau3 :: 1 :: [ pouvoir ]
Total feature counts: 12


====== Text Level Features ======

Features :: Feature-Counts :: Feature-Lemmas
--------------------------------------------
marqueurs :: 2 :: [ aller, pouvoir ]
alethique :: 2 :: [ aller, pouvoir ]
deontique :: 1 :: [ pouvoir ]
epistemique :: 1 :: [ pouvoir ]
marqueurs_niveau3 :: 1 :: [ pouvoir ]
marqueurs_niveau1 :: 1 :: [ aller ]
alethique_niveau3 :: 1 :: [ pouvoir ]
alethique_niveau1 :: 1 :: [ aller ]
deontique_niveau3 :: 1 :: [ pouvoir ]
epistemique_niveau3 :: 1 :: [ pouvoir ]
Total feature counts: 12

