
********** Entity Names Features **********
*******************************************

1. Sentence: L ' urbanisme est une action politique qui exige beaucoup d ' intelligence partagée .
Entity Name (Type) :: L (MISC)


********** Emotions Features **********
***************************************

1. Sentence: L ' urbanisme est une action politique qui exige beaucoup d ' intelligence partagée .
No features found.


********** Modality Features **********
***************************************

1. Sentence: L ' urbanisme est une action politique qui exige beaucoup d ' intelligence partagée .
Features :: Feature-Counts :: Feature-Lemmas
--------------------------------------------
marqueurs :: 2 :: [ exiger, beaucoup ]
alethique :: 1 :: [ exiger ]
boulique :: 1 :: [ exiger ]
deontique :: 1 :: [ exiger ]
epistemique :: 1 :: [ beaucoup ]
marqueurs_niveau3 :: 1 :: [ exiger ]
marqueurs_niveau1 :: 1 :: [ beaucoup ]
alethique_niveau3 :: 1 :: [ exiger ]
boulique_niveau3 :: 1 :: [ exiger ]
deontique_niveau3 :: 1 :: [ exiger ]
epistemique_niveau1 :: 1 :: [ beaucoup ]
Total feature counts: 12


********** Adverbiaux Temporels Features **********
********************************************************

1. Sentence: L ' urbanisme est une action politique qui exige beaucoup d ' intelligence partagée .
No features found.

