====== Sentence Level Features ======

1. Sentence: Pour résister à la puissance visuelle des cartes , deux remarques .
Features :: Feature-Counts :: Feature-Lemmas
--------------------------------------------
marqueurs :: 1 :: [ puissance ]
pas_d_indication :: 1 :: [ puissance ]
marqueurs_niveau0 :: 1 :: [ puissance ]
pas_d_indication_niveau0 :: 1 :: [ puissance ]
Total feature counts: 4


====== Text Level Features ======

Features :: Feature-Counts :: Feature-Lemmas
--------------------------------------------
marqueurs :: 1 :: [ puissance ]
pas_d_indication :: 1 :: [ puissance ]
marqueurs_niveau0 :: 1 :: [ puissance ]
pas_d_indication_niveau0 :: 1 :: [ puissance ]
Total feature counts: 4

