====== Sentence Level Features ======

1. Sentence: Pour répondre utilement à cette question , il faut apprécier comment variera le nombre d ' emplois;
Features :: Feature-Counts :: Feature-Lemmas
--------------------------------------------
marqueurs :: 3 :: [ falloir, apprécier, emploi ]
appreciatif :: 2 :: [ apprécier, emploi ]
marqueurs_niveau3 :: 2 :: [ falloir, apprécier ]
deontique :: 1 :: [ falloir ]
marqueurs_niveau2 :: 1 :: [ emploi ]
appreciatif_niveau3 :: 1 :: [ apprécier ]
appreciatif_niveau2 :: 1 :: [ emploi ]
deontique_niveau3 :: 1 :: [ falloir ]
Total feature counts: 12


====== Text Level Features ======

Features :: Feature-Counts :: Feature-Lemmas
--------------------------------------------
marqueurs :: 3 :: [ falloir, apprécier, emploi ]
appreciatif :: 2 :: [ apprécier, emploi ]
marqueurs_niveau3 :: 2 :: [ falloir, apprécier ]
deontique :: 1 :: [ falloir ]
marqueurs_niveau2 :: 1 :: [ emploi ]
appreciatif_niveau3 :: 1 :: [ apprécier ]
appreciatif_niveau2 :: 1 :: [ emploi ]
deontique_niveau3 :: 1 :: [ falloir ]
Total feature counts: 12

