====== Sentence Level Features ======

1. Sentence: Dans la banlieue de Paris au xxie siècle ,  l ' héritage s ' était augmenté d ' une richesse du vivant et d ' une conscience d ' avoir à la protéger .
Features :: Feature-Counts :: Feature-Lemmas
--------------------------------------------
marqueurs :: 1 :: [ protéger ]
pas_d_indication :: 1 :: [ protéger ]
marqueurs_niveau0 :: 1 :: [ protéger ]
pas_d_indication_niveau0 :: 1 :: [ protéger ]
Total feature counts: 4


====== Text Level Features ======

Features :: Feature-Counts :: Feature-Lemmas
--------------------------------------------
marqueurs :: 1 :: [ protéger ]
pas_d_indication :: 1 :: [ protéger ]
marqueurs_niveau0 :: 1 :: [ protéger ]
pas_d_indication_niveau0 :: 1 :: [ protéger ]
Total feature counts: 4

