====== Sentence Level Features ======

1. Sentence: LONDRES EN 1970 dispose déjà d ' un réseau important
Entity Name (Type) :: EN (LOC)


====== Text Level Features ======

Entity Name (Entity Type)
-------------------------
LONDRES (LOC)
EN (LOC)
Total entitiy counts: 2

