
********** Entity Names Features **********
*******************************************

1. Sentence: L ' espace est alors rendu bistrots , une plateforme en bois devient un espace multifonctionnel .
Entity Name (Type) :: L (LOC)


********** Emotions Features **********
***************************************

1. Sentence: L ' espace est alors rendu bistrots , une plateforme en bois devient un espace multifonctionnel .
No features found.


********** Modality Features **********
***************************************

1. Sentence: L ' espace est alors rendu bistrots , une plateforme en bois devient un espace multifonctionnel .
No features found.


********** Adverbiaux Temporels Features **********
********************************************************

1. Sentence: L ' espace est alors rendu bistrots , une plateforme en bois devient un espace multifonctionnel .
No features found.

