
********** Entity Names Features **********
*******************************************

1. Sentence: 000 habitants , et les deux autres (Bletchley et Newbury) pour 150 .
Entity Name (Type) :: Newbury (LOC)


********** Emotions Features **********
***************************************

1. Sentence: 000 habitants , et les deux autres (Bletchley et Newbury) pour 150 .
No features found.


********** Modality Features **********
***************************************

1. Sentence: 000 habitants , et les deux autres (Bletchley et Newbury) pour 150 .
No features found.


********** Adverbiaux Temporels Features **********
********************************************************

1. Sentence: 000 habitants , et les deux autres (Bletchley et Newbury) pour 150 .
No features found.

