
********** Entity Names Features **********
*******************************************

1. Sentence: L ' aménagement de la région parisienne doit encore tenir compte des transformations qui s ' annoncent dans la structure des entreprises .
No features found.


********** Emotions Features **********
***************************************

1. Sentence: L ' aménagement de la région parisienne doit encore tenir compte des transformations qui s ' annoncent dans la structure des entreprises .
No features found.


********** Modality Features **********
***************************************

1. Sentence: L ' aménagement de la région parisienne doit encore tenir compte des transformations qui s ' annoncent dans la structure des entreprises .
Features :: Feature-Counts :: Feature-Lemmas
--------------------------------------------
marqueurs :: 1 :: [ devoir ]
alethique :: 1 :: [ devoir ]
deontique :: 1 :: [ devoir ]
epistemique :: 1 :: [ devoir ]
marqueurs_niveau3 :: 1 :: [ devoir ]
alethique_niveau3 :: 1 :: [ devoir ]
deontique_niveau3 :: 1 :: [ devoir ]
epistemique_niveau3 :: 1 :: [ devoir ]
Total feature counts: 8


********** Adverbiaux Temporels Features **********
********************************************************

1. Sentence: L ' aménagement de la région parisienne doit encore tenir compte des transformations qui s ' annoncent dans la structure des entreprises .
Features :: Feature-Counts :: Feature-Texts
--------------------------------------------
adverbiaux_temporels::1::['encore']
adverbiaux_duratifs_iteratifs::1::['encore']
adverbiaux_pointage_non_absolu::1::['encore']
adverbiaux_dur_iter_relatif::1::['encore']

