
********** Entity Names Features **********
*******************************************

1. Sentence: De plus , tous les établissements industriels de la région parisienne ne sont pas des usines .
No features found.


********** Emotions Features **********
***************************************

1. Sentence: De plus , tous les établissements industriels de la région parisienne ne sont pas des usines .
No features found.


********** Modality Features **********
***************************************

1. Sentence: De plus , tous les établissements industriels de la région parisienne ne sont pas des usines .
No features found.


********** Adverbiaux Temporels Features **********
********************************************************

1. Sentence: De plus , tous les établissements industriels de la région parisienne ne sont pas des usines .
No features found.

