====== Sentence Level Features ======

1. Sentence: Cette première épistémologie implique beaucoup de travail sur le terrain , de recueils hybrides d ' observations .
Features :: Feature-Counts :: Feature-Lemmas
--------------------------------------------
marqueurs :: 2 :: [ beaucoup, travail ]
appreciatif :: 1 :: [ travail ]
epistemique :: 1 :: [ beaucoup ]
marqueurs_niveau3 :: 1 :: [ travail ]
marqueurs_niveau1 :: 1 :: [ beaucoup ]
appreciatif_niveau3 :: 1 :: [ travail ]
epistemique_niveau1 :: 1 :: [ beaucoup ]
Total feature counts: 8


====== Text Level Features ======

Features :: Feature-Counts :: Feature-Lemmas
--------------------------------------------
marqueurs :: 2 :: [ beaucoup, travail ]
appreciatif :: 1 :: [ travail ]
epistemique :: 1 :: [ beaucoup ]
marqueurs_niveau3 :: 1 :: [ travail ]
marqueurs_niveau1 :: 1 :: [ beaucoup ]
appreciatif_niveau3 :: 1 :: [ travail ]
epistemique_niveau1 :: 1 :: [ beaucoup ]
Total feature counts: 8

