====== Sentence Level Features ======

1. Sentence: Les relations avec Paris , les échanges interurbains s ' effectueront sur des distances croissantes .
Features :: Feature-Counts :: Feature-Lemmas
--------------------------------------------
marqueurs :: 1 :: [ croissant ]
appreciatif :: 1 :: [ croissant ]
marqueurs_niveau2 :: 1 :: [ croissant ]
appreciatif_niveau2 :: 1 :: [ croissant ]
Total feature counts: 4


====== Text Level Features ======

Features :: Feature-Counts :: Feature-Lemmas
--------------------------------------------
marqueurs :: 1 :: [ croissant ]
appreciatif :: 1 :: [ croissant ]
marqueurs_niveau2 :: 1 :: [ croissant ]
appreciatif_niveau2 :: 1 :: [ croissant ]
Total feature counts: 4

