
********** Entity Names Features **********
*******************************************

1. Sentence: - Cet argument a paru péremptoire .
Entity Name (Type) :: Cet (LOC)


********** Emotions Features **********
***************************************

1. Sentence: - Cet argument a paru péremptoire .
No features found.


********** Modality Features **********
***************************************

1. Sentence: - Cet argument a paru péremptoire .
Features :: Feature-Counts :: Feature-Lemmas
--------------------------------------------
marqueurs :: 1 :: [ paraître ]
epistemique :: 1 :: [ paraître ]
marqueurs_niveau3 :: 1 :: [ paraître ]
epistemique_niveau3 :: 1 :: [ paraître ]
Total feature counts: 4


********** Adverbiaux Temporels Features **********
********************************************************

1. Sentence: - Cet argument a paru péremptoire .
No features found.

