
********** Entity Names Features **********
*******************************************

1. Sentence: Le plateau conserve encore de nombreuses exploitations maraîchères et surtout fruitières , qui disparaissent peu à peu devant l ' urbanisation .
No features found.


********** Emotions Features **********
***************************************

1. Sentence: Le plateau conserve encore de nombreuses exploitations maraîchères et surtout fruitières , qui disparaissent peu à peu devant l ' urbanisation .
No features found.


********** Modality Features **********
***************************************

1. Sentence: Le plateau conserve encore de nombreuses exploitations maraîchères et surtout fruitières , qui disparaissent peu à peu devant l ' urbanisation .
No features found.


********** Adverbiaux Temporels Features **********
********************************************************

1. Sentence: Le plateau conserve encore de nombreuses exploitations maraîchères et surtout fruitières , qui disparaissent peu à peu devant l ' urbanisation .
Features :: Feature-Counts :: Feature-Texts
--------------------------------------------
adverbiaux_temporels::1::['encore']
adverbiaux_duratifs_iteratifs::1::['encore']
adverbiaux_pointage_non_absolu::1::['encore']
adverbiaux_dur_iter_relatif::1::['encore']

