====== Sentence Level Features ======

1. Sentence: C ' est un leurre de penser que chacun habitera là où il travaille (voir le cas de Cergy) .
Features :: Feature-Counts :: Feature-Lemmas
--------------------------------------------
marqueurs :: 2 :: [ penser, travailler ]
appreciatif :: 1 :: [ travailler ]
epistemique :: 1 :: [ penser ]
marqueurs_niveau3 :: 1 :: [ penser ]
marqueurs_niveau2 :: 1 :: [ travailler ]
appreciatif_niveau2 :: 1 :: [ travailler ]
epistemique_niveau3 :: 1 :: [ penser ]
Total feature counts: 8


====== Text Level Features ======

Features :: Feature-Counts :: Feature-Lemmas
--------------------------------------------
marqueurs :: 2 :: [ penser, travailler ]
appreciatif :: 1 :: [ travailler ]
epistemique :: 1 :: [ penser ]
marqueurs_niveau3 :: 1 :: [ penser ]
marqueurs_niveau2 :: 1 :: [ travailler ]
appreciatif_niveau2 :: 1 :: [ travailler ]
epistemique_niveau3 :: 1 :: [ penser ]
Total feature counts: 8

