====== Sentence Level Features ======

1. Sentence: Il y avait parfois une volonté de recopier le passé , parfois de la prudence simplement .
Features :: Feature-Counts :: Feature-Lemmas
--------------------------------------------
marqueurs :: 4 :: [ parfois, volonté, parfois, prudence ]
marqueurs_niveau3 :: 3 :: [ parfois, volonté, parfois ]
alethique :: 2 :: [ parfois, parfois ]
alethique_niveau3 :: 2 :: [ parfois, parfois ]
axiologique :: 1 :: [ prudence ]
boulique :: 1 :: [ volonté ]
marqueurs_niveau2 :: 1 :: [ prudence ]
axiologique_niveau2 :: 1 :: [ prudence ]
boulique_niveau3 :: 1 :: [ volonté ]
Total feature counts: 16


====== Text Level Features ======

Features :: Feature-Counts :: Feature-Lemmas
--------------------------------------------
marqueurs :: 4 :: [ parfois, volonté, parfois, prudence ]
marqueurs_niveau3 :: 3 :: [ parfois, volonté, parfois ]
alethique :: 2 :: [ parfois, parfois ]
alethique_niveau3 :: 2 :: [ parfois, parfois ]
axiologique :: 1 :: [ prudence ]
boulique :: 1 :: [ volonté ]
marqueurs_niveau2 :: 1 :: [ prudence ]
axiologique_niveau2 :: 1 :: [ prudence ]
boulique_niveau3 :: 1 :: [ volonté ]
Total feature counts: 16

