====== Sentence Level Features ======

1. Sentence: ROUTE DE L ’ EST .
Entity Name (Type) :: ROUTE DE L ’ EST (LOC)


====== Text Level Features ======

Entity Name (Entity Type)
-------------------------
ROUTE DE L ’ EST (LOC)
Total entitiy counts: 1

