====== Sentence Level Features ======

1. Sentence: J ' assiste aux corrections de Snozzi et d ' abord je ne comprends rien : on y parle de murets , de murs , d ' allées , d ' un garage…
Features :: Feature-Counts :: Feature-Lemmas
--------------------------------------------
marqueurs :: 1 :: [ rien ]
alethique :: 1 :: [ rien ]
marqueurs_niveau2 :: 1 :: [ rien ]
alethique_niveau2 :: 1 :: [ rien ]
Total feature counts: 4


====== Text Level Features ======

Features :: Feature-Counts :: Feature-Lemmas
--------------------------------------------
marqueurs :: 1 :: [ rien ]
alethique :: 1 :: [ rien ]
marqueurs_niveau2 :: 1 :: [ rien ]
alethique_niveau2 :: 1 :: [ rien ]
Total feature counts: 4

