====== Sentence Level Features ======

1. Sentence: Le monde , essentiellement fragile , doit sans cesse être entretenu , réparé , recommencé .
Features :: Feature-Counts :: Feature-Texts
--------------------------------------------
adverbiaux_temporels::1::['sans cesse']
adverbiaux_duratifs_iteratifs::1::['sans cesse']


====== Text Level Features ======

Features :: Feature-Counts :: Feature-Texts
--------------------------------------------
adverbiaux_temporels::1::['sans cesse']
adverbiaux_duratifs_iteratifs::1::['sans cesse']
Total feature counts: 2

