====== Sentence Level Features ======

1. Sentence: C ' est finalement la desserte par fer qui paraît la mieux adaptée aux relations entre les nouvelles zones d ' urbanisation et Paris .
Features :: Feature-Counts :: Feature-Lemmas
--------------------------------------------
marqueurs :: 2 :: [ paraître, mieux ]
appreciatif :: 1 :: [ mieux ]
axiologique :: 1 :: [ mieux ]
epistemique :: 1 :: [ paraître ]
marqueurs_niveau3 :: 1 :: [ paraître ]
marqueurs_niveau2 :: 1 :: [ mieux ]
appreciatif_niveau2 :: 1 :: [ mieux ]
axiologique_niveau2 :: 1 :: [ mieux ]
epistemique_niveau3 :: 1 :: [ paraître ]
Total feature counts: 10


====== Text Level Features ======

Features :: Feature-Counts :: Feature-Lemmas
--------------------------------------------
marqueurs :: 2 :: [ paraître, mieux ]
appreciatif :: 1 :: [ mieux ]
axiologique :: 1 :: [ mieux ]
epistemique :: 1 :: [ paraître ]
marqueurs_niveau3 :: 1 :: [ paraître ]
marqueurs_niveau2 :: 1 :: [ mieux ]
appreciatif_niveau2 :: 1 :: [ mieux ]
axiologique_niveau2 :: 1 :: [ mieux ]
epistemique_niveau3 :: 1 :: [ paraître ]
Total feature counts: 10

