====== Sentence Level Features ======

1. Sentence: Le processus de substitution n ' est pas simplement déductif , et dans le travail de transformation des traces par le dessin , je retrouve le plaisir des «jardins élémentaires» .
Features :: Feature-Counts :: Feature-Lemmas
--------------------------------------------
marqueurs :: 2 :: [ travail, plaisir ]
appreciatif :: 2 :: [ travail, plaisir ]
marqueurs_niveau3 :: 2 :: [ travail, plaisir ]
appreciatif_niveau3 :: 2 :: [ travail, plaisir ]
Total feature counts: 8


====== Text Level Features ======

Features :: Feature-Counts :: Feature-Lemmas
--------------------------------------------
marqueurs :: 2 :: [ travail, plaisir ]
appreciatif :: 2 :: [ travail, plaisir ]
marqueurs_niveau3 :: 2 :: [ travail, plaisir ]
appreciatif_niveau3 :: 2 :: [ travail, plaisir ]
Total feature counts: 8

