
********** Entity Names Features **********
*******************************************

1. Sentence: c ’ est après seulement que les terrains d ' intervalle se lotissent si bien que grosso modo je ne crois pas que nous nous éloignions beaucoup .
No features found.


********** Emotions Features **********
***************************************

1. Sentence: c ’ est après seulement que les terrains d ' intervalle se lotissent si bien que grosso modo je ne crois pas que nous nous éloignions beaucoup .
No features found.


********** Modality Features **********
***************************************

1. Sentence: c ’ est après seulement que les terrains d ' intervalle se lotissent si bien que grosso modo je ne crois pas que nous nous éloignions beaucoup .
Features :: Feature-Counts :: Feature-Lemmas
--------------------------------------------
marqueurs :: 3 :: [ bien, croire, beaucoup ]
epistemique :: 2 :: [ croire, beaucoup ]
marqueurs_niveau3 :: 2 :: [ bien, croire ]
appreciatif :: 1 :: [ bien ]
axiologique :: 1 :: [ bien ]
marqueurs_niveau1 :: 1 :: [ beaucoup ]
appreciatif_niveau3 :: 1 :: [ bien ]
axiologique_niveau3 :: 1 :: [ bien ]
epistemique_niveau3 :: 1 :: [ croire ]
epistemique_niveau1 :: 1 :: [ beaucoup ]
Total feature counts: 14


********** Adverbiaux Temporels Features **********
********************************************************

1. Sentence: c ’ est après seulement que les terrains d ' intervalle se lotissent si bien que grosso modo je ne crois pas que nous nous éloignions beaucoup .
No features found.

