====== Sentence Level Features ======

1. Sentence: pour certains équipements même , la " desserte " pourra dépasser le million de personnes (1) .
Features :: Feature-Counts :: Feature-Lemmas
--------------------------------------------
marqueurs :: 3 :: [ certain, pouvoir, personne ]
alethique :: 2 :: [ pouvoir, personne ]
epistemique :: 2 :: [ certain, pouvoir ]
marqueurs_niveau3 :: 2 :: [ certain, pouvoir ]
epistemique_niveau3 :: 2 :: [ certain, pouvoir ]
deontique :: 1 :: [ pouvoir ]
marqueurs_niveau2 :: 1 :: [ personne ]
alethique_niveau3 :: 1 :: [ pouvoir ]
alethique_niveau2 :: 1 :: [ personne ]
deontique_niveau3 :: 1 :: [ pouvoir ]
Total feature counts: 16


====== Text Level Features ======

Features :: Feature-Counts :: Feature-Lemmas
--------------------------------------------
marqueurs :: 3 :: [ certain, pouvoir, personne ]
alethique :: 2 :: [ pouvoir, personne ]
epistemique :: 2 :: [ certain, pouvoir ]
marqueurs_niveau3 :: 2 :: [ certain, pouvoir ]
epistemique_niveau3 :: 2 :: [ certain, pouvoir ]
deontique :: 1 :: [ pouvoir ]
marqueurs_niveau2 :: 1 :: [ personne ]
alethique_niveau3 :: 1 :: [ pouvoir ]
alethique_niveau2 :: 1 :: [ personne ]
deontique_niveau3 :: 1 :: [ pouvoir ]
Total feature counts: 16

