====== Sentence Level Features ======

1. Sentence: L ' explosion de la zone la plus dense de l ' agglomération est , on l ' a dit , inévitable;
Features :: Feature-Counts :: Feature-Lemmas
--------------------------------------------
marqueurs :: 2 :: [ explosion, dire ]
boulique :: 1 :: [ dire ]
pas_d_indication :: 1 :: [ explosion ]
marqueurs_niveau3 :: 1 :: [ dire ]
marqueurs_niveau0 :: 1 :: [ explosion ]
boulique_niveau3 :: 1 :: [ dire ]
pas_d_indication_niveau0 :: 1 :: [ explosion ]
Total feature counts: 8


====== Text Level Features ======

Features :: Feature-Counts :: Feature-Lemmas
--------------------------------------------
marqueurs :: 2 :: [ explosion, dire ]
boulique :: 1 :: [ dire ]
pas_d_indication :: 1 :: [ explosion ]
marqueurs_niveau3 :: 1 :: [ dire ]
marqueurs_niveau0 :: 1 :: [ explosion ]
boulique_niveau3 :: 1 :: [ dire ]
pas_d_indication_niveau0 :: 1 :: [ explosion ]
Total feature counts: 8

