
********** Entity Names Features **********
*******************************************

1. Sentence: Une « inégalité » procède toujours d ' un point de vue particulier .
Entity Name (Type) :: Une (LOC)


********** Emotions Features **********
***************************************

1. Sentence: Une « inégalité » procède toujours d ' un point de vue particulier .
No features found.


********** Modality Features **********
***************************************

1. Sentence: Une « inégalité » procède toujours d ' un point de vue particulier .
Features :: Feature-Counts :: Feature-Lemmas
--------------------------------------------
marqueurs :: 2 :: [ inégalité, toujours ]
alethique :: 1 :: [ toujours ]
pas_d_indication :: 1 :: [ inégalité ]
marqueurs_niveau3 :: 1 :: [ toujours ]
marqueurs_niveau0 :: 1 :: [ inégalité ]
alethique_niveau3 :: 1 :: [ toujours ]
pas_d_indication_niveau0 :: 1 :: [ inégalité ]
Total feature counts: 8


********** Adverbiaux Temporels Features **********
********************************************************

1. Sentence: Une « inégalité » procède toujours d ' un point de vue particulier .
Features :: Feature-Counts :: Feature-Texts
--------------------------------------------
adverbiaux_temporels::1::['toujours']
adverbiaux_duratifs_iteratifs::1::['toujours']

