
********** Entity Names Features **********
*******************************************

1. Sentence: L ' économie émergente sera plus fluide , plus légère et plus collabora‑ tive .
Entity Name (Type) :: L (LOC)


********** Emotions Features **********
***************************************

1. Sentence: L ' économie émergente sera plus fluide , plus légère et plus collabora‑ tive .
No features found.


********** Modality Features **********
***************************************

1. Sentence: L ' économie émergente sera plus fluide , plus légère et plus collabora‑ tive .
No features found.


********** Adverbiaux Temporels Features **********
********************************************************

1. Sentence: L ' économie émergente sera plus fluide , plus légère et plus collabora‑ tive .
No features found.

