====== Sentence Level Features ======

1. Sentence: - Beauchamp doit accueillir le principal des centres urbains de la " vallée de Montmorency " proprement dite avec des établissements d ' enseignement , des activités tertiaires , immeubles de bureaux et centre commercial .
Features :: Feature-Counts :: Feature-Lemmas
--------------------------------------------
marqueurs :: 2 :: [ devoir, dire ]
marqueurs_niveau3 :: 2 :: [ devoir, dire ]
alethique :: 1 :: [ devoir ]
boulique :: 1 :: [ dire ]
deontique :: 1 :: [ devoir ]
epistemique :: 1 :: [ devoir ]
alethique_niveau3 :: 1 :: [ devoir ]
boulique_niveau3 :: 1 :: [ dire ]
deontique_niveau3 :: 1 :: [ devoir ]
epistemique_niveau3 :: 1 :: [ devoir ]
Total feature counts: 12


====== Text Level Features ======

Features :: Feature-Counts :: Feature-Lemmas
--------------------------------------------
marqueurs :: 2 :: [ devoir, dire ]
marqueurs_niveau3 :: 2 :: [ devoir, dire ]
alethique :: 1 :: [ devoir ]
boulique :: 1 :: [ dire ]
deontique :: 1 :: [ devoir ]
epistemique :: 1 :: [ devoir ]
alethique_niveau3 :: 1 :: [ devoir ]
boulique_niveau3 :: 1 :: [ dire ]
deontique_niveau3 :: 1 :: [ devoir ]
epistemique_niveau3 :: 1 :: [ devoir ]
Total feature counts: 12

