====== Sentence Level Features ======

1. Sentence: Les villes marocaines m ' apparaissent aujourd ' hui comme des preuves de la légitimité de cette façon de penser la fabrique de la ville , que je ne faisais que pressentir alors , dans une conscience inachevée .
Features :: Feature-Counts :: Feature-Lemmas
--------------------------------------------
marqueurs :: 2 :: [ preuve, penser ]
epistemique :: 1 :: [ penser ]
pas_d_indication :: 1 :: [ preuve ]
marqueurs_niveau3 :: 1 :: [ penser ]
marqueurs_niveau0 :: 1 :: [ preuve ]
epistemique_niveau3 :: 1 :: [ penser ]
pas_d_indication_niveau0 :: 1 :: [ preuve ]
Total feature counts: 8


====== Text Level Features ======

Features :: Feature-Counts :: Feature-Lemmas
--------------------------------------------
marqueurs :: 2 :: [ preuve, penser ]
epistemique :: 1 :: [ penser ]
pas_d_indication :: 1 :: [ preuve ]
marqueurs_niveau3 :: 1 :: [ penser ]
marqueurs_niveau0 :: 1 :: [ preuve ]
epistemique_niveau3 :: 1 :: [ penser ]
pas_d_indication_niveau0 :: 1 :: [ preuve ]
Total feature counts: 8

