
********** Entity Names Features **********
*******************************************

1. Sentence: ESPACES LIBRES 
PARCS - FORÊTS - TERRAINS RÉSERVÉS .
Entity Name (Type) :: TERRAINS RÉSERVÉS (ORG)


********** Emotions Features **********
***************************************

1. Sentence: ESPACES LIBRES 
PARCS - FORÊTS - TERRAINS RÉSERVÉS .
No features found.


********** Modality Features **********
***************************************

1. Sentence: ESPACES LIBRES 
PARCS - FORÊTS - TERRAINS RÉSERVÉS .
No features found.


********** Adverbiaux Temporels Features **********
********************************************************

1. Sentence: ESPACES LIBRES 
PARCS - FORÊTS - TERRAINS RÉSERVÉS .
No features found.

