====== Sentence Level Features ======

1. Sentence: par M . DELOUVRIER Le 8 Juillet 1968
Features :: Feature-Counts :: Feature-Texts
--------------------------------------------
adverbiaux_temporels::1::['Le 8 Juillet 1968']
adverbiaux_localisation_temporelle::1::['Le 8 Juillet 1968']
adverbiaux_pointage_absolu::1::['Le 8 Juillet 1968']
adverbiaux_pointage_non_absolu::1::['Le 8 Juillet 1968']
adverbiaux_loc_temp_focalisation_id::1::['Le 8 Juillet 1968']
adverbiaux_loc_temp_regionalisation_id::1::['Le 8 Juillet 1968']
adverbiaux_loc_temp_pointage_non_absolu::1::['Le 8 Juillet 1968']
adverbiaux_dur_iter_absolu::1::['Le 8 Juillet 1968']


====== Text Level Features ======

Features :: Feature-Counts :: Feature-Texts
--------------------------------------------
adverbiaux_temporels::1::['Le 8 Juillet 1968']
adverbiaux_localisation_temporelle::1::['Le 8 Juillet 1968']
adverbiaux_pointage_absolu::1::['Le 8 Juillet 1968']
adverbiaux_pointage_non_absolu::1::['Le 8 Juillet 1968']
adverbiaux_loc_temp_focalisation_id::1::['Le 8 Juillet 1968']
adverbiaux_loc_temp_regionalisation_id::1::['Le 8 Juillet 1968']
adverbiaux_loc_temp_pointage_non_absolu::1::['Le 8 Juillet 1968']
adverbiaux_dur_iter_absolu::1::['Le 8 Juillet 1968']
Total feature counts: 8

