
********** Entity Names Features **********
*******************************************

1. Sentence: le Délégué général " est chargé de proposer au Gouvernement et de coordonner la politique de l ' aménagement et de l ' équipement de la région de Paris (art . 1) .
Entity Name (Type) :: Paris (LOC)


********** Emotions Features **********
***************************************

1. Sentence: le Délégué général " est chargé de proposer au Gouvernement et de coordonner la politique de l ' aménagement et de l ' équipement de la région de Paris (art . 1) .
No features found.


********** Modality Features **********
***************************************

1. Sentence: le Délégué général " est chargé de proposer au Gouvernement et de coordonner la politique de l ' aménagement et de l ' équipement de la région de Paris (art . 1) .
No features found.


********** Adverbiaux Temporels Features **********
********************************************************

1. Sentence: le Délégué général " est chargé de proposer au Gouvernement et de coordonner la politique de l ' aménagement et de l ' équipement de la région de Paris (art . 1) .
No features found.

