====== Sentence Level Features ======

1. Sentence: Cette conscience est en passe de devenir une souffrance écologique , avec l ' expérience d ' une pandémie qui a stoppé , confiné l ' humanité et continue à le faire .
Features :: Feature-Counts :: Feature-Lemmas
--------------------------------------------
marqueurs :: 1 :: [ souffrance ]
appreciatif :: 1 :: [ souffrance ]
marqueurs_niveau3 :: 1 :: [ souffrance ]
appreciatif_niveau3 :: 1 :: [ souffrance ]
Total feature counts: 4


====== Text Level Features ======

Features :: Feature-Counts :: Feature-Lemmas
--------------------------------------------
marqueurs :: 1 :: [ souffrance ]
appreciatif :: 1 :: [ souffrance ]
marqueurs_niveau3 :: 1 :: [ souffrance ]
appreciatif_niveau3 :: 1 :: [ souffrance ]
Total feature counts: 4

