====== Sentence Level Features ======

1. Sentence: Commerces de gros	 . . 	89	88	82	86	83	80
Features :: Feature-Counts :: Feature-Lemmas
--------------------------------------------
marqueurs :: 1 :: [ gros ]
epistemique :: 1 :: [ gros ]
marqueurs_niveau2 :: 1 :: [ gros ]
epistemique_niveau2 :: 1 :: [ gros ]
Total feature counts: 4


====== Text Level Features ======

Features :: Feature-Counts :: Feature-Lemmas
--------------------------------------------
marqueurs :: 1 :: [ gros ]
epistemique :: 1 :: [ gros ]
marqueurs_niveau2 :: 1 :: [ gros ]
epistemique_niveau2 :: 1 :: [ gros ]
Total feature counts: 4

