====== Sentence Level Features ======

1. Sentence: le quartier d ’ habitation c ’ est une chose relativement simple , élémentaire , relativement facile à concevoir ;
Features :: Feature-Counts :: Feature-Lemmas
--------------------------------------------
marqueurs :: 1 :: [ facile ]
appreciatif :: 1 :: [ facile ]
epistemique :: 1 :: [ facile ]
marqueurs_niveau2 :: 1 :: [ facile ]
appreciatif_niveau2 :: 1 :: [ facile ]
epistemique_niveau2 :: 1 :: [ facile ]
Total feature counts: 6


====== Text Level Features ======

Features :: Feature-Counts :: Feature-Lemmas
--------------------------------------------
marqueurs :: 1 :: [ facile ]
appreciatif :: 1 :: [ facile ]
epistemique :: 1 :: [ facile ]
marqueurs_niveau2 :: 1 :: [ facile ]
appreciatif_niveau2 :: 1 :: [ facile ]
epistemique_niveau2 :: 1 :: [ facile ]
Total feature counts: 6

