====== Sentence Level Features ======

1. Sentence: Nous avons démontré que le luxe permettait des innovations tels l ' ascenseur , le gaz à l ' étage , la télévision dans la chambre à coucher .
Features :: Feature-Counts :: Feature-Lemmas
--------------------------------------------
marqueurs :: 1 :: [ permettre ]
deontique :: 1 :: [ permettre ]
marqueurs_niveau3 :: 1 :: [ permettre ]
deontique_niveau3 :: 1 :: [ permettre ]
Total feature counts: 4


====== Text Level Features ======

Features :: Feature-Counts :: Feature-Lemmas
--------------------------------------------
marqueurs :: 1 :: [ permettre ]
deontique :: 1 :: [ permettre ]
marqueurs_niveau3 :: 1 :: [ permettre ]
deontique_niveau3 :: 1 :: [ permettre ]
Total feature counts: 4

