
********** Entity Names Features **********
*******************************************

1. Sentence: Dans les banlieues américaines , le pourcentage des migrations alternantes effectué en voiture par les personnes travaillant dans ces banlieues n ' est jamais inférieur à 60 % .
No features found.


********** Emotions Features **********
***************************************

1. Sentence: Dans les banlieues américaines , le pourcentage des migrations alternantes effectué en voiture par les personnes travaillant dans ces banlieues n ' est jamais inférieur à 60 % .
No features found.


********** Modality Features **********
***************************************

1. Sentence: Dans les banlieues américaines , le pourcentage des migrations alternantes effectué en voiture par les personnes travaillant dans ces banlieues n ' est jamais inférieur à 60 % .
Features :: Feature-Counts :: Feature-Lemmas
--------------------------------------------
marqueurs :: 3 :: [ personne, travailler, jamais ]
alethique :: 2 :: [ personne, jamais ]
marqueurs_niveau2 :: 2 :: [ personne, travailler ]
appreciatif :: 1 :: [ travailler ]
marqueurs_niveau3 :: 1 :: [ jamais ]
alethique_niveau3 :: 1 :: [ jamais ]
alethique_niveau2 :: 1 :: [ personne ]
appreciatif_niveau2 :: 1 :: [ travailler ]
Total feature counts: 12


********** Adverbiaux Temporels Features **********
********************************************************

1. Sentence: Dans les banlieues américaines , le pourcentage des migrations alternantes effectué en voiture par les personnes travaillant dans ces banlieues n ' est jamais inférieur à 60 % .
Features :: Feature-Counts :: Feature-Texts
--------------------------------------------
adverbiaux_temporels::1::['jamais']
adverbiaux_purement_iteratifs::1::['jamais']
adverbiaux_iterateur_frequentiel::1::['jamais']

