
********** Entity Names Features **********
*******************************************

1. Sentence: (2) Organismes·d ' H . L . M . et filiales de la Caisse des Dépôts .
Entity Name (Type) :: Caisse des Dépôts (ORG)


********** Emotions Features **********
***************************************

1. Sentence: (2) Organismes·d ' H . L . M . et filiales de la Caisse des Dépôts .
No features found.


********** Modality Features **********
***************************************

1. Sentence: (2) Organismes·d ' H . L . M . et filiales de la Caisse des Dépôts .
No features found.


********** Adverbiaux Temporels Features **********
********************************************************

1. Sentence: (2) Organismes·d ' H . L . M . et filiales de la Caisse des Dépôts .
No features found.

