
********** Entity Names Features **********
*******************************************

1. Sentence: il a toujours la relativité de s ' inscrire dans un espace qu ' il faut comprendre et connaître , dans une dynamique qu ' il faut accompagner .
No features found.


********** Emotions Features **********
***************************************

1. Sentence: il a toujours la relativité de s ' inscrire dans un espace qu ' il faut comprendre et connaître , dans une dynamique qu ' il faut accompagner .
No features found.


********** Modality Features **********
***************************************

1. Sentence: il a toujours la relativité de s ' inscrire dans un espace qu ' il faut comprendre et connaître , dans une dynamique qu ' il faut accompagner .
Features :: Feature-Counts :: Feature-Lemmas
--------------------------------------------
marqueurs :: 4 :: [ toujours, falloir, connaître, falloir ]
marqueurs_niveau3 :: 3 :: [ toujours, falloir, falloir ]
deontique :: 2 :: [ falloir, falloir ]
deontique_niveau3 :: 2 :: [ falloir, falloir ]
alethique :: 1 :: [ toujours ]
epistemique :: 1 :: [ connaître ]
marqueurs_niveau2 :: 1 :: [ connaître ]
alethique_niveau3 :: 1 :: [ toujours ]
epistemique_niveau2 :: 1 :: [ connaître ]
Total feature counts: 16


********** Adverbiaux Temporels Features **********
********************************************************

1. Sentence: il a toujours la relativité de s ' inscrire dans un espace qu ' il faut comprendre et connaître , dans une dynamique qu ' il faut accompagner .
Features :: Feature-Counts :: Feature-Texts
--------------------------------------------
adverbiaux_temporels::1::['toujours']
adverbiaux_duratifs_iteratifs::1::['toujours']

