====== Sentence Level Features ======

1. Sentence: par rapport au taux annuel de 1 , 8 % constaté à la fois pour Paris et pour l ' ensemble des villes de France entre 1954 et 1962 , les évolutions prévues représentent un ralentissement de la croissance de la région de Paris et une accélération de la croissance des autres agglomérations .
Features :: Feature-Counts :: Feature-Texts
--------------------------------------------
adverbiaux_temporels::1::['entre 1954 et 1962']
adverbiaux_duratifs_iteratifs::1::['entre 1954 et 1962']
adverbiaux_pointage_absolu::1::['entre 1954 et 1962']
adverbiaux_dur_iter_absolu::1::['entre 1954 et 1962']


====== Text Level Features ======

Features :: Feature-Counts :: Feature-Texts
--------------------------------------------
adverbiaux_temporels::1::['entre 1954 et 1962']
adverbiaux_duratifs_iteratifs::1::['entre 1954 et 1962']
adverbiaux_pointage_absolu::1::['entre 1954 et 1962']
adverbiaux_dur_iter_absolu::1::['entre 1954 et 1962']
Total feature counts: 4

