====== Sentence Level Features ======

1. Sentence: Le projet urbain de Lyon Confluence prend corps avec Gérard Collomb , élu maire en 2001 , dont la priorité va à la mise en valeur rapide des potentialités du site .
Features :: Feature-Counts :: Feature-Lemmas
--------------------------------------------
marqueurs :: 3 :: [ élire, aller, rapide ]
alethique :: 1 :: [ aller ]
epistemique :: 1 :: [ rapide ]
pas_d_indication :: 1 :: [ élire ]
marqueurs_niveau3 :: 1 :: [ rapide ]
marqueurs_niveau1 :: 1 :: [ aller ]
marqueurs_niveau0 :: 1 :: [ élire ]
alethique_niveau1 :: 1 :: [ aller ]
epistemique_niveau3 :: 1 :: [ rapide ]
pas_d_indication_niveau0 :: 1 :: [ élire ]
Total feature counts: 12


====== Text Level Features ======

Features :: Feature-Counts :: Feature-Lemmas
--------------------------------------------
marqueurs :: 3 :: [ élire, aller, rapide ]
alethique :: 1 :: [ aller ]
epistemique :: 1 :: [ rapide ]
pas_d_indication :: 1 :: [ élire ]
marqueurs_niveau3 :: 1 :: [ rapide ]
marqueurs_niveau1 :: 1 :: [ aller ]
marqueurs_niveau0 :: 1 :: [ élire ]
alethique_niveau1 :: 1 :: [ aller ]
epistemique_niveau3 :: 1 :: [ rapide ]
pas_d_indication_niveau0 :: 1 :: [ élire ]
Total feature counts: 12

