
********** Entity Names Features **********
*******************************************

1. Sentence: Chacun analysait des entretiens , des « rêves éveillés » , menés en grand nombre auprès des habitants .
No features found.


********** Emotions Features **********
***************************************

1. Sentence: Chacun analysait des entretiens , des « rêves éveillés » , menés en grand nombre auprès des habitants .
No features found.


********** Modality Features **********
***************************************

1. Sentence: Chacun analysait des entretiens , des « rêves éveillés » , menés en grand nombre auprès des habitants .
Features :: Feature-Counts :: Feature-Lemmas
--------------------------------------------
marqueurs :: 2 :: [ rêve, grand ]
alethique :: 1 :: [ rêve ]
appreciatif :: 1 :: [ rêve ]
epistemique :: 1 :: [ grand ]
marqueurs_niveau3 :: 1 :: [ grand ]
marqueurs_niveau1 :: 1 :: [ rêve ]
alethique_niveau1 :: 1 :: [ rêve ]
appreciatif_niveau1 :: 1 :: [ rêve ]
epistemique_niveau3 :: 1 :: [ grand ]
Total feature counts: 10


********** Adverbiaux Temporels Features **********
********************************************************

1. Sentence: Chacun analysait des entretiens , des « rêves éveillés » , menés en grand nombre auprès des habitants .
No features found.

