
********** Entity Names Features **********
*******************************************

1. Sentence: S ' ils ont servi parfois de structure à la croissance des villes , leur typologie est transposable , à rebours , pour constituer une structure aux étalements urbains contemporains .
Entity Name (Type) :: S (LOC)


********** Emotions Features **********
***************************************

1. Sentence: S ' ils ont servi parfois de structure à la croissance des villes , leur typologie est transposable , à rebours , pour constituer une structure aux étalements urbains contemporains .
No features found.


********** Modality Features **********
***************************************

1. Sentence: S ' ils ont servi parfois de structure à la croissance des villes , leur typologie est transposable , à rebours , pour constituer une structure aux étalements urbains contemporains .
Features :: Feature-Counts :: Feature-Lemmas
--------------------------------------------
marqueurs :: 1 :: [ parfois ]
alethique :: 1 :: [ parfois ]
marqueurs_niveau3 :: 1 :: [ parfois ]
alethique_niveau3 :: 1 :: [ parfois ]
Total feature counts: 4


********** Adverbiaux Temporels Features **********
********************************************************

1. Sentence: S ' ils ont servi parfois de structure à la croissance des villes , leur typologie est transposable , à rebours , pour constituer une structure aux étalements urbains contemporains .
Features :: Feature-Counts :: Feature-Texts
--------------------------------------------
adverbiaux_temporels::1::['parfois']
adverbiaux_purement_iteratifs::1::['parfois']
adverbiaux_iterateur_frequentiel::1::['parfois']

