====== Sentence Level Features ======

1. Sentence: Nous avons choisi de ne pas occuper la totalité du site proposé , mais plutôt de dessiner un parcours , une ligne complexe .
Features :: Feature-Counts :: Feature-Lemmas
--------------------------------------------
marqueurs :: 1 :: [ choisir ]
boulique :: 1 :: [ choisir ]
marqueurs_niveau2 :: 1 :: [ choisir ]
boulique_niveau2 :: 1 :: [ choisir ]
Total feature counts: 4


====== Text Level Features ======

Features :: Feature-Counts :: Feature-Lemmas
--------------------------------------------
marqueurs :: 1 :: [ choisir ]
boulique :: 1 :: [ choisir ]
marqueurs_niveau2 :: 1 :: [ choisir ]
boulique_niveau2 :: 1 :: [ choisir ]
Total feature counts: 4

