
********** Entity Names Features **********
*******************************************

1. Sentence: Il ne s ' agit pas de les restaurer mais de transposer le «langage paysager» à d ' autres échelles , pour d ' autres usages .
No features found.


********** Emotions Features **********
***************************************

1. Sentence: Il ne s ' agit pas de les restaurer mais de transposer le «langage paysager» à d ' autres échelles , pour d ' autres usages .
No features found.


********** Modality Features **********
***************************************

1. Sentence: Il ne s ' agit pas de les restaurer mais de transposer le «langage paysager» à d ' autres échelles , pour d ' autres usages .
No features found.


********** Adverbiaux Temporels Features **********
********************************************************

1. Sentence: Il ne s ' agit pas de les restaurer mais de transposer le «langage paysager» à d ' autres échelles , pour d ' autres usages .
No features found.

