
********** Entity Names Features **********
*******************************************

2. Sentence: Il faut impliquer les acteurs — tous les acteurs — avec leurs différentes expertises  : élus , universitaires , acteur économiques , militants associatifs , citoyens , usagers…
No features found.


********** Emotions Features **********
***************************************

2. Sentence: Il faut impliquer les acteurs — tous les acteurs — avec leurs différentes expertises  : élus , universitaires , acteur économiques , militants associatifs , citoyens , usagers…
No features found.


********** Modality Features **********
***************************************

2. Sentence: Il faut impliquer les acteurs — tous les acteurs — avec leurs différentes expertises  : élus , universitaires , acteur économiques , militants associatifs , citoyens , usagers…
Features :: Feature-Counts :: Feature-Lemmas
--------------------------------------------
marqueurs :: 2 :: [ falloir, élu ]
deontique :: 1 :: [ falloir ]
pas_d_indication :: 1 :: [ élu ]
marqueurs_niveau3 :: 1 :: [ falloir ]
marqueurs_niveau0 :: 1 :: [ élu ]
deontique_niveau3 :: 1 :: [ falloir ]
pas_d_indication_niveau0 :: 1 :: [ élu ]
Total feature counts: 8


********** Adverbiaux Temporels Features **********
********************************************************

2. Sentence: Il faut impliquer les acteurs — tous les acteurs — avec leurs différentes expertises  : élus , universitaires , acteur économiques , militants associatifs , citoyens , usagers…
No features found.

