
********** Entity Names Features **********
*******************************************

1. Sentence: Cela déterminait un peu de tension .
No features found.


********** Emotions Features **********
***************************************

1. Sentence: Cela déterminait un peu de tension .
Tokens having emotion: [ déterminait, tension ]
Lemmas having emotion: [ déterminer, tension ]
Categories of the emotion lemmas: [ audace, deplaisir ]


********** Modality Features **********
***************************************

1. Sentence: Cela déterminait un peu de tension .
No features found.


********** Adverbiaux Temporels Features **********
********************************************************

1. Sentence: Cela déterminait un peu de tension .
No features found.

