
********** Entity Names Features **********
*******************************************

1. Sentence: b) L ' utilisation des moyens de transport
No features found.


********** Emotions Features **********
***************************************

1. Sentence: b) L ' utilisation des moyens de transport
No features found.


********** Modality Features **********
***************************************

1. Sentence: b) L ' utilisation des moyens de transport
No features found.


********** Adverbiaux Temporels Features **********
********************************************************

1. Sentence: b) L ' utilisation des moyens de transport
No features found.

