
********** Entity Names Features **********
*******************************************

1. Sentence: Le nouveau ministre de la Cohésion des territoires a pris une position très claire  : « Ne comptez pas sur moi , pour opposer le rural à l ' urbain » a-t-il dit .
Entity Name (Type) :: ministre de la Cohésion des territoires (ORG)


********** Emotions Features **********
***************************************

1. Sentence: Le nouveau ministre de la Cohésion des territoires a pris une position très claire  : « Ne comptez pas sur moi , pour opposer le rural à l ' urbain » a-t-il dit .
No features found.


********** Modality Features **********
***************************************

1. Sentence: Le nouveau ministre de la Cohésion des territoires a pris une position très claire  : « Ne comptez pas sur moi , pour opposer le rural à l ' urbain » a-t-il dit .
Features :: Feature-Counts :: Feature-Lemmas
--------------------------------------------
marqueurs :: 2 :: [ lui, dire ]
marqueurs_niveau3 :: 2 :: [ lui, dire ]
alethique :: 1 :: [ lui ]
boulique :: 1 :: [ dire ]
epistemique :: 1 :: [ lui ]
alethique_niveau3 :: 1 :: [ lui ]
boulique_niveau3 :: 1 :: [ dire ]
epistemique_niveau3 :: 1 :: [ lui ]
Total feature counts: 10


********** Adverbiaux Temporels Features **********
********************************************************

1. Sentence: Le nouveau ministre de la Cohésion des territoires a pris une position très claire  : « Ne comptez pas sur moi , pour opposer le rural à l ' urbain » a-t-il dit .
No features found.

