
********** Entity Names Features **********
*******************************************

1. Sentence: services publics , voirie , industries couvrent plus du tiers , et espaces verts , terrains agricoles et terrains inutilisés le dernier tiers .
No features found.


********** Emotions Features **********
***************************************

1. Sentence: services publics , voirie , industries couvrent plus du tiers , et espaces verts , terrains agricoles et terrains inutilisés le dernier tiers .
No features found.


********** Modality Features **********
***************************************

1. Sentence: services publics , voirie , industries couvrent plus du tiers , et espaces verts , terrains agricoles et terrains inutilisés le dernier tiers .
No features found.


********** Adverbiaux Temporels Features **********
********************************************************

1. Sentence: services publics , voirie , industries couvrent plus du tiers , et espaces verts , terrains agricoles et terrains inutilisés le dernier tiers .
No features found.

