====== Sentence Level Features ======

1. Sentence: Quoique villes parfois rivales , Rouen et le Havre constituent ensemble le deuxième port de France (3);
Features :: Feature-Counts :: Feature-Lemmas
--------------------------------------------
marqueurs :: 1 :: [ parfois ]
alethique :: 1 :: [ parfois ]
marqueurs_niveau3 :: 1 :: [ parfois ]
alethique_niveau3 :: 1 :: [ parfois ]
Total feature counts: 4


====== Text Level Features ======

Features :: Feature-Counts :: Feature-Lemmas
--------------------------------------------
marqueurs :: 1 :: [ parfois ]
alethique :: 1 :: [ parfois ]
marqueurs_niveau3 :: 1 :: [ parfois ]
alethique_niveau3 :: 1 :: [ parfois ]
Total feature counts: 4

