
********** Entity Names Features **********
*******************************************

1. Sentence: Le projet est le meilleur vecteur de communication et d ' échanges .
No features found.


********** Emotions Features **********
***************************************

1. Sentence: Le projet est le meilleur vecteur de communication et d ' échanges .
No features found.


********** Modality Features **********
***************************************

1. Sentence: Le projet est le meilleur vecteur de communication et d ' échanges .
Features :: Feature-Counts :: Feature-Lemmas
--------------------------------------------
marqueurs :: 1 :: [ meilleur ]
appreciatif :: 1 :: [ meilleur ]
axiologique :: 1 :: [ meilleur ]
marqueurs_niveau2 :: 1 :: [ meilleur ]
appreciatif_niveau2 :: 1 :: [ meilleur ]
axiologique_niveau2 :: 1 :: [ meilleur ]
Total feature counts: 6


********** Adverbiaux Temporels Features **********
********************************************************

1. Sentence: Le projet est le meilleur vecteur de communication et d ' échanges .
No features found.

