
********** Entity Names Features **********
*******************************************

1. Sentence: Le processus où l ' urbaniste dessine d ' abord et où l ' on regarde après quels sont les impacts environnementaux est dépassé .
No features found.


********** Emotions Features **********
***************************************

1. Sentence: Le processus où l ' urbaniste dessine d ' abord et où l ' on regarde après quels sont les impacts environnementaux est dépassé .
No features found.


********** Modality Features **********
***************************************

1. Sentence: Le processus où l ' urbaniste dessine d ' abord et où l ' on regarde après quels sont les impacts environnementaux est dépassé .
No features found.


********** Adverbiaux Temporels Features **********
********************************************************

1. Sentence: Le processus où l ' urbaniste dessine d ' abord et où l ' on regarde après quels sont les impacts environnementaux est dépassé .
No features found.

