
********** Entity Names Features **********
*******************************************

1. Sentence: Rambouillet , Étampes , Arpajon , Dourdan , Montereau , Fontainebleau , Provins , Coulommiers , Nemours , Nangis . . . se trouvent à l ' écart des grands axes d ' urbanisation définis au schéma directeur .
Entity Name (Type) :: Nangis (LOC)


********** Emotions Features **********
***************************************

1. Sentence: Rambouillet , Étampes , Arpajon , Dourdan , Montereau , Fontainebleau , Provins , Coulommiers , Nemours , Nangis . . . se trouvent à l ' écart des grands axes d ' urbanisation définis au schéma directeur .
No features found.


********** Modality Features **********
***************************************

1. Sentence: Rambouillet , Étampes , Arpajon , Dourdan , Montereau , Fontainebleau , Provins , Coulommiers , Nemours , Nangis . . . se trouvent à l ' écart des grands axes d ' urbanisation définis au schéma directeur .
Features :: Feature-Counts :: Feature-Lemmas
--------------------------------------------
marqueurs :: 1 :: [ grand ]
epistemique :: 1 :: [ grand ]
marqueurs_niveau3 :: 1 :: [ grand ]
epistemique_niveau3 :: 1 :: [ grand ]
Total feature counts: 4


********** Adverbiaux Temporels Features **********
********************************************************

1. Sentence: Rambouillet , Étampes , Arpajon , Dourdan , Montereau , Fontainebleau , Provins , Coulommiers , Nemours , Nangis . . . se trouvent à l ' écart des grands axes d ' urbanisation définis au schéma directeur .
No features found.

