
********** Entity Names Features **********
*******************************************

1. Sentence: Mais , il faut le répéter , l ' objectif final ne peut être purement quantitatif .
No features found.


********** Emotions Features **********
***************************************

1. Sentence: Mais , il faut le répéter , l ' objectif final ne peut être purement quantitatif .
No features found.


********** Modality Features **********
***************************************

1. Sentence: Mais , il faut le répéter , l ' objectif final ne peut être purement quantitatif .
Features :: Feature-Counts :: Feature-Lemmas
--------------------------------------------
marqueurs :: 2 :: [ falloir, pouvoir ]
deontique :: 2 :: [ falloir, pouvoir ]
marqueurs_niveau3 :: 2 :: [ falloir, pouvoir ]
deontique_niveau3 :: 2 :: [ falloir, pouvoir ]
alethique :: 1 :: [ pouvoir ]
epistemique :: 1 :: [ pouvoir ]
alethique_niveau3 :: 1 :: [ pouvoir ]
epistemique_niveau3 :: 1 :: [ pouvoir ]
Total feature counts: 12


********** Adverbiaux Temporels Features **********
********************************************************

1. Sentence: Mais , il faut le répéter , l ' objectif final ne peut être purement quantitatif .
No features found.

