====== Sentence Level Features ======

1. Sentence: La qualité des études Paris !
Entity Name (Type) :: Paris (LOC)


====== Text Level Features ======

Entity Name (Entity Type)
-------------------------
Paris (LOC)
Total entitiy counts: 1

