
********** Entity Names Features **********
*******************************************

1. Sentence: Pour ce secteur destiné à accueillir 14000 emplois et 32000 habitants en 2030 , les études tests de trois équipes de concepteurs s ' étendent sur 8 km .
No features found.


********** Emotions Features **********
***************************************

1. Sentence: Pour ce secteur destiné à accueillir 14000 emplois et 32000 habitants en 2030 , les études tests de trois équipes de concepteurs s ' étendent sur 8 km .
No features found.


********** Modality Features **********
***************************************

1. Sentence: Pour ce secteur destiné à accueillir 14000 emplois et 32000 habitants en 2030 , les études tests de trois équipes de concepteurs s ' étendent sur 8 km .
Features :: Feature-Counts :: Feature-Lemmas
--------------------------------------------
marqueurs :: 1 :: [ emploi ]
appreciatif :: 1 :: [ emploi ]
marqueurs_niveau2 :: 1 :: [ emploi ]
appreciatif_niveau2 :: 1 :: [ emploi ]
Total feature counts: 4


********** Adverbiaux Temporels Features **********
********************************************************

1. Sentence: Pour ce secteur destiné à accueillir 14000 emplois et 32000 habitants en 2030 , les études tests de trois équipes de concepteurs s ' étendent sur 8 km .
Features :: Feature-Counts :: Feature-Texts
--------------------------------------------
adverbiaux_temporels::1::['en 2030']
adverbiaux_localisation_temporelle::1::['en 2030']
adverbiaux_pointage_absolu::1::['en 2030']
adverbiaux_pointage_non_absolu::1::['en 2030']
adverbiaux_loc_temp_focalisation_id::1::['en 2030']
adverbiaux_loc_temp_regionalisation_id::1::['en 2030']
adverbiaux_loc_temp_pointage_non_absolu::1::['en 2030']
adverbiaux_dur_iter_absolu::1::['en 2030']

