
********** Entity Names Features **********
*******************************************

1. Sentence: Mais elle le doit aussi à sa situation géographique qui en fait le point de passage naturel des courants de marchandises circulant des bassins industriels du Nord et de l ' Est vers l ' ouest , le centre et le sud-ouest .
Entity Name (Type) :: Est (LOC)


********** Emotions Features **********
***************************************

1. Sentence: Mais elle le doit aussi à sa situation géographique qui en fait le point de passage naturel des courants de marchandises circulant des bassins industriels du Nord et de l ' Est vers l ' ouest , le centre et le sud-ouest .
No features found.


********** Modality Features **********
***************************************

1. Sentence: Mais elle le doit aussi à sa situation géographique qui en fait le point de passage naturel des courants de marchandises circulant des bassins industriels du Nord et de l ' Est vers l ' ouest , le centre et le sud-ouest .
Features :: Feature-Counts :: Feature-Lemmas
--------------------------------------------
marqueurs :: 1 :: [ devoir ]
alethique :: 1 :: [ devoir ]
deontique :: 1 :: [ devoir ]
epistemique :: 1 :: [ devoir ]
marqueurs_niveau3 :: 1 :: [ devoir ]
alethique_niveau3 :: 1 :: [ devoir ]
deontique_niveau3 :: 1 :: [ devoir ]
epistemique_niveau3 :: 1 :: [ devoir ]
Total feature counts: 8


********** Adverbiaux Temporels Features **********
********************************************************

1. Sentence: Mais elle le doit aussi à sa situation géographique qui en fait le point de passage naturel des courants de marchandises circulant des bassins industriels du Nord et de l ' Est vers l ' ouest , le centre et le sud-ouest .
No features found.

