
********** Entity Names Features **********
*******************************************

1. Sentence: Une manière de lier la raison (les cartes thématiques , du genre : comment arrose-t-on ? ) avec la sensibilité et le plaisir (les fontaines) ;
No features found.


********** Emotions Features **********
***************************************

1. Sentence: Une manière de lier la raison (les cartes thématiques , du genre : comment arrose-t-on ? ) avec la sensibilité et le plaisir (les fontaines) ;
Tokens having emotion: [ sensibilité, plaisir ]
Lemmas having emotion: [ sensibilité, plaisir ]
Categories of the emotion lemmas: [ non_specifiee, joie ]


********** Modality Features **********
***************************************

1. Sentence: Une manière de lier la raison (les cartes thématiques , du genre : comment arrose-t-on ? ) avec la sensibilité et le plaisir (les fontaines) ;
Features :: Feature-Counts :: Feature-Lemmas
--------------------------------------------
marqueurs :: 1 :: [ plaisir ]
appreciatif :: 1 :: [ plaisir ]
marqueurs_niveau3 :: 1 :: [ plaisir ]
appreciatif_niveau3 :: 1 :: [ plaisir ]
Total feature counts: 4


********** Adverbiaux Temporels Features **********
********************************************************

1. Sentence: Une manière de lier la raison (les cartes thématiques , du genre : comment arrose-t-on ? ) avec la sensibilité et le plaisir (les fontaines) ;
No features found.

