====== Sentence Level Features ======

1. Sentence: Paris ou New York sont parmi les villes les plus « vertes » du monde .
Entity Name (Type) :: New York (LOC)


====== Text Level Features ======

Entity Name (Entity Type)
-------------------------
Paris (LOC)
New York (LOC)
Total entitiy counts: 2

