====== Sentence Level Features ======

1. Sentence: Elle deviendrait trop forte et offrirait à ce moment les défauts de la Préfecture de la Seine d ’ être atteinte de gigantisme .
Features :: Feature-Counts :: Feature-Lemmas
--------------------------------------------
marqueurs :: 2 :: [ fort, offrir ]
appreciatif :: 1 :: [ offrir ]
pas_d_indication :: 1 :: [ fort ]
marqueurs_niveau2 :: 1 :: [ offrir ]
marqueurs_niveau0 :: 1 :: [ fort ]
appreciatif_niveau2 :: 1 :: [ offrir ]
pas_d_indication_niveau0 :: 1 :: [ fort ]
Total feature counts: 8


====== Text Level Features ======

Features :: Feature-Counts :: Feature-Lemmas
--------------------------------------------
marqueurs :: 2 :: [ fort, offrir ]
appreciatif :: 1 :: [ offrir ]
pas_d_indication :: 1 :: [ fort ]
marqueurs_niveau2 :: 1 :: [ offrir ]
marqueurs_niveau0 :: 1 :: [ fort ]
appreciatif_niveau2 :: 1 :: [ offrir ]
pas_d_indication_niveau0 :: 1 :: [ fort ]
Total feature counts: 8

