
********** Entity Names Features **********
*******************************************

1. Sentence: Comment avons-nous pu édifier ces structures d ' une incroyable complexité , en équilibre instable permanent entre le chaos et l ' ordre ?
No features found.


********** Emotions Features **********
***************************************

1. Sentence: Comment avons-nous pu édifier ces structures d ' une incroyable complexité , en équilibre instable permanent entre le chaos et l ' ordre ?
No features found.


********** Modality Features **********
***************************************

1. Sentence: Comment avons-nous pu édifier ces structures d ' une incroyable complexité , en équilibre instable permanent entre le chaos et l ' ordre ?
Features :: Feature-Counts :: Feature-Lemmas
--------------------------------------------
marqueurs :: 3 :: [ pouvoir, incroyable, ordre ]
deontique :: 2 :: [ pouvoir, ordre ]
epistemique :: 2 :: [ pouvoir, incroyable ]
marqueurs_niveau2 :: 2 :: [ incroyable, ordre ]
alethique :: 1 :: [ pouvoir ]
appreciatif :: 1 :: [ incroyable ]
marqueurs_niveau3 :: 1 :: [ pouvoir ]
alethique_niveau3 :: 1 :: [ pouvoir ]
appreciatif_niveau2 :: 1 :: [ incroyable ]
deontique_niveau3 :: 1 :: [ pouvoir ]
deontique_niveau2 :: 1 :: [ ordre ]
epistemique_niveau3 :: 1 :: [ pouvoir ]
epistemique_niveau2 :: 1 :: [ incroyable ]
Total feature counts: 18


********** Adverbiaux Temporels Features **********
********************************************************

1. Sentence: Comment avons-nous pu édifier ces structures d ' une incroyable complexité , en équilibre instable permanent entre le chaos et l ' ordre ?
No features found.

