
********** Entity Names Features **********
*******************************************

1. Sentence: Le projet choisi , de Matthieu Poitevin et Stéphane Maupin , prend la forme d ' une longue et légère galerie ponctuée d ' inter ventions artistiques .
Entity Name (Type) :: Stéphane Maupin (PER)


********** Emotions Features **********
***************************************

1. Sentence: Le projet choisi , de Matthieu Poitevin et Stéphane Maupin , prend la forme d ' une longue et légère galerie ponctuée d ' inter ventions artistiques .
No features found.


********** Modality Features **********
***************************************

1. Sentence: Le projet choisi , de Matthieu Poitevin et Stéphane Maupin , prend la forme d ' une longue et légère galerie ponctuée d ' inter ventions artistiques .
Features :: Feature-Counts :: Feature-Lemmas
--------------------------------------------
marqueurs :: 2 :: [ choisir, long ]
marqueurs_niveau2 :: 2 :: [ choisir, long ]
boulique :: 1 :: [ choisir ]
epistemique :: 1 :: [ long ]
boulique_niveau2 :: 1 :: [ choisir ]
epistemique_niveau2 :: 1 :: [ long ]
Total feature counts: 8


********** Adverbiaux Temporels Features **********
********************************************************

1. Sentence: Le projet choisi , de Matthieu Poitevin et Stéphane Maupin , prend la forme d ' une longue et légère galerie ponctuée d ' inter ventions artistiques .
No features found.

