====== Sentence Level Features ======

1. Sentence: L ' organisation des entreprises va se modifier; les activités qui constituent l ' économie parisienne vont évoluer différemment et elles ne sont pas également génératrices de transports de marchandises .
Features :: Feature-Counts :: Feature-Lemmas
--------------------------------------------
marqueurs :: 2 :: [ aller, aller ]
alethique :: 2 :: [ aller, aller ]
marqueurs_niveau1 :: 2 :: [ aller, aller ]
alethique_niveau1 :: 2 :: [ aller, aller ]
Total feature counts: 8


====== Text Level Features ======

Features :: Feature-Counts :: Feature-Lemmas
--------------------------------------------
marqueurs :: 2 :: [ aller, aller ]
alethique :: 2 :: [ aller, aller ]
marqueurs_niveau1 :: 2 :: [ aller, aller ]
alethique_niveau1 :: 2 :: [ aller, aller ]
Total feature counts: 8

