====== Sentence Level Features ======

1. Sentence: Ce juré-là m ' avouait qu ' il n ' avait pas compris comment moi , le «pur» , j ' en étais arrivé là , «chez Apollonia» , le revendiquant de surcroît haut et fort , en donnant même des images pour le dossier officiel ;
Features :: Feature-Counts :: Feature-Lemmas
--------------------------------------------
marqueurs :: 6 :: [ avouer, lui, arriver, revendiquer, haut, fort ]
pas_d_indication :: 3 :: [ avouer, haut, fort ]
marqueurs_niveau0 :: 3 :: [ avouer, haut, fort ]
pas_d_indication_niveau0 :: 3 :: [ avouer, haut, fort ]
alethique :: 2 :: [ lui, arriver ]
boulique :: 1 :: [ revendiquer ]
deontique :: 1 :: [ revendiquer ]
epistemique :: 1 :: [ lui ]
marqueurs_niveau3 :: 1 :: [ lui ]
marqueurs_niveau2 :: 1 :: [ arriver ]
marqueurs_niveau1 :: 1 :: [ revendiquer ]
alethique_niveau3 :: 1 :: [ lui ]
alethique_niveau2 :: 1 :: [ arriver ]
boulique_niveau1 :: 1 :: [ revendiquer ]
deontique_niveau1 :: 1 :: [ revendiquer ]
epistemique_niveau3 :: 1 :: [ lui ]
Total feature counts: 28


====== Text Level Features ======

Features :: Feature-Counts :: Feature-Lemmas
--------------------------------------------
marqueurs :: 6 :: [ avouer, lui, arriver, revendiquer, haut, fort ]
pas_d_indication :: 3 :: [ avouer, haut, fort ]
marqueurs_niveau0 :: 3 :: [ avouer, haut, fort ]
pas_d_indication_niveau0 :: 3 :: [ avouer, haut, fort ]
alethique :: 2 :: [ lui, arriver ]
boulique :: 1 :: [ revendiquer ]
deontique :: 1 :: [ revendiquer ]
epistemique :: 1 :: [ lui ]
marqueurs_niveau3 :: 1 :: [ lui ]
marqueurs_niveau2 :: 1 :: [ arriver ]
marqueurs_niveau1 :: 1 :: [ revendiquer ]
alethique_niveau3 :: 1 :: [ lui ]
alethique_niveau2 :: 1 :: [ arriver ]
boulique_niveau1 :: 1 :: [ revendiquer ]
deontique_niveau1 :: 1 :: [ revendiquer ]
epistemique_niveau3 :: 1 :: [ lui ]
Total feature counts: 28

