====== Sentence Level Features ======

1. Sentence: toutefois , ce droit à l ’ exonération n ’ existe plus , ainsi que nous le verrons plus loin (§ 2 , II) dans les villes dont le plan d ' aménagement a été déclaré d ’ utilité publique en vertu de la loi du 14 Mars 1919 (Rép .
Features :: Feature-Counts :: Feature-Lemmas
--------------------------------------------
marqueurs :: 3 :: [ droit, déclarer, loi ]
deontique :: 2 :: [ droit, loi ]
pas_d_indication :: 1 :: [ déclarer ]
marqueurs_niveau3 :: 1 :: [ droit ]
marqueurs_niveau2 :: 1 :: [ loi ]
marqueurs_niveau0 :: 1 :: [ déclarer ]
deontique_niveau3 :: 1 :: [ droit ]
deontique_niveau2 :: 1 :: [ loi ]
pas_d_indication_niveau0 :: 1 :: [ déclarer ]
Total feature counts: 12


====== Text Level Features ======

Features :: Feature-Counts :: Feature-Lemmas
--------------------------------------------
marqueurs :: 3 :: [ droit, déclarer, loi ]
deontique :: 2 :: [ droit, loi ]
pas_d_indication :: 1 :: [ déclarer ]
marqueurs_niveau3 :: 1 :: [ droit ]
marqueurs_niveau2 :: 1 :: [ loi ]
marqueurs_niveau0 :: 1 :: [ déclarer ]
deontique_niveau3 :: 1 :: [ droit ]
deontique_niveau2 :: 1 :: [ loi ]
pas_d_indication_niveau0 :: 1 :: [ déclarer ]
Total feature counts: 12

