
********** Entity Names Features **********
*******************************************

1. Sentence: » Cela dit , comment faire ?
No features found.


********** Emotions Features **********
***************************************

1. Sentence: » Cela dit , comment faire ?
No features found.


********** Modality Features **********
***************************************

1. Sentence: » Cela dit , comment faire ?
Features :: Feature-Counts :: Feature-Lemmas
--------------------------------------------
marqueurs :: 1 :: [ dire ]
boulique :: 1 :: [ dire ]
marqueurs_niveau3 :: 1 :: [ dire ]
boulique_niveau3 :: 1 :: [ dire ]
Total feature counts: 4


********** Adverbiaux Temporels Features **********
********************************************************

1. Sentence: » Cela dit , comment faire ?
No features found.

