====== Sentence Level Features ======

1. Sentence: Cette confiance est rassérénante , et nous rappelle , comme le suggérait Aalto dès 1972 , que la ville durable est celle qui sait tirer pleinement parti de ce qui a été édifié .
Features :: Feature-Counts :: Feature-Lemmas
--------------------------------------------
marqueurs :: 3 :: [ confiance, savoir, tirer ]
epistemique :: 2 :: [ confiance, savoir ]
pas_d_indication :: 1 :: [ tirer ]
marqueurs_niveau3 :: 1 :: [ savoir ]
marqueurs_niveau2 :: 1 :: [ confiance ]
marqueurs_niveau0 :: 1 :: [ tirer ]
epistemique_niveau3 :: 1 :: [ savoir ]
epistemique_niveau2 :: 1 :: [ confiance ]
pas_d_indication_niveau0 :: 1 :: [ tirer ]
Total feature counts: 12


====== Text Level Features ======

Features :: Feature-Counts :: Feature-Lemmas
--------------------------------------------
marqueurs :: 3 :: [ confiance, savoir, tirer ]
epistemique :: 2 :: [ confiance, savoir ]
pas_d_indication :: 1 :: [ tirer ]
marqueurs_niveau3 :: 1 :: [ savoir ]
marqueurs_niveau2 :: 1 :: [ confiance ]
marqueurs_niveau0 :: 1 :: [ tirer ]
epistemique_niveau3 :: 1 :: [ savoir ]
epistemique_niveau2 :: 1 :: [ confiance ]
pas_d_indication_niveau0 :: 1 :: [ tirer ]
Total feature counts: 12

