====== Sentence Level Features ======

1. Sentence: Un projet est réussi quand , à un moment donné , tout paraît simple et que les décisions s ' enchaînent .
Features :: Feature-Counts :: Feature-Lemmas
--------------------------------------------
marqueurs :: 3 :: [ réussir, paraître, décision ]
epistemique :: 2 :: [ paraître, décision ]
marqueurs_niveau3 :: 2 :: [ réussir, paraître ]
appreciatif :: 1 :: [ réussir ]
boulique :: 1 :: [ décision ]
marqueurs_niveau2 :: 1 :: [ décision ]
appreciatif_niveau3 :: 1 :: [ réussir ]
boulique_niveau2 :: 1 :: [ décision ]
epistemique_niveau3 :: 1 :: [ paraître ]
epistemique_niveau2 :: 1 :: [ décision ]
Total feature counts: 14


====== Text Level Features ======

Features :: Feature-Counts :: Feature-Lemmas
--------------------------------------------
marqueurs :: 3 :: [ réussir, paraître, décision ]
epistemique :: 2 :: [ paraître, décision ]
marqueurs_niveau3 :: 2 :: [ réussir, paraître ]
appreciatif :: 1 :: [ réussir ]
boulique :: 1 :: [ décision ]
marqueurs_niveau2 :: 1 :: [ décision ]
appreciatif_niveau3 :: 1 :: [ réussir ]
boulique_niveau2 :: 1 :: [ décision ]
epistemique_niveau3 :: 1 :: [ paraître ]
epistemique_niveau2 :: 1 :: [ décision ]
Total feature counts: 14

