====== Sentence Level Features ======

1. Sentence: Ce modèle semble en revanche en ﬁn de course en Europe du Nord .
Features :: Feature-Counts :: Feature-Lemmas
--------------------------------------------
marqueurs :: 1 :: [ sembler ]
epistemique :: 1 :: [ sembler ]
marqueurs_niveau3 :: 1 :: [ sembler ]
epistemique_niveau3 :: 1 :: [ sembler ]
Total feature counts: 4


====== Text Level Features ======

Features :: Feature-Counts :: Feature-Lemmas
--------------------------------------------
marqueurs :: 1 :: [ sembler ]
epistemique :: 1 :: [ sembler ]
marqueurs_niveau3 :: 1 :: [ sembler ]
epistemique_niveau3 :: 1 :: [ sembler ]
Total feature counts: 4

