====== Sentence Level Features ======

1. Sentence: Si on disposait de davantage de données chiffrées précises , ce ne serait pas plus mal . avec les pratiques .
Features :: Feature-Counts :: Feature-Lemmas
--------------------------------------------
marqueurs :: 1 :: [ mal ]
appreciatif :: 1 :: [ mal ]
axiologique :: 1 :: [ mal ]
marqueurs_niveau3 :: 1 :: [ mal ]
appreciatif_niveau3 :: 1 :: [ mal ]
axiologique_niveau3 :: 1 :: [ mal ]
Total feature counts: 6


====== Text Level Features ======

Features :: Feature-Counts :: Feature-Lemmas
--------------------------------------------
marqueurs :: 1 :: [ mal ]
appreciatif :: 1 :: [ mal ]
axiologique :: 1 :: [ mal ]
marqueurs_niveau3 :: 1 :: [ mal ]
appreciatif_niveau3 :: 1 :: [ mal ]
axiologique_niveau3 :: 1 :: [ mal ]
Total feature counts: 6

