====== Sentence Level Features ======

1. Sentence: Cela produisait un espace extrêmement riche , spontané , parfois chaotique , mais qui donnait l ' impression d ' aller quelque part , au-delà du plan , tout en le respectant plus ou moins .
Features :: Feature-Counts :: Feature-Lemmas
--------------------------------------------
marqueurs :: 4 :: [ riche, parfois, aller, respecter ]
alethique :: 2 :: [ parfois, aller ]
appreciatif :: 2 :: [ riche, respecter ]
marqueurs_niveau2 :: 2 :: [ riche, respecter ]
appreciatif_niveau2 :: 2 :: [ riche, respecter ]
axiologique :: 1 :: [ respecter ]
marqueurs_niveau3 :: 1 :: [ parfois ]
marqueurs_niveau1 :: 1 :: [ aller ]
alethique_niveau3 :: 1 :: [ parfois ]
alethique_niveau1 :: 1 :: [ aller ]
axiologique_niveau2 :: 1 :: [ respecter ]
Total feature counts: 18


====== Text Level Features ======

Features :: Feature-Counts :: Feature-Lemmas
--------------------------------------------
marqueurs :: 4 :: [ riche, parfois, aller, respecter ]
alethique :: 2 :: [ parfois, aller ]
appreciatif :: 2 :: [ riche, respecter ]
marqueurs_niveau2 :: 2 :: [ riche, respecter ]
appreciatif_niveau2 :: 2 :: [ riche, respecter ]
axiologique :: 1 :: [ respecter ]
marqueurs_niveau3 :: 1 :: [ parfois ]
marqueurs_niveau1 :: 1 :: [ aller ]
alethique_niveau3 :: 1 :: [ parfois ]
alethique_niveau1 :: 1 :: [ aller ]
axiologique_niveau2 :: 1 :: [ respecter ]
Total feature counts: 18

