====== Sentence Level Features ======

1. Sentence: (l)
No features found.

2. Sentence: La ligne du Tokaïdo relie Tokyo à Osaka (515 km) en moins de 4 heures depuis 1964 .
Entity Name (Type) :: Osaka (LOC)


====== Text Level Features ======

Entity Name (Entity Type)
-------------------------
ligne du Tokaïdo (LOC)
Tokyo (LOC)
Osaka (LOC)
Total entitiy counts: 3

