====== Sentence Level Features ======

1. Sentence: Cette construction m ' a fait comprendre à quel point je connaissais mal la culture du pays où j ' ai beaucoup vécu , mais mieux les hommes et l ' espace qui le composent .
Features :: Feature-Counts :: Feature-Lemmas
--------------------------------------------
marqueurs :: 4 :: [ connaître, mal, beaucoup, mieux ]
appreciatif :: 2 :: [ mal, mieux ]
axiologique :: 2 :: [ mal, mieux ]
epistemique :: 2 :: [ connaître, beaucoup ]
marqueurs_niveau2 :: 2 :: [ connaître, mieux ]
marqueurs_niveau3 :: 1 :: [ mal ]
marqueurs_niveau1 :: 1 :: [ beaucoup ]
appreciatif_niveau3 :: 1 :: [ mal ]
appreciatif_niveau2 :: 1 :: [ mieux ]
axiologique_niveau3 :: 1 :: [ mal ]
axiologique_niveau2 :: 1 :: [ mieux ]
epistemique_niveau2 :: 1 :: [ connaître ]
epistemique_niveau1 :: 1 :: [ beaucoup ]
Total feature counts: 20


====== Text Level Features ======

Features :: Feature-Counts :: Feature-Lemmas
--------------------------------------------
marqueurs :: 4 :: [ connaître, mal, beaucoup, mieux ]
appreciatif :: 2 :: [ mal, mieux ]
axiologique :: 2 :: [ mal, mieux ]
epistemique :: 2 :: [ connaître, beaucoup ]
marqueurs_niveau2 :: 2 :: [ connaître, mieux ]
marqueurs_niveau3 :: 1 :: [ mal ]
marqueurs_niveau1 :: 1 :: [ beaucoup ]
appreciatif_niveau3 :: 1 :: [ mal ]
appreciatif_niveau2 :: 1 :: [ mieux ]
axiologique_niveau3 :: 1 :: [ mal ]
axiologique_niveau2 :: 1 :: [ mieux ]
epistemique_niveau2 :: 1 :: [ connaître ]
epistemique_niveau1 :: 1 :: [ beaucoup ]
Total feature counts: 20

