
********** Entity Names Features **********
*******************************************

1. Sentence: L ' engagement dans des actions risque d ' accentuer cette difficulté .
No features found.


********** Emotions Features **********
***************************************

1. Sentence: L ' engagement dans des actions risque d ' accentuer cette difficulté .
No features found.


********** Modality Features **********
***************************************

1. Sentence: L ' engagement dans des actions risque d ' accentuer cette difficulté .
Features :: Feature-Counts :: Feature-Lemmas
--------------------------------------------
marqueurs :: 2 :: [ risquer, difficulté ]
appreciatif :: 1 :: [ risquer ]
pas_d_indication :: 1 :: [ difficulté ]
marqueurs_niveau3 :: 1 :: [ risquer ]
marqueurs_niveau0 :: 1 :: [ difficulté ]
appreciatif_niveau3 :: 1 :: [ risquer ]
pas_d_indication_niveau0 :: 1 :: [ difficulté ]
Total feature counts: 8


********** Adverbiaux Temporels Features **********
********************************************************

1. Sentence: L ' engagement dans des actions risque d ' accentuer cette difficulté .
No features found.

