====== Sentence Level Features ======

1. Sentence: Ce qui n ' est pourtant presque jamais le cas dans un projet classique dessiné et réalisé scrupuleusement selon des plans figés , qui ne rencontre qu ' in fine la réalité des usages .
Features :: Feature-Counts :: Feature-Lemmas
--------------------------------------------
marqueurs :: 4 :: [ jamais, réaliser, selon, réalité ]
alethique :: 3 :: [ jamais, réaliser, réalité ]
marqueurs_niveau3 :: 2 :: [ jamais, selon ]
marqueurs_niveau1 :: 2 :: [ réaliser, réalité ]
alethique_niveau1 :: 2 :: [ réaliser, réalité ]
epistemique :: 1 :: [ selon ]
alethique_niveau3 :: 1 :: [ jamais ]
epistemique_niveau3 :: 1 :: [ selon ]
Total feature counts: 16


====== Text Level Features ======

Features :: Feature-Counts :: Feature-Lemmas
--------------------------------------------
marqueurs :: 4 :: [ jamais, réaliser, selon, réalité ]
alethique :: 3 :: [ jamais, réaliser, réalité ]
marqueurs_niveau3 :: 2 :: [ jamais, selon ]
marqueurs_niveau1 :: 2 :: [ réaliser, réalité ]
alethique_niveau1 :: 2 :: [ réaliser, réalité ]
epistemique :: 1 :: [ selon ]
alethique_niveau3 :: 1 :: [ jamais ]
epistemique_niveau3 :: 1 :: [ selon ]
Total feature counts: 16

