
********** Entity Names Features **********
*******************************************

1. Sentence: Si on veut être réaliste , on va être obligé de faire face à cette demande .
Entity Name (Type) :: Si (MISC)


********** Emotions Features **********
***************************************

1. Sentence: Si on veut être réaliste , on va être obligé de faire face à cette demande .
No features found.


********** Modality Features **********
***************************************

1. Sentence: Si on veut être réaliste , on va être obligé de faire face à cette demande .
Features :: Feature-Counts :: Feature-Lemmas
--------------------------------------------
marqueurs :: 3 :: [ vouloir, aller, obliger ]
marqueurs_niveau3 :: 2 :: [ vouloir, obliger ]
alethique :: 1 :: [ aller ]
boulique :: 1 :: [ vouloir ]
deontique :: 1 :: [ obliger ]
marqueurs_niveau1 :: 1 :: [ aller ]
alethique_niveau1 :: 1 :: [ aller ]
boulique_niveau3 :: 1 :: [ vouloir ]
deontique_niveau3 :: 1 :: [ obliger ]
Total feature counts: 12


********** Adverbiaux Temporels Features **********
********************************************************

1. Sentence: Si on veut être réaliste , on va être obligé de faire face à cette demande .
No features found.

