
********** Entity Names Features **********
*******************************************

1. Sentence: Plus qu ' un germe de centre , ce n ' est pas encore un centre .
No features found.


********** Emotions Features **********
***************************************

1. Sentence: Plus qu ' un germe de centre , ce n ' est pas encore un centre .
No features found.


********** Modality Features **********
***************************************

1. Sentence: Plus qu ' un germe de centre , ce n ' est pas encore un centre .
No features found.


********** Adverbiaux Temporels Features **********
********************************************************

1. Sentence: Plus qu ' un germe de centre , ce n ' est pas encore un centre .
Features :: Feature-Counts :: Feature-Texts
--------------------------------------------
adverbiaux_temporels::1::['pas encore']
adverbiaux_duratifs_iteratifs::1::['pas encore']
adverbiaux_pointage_non_absolu::1::['pas encore']
adverbiaux_dur_iter_relatif::1::['pas encore']

