
********** Entity Names Features **********
*******************************************

1. Sentence: Pourtant restaient le type et la forme , mais l ' Institut du monde arabe fut gagné sur une évidence urbaine qui ne s ' abritait cependant pas derrière un rapport explicite forme-type .
Entity Name (Type) :: Institut du monde arabe (ORG)


********** Emotions Features **********
***************************************

1. Sentence: Pourtant restaient le type et la forme , mais l ' Institut du monde arabe fut gagné sur une évidence urbaine qui ne s ' abritait cependant pas derrière un rapport explicite forme-type .
No features found.


********** Modality Features **********
***************************************

1. Sentence: Pourtant restaient le type et la forme , mais l ' Institut du monde arabe fut gagné sur une évidence urbaine qui ne s ' abritait cependant pas derrière un rapport explicite forme-type .
Features :: Feature-Counts :: Feature-Lemmas
--------------------------------------------
marqueurs :: 1 :: [ gagner ]
appreciatif :: 1 :: [ gagner ]
marqueurs_niveau2 :: 1 :: [ gagner ]
appreciatif_niveau2 :: 1 :: [ gagner ]
Total feature counts: 4


********** Adverbiaux Temporels Features **********
********************************************************

1. Sentence: Pourtant restaient le type et la forme , mais l ' Institut du monde arabe fut gagné sur une évidence urbaine qui ne s ' abritait cependant pas derrière un rapport explicite forme-type .
No features found.

