====== Sentence Level Features ======

1. Sentence: Les localités formant la banlieue moyenne auraient des constructions nettement moins élevées et des cours très amples réalisant des habitations saines et agréables à habiter .
Features :: Feature-Counts :: Feature-Lemmas
--------------------------------------------
marqueurs :: 2 :: [ réaliser, agréable ]
alethique :: 1 :: [ réaliser ]
appreciatif :: 1 :: [ agréable ]
marqueurs_niveau3 :: 1 :: [ agréable ]
marqueurs_niveau1 :: 1 :: [ réaliser ]
alethique_niveau1 :: 1 :: [ réaliser ]
appreciatif_niveau3 :: 1 :: [ agréable ]
Total feature counts: 8


====== Text Level Features ======

Features :: Feature-Counts :: Feature-Lemmas
--------------------------------------------
marqueurs :: 2 :: [ réaliser, agréable ]
alethique :: 1 :: [ réaliser ]
appreciatif :: 1 :: [ agréable ]
marqueurs_niveau3 :: 1 :: [ agréable ]
marqueurs_niveau1 :: 1 :: [ réaliser ]
alethique_niveau1 :: 1 :: [ réaliser ]
appreciatif_niveau3 :: 1 :: [ agréable ]
Total feature counts: 8

