
********** Entity Names Features **********
*******************************************

1. Sentence: Les opérations de ce type ne sont pas seulement les plus coûteuses , et leur multiplication n ' est pas seulement affaire de crédits;
No features found.


********** Emotions Features **********
***************************************

1. Sentence: Les opérations de ce type ne sont pas seulement les plus coûteuses , et leur multiplication n ' est pas seulement affaire de crédits;
No features found.


********** Modality Features **********
***************************************

1. Sentence: Les opérations de ce type ne sont pas seulement les plus coûteuses , et leur multiplication n ' est pas seulement affaire de crédits;
No features found.


********** Adverbiaux Temporels Features **********
********************************************************

1. Sentence: Les opérations de ce type ne sont pas seulement les plus coûteuses , et leur multiplication n ' est pas seulement affaire de crédits;
No features found.

