
********** Entity Names Features **********
*******************************************

1. Sentence: Tel est le cas du secteur Nord (GONESSE , ARNOUVILLE-les-GONESSE , VILLIERS-le-BEL , ECOUEN , EZANVILLE , DOMONT , PISCOP , et St-BRICE) .
Entity Name (Type) :: St-BRICE (ORG)


********** Emotions Features **********
***************************************

1. Sentence: Tel est le cas du secteur Nord (GONESSE , ARNOUVILLE-les-GONESSE , VILLIERS-le-BEL , ECOUEN , EZANVILLE , DOMONT , PISCOP , et St-BRICE) .
No features found.


********** Modality Features **********
***************************************

1. Sentence: Tel est le cas du secteur Nord (GONESSE , ARNOUVILLE-les-GONESSE , VILLIERS-le-BEL , ECOUEN , EZANVILLE , DOMONT , PISCOP , et St-BRICE) .
No features found.


********** Adverbiaux Temporels Features **********
********************************************************

1. Sentence: Tel est le cas du secteur Nord (GONESSE , ARNOUVILLE-les-GONESSE , VILLIERS-le-BEL , ECOUEN , EZANVILLE , DOMONT , PISCOP , et St-BRICE) .
No features found.

