
********** Entity Names Features **********
*******************************************

1. Sentence: Le maintien du gouvernement de la France dans Paris intra-muros doit avoir , comme contrepartie pourrait-on dire , le tri sévère des services centraux qui y demeureront .
Entity Name (Type) :: Paris (LOC)


********** Emotions Features **********
***************************************

1. Sentence: Le maintien du gouvernement de la France dans Paris intra-muros doit avoir , comme contrepartie pourrait-on dire , le tri sévère des services centraux qui y demeureront .
No features found.


********** Modality Features **********
***************************************

1. Sentence: Le maintien du gouvernement de la France dans Paris intra-muros doit avoir , comme contrepartie pourrait-on dire , le tri sévère des services centraux qui y demeureront .
Features :: Feature-Counts :: Feature-Lemmas
--------------------------------------------
marqueurs :: 4 :: [ devoir, pouvoir, dire, sévère ]
marqueurs_niveau3 :: 3 :: [ devoir, pouvoir, dire ]
alethique :: 2 :: [ devoir, pouvoir ]
deontique :: 2 :: [ devoir, pouvoir ]
epistemique :: 2 :: [ devoir, pouvoir ]
alethique_niveau3 :: 2 :: [ devoir, pouvoir ]
deontique_niveau3 :: 2 :: [ devoir, pouvoir ]
epistemique_niveau3 :: 2 :: [ devoir, pouvoir ]
boulique :: 1 :: [ dire ]
pas_d_indication :: 1 :: [ sévère ]
marqueurs_niveau0 :: 1 :: [ sévère ]
boulique_niveau3 :: 1 :: [ dire ]
pas_d_indication_niveau0 :: 1 :: [ sévère ]
Total feature counts: 24


********** Adverbiaux Temporels Features **********
********************************************************

1. Sentence: Le maintien du gouvernement de la France dans Paris intra-muros doit avoir , comme contrepartie pourrait-on dire , le tri sévère des services centraux qui y demeureront .
No features found.

