
********** Entity Names Features **********
*******************************************

1. Sentence: Le naturel parce que chacun d ' entre eux s ' inscrit dans des échelles multiples et des systèmes de forces extraordinairement variés et hétérogènes .
No features found.


********** Emotions Features **********
***************************************

1. Sentence: Le naturel parce que chacun d ' entre eux s ' inscrit dans des échelles multiples et des systèmes de forces extraordinairement variés et hétérogènes .
No features found.


********** Modality Features **********
***************************************

1. Sentence: Le naturel parce que chacun d ' entre eux s ' inscrit dans des échelles multiples et des systèmes de forces extraordinairement variés et hétérogènes .
Features :: Feature-Counts :: Feature-Lemmas
--------------------------------------------
marqueurs :: 2 :: [ lui, force ]
alethique :: 1 :: [ lui ]
epistemique :: 1 :: [ lui ]
pas_d_indication :: 1 :: [ force ]
marqueurs_niveau3 :: 1 :: [ lui ]
marqueurs_niveau0 :: 1 :: [ force ]
alethique_niveau3 :: 1 :: [ lui ]
epistemique_niveau3 :: 1 :: [ lui ]
pas_d_indication_niveau0 :: 1 :: [ force ]
Total feature counts: 10


********** Adverbiaux Temporels Features **********
********************************************************

1. Sentence: Le naturel parce que chacun d ' entre eux s ' inscrit dans des échelles multiples et des systèmes de forces extraordinairement variés et hétérogènes .
No features found.

