====== Sentence Level Features ======

1. Sentence: C ' est un pôle multimodal qui accueille 100000 voyageurs par jour .
Entity Name (Type) :: C (LOC)


====== Text Level Features ======

Entity Name (Entity Type)
-------------------------
C (LOC)
Total entitiy counts: 1

