====== Sentence Level Features ======

1. Sentence: Rien de précis , jusqu ’ à ce jour n ’ a pu être formulé à ce sujet .
Features :: Feature-Counts :: Feature-Lemmas
--------------------------------------------
marqueurs :: 2 :: [ rien, pouvoir ]
alethique :: 2 :: [ rien, pouvoir ]
deontique :: 1 :: [ pouvoir ]
epistemique :: 1 :: [ pouvoir ]
marqueurs_niveau3 :: 1 :: [ pouvoir ]
marqueurs_niveau2 :: 1 :: [ rien ]
alethique_niveau3 :: 1 :: [ pouvoir ]
alethique_niveau2 :: 1 :: [ rien ]
deontique_niveau3 :: 1 :: [ pouvoir ]
epistemique_niveau3 :: 1 :: [ pouvoir ]
Total feature counts: 12


====== Text Level Features ======

Features :: Feature-Counts :: Feature-Lemmas
--------------------------------------------
marqueurs :: 2 :: [ rien, pouvoir ]
alethique :: 2 :: [ rien, pouvoir ]
deontique :: 1 :: [ pouvoir ]
epistemique :: 1 :: [ pouvoir ]
marqueurs_niveau3 :: 1 :: [ pouvoir ]
marqueurs_niveau2 :: 1 :: [ rien ]
alethique_niveau3 :: 1 :: [ pouvoir ]
alethique_niveau2 :: 1 :: [ rien ]
deontique_niveau3 :: 1 :: [ pouvoir ]
epistemique_niveau3 :: 1 :: [ pouvoir ]
Total feature counts: 12

