
********** Entity Names Features **********
*******************************************

1. Sentence: Gérard Pénot ZAC Marne-Europe , Villiers-sur-Marne , 2015-…
Entity Name (Type) :: Villiers-sur-Marne (LOC)


********** Emotions Features **********
***************************************

1. Sentence: Gérard Pénot ZAC Marne-Europe , Villiers-sur-Marne , 2015-…
No features found.


********** Modality Features **********
***************************************

1. Sentence: Gérard Pénot ZAC Marne-Europe , Villiers-sur-Marne , 2015-…
No features found.


********** Adverbiaux Temporels Features **********
********************************************************

1. Sentence: Gérard Pénot ZAC Marne-Europe , Villiers-sur-Marne , 2015-…
No features found.

