====== Sentence Level Features ======

1. Sentence: Ce qui nous a permis d ' engager ce projet pendant cette période de crise , c ' est le paiement du million de francs d ' honoraires qu ' un maître d ' ouvrage nous devait .
Features :: Feature-Counts :: Feature-Lemmas
--------------------------------------------
marqueurs :: 3 :: [ permettre, crise, devoir ]
deontique :: 2 :: [ permettre, devoir ]
epistemique :: 2 :: [ crise, devoir ]
marqueurs_niveau3 :: 2 :: [ permettre, devoir ]
deontique_niveau3 :: 2 :: [ permettre, devoir ]
alethique :: 1 :: [ devoir ]
appreciatif :: 1 :: [ crise ]
marqueurs_niveau2 :: 1 :: [ crise ]
alethique_niveau3 :: 1 :: [ devoir ]
appreciatif_niveau2 :: 1 :: [ crise ]
epistemique_niveau3 :: 1 :: [ devoir ]
epistemique_niveau2 :: 1 :: [ crise ]
Total feature counts: 18


====== Text Level Features ======

Features :: Feature-Counts :: Feature-Lemmas
--------------------------------------------
marqueurs :: 3 :: [ permettre, crise, devoir ]
deontique :: 2 :: [ permettre, devoir ]
epistemique :: 2 :: [ crise, devoir ]
marqueurs_niveau3 :: 2 :: [ permettre, devoir ]
deontique_niveau3 :: 2 :: [ permettre, devoir ]
alethique :: 1 :: [ devoir ]
appreciatif :: 1 :: [ crise ]
marqueurs_niveau2 :: 1 :: [ crise ]
alethique_niveau3 :: 1 :: [ devoir ]
appreciatif_niveau2 :: 1 :: [ crise ]
epistemique_niveau3 :: 1 :: [ devoir ]
epistemique_niveau2 :: 1 :: [ crise ]
Total feature counts: 18

