
********** Entity Names Features **********
*******************************************

1. Sentence: Selon une étude récente de Mme Lucienne Cahen et de M .
Entity Name (Type) :: M (PER)


********** Emotions Features **********
***************************************

1. Sentence: Selon une étude récente de Mme Lucienne Cahen et de M .
No features found.


********** Modality Features **********
***************************************

1. Sentence: Selon une étude récente de Mme Lucienne Cahen et de M .
Features :: Feature-Counts :: Feature-Lemmas
--------------------------------------------
marqueurs :: 1 :: [ selon ]
epistemique :: 1 :: [ selon ]
marqueurs_niveau3 :: 1 :: [ selon ]
epistemique_niveau3 :: 1 :: [ selon ]
Total feature counts: 4


********** Adverbiaux Temporels Features **********
********************************************************

1. Sentence: Selon une étude récente de Mme Lucienne Cahen et de M .
No features found.

