====== Sentence Level Features ======

1. Sentence: Rue Nationale , Paris XIIIe (1990)
Entity Name (Type) :: Paris XIIIe (LOC)


====== Text Level Features ======

Entity Name (Entity Type)
-------------------------
Rue Nationale (LOC)
Paris XIIIe (LOC)
Total entitiy counts: 2

