
********** Entity Names Features **********
*******************************************

1. Sentence: Il est l ' intermédiaire entre les équipements généraux faits par la collectivité publique : grands collecteurs , autoroutes , routes nationales , et les maisons qui se construiront .
No features found.


********** Emotions Features **********
***************************************

1. Sentence: Il est l ' intermédiaire entre les équipements généraux faits par la collectivité publique : grands collecteurs , autoroutes , routes nationales , et les maisons qui se construiront .
No features found.


********** Modality Features **********
***************************************

1. Sentence: Il est l ' intermédiaire entre les équipements généraux faits par la collectivité publique : grands collecteurs , autoroutes , routes nationales , et les maisons qui se construiront .
Features :: Feature-Counts :: Feature-Lemmas
--------------------------------------------
marqueurs :: 1 :: [ grand ]
epistemique :: 1 :: [ grand ]
marqueurs_niveau3 :: 1 :: [ grand ]
epistemique_niveau3 :: 1 :: [ grand ]
Total feature counts: 4


********** Adverbiaux Temporels Features **********
********************************************************

1. Sentence: Il est l ' intermédiaire entre les équipements généraux faits par la collectivité publique : grands collecteurs , autoroutes , routes nationales , et les maisons qui se construiront .
No features found.

