====== Sentence Level Features ======

1. Sentence: Une première en France à cette échelle !
Entity Name (Type) :: France (LOC)


====== Text Level Features ======

Entity Name (Entity Type)
-------------------------
France (LOC)
Total entitiy counts: 1

