
********** Entity Names Features **********
*******************************************

1. Sentence: (2) 1 . 900 en Champagne , 1 . 700 dans le Nord et la Picardie , 1 . 500 en Bretagne , 1 . 300 dans le centre de la Bourgogne .
Entity Name (Type) :: Bourgogne (LOC)


********** Emotions Features **********
***************************************

1. Sentence: (2) 1 . 900 en Champagne , 1 . 700 dans le Nord et la Picardie , 1 . 500 en Bretagne , 1 . 300 dans le centre de la Bourgogne .
No features found.


********** Modality Features **********
***************************************

1. Sentence: (2) 1 . 900 en Champagne , 1 . 700 dans le Nord et la Picardie , 1 . 500 en Bretagne , 1 . 300 dans le centre de la Bourgogne .
No features found.


********** Adverbiaux Temporels Features **********
********************************************************

1. Sentence: (2) 1 . 900 en Champagne , 1 . 700 dans le Nord et la Picardie , 1 . 500 en Bretagne , 1 . 300 dans le centre de la Bourgogne .
No features found.

