====== Sentence Level Features ======

1. Sentence: Enfin , il est conçu en vue d ’ assurer l‘exécution du programme de l‘assainissement général du territoire intéressé dans toute son étendue .
Features :: Feature-Counts :: Feature-Lemmas
--------------------------------------------
marqueurs :: 1 :: [ intéresser ]
pas_d_indication :: 1 :: [ intéresser ]
marqueurs_niveau0 :: 1 :: [ intéresser ]
pas_d_indication_niveau0 :: 1 :: [ intéresser ]
Total feature counts: 4


====== Text Level Features ======

Features :: Feature-Counts :: Feature-Lemmas
--------------------------------------------
marqueurs :: 1 :: [ intéresser ]
pas_d_indication :: 1 :: [ intéresser ]
marqueurs_niveau0 :: 1 :: [ intéresser ]
pas_d_indication_niveau0 :: 1 :: [ intéresser ]
Total feature counts: 4

