====== Sentence Level Features ======

1. Sentence: Si je n ' ai pas passé mon Bac , j ' ai suivi le lycée jusqu ' à la terminale — ce qui , à l ' époque , n ' était pas le cas de la majorité des élèves ;
Entity Name (Type) :: Bac (MISC)


====== Text Level Features ======

Entity Name (Entity Type)
-------------------------
Bac (MISC)
Total entitiy counts: 1

