
********** Entity Names Features **********
*******************************************

1. Sentence: Hors exigence des pouvoirs publics et de leur bras séculier en termes de maîtrise d ' ouvrage , s ' observe souvent un manque de subtilité de certaines opérations .
Entity Name (Type) :: Hors (LOC)


********** Emotions Features **********
***************************************

1. Sentence: Hors exigence des pouvoirs publics et de leur bras séculier en termes de maîtrise d ' ouvrage , s ' observe souvent un manque de subtilité de certaines opérations .
No features found.


********** Modality Features **********
***************************************

1. Sentence: Hors exigence des pouvoirs publics et de leur bras séculier en termes de maîtrise d ' ouvrage , s ' observe souvent un manque de subtilité de certaines opérations .
Features :: Feature-Counts :: Feature-Lemmas
--------------------------------------------
marqueurs :: 3 :: [ pouvoir, souvent, certain ]
marqueurs_niveau3 :: 3 :: [ pouvoir, souvent, certain ]
alethique :: 2 :: [ pouvoir, souvent ]
epistemique :: 2 :: [ pouvoir, certain ]
alethique_niveau3 :: 2 :: [ pouvoir, souvent ]
epistemique_niveau3 :: 2 :: [ pouvoir, certain ]
deontique :: 1 :: [ pouvoir ]
deontique_niveau3 :: 1 :: [ pouvoir ]
Total feature counts: 16


********** Adverbiaux Temporels Features **********
********************************************************

1. Sentence: Hors exigence des pouvoirs publics et de leur bras séculier en termes de maîtrise d ' ouvrage , s ' observe souvent un manque de subtilité de certaines opérations .
Features :: Feature-Counts :: Feature-Texts
--------------------------------------------
adverbiaux_temporels::1::['souvent']
adverbiaux_purement_iteratifs::1::['souvent']
adverbiaux_iterateur_frequentiel::1::['souvent']

