
********** Entity Names Features **********
*******************************************

1. Sentence: Et les architectes ont su alors être subtils en créant du fractionnement , du déploiement des volumes en articulation avec les constructions du Pré Gauchet et la Loire .
Entity Name (Type) :: Loire (LOC)


********** Emotions Features **********
***************************************

1. Sentence: Et les architectes ont su alors être subtils en créant du fractionnement , du déploiement des volumes en articulation avec les constructions du Pré Gauchet et la Loire .
No features found.


********** Modality Features **********
***************************************

1. Sentence: Et les architectes ont su alors être subtils en créant du fractionnement , du déploiement des volumes en articulation avec les constructions du Pré Gauchet et la Loire .
Features :: Feature-Counts :: Feature-Lemmas
--------------------------------------------
marqueurs :: 1 :: [ savoir ]
epistemique :: 1 :: [ savoir ]
marqueurs_niveau3 :: 1 :: [ savoir ]
epistemique_niveau3 :: 1 :: [ savoir ]
Total feature counts: 4


********** Adverbiaux Temporels Features **********
********************************************************

1. Sentence: Et les architectes ont su alors être subtils en créant du fractionnement , du déploiement des volumes en articulation avec les constructions du Pré Gauchet et la Loire .
No features found.

