====== Sentence Level Features ======

1. Sentence: On n ' arrivera pas à construire 140000 ou 150000 logements nécessaires à coup de remplissage de dents creuses et de renouvellement urbain .
Features :: Feature-Counts :: Feature-Lemmas
--------------------------------------------
marqueurs :: 2 :: [ arriver, nécessaire ]
alethique :: 2 :: [ arriver, nécessaire ]
marqueurs_niveau3 :: 1 :: [ nécessaire ]
marqueurs_niveau2 :: 1 :: [ arriver ]
alethique_niveau3 :: 1 :: [ nécessaire ]
alethique_niveau2 :: 1 :: [ arriver ]
Total feature counts: 8


====== Text Level Features ======

Features :: Feature-Counts :: Feature-Lemmas
--------------------------------------------
marqueurs :: 2 :: [ arriver, nécessaire ]
alethique :: 2 :: [ arriver, nécessaire ]
marqueurs_niveau3 :: 1 :: [ nécessaire ]
marqueurs_niveau2 :: 1 :: [ arriver ]
alethique_niveau3 :: 1 :: [ nécessaire ]
alethique_niveau2 :: 1 :: [ arriver ]
Total feature counts: 8

