
********** Entity Names Features **********
*******************************************

1. Sentence: Mais le monde de la recherche est un «monde» avec ses paradigmes , ses temporalités , son vocabulaire , ses règles .
No features found.


********** Emotions Features **********
***************************************

1. Sentence: Mais le monde de la recherche est un «monde» avec ses paradigmes , ses temporalités , son vocabulaire , ses règles .
No features found.


********** Modality Features **********
***************************************

1. Sentence: Mais le monde de la recherche est un «monde» avec ses paradigmes , ses temporalités , son vocabulaire , ses règles .
No features found.


********** Adverbiaux Temporels Features **********
********************************************************

1. Sentence: Mais le monde de la recherche est un «monde» avec ses paradigmes , ses temporalités , son vocabulaire , ses règles .
No features found.

