====== Sentence Level Features ======

1. Sentence: La capitale , les longs faubourgs qui la cernent et l ' étendent , les villes , les villages et les terres d ’ Île-de-France , occupent , sur 12 .
Features :: Feature-Counts :: Feature-Lemmas
--------------------------------------------
marqueurs :: 1 :: [ long ]
epistemique :: 1 :: [ long ]
marqueurs_niveau2 :: 1 :: [ long ]
epistemique_niveau2 :: 1 :: [ long ]
Total feature counts: 4


====== Text Level Features ======

Features :: Feature-Counts :: Feature-Lemmas
--------------------------------------------
marqueurs :: 1 :: [ long ]
epistemique :: 1 :: [ long ]
marqueurs_niveau2 :: 1 :: [ long ]
epistemique_niveau2 :: 1 :: [ long ]
Total feature counts: 4

