
********** Entity Names Features **********
*******************************************

1. Sentence: Sur 1 500 familles concernées par le projet , seules 20 ou 30 assistaient aux réunions .
No features found.


********** Emotions Features **********
***************************************

1. Sentence: Sur 1 500 familles concernées par le projet , seules 20 ou 30 assistaient aux réunions .
No features found.


********** Modality Features **********
***************************************

1. Sentence: Sur 1 500 familles concernées par le projet , seules 20 ou 30 assistaient aux réunions .
Features :: Feature-Counts :: Feature-Lemmas
--------------------------------------------
marqueurs :: 1 :: [ famille ]
alethique :: 1 :: [ famille ]
marqueurs_niveau1 :: 1 :: [ famille ]
alethique_niveau1 :: 1 :: [ famille ]
Total feature counts: 4


********** Adverbiaux Temporels Features **********
********************************************************

1. Sentence: Sur 1 500 familles concernées par le projet , seules 20 ou 30 assistaient aux réunions .
No features found.

