====== Sentence Level Features ======

1. Sentence: En dépit de son ambition de principe , ce centre urbain nouveau ne serait , pendant tout l ' avenir prévisible , rien d ' autre qu ' un centre urbain d ' un niveau intermédiaire entre le centre de Paris et le centre de quartier ou de commune .
Features :: Feature-Counts :: Feature-Lemmas
--------------------------------------------
marqueurs :: 1 :: [ rien ]
alethique :: 1 :: [ rien ]
marqueurs_niveau2 :: 1 :: [ rien ]
alethique_niveau2 :: 1 :: [ rien ]
Total feature counts: 4


====== Text Level Features ======

Features :: Feature-Counts :: Feature-Lemmas
--------------------------------------------
marqueurs :: 1 :: [ rien ]
alethique :: 1 :: [ rien ]
marqueurs_niveau2 :: 1 :: [ rien ]
alethique_niveau2 :: 1 :: [ rien ]
Total feature counts: 4

