
********** Entity Names Features **********
*******************************************

1. Sentence: les dessins esquissés , les combats livrés en faveur d ' idées neuves ont amorcé la dimension régionale du nouvel urbanisme .
No features found.


********** Emotions Features **********
***************************************

1. Sentence: les dessins esquissés , les combats livrés en faveur d ' idées neuves ont amorcé la dimension régionale du nouvel urbanisme .
No features found.


********** Modality Features **********
***************************************

1. Sentence: les dessins esquissés , les combats livrés en faveur d ' idées neuves ont amorcé la dimension régionale du nouvel urbanisme .
Features :: Feature-Counts :: Feature-Lemmas
--------------------------------------------
marqueurs :: 1 :: [ combat ]
axiologique :: 1 :: [ combat ]
marqueurs_niveau2 :: 1 :: [ combat ]
axiologique_niveau2 :: 1 :: [ combat ]
Total feature counts: 4


********** Adverbiaux Temporels Features **********
********************************************************

1. Sentence: les dessins esquissés , les combats livrés en faveur d ' idées neuves ont amorcé la dimension régionale du nouvel urbanisme .
No features found.

