
********** Entity Names Features **********
*******************************************

1. Sentence: La solution n ' est pas si simple , et il faut poursuivre l ' analyse , pour deux motifs :
No features found.


********** Emotions Features **********
***************************************

1. Sentence: La solution n ' est pas si simple , et il faut poursuivre l ' analyse , pour deux motifs :
No features found.


********** Modality Features **********
***************************************

1. Sentence: La solution n ' est pas si simple , et il faut poursuivre l ' analyse , pour deux motifs :
Features :: Feature-Counts :: Feature-Lemmas
--------------------------------------------
marqueurs :: 1 :: [ falloir ]
deontique :: 1 :: [ falloir ]
marqueurs_niveau3 :: 1 :: [ falloir ]
deontique_niveau3 :: 1 :: [ falloir ]
Total feature counts: 4


********** Adverbiaux Temporels Features **********
********************************************************

1. Sentence: La solution n ' est pas si simple , et il faut poursuivre l ' analyse , pour deux motifs :
No features found.

