====== Sentence Level Features ======

1. Sentence: Il existe ainsi un territoire , à la porte d ' Angers qui n ' est pas supporté par la puissance publique et qui est viable .
Features :: Feature-Counts :: Feature-Lemmas
--------------------------------------------
marqueurs :: 2 :: [ supporter, puissance ]
pas_d_indication :: 2 :: [ supporter, puissance ]
marqueurs_niveau0 :: 2 :: [ supporter, puissance ]
pas_d_indication_niveau0 :: 2 :: [ supporter, puissance ]
Total feature counts: 8


====== Text Level Features ======

Features :: Feature-Counts :: Feature-Lemmas
--------------------------------------------
marqueurs :: 2 :: [ supporter, puissance ]
pas_d_indication :: 2 :: [ supporter, puissance ]
marqueurs_niveau0 :: 2 :: [ supporter, puissance ]
pas_d_indication_niveau0 :: 2 :: [ supporter, puissance ]
Total feature counts: 8

