====== Sentence Level Features ======

1. Sentence: Mais elle va plus loin  : « À partir de 2017 , je ressens la nécessité de reprendre ma liberté en m ' appuyant sur cette loi promulguée en 2016 et abrogée en 2018 , quitte à générer des jurisprudences à partir de cas concret .
Features :: Feature-Counts :: Feature-Lemmas
--------------------------------------------
marqueurs :: 6 :: [ aller, partir, nécessité, liberté, loi, partir ]
alethique :: 4 :: [ aller, partir, nécessité, partir ]
marqueurs_niveau1 :: 4 :: [ aller, partir, liberté, partir ]
alethique_niveau1 :: 3 :: [ aller, partir, partir ]
appreciatif :: 1 :: [ liberté ]
deontique :: 1 :: [ loi ]
marqueurs_niveau3 :: 1 :: [ nécessité ]
marqueurs_niveau2 :: 1 :: [ loi ]
alethique_niveau3 :: 1 :: [ nécessité ]
appreciatif_niveau1 :: 1 :: [ liberté ]
deontique_niveau2 :: 1 :: [ loi ]
Total feature counts: 24


====== Text Level Features ======

Features :: Feature-Counts :: Feature-Lemmas
--------------------------------------------
marqueurs :: 6 :: [ aller, partir, nécessité, liberté, loi, partir ]
alethique :: 4 :: [ aller, partir, nécessité, partir ]
marqueurs_niveau1 :: 4 :: [ aller, partir, liberté, partir ]
alethique_niveau1 :: 3 :: [ aller, partir, partir ]
appreciatif :: 1 :: [ liberté ]
deontique :: 1 :: [ loi ]
marqueurs_niveau3 :: 1 :: [ nécessité ]
marqueurs_niveau2 :: 1 :: [ loi ]
alethique_niveau3 :: 1 :: [ nécessité ]
appreciatif_niveau1 :: 1 :: [ liberté ]
deontique_niveau2 :: 1 :: [ loi ]
Total feature counts: 24

