====== Sentence Level Features ======

1. Sentence: Au point qu ' il semble logique qu ' une route ne passe pas à côté d ' un parc .
Features :: Feature-Counts :: Feature-Lemmas
--------------------------------------------
marqueurs :: 1 :: [ sembler ]
epistemique :: 1 :: [ sembler ]
marqueurs_niveau3 :: 1 :: [ sembler ]
epistemique_niveau3 :: 1 :: [ sembler ]
Total feature counts: 4


====== Text Level Features ======

Features :: Feature-Counts :: Feature-Lemmas
--------------------------------------------
marqueurs :: 1 :: [ sembler ]
epistemique :: 1 :: [ sembler ]
marqueurs_niveau3 :: 1 :: [ sembler ]
epistemique_niveau3 :: 1 :: [ sembler ]
Total feature counts: 4

