
********** Entity Names Features **********
*******************************************

1. Sentence: * Voir note (1) en page 138
No features found.


********** Emotions Features **********
***************************************

1. Sentence: * Voir note (1) en page 138
No features found.


********** Modality Features **********
***************************************

1. Sentence: * Voir note (1) en page 138
No features found.


********** Adverbiaux Temporels Features **********
********************************************************

1. Sentence: * Voir note (1) en page 138
No features found.

