====== Sentence Level Features ======

1. Sentence: Il y a la crainte que la réaction mal comprise de la Province fasse penser que Paris va être dévoré ;
Features :: Feature-Counts :: Feature-Lemmas
--------------------------------------------
marqueurs :: 4 :: [ mal, penser, aller, dévorer ]
epistemique :: 2 :: [ penser, dévorer ]
marqueurs_niveau3 :: 2 :: [ mal, penser ]
marqueurs_niveau1 :: 2 :: [ aller, dévorer ]
alethique :: 1 :: [ aller ]
appreciatif :: 1 :: [ mal ]
axiologique :: 1 :: [ mal ]
alethique_niveau1 :: 1 :: [ aller ]
appreciatif_niveau3 :: 1 :: [ mal ]
axiologique_niveau3 :: 1 :: [ mal ]
epistemique_niveau3 :: 1 :: [ penser ]
epistemique_niveau1 :: 1 :: [ dévorer ]
Total feature counts: 18


====== Text Level Features ======

Features :: Feature-Counts :: Feature-Lemmas
--------------------------------------------
marqueurs :: 4 :: [ mal, penser, aller, dévorer ]
epistemique :: 2 :: [ penser, dévorer ]
marqueurs_niveau3 :: 2 :: [ mal, penser ]
marqueurs_niveau1 :: 2 :: [ aller, dévorer ]
alethique :: 1 :: [ aller ]
appreciatif :: 1 :: [ mal ]
axiologique :: 1 :: [ mal ]
alethique_niveau1 :: 1 :: [ aller ]
appreciatif_niveau3 :: 1 :: [ mal ]
axiologique_niveau3 :: 1 :: [ mal ]
epistemique_niveau3 :: 1 :: [ penser ]
epistemique_niveau1 :: 1 :: [ dévorer ]
Total feature counts: 18

