====== Sentence Level Features ======

1. Sentence: Cela rassure et parfois enthousiasme;
Features :: Feature-Counts :: Feature-Texts
--------------------------------------------
adverbiaux_temporels::1::['parfois']
adverbiaux_purement_iteratifs::1::['parfois']
adverbiaux_iterateur_frequentiel::1::['parfois']


====== Text Level Features ======

Features :: Feature-Counts :: Feature-Texts
--------------------------------------------
adverbiaux_temporels::1::['parfois']
adverbiaux_purement_iteratifs::1::['parfois']
adverbiaux_iterateur_frequentiel::1::['parfois']
Total feature counts: 3

