
********** Entity Names Features **********
*******************************************

1. Sentence: Et c ' est dans ce cadre que les outils de la planification et de la règle urbaine peuvent trouver leur juste dimension .
No features found.


********** Emotions Features **********
***************************************

1. Sentence: Et c ' est dans ce cadre que les outils de la planification et de la règle urbaine peuvent trouver leur juste dimension .
No features found.


********** Modality Features **********
***************************************

1. Sentence: Et c ' est dans ce cadre que les outils de la planification et de la règle urbaine peuvent trouver leur juste dimension .
Features :: Feature-Counts :: Feature-Lemmas
--------------------------------------------
marqueurs :: 2 :: [ pouvoir, juste ]
marqueurs_niveau3 :: 2 :: [ pouvoir, juste ]
alethique :: 1 :: [ pouvoir ]
axiologique :: 1 :: [ juste ]
deontique :: 1 :: [ pouvoir ]
epistemique :: 1 :: [ pouvoir ]
alethique_niveau3 :: 1 :: [ pouvoir ]
axiologique_niveau3 :: 1 :: [ juste ]
deontique_niveau3 :: 1 :: [ pouvoir ]
epistemique_niveau3 :: 1 :: [ pouvoir ]
Total feature counts: 12


********** Adverbiaux Temporels Features **********
********************************************************

1. Sentence: Et c ' est dans ce cadre que les outils de la planification et de la règle urbaine peuvent trouver leur juste dimension .
No features found.

