
********** Entity Names Features **********
*******************************************

1. Sentence: À la sortie de l ' X , j ' ai choisi le corps des Ponts pour pouvoir m ' orienter vers l ' architecture .
Entity Name (Type) :: Ponts (LOC)


********** Emotions Features **********
***************************************

1. Sentence: À la sortie de l ' X , j ' ai choisi le corps des Ponts pour pouvoir m ' orienter vers l ' architecture .
No features found.


********** Modality Features **********
***************************************

1. Sentence: À la sortie de l ' X , j ' ai choisi le corps des Ponts pour pouvoir m ' orienter vers l ' architecture .
Features :: Feature-Counts :: Feature-Lemmas
--------------------------------------------
marqueurs :: 2 :: [ choisir, pouvoir ]
alethique :: 1 :: [ pouvoir ]
boulique :: 1 :: [ choisir ]
deontique :: 1 :: [ pouvoir ]
epistemique :: 1 :: [ pouvoir ]
marqueurs_niveau3 :: 1 :: [ pouvoir ]
marqueurs_niveau2 :: 1 :: [ choisir ]
alethique_niveau3 :: 1 :: [ pouvoir ]
boulique_niveau2 :: 1 :: [ choisir ]
deontique_niveau3 :: 1 :: [ pouvoir ]
epistemique_niveau3 :: 1 :: [ pouvoir ]
Total feature counts: 12


********** Adverbiaux Temporels Features **********
********************************************************

1. Sentence: À la sortie de l ' X , j ' ai choisi le corps des Ponts pour pouvoir m ' orienter vers l ' architecture .
No features found.

