====== Sentence Level Features ======

1. Sentence: Eh bien , la France est une ville magnifique , avec Paris , de grandes villes , des villes moyennes , les volcans d ' Auvergne et le mont Saint-Michel , qui regroupe 60 millions de personnes .
Features :: Feature-Counts :: Feature-Lemmas
--------------------------------------------
marqueurs :: 4 :: [ bien, magnifique, grand, personne ]
marqueurs_niveau3 :: 3 :: [ bien, magnifique, grand ]
appreciatif :: 2 :: [ bien, magnifique ]
appreciatif_niveau3 :: 2 :: [ bien, magnifique ]
alethique :: 1 :: [ personne ]
axiologique :: 1 :: [ bien ]
epistemique :: 1 :: [ grand ]
marqueurs_niveau2 :: 1 :: [ personne ]
alethique_niveau2 :: 1 :: [ personne ]
axiologique_niveau3 :: 1 :: [ bien ]
epistemique_niveau3 :: 1 :: [ grand ]
Total feature counts: 18


====== Text Level Features ======

Features :: Feature-Counts :: Feature-Lemmas
--------------------------------------------
marqueurs :: 4 :: [ bien, magnifique, grand, personne ]
marqueurs_niveau3 :: 3 :: [ bien, magnifique, grand ]
appreciatif :: 2 :: [ bien, magnifique ]
appreciatif_niveau3 :: 2 :: [ bien, magnifique ]
alethique :: 1 :: [ personne ]
axiologique :: 1 :: [ bien ]
epistemique :: 1 :: [ grand ]
marqueurs_niveau2 :: 1 :: [ personne ]
alethique_niveau2 :: 1 :: [ personne ]
axiologique_niveau3 :: 1 :: [ bien ]
epistemique_niveau3 :: 1 :: [ grand ]
Total feature counts: 18

