====== Sentence Level Features ======

1. Sentence: Dans le métier de l ' urbanisme nous n ' avons plus aujourd ' hui le droit de nous tromper en «inventant» l ' homme meilleur ou le nomade permanent .
Features :: Feature-Counts :: Feature-Lemmas
--------------------------------------------
marqueurs :: 4 :: [ droit, tromper, inventer, meilleur ]
marqueurs_niveau2 :: 3 :: [ tromper, inventer, meilleur ]
axiologique :: 2 :: [ tromper, meilleur ]
axiologique_niveau2 :: 2 :: [ tromper, meilleur ]
appreciatif :: 1 :: [ meilleur ]
deontique :: 1 :: [ droit ]
epistemique :: 1 :: [ inventer ]
marqueurs_niveau3 :: 1 :: [ droit ]
appreciatif_niveau2 :: 1 :: [ meilleur ]
deontique_niveau3 :: 1 :: [ droit ]
epistemique_niveau2 :: 1 :: [ inventer ]
Total feature counts: 18


====== Text Level Features ======

Features :: Feature-Counts :: Feature-Lemmas
--------------------------------------------
marqueurs :: 4 :: [ droit, tromper, inventer, meilleur ]
marqueurs_niveau2 :: 3 :: [ tromper, inventer, meilleur ]
axiologique :: 2 :: [ tromper, meilleur ]
axiologique_niveau2 :: 2 :: [ tromper, meilleur ]
appreciatif :: 1 :: [ meilleur ]
deontique :: 1 :: [ droit ]
epistemique :: 1 :: [ inventer ]
marqueurs_niveau3 :: 1 :: [ droit ]
appreciatif_niveau2 :: 1 :: [ meilleur ]
deontique_niveau3 :: 1 :: [ droit ]
epistemique_niveau2 :: 1 :: [ inventer ]
Total feature counts: 18

