====== Sentence Level Features ======

1. Sentence: Il propose aujourd ' hui un lieu privilégié en ville : une grande «clairière» réservée aux piétons , ménageant en son cœur des Place de la gare de Strasbourg , Strasbourg , Bas-Rhin , 2004-2007 [maîtrise d ' œuvre des espaces publics] 90 mètres des hauts fourneaux) , éléments de mobilier , signalétique .
Features :: Feature-Counts :: Feature-Lemmas
--------------------------------------------
marqueurs :: 2 :: [ grand, haut ]
epistemique :: 1 :: [ grand ]
pas_d_indication :: 1 :: [ haut ]
marqueurs_niveau3 :: 1 :: [ grand ]
marqueurs_niveau0 :: 1 :: [ haut ]
epistemique_niveau3 :: 1 :: [ grand ]
pas_d_indication_niveau0 :: 1 :: [ haut ]
Total feature counts: 8


====== Text Level Features ======

Features :: Feature-Counts :: Feature-Lemmas
--------------------------------------------
marqueurs :: 2 :: [ grand, haut ]
epistemique :: 1 :: [ grand ]
pas_d_indication :: 1 :: [ haut ]
marqueurs_niveau3 :: 1 :: [ grand ]
marqueurs_niveau0 :: 1 :: [ haut ]
epistemique_niveau3 :: 1 :: [ grand ]
pas_d_indication_niveau0 :: 1 :: [ haut ]
Total feature counts: 8

