====== Sentence Level Features ======

1. Sentence: C ' est que j ' ai le goût de la provocation et un petit narcissisme .
Features :: Feature-Counts :: Feature-Lemmas
--------------------------------------------
marqueurs :: 2 :: [ provocation, petit ]
epistemique :: 1 :: [ petit ]
pas_d_indication :: 1 :: [ provocation ]
marqueurs_niveau3 :: 1 :: [ petit ]
marqueurs_niveau0 :: 1 :: [ provocation ]
epistemique_niveau3 :: 1 :: [ petit ]
pas_d_indication_niveau0 :: 1 :: [ provocation ]
Total feature counts: 8


====== Text Level Features ======

Features :: Feature-Counts :: Feature-Lemmas
--------------------------------------------
marqueurs :: 2 :: [ provocation, petit ]
epistemique :: 1 :: [ petit ]
pas_d_indication :: 1 :: [ provocation ]
marqueurs_niveau3 :: 1 :: [ petit ]
marqueurs_niveau0 :: 1 :: [ provocation ]
epistemique_niveau3 :: 1 :: [ petit ]
pas_d_indication_niveau0 :: 1 :: [ provocation ]
Total feature counts: 8

