
********** Entity Names Features **********
*******************************************

1. Sentence: la constatation de la hausse des prix , la quasi-certitude de sa poursuite ont entraîné la spéculation;
No features found.


********** Emotions Features **********
***************************************

1. Sentence: la constatation de la hausse des prix , la quasi-certitude de sa poursuite ont entraîné la spéculation;
No features found.


********** Modality Features **********
***************************************

1. Sentence: la constatation de la hausse des prix , la quasi-certitude de sa poursuite ont entraîné la spéculation;
Features :: Feature-Counts :: Feature-Lemmas
--------------------------------------------
marqueurs :: 1 :: [ prix ]
appreciatif :: 1 :: [ prix ]
axiologique :: 1 :: [ prix ]
marqueurs_niveau2 :: 1 :: [ prix ]
appreciatif_niveau2 :: 1 :: [ prix ]
axiologique_niveau2 :: 1 :: [ prix ]
Total feature counts: 6


********** Adverbiaux Temporels Features **********
********************************************************

1. Sentence: la constatation de la hausse des prix , la quasi-certitude de sa poursuite ont entraîné la spéculation;
No features found.

