====== Sentence Level Features ======

1. Sentence: Mais ce parcours est aussi un parcours dans la commande qui a évolué en Europe comme en France , et qui montre clairement aujourd ' hui la volonté d ' intervenir par l ' action urbaine à des échelles qui semblaient , il y a peu de temps encore , inaccessibles .
Features :: Feature-Counts :: Feature-Lemmas
--------------------------------------------
marqueurs :: 2 :: [ volonté, sembler ]
marqueurs_niveau3 :: 2 :: [ volonté, sembler ]
boulique :: 1 :: [ volonté ]
epistemique :: 1 :: [ sembler ]
boulique_niveau3 :: 1 :: [ volonté ]
epistemique_niveau3 :: 1 :: [ sembler ]
Total feature counts: 8


====== Text Level Features ======

Features :: Feature-Counts :: Feature-Lemmas
--------------------------------------------
marqueurs :: 2 :: [ volonté, sembler ]
marqueurs_niveau3 :: 2 :: [ volonté, sembler ]
boulique :: 1 :: [ volonté ]
epistemique :: 1 :: [ sembler ]
boulique_niveau3 :: 1 :: [ volonté ]
epistemique_niveau3 :: 1 :: [ sembler ]
Total feature counts: 8

