====== Sentence Level Features ======

1. Sentence: Une vision commune qui peut inclure les bordures des Alpes , associant le conflit entre la production d ' énergie hydro-électrique et le besoin d ' eau pendant la saison sèche dans les cours d ' eau et pour l ' agriculture .
Features :: Feature-Counts :: Feature-Lemmas
--------------------------------------------
marqueurs :: 3 :: [ pouvoir, conflit, besoin ]
alethique :: 2 :: [ pouvoir, besoin ]
marqueurs_niveau3 :: 2 :: [ pouvoir, besoin ]
alethique_niveau3 :: 2 :: [ pouvoir, besoin ]
axiologique :: 1 :: [ conflit ]
boulique :: 1 :: [ besoin ]
deontique :: 1 :: [ pouvoir ]
epistemique :: 1 :: [ pouvoir ]
marqueurs_niveau2 :: 1 :: [ conflit ]
axiologique_niveau2 :: 1 :: [ conflit ]
boulique_niveau3 :: 1 :: [ besoin ]
deontique_niveau3 :: 1 :: [ pouvoir ]
epistemique_niveau3 :: 1 :: [ pouvoir ]
Total feature counts: 18


====== Text Level Features ======

Features :: Feature-Counts :: Feature-Lemmas
--------------------------------------------
marqueurs :: 3 :: [ pouvoir, conflit, besoin ]
alethique :: 2 :: [ pouvoir, besoin ]
marqueurs_niveau3 :: 2 :: [ pouvoir, besoin ]
alethique_niveau3 :: 2 :: [ pouvoir, besoin ]
axiologique :: 1 :: [ conflit ]
boulique :: 1 :: [ besoin ]
deontique :: 1 :: [ pouvoir ]
epistemique :: 1 :: [ pouvoir ]
marqueurs_niveau2 :: 1 :: [ conflit ]
axiologique_niveau2 :: 1 :: [ conflit ]
boulique_niveau3 :: 1 :: [ besoin ]
deontique_niveau3 :: 1 :: [ pouvoir ]
epistemique_niveau3 :: 1 :: [ pouvoir ]
Total feature counts: 18

