====== Sentence Level Features ======

1. Sentence: Monopole de la souveraineté , démocratie réduite aux citoyens « nationaux » :  l ' État national sépare rigidement le dedans et le dehors , il privilégie dans son principe même l ' immobile sur le mobile .
Features :: Feature-Counts :: Feature-Lemmas
--------------------------------------------
marqueurs :: 1 :: [ immobile ]
pas_d_indication :: 1 :: [ immobile ]
marqueurs_niveau0 :: 1 :: [ immobile ]
pas_d_indication_niveau0 :: 1 :: [ immobile ]
Total feature counts: 4


====== Text Level Features ======

Features :: Feature-Counts :: Feature-Lemmas
--------------------------------------------
marqueurs :: 1 :: [ immobile ]
pas_d_indication :: 1 :: [ immobile ]
marqueurs_niveau0 :: 1 :: [ immobile ]
pas_d_indication_niveau0 :: 1 :: [ immobile ]
Total feature counts: 4

