====== Sentence Level Features ======

1. Sentence: Si les Z . A . D étaient parues il y a un an , j ’ aurais été très libre pour parler avec le Maire de Trappes ou de Voisins Bretonneux;
Features :: Feature-Counts :: Feature-Lemmas
--------------------------------------------
marqueurs :: 2 :: [ paraître, libre ]
appreciatif :: 1 :: [ libre ]
epistemique :: 1 :: [ paraître ]
marqueurs_niveau3 :: 1 :: [ paraître ]
marqueurs_niveau1 :: 1 :: [ libre ]
appreciatif_niveau1 :: 1 :: [ libre ]
epistemique_niveau3 :: 1 :: [ paraître ]
Total feature counts: 8


====== Text Level Features ======

Features :: Feature-Counts :: Feature-Lemmas
--------------------------------------------
marqueurs :: 2 :: [ paraître, libre ]
appreciatif :: 1 :: [ libre ]
epistemique :: 1 :: [ paraître ]
marqueurs_niveau3 :: 1 :: [ paraître ]
marqueurs_niveau1 :: 1 :: [ libre ]
appreciatif_niveau1 :: 1 :: [ libre ]
epistemique_niveau3 :: 1 :: [ paraître ]
Total feature counts: 8

