====== Sentence Level Features ======

1. Sentence: A partir des options régionales que comporte le présent schéma d ' aménagement et d ' urbanisme seront établis , pour chaque grande zone de la région , des " schémas directeurs des structures " , tels que le Ministre de la Construction en prévoit pour les principales agglomérations françaises .
Features :: Feature-Counts :: Feature-Lemmas
--------------------------------------------
marqueurs :: 2 :: [ partir, grand ]
alethique :: 1 :: [ partir ]
epistemique :: 1 :: [ grand ]
marqueurs_niveau3 :: 1 :: [ grand ]
marqueurs_niveau1 :: 1 :: [ partir ]
alethique_niveau1 :: 1 :: [ partir ]
epistemique_niveau3 :: 1 :: [ grand ]
Total feature counts: 8


====== Text Level Features ======

Features :: Feature-Counts :: Feature-Lemmas
--------------------------------------------
marqueurs :: 2 :: [ partir, grand ]
alethique :: 1 :: [ partir ]
epistemique :: 1 :: [ grand ]
marqueurs_niveau3 :: 1 :: [ grand ]
marqueurs_niveau1 :: 1 :: [ partir ]
alethique_niveau1 :: 1 :: [ partir ]
epistemique_niveau3 :: 1 :: [ grand ]
Total feature counts: 8

