====== Sentence Level Features ======

1. Sentence: Et ce qui m ' a frappé , c ' est ce sentiment collectif si fort , si tolérant , même de la part d ' adversaires traditionnels .
Features :: Feature-Counts :: Feature-Lemmas
--------------------------------------------
marqueurs :: 2 :: [ frapper, fort ]
appreciatif :: 1 :: [ frapper ]
axiologique :: 1 :: [ frapper ]
pas_d_indication :: 1 :: [ fort ]
marqueurs_niveau1 :: 1 :: [ frapper ]
marqueurs_niveau0 :: 1 :: [ fort ]
appreciatif_niveau1 :: 1 :: [ frapper ]
axiologique_niveau1 :: 1 :: [ frapper ]
pas_d_indication_niveau0 :: 1 :: [ fort ]
Total feature counts: 10


====== Text Level Features ======

Features :: Feature-Counts :: Feature-Lemmas
--------------------------------------------
marqueurs :: 2 :: [ frapper, fort ]
appreciatif :: 1 :: [ frapper ]
axiologique :: 1 :: [ frapper ]
pas_d_indication :: 1 :: [ fort ]
marqueurs_niveau1 :: 1 :: [ frapper ]
marqueurs_niveau0 :: 1 :: [ fort ]
appreciatif_niveau1 :: 1 :: [ frapper ]
axiologique_niveau1 :: 1 :: [ frapper ]
pas_d_indication_niveau0 :: 1 :: [ fort ]
Total feature counts: 10

