
********** Entity Names Features **********
*******************************************

1. Sentence: Dans le cas de l ' île de Nantes , le processus commence en 1989 , avec l ' élection de Jean-Marc Ayrault à la tête de la mairie .
Entity Name (Type) :: Jean-Marc Ayrault (PER)


********** Emotions Features **********
***************************************

1. Sentence: Dans le cas de l ' île de Nantes , le processus commence en 1989 , avec l ' élection de Jean-Marc Ayrault à la tête de la mairie .
No features found.


********** Modality Features **********
***************************************

1. Sentence: Dans le cas de l ' île de Nantes , le processus commence en 1989 , avec l ' élection de Jean-Marc Ayrault à la tête de la mairie .
No features found.


********** Adverbiaux Temporels Features **********
********************************************************

1. Sentence: Dans le cas de l ' île de Nantes , le processus commence en 1989 , avec l ' élection de Jean-Marc Ayrault à la tête de la mairie .
Features :: Feature-Counts :: Feature-Texts
--------------------------------------------
adverbiaux_temporels::1::['en 1989']
adverbiaux_localisation_temporelle::1::['en 1989']
adverbiaux_pointage_absolu::1::['en 1989']
adverbiaux_pointage_non_absolu::1::['en 1989']
adverbiaux_loc_temp_focalisation_id::1::['en 1989']
adverbiaux_loc_temp_regionalisation_id::1::['en 1989']
adverbiaux_loc_temp_pointage_non_absolu::1::['en 1989']
adverbiaux_dur_iter_absolu::1::['en 1989']

