====== Sentence Level Features ======

1. Sentence: RESTRICTION AU DROIT DE LOTIR
Features :: Feature-Counts :: Feature-Lemmas
--------------------------------------------
marqueurs :: 1 :: [ droit ]
deontique :: 1 :: [ droit ]
marqueurs_niveau3 :: 1 :: [ droit ]
deontique_niveau3 :: 1 :: [ droit ]
Total feature counts: 4


====== Text Level Features ======

Features :: Feature-Counts :: Feature-Lemmas
--------------------------------------------
marqueurs :: 1 :: [ droit ]
deontique :: 1 :: [ droit ]
marqueurs_niveau3 :: 1 :: [ droit ]
deontique_niveau3 :: 1 :: [ droit ]
Total feature counts: 4

