
********** Entity Names Features **********
*******************************************

1. Sentence: Trouver des appuis , en quelque sorte .
No features found.


********** Emotions Features **********
***************************************

1. Sentence: Trouver des appuis , en quelque sorte .
No features found.


********** Modality Features **********
***************************************

1. Sentence: Trouver des appuis , en quelque sorte .
No features found.


********** Adverbiaux Temporels Features **********
********************************************************

1. Sentence: Trouver des appuis , en quelque sorte .
No features found.

