====== Sentence Level Features ======

1. Sentence: Une enquête effectuée par la S . N . C . F . en 1961 indique l ' échelle des besoins : les voyages d ' affaires alimentent 36 % du trafic des grandes lignes .
Features :: Feature-Counts :: Feature-Lemmas
--------------------------------------------
marqueurs :: 2 :: [ besoin, grand ]
marqueurs_niveau3 :: 2 :: [ besoin, grand ]
alethique :: 1 :: [ besoin ]
boulique :: 1 :: [ besoin ]
epistemique :: 1 :: [ grand ]
alethique_niveau3 :: 1 :: [ besoin ]
boulique_niveau3 :: 1 :: [ besoin ]
epistemique_niveau3 :: 1 :: [ grand ]
Total feature counts: 10


====== Text Level Features ======

Features :: Feature-Counts :: Feature-Lemmas
--------------------------------------------
marqueurs :: 2 :: [ besoin, grand ]
marqueurs_niveau3 :: 2 :: [ besoin, grand ]
alethique :: 1 :: [ besoin ]
boulique :: 1 :: [ besoin ]
epistemique :: 1 :: [ grand ]
alethique_niveau3 :: 1 :: [ besoin ]
boulique_niveau3 :: 1 :: [ besoin ]
epistemique_niveau3 :: 1 :: [ grand ]
Total feature counts: 10

