====== Sentence Level Features ======

1. Sentence: PRINCIPES D ' ORGANISATION
Entity Name (Type) :: ORGANISATION (ORG)


====== Text Level Features ======

Entity Name (Entity Type)
-------------------------
ORGANISATION (ORG)
Total entitiy counts: 1

