====== Sentence Level Features ======

1. Sentence: On a déjà dit , avec raison , que si le mot " Urbanisme " est nouveau (I) , la chose est ancienne .
Features :: Feature-Counts :: Feature-Lemmas
--------------------------------------------
marqueurs :: 1 :: [ dire ]
boulique :: 1 :: [ dire ]
marqueurs_niveau3 :: 1 :: [ dire ]
boulique_niveau3 :: 1 :: [ dire ]
Total feature counts: 4


====== Text Level Features ======

Features :: Feature-Counts :: Feature-Lemmas
--------------------------------------------
marqueurs :: 1 :: [ dire ]
boulique :: 1 :: [ dire ]
marqueurs_niveau3 :: 1 :: [ dire ]
boulique_niveau3 :: 1 :: [ dire ]
Total feature counts: 4

