====== Sentence Level Features ======

1. Sentence: Cette pyramide , enfin , ne vivra pas sur elle-même .
Entity Name (Type) :: Cette (LOC)


====== Text Level Features ======

Entity Name (Entity Type)
-------------------------
Cette (LOC)
Total entitiy counts: 1

