====== Sentence Level Features ======

1. Sentence: Spire , programmiste . )
Entity Name (Type) :: Spire (PER)


====== Text Level Features ======

Entity Name (Entity Type)
-------------------------
Spire (PER)
Total entitiy counts: 1

