====== Sentence Level Features ======

1. Sentence: (1) A un sondage réalisé par l ' Institut français d ' opinion publique en 1962 , 16 % des Parisiens (adultes) interrogés - soit un sur six - ont déclaré posséder une maison de campagne .
Features :: Feature-Counts :: Feature-Texts
--------------------------------------------
adverbiaux_temporels::1::['en 1962']
adverbiaux_localisation_temporelle::1::['en 1962']
adverbiaux_pointage_absolu::1::['en 1962']
adverbiaux_pointage_non_absolu::1::['en 1962']
adverbiaux_loc_temp_pointage_non_absolu::1::['en 1962']
adverbiaux_dur_iter_absolu::1::['en 1962']


====== Text Level Features ======

Features :: Feature-Counts :: Feature-Texts
--------------------------------------------
adverbiaux_temporels::1::['en 1962']
adverbiaux_localisation_temporelle::1::['en 1962']
adverbiaux_pointage_absolu::1::['en 1962']
adverbiaux_pointage_non_absolu::1::['en 1962']
adverbiaux_loc_temp_pointage_non_absolu::1::['en 1962']
adverbiaux_dur_iter_absolu::1::['en 1962']
Total feature counts: 6

