====== Sentence Level Features ======

1. Sentence: Elle doit s ' étendre , au-delà des statistiques trop globales , aux problèmes , ressentis par tous , de la disparition rapide des espaces libres au sein et aux abords de la zone agglomérée .
Features :: Feature-Counts :: Feature-Lemmas
--------------------------------------------
marqueurs :: 4 :: [ devoir, problème, rapide, libre ]
appreciatif :: 2 :: [ problème, libre ]
epistemique :: 2 :: [ devoir, rapide ]
marqueurs_niveau3 :: 2 :: [ devoir, rapide ]
epistemique_niveau3 :: 2 :: [ devoir, rapide ]
alethique :: 1 :: [ devoir ]
deontique :: 1 :: [ devoir ]
marqueurs_niveau2 :: 1 :: [ problème ]
marqueurs_niveau1 :: 1 :: [ libre ]
alethique_niveau3 :: 1 :: [ devoir ]
appreciatif_niveau2 :: 1 :: [ problème ]
appreciatif_niveau1 :: 1 :: [ libre ]
deontique_niveau3 :: 1 :: [ devoir ]
Total feature counts: 20


====== Text Level Features ======

Features :: Feature-Counts :: Feature-Lemmas
--------------------------------------------
marqueurs :: 4 :: [ devoir, problème, rapide, libre ]
appreciatif :: 2 :: [ problème, libre ]
epistemique :: 2 :: [ devoir, rapide ]
marqueurs_niveau3 :: 2 :: [ devoir, rapide ]
epistemique_niveau3 :: 2 :: [ devoir, rapide ]
alethique :: 1 :: [ devoir ]
deontique :: 1 :: [ devoir ]
marqueurs_niveau2 :: 1 :: [ problème ]
marqueurs_niveau1 :: 1 :: [ libre ]
alethique_niveau3 :: 1 :: [ devoir ]
appreciatif_niveau2 :: 1 :: [ problème ]
appreciatif_niveau1 :: 1 :: [ libre ]
deontique_niveau3 :: 1 :: [ devoir ]
Total feature counts: 20

