====== Sentence Level Features ======

1. Sentence: L ' émergence de tiers lieux , aux fonctions ouvertes , répond à des besoins de fonctionnalités finalement assez homogènes et simples (plus besoin d ' unités informatiques centrales ;
Features :: Feature-Counts :: Feature-Lemmas
--------------------------------------------
marqueurs :: 2 :: [ besoin, besoin ]
alethique :: 2 :: [ besoin, besoin ]
boulique :: 2 :: [ besoin, besoin ]
marqueurs_niveau3 :: 2 :: [ besoin, besoin ]
alethique_niveau3 :: 2 :: [ besoin, besoin ]
boulique_niveau3 :: 2 :: [ besoin, besoin ]
Total feature counts: 12


====== Text Level Features ======

Features :: Feature-Counts :: Feature-Lemmas
--------------------------------------------
marqueurs :: 2 :: [ besoin, besoin ]
alethique :: 2 :: [ besoin, besoin ]
boulique :: 2 :: [ besoin, besoin ]
marqueurs_niveau3 :: 2 :: [ besoin, besoin ]
alethique_niveau3 :: 2 :: [ besoin, besoin ]
boulique_niveau3 :: 2 :: [ besoin, besoin ]
Total feature counts: 12

