====== Sentence Level Features ======

1. Sentence: La responsabilité de l ' urbanisme s ' exprime mieux avec les moyens du bord , en prenant en compte tous les acteurs , pas seulement ceux qui vont dans votre sens .
Features :: Feature-Counts :: Feature-Lemmas
--------------------------------------------
marqueurs :: 3 :: [ responsabilité, mieux, aller ]
marqueurs_niveau2 :: 2 :: [ responsabilité, mieux ]
alethique :: 1 :: [ aller ]
appreciatif :: 1 :: [ mieux ]
axiologique :: 1 :: [ mieux ]
deontique :: 1 :: [ responsabilité ]
marqueurs_niveau1 :: 1 :: [ aller ]
alethique_niveau1 :: 1 :: [ aller ]
appreciatif_niveau2 :: 1 :: [ mieux ]
axiologique_niveau2 :: 1 :: [ mieux ]
deontique_niveau2 :: 1 :: [ responsabilité ]
Total feature counts: 14


====== Text Level Features ======

Features :: Feature-Counts :: Feature-Lemmas
--------------------------------------------
marqueurs :: 3 :: [ responsabilité, mieux, aller ]
marqueurs_niveau2 :: 2 :: [ responsabilité, mieux ]
alethique :: 1 :: [ aller ]
appreciatif :: 1 :: [ mieux ]
axiologique :: 1 :: [ mieux ]
deontique :: 1 :: [ responsabilité ]
marqueurs_niveau1 :: 1 :: [ aller ]
alethique_niveau1 :: 1 :: [ aller ]
appreciatif_niveau2 :: 1 :: [ mieux ]
axiologique_niveau2 :: 1 :: [ mieux ]
deontique_niveau2 :: 1 :: [ responsabilité ]
Total feature counts: 14

