====== Sentence Level Features ======

1. Sentence: Cette fluidité physique et spatiale entre le haut et le bas a été renforcée par la réimplantation des commerces le long du parcours .
Features :: Feature-Counts :: Feature-Lemmas
--------------------------------------------
marqueurs :: 2 :: [ haut, long ]
epistemique :: 1 :: [ long ]
pas_d_indication :: 1 :: [ haut ]
marqueurs_niveau2 :: 1 :: [ long ]
marqueurs_niveau0 :: 1 :: [ haut ]
epistemique_niveau2 :: 1 :: [ long ]
pas_d_indication_niveau0 :: 1 :: [ haut ]
Total feature counts: 8


====== Text Level Features ======

Features :: Feature-Counts :: Feature-Lemmas
--------------------------------------------
marqueurs :: 2 :: [ haut, long ]
epistemique :: 1 :: [ long ]
pas_d_indication :: 1 :: [ haut ]
marqueurs_niveau2 :: 1 :: [ long ]
marqueurs_niveau0 :: 1 :: [ haut ]
epistemique_niveau2 :: 1 :: [ long ]
pas_d_indication_niveau0 :: 1 :: [ haut ]
Total feature counts: 8

