
********** Entity Names Features **********
*******************************************

1. Sentence: Je dois dire que , sur le plan des études , je n ’ entrerai pas dans le détail , mais vous avez très bien compris que l ’ on peut parler de pluri-disciplines .
No features found.


********** Emotions Features **********
***************************************

1. Sentence: Je dois dire que , sur le plan des études , je n ’ entrerai pas dans le détail , mais vous avez très bien compris que l ’ on peut parler de pluri-disciplines .
No features found.


********** Modality Features **********
***************************************

1. Sentence: Je dois dire que , sur le plan des études , je n ’ entrerai pas dans le détail , mais vous avez très bien compris que l ’ on peut parler de pluri-disciplines .
Features :: Feature-Counts :: Feature-Lemmas
--------------------------------------------
marqueurs :: 4 :: [ devoir, dire, bien, pouvoir ]
marqueurs_niveau3 :: 4 :: [ devoir, dire, bien, pouvoir ]
alethique :: 2 :: [ devoir, pouvoir ]
deontique :: 2 :: [ devoir, pouvoir ]
epistemique :: 2 :: [ devoir, pouvoir ]
alethique_niveau3 :: 2 :: [ devoir, pouvoir ]
deontique_niveau3 :: 2 :: [ devoir, pouvoir ]
epistemique_niveau3 :: 2 :: [ devoir, pouvoir ]
appreciatif :: 1 :: [ bien ]
axiologique :: 1 :: [ bien ]
boulique :: 1 :: [ dire ]
appreciatif_niveau3 :: 1 :: [ bien ]
axiologique_niveau3 :: 1 :: [ bien ]
boulique_niveau3 :: 1 :: [ dire ]
Total feature counts: 26


********** Adverbiaux Temporels Features **********
********************************************************

1. Sentence: Je dois dire que , sur le plan des études , je n ’ entrerai pas dans le détail , mais vous avez très bien compris que l ’ on peut parler de pluri-disciplines .
No features found.

