
********** Entity Names Features **********
*******************************************

1. Sentence: On ne dira jamais assez aux jeunes architectes l ' importance des premières orientations et de la première œuvre qui engagent , bien plus qu ' on l ' imagine , une vie professionnelle – une vie , en somme .
No features found.


********** Emotions Features **********
***************************************

1. Sentence: On ne dira jamais assez aux jeunes architectes l ' importance des premières orientations et de la première œuvre qui engagent , bien plus qu ' on l ' imagine , une vie professionnelle – une vie , en somme .
No features found.


********** Modality Features **********
***************************************

1. Sentence: On ne dira jamais assez aux jeunes architectes l ' importance des premières orientations et de la première œuvre qui engagent , bien plus qu ' on l ' imagine , une vie professionnelle – une vie , en somme .
Features :: Feature-Counts :: Feature-Lemmas
--------------------------------------------
marqueurs :: 5 :: [ dire, jamais, jeune, bien, imaginer ]
marqueurs_niveau3 :: 4 :: [ dire, jamais, bien, imaginer ]
alethique :: 1 :: [ jamais ]
appreciatif :: 1 :: [ bien ]
axiologique :: 1 :: [ bien ]
boulique :: 1 :: [ dire ]
epistemique :: 1 :: [ imaginer ]
pas_d_indication :: 1 :: [ jeune ]
marqueurs_niveau0 :: 1 :: [ jeune ]
alethique_niveau3 :: 1 :: [ jamais ]
appreciatif_niveau3 :: 1 :: [ bien ]
axiologique_niveau3 :: 1 :: [ bien ]
boulique_niveau3 :: 1 :: [ dire ]
epistemique_niveau3 :: 1 :: [ imaginer ]
pas_d_indication_niveau0 :: 1 :: [ jeune ]
Total feature counts: 22


********** Adverbiaux Temporels Features **********
********************************************************

1. Sentence: On ne dira jamais assez aux jeunes architectes l ' importance des premières orientations et de la première œuvre qui engagent , bien plus qu ' on l ' imagine , une vie professionnelle – une vie , en somme .
Features :: Feature-Counts :: Feature-Texts
--------------------------------------------
adverbiaux_temporels::1::['jamais']
adverbiaux_purement_iteratifs::1::['jamais']
adverbiaux_iterateur_frequentiel::1::['jamais']

