
********** Entity Names Features **********
*******************************************

1. Sentence: c ' est donc par elle , me semble-t-il , qu ' il fallait commencer .
No features found.


********** Emotions Features **********
***************************************

1. Sentence: c ' est donc par elle , me semble-t-il , qu ' il fallait commencer .
No features found.


********** Modality Features **********
***************************************

1. Sentence: c ' est donc par elle , me semble-t-il , qu ' il fallait commencer .
Features :: Feature-Counts :: Feature-Lemmas
--------------------------------------------
marqueurs :: 2 :: [ sembler, falloir ]
marqueurs_niveau3 :: 2 :: [ sembler, falloir ]
deontique :: 1 :: [ falloir ]
epistemique :: 1 :: [ sembler ]
deontique_niveau3 :: 1 :: [ falloir ]
epistemique_niveau3 :: 1 :: [ sembler ]
Total feature counts: 8


********** Adverbiaux Temporels Features **********
********************************************************

1. Sentence: c ' est donc par elle , me semble-t-il , qu ' il fallait commencer .
No features found.

