
********** Entity Names Features **********
*******************************************

1. Sentence: Cette nouvelle croisade nous paraît devoir être gagnée par l ' exemple : Jean-Louis Subileau pour la comptabilité ou le service juridique .
Entity Name (Type) :: Jean-Louis Subileau (PER)


********** Emotions Features **********
***************************************

1. Sentence: Cette nouvelle croisade nous paraît devoir être gagnée par l ' exemple : Jean-Louis Subileau pour la comptabilité ou le service juridique .
No features found.


********** Modality Features **********
***************************************

1. Sentence: Cette nouvelle croisade nous paraît devoir être gagnée par l ' exemple : Jean-Louis Subileau pour la comptabilité ou le service juridique .
Features :: Feature-Counts :: Feature-Lemmas
--------------------------------------------
marqueurs :: 3 :: [ paraître, devoir, gagner ]
epistemique :: 2 :: [ paraître, devoir ]
marqueurs_niveau3 :: 2 :: [ paraître, devoir ]
epistemique_niveau3 :: 2 :: [ paraître, devoir ]
alethique :: 1 :: [ devoir ]
appreciatif :: 1 :: [ gagner ]
deontique :: 1 :: [ devoir ]
marqueurs_niveau2 :: 1 :: [ gagner ]
alethique_niveau3 :: 1 :: [ devoir ]
appreciatif_niveau2 :: 1 :: [ gagner ]
deontique_niveau3 :: 1 :: [ devoir ]
Total feature counts: 16


********** Adverbiaux Temporels Features **********
********************************************************

1. Sentence: Cette nouvelle croisade nous paraît devoir être gagnée par l ' exemple : Jean-Louis Subileau pour la comptabilité ou le service juridique .
No features found.

