====== Sentence Level Features ======

1. Sentence: Aujourd ' hui , la voie de passage vers l ' économie nouvelle est plus étroite et laisse une partie de la jeunesse populaire sur le bord du chemin .
Features :: Feature-Counts :: Feature-Lemmas
--------------------------------------------
marqueurs :: 2 :: [ laisser, populaire ]
deontique :: 1 :: [ laisser ]
pas_d_indication :: 1 :: [ populaire ]
marqueurs_niveau2 :: 1 :: [ laisser ]
marqueurs_niveau0 :: 1 :: [ populaire ]
deontique_niveau2 :: 1 :: [ laisser ]
pas_d_indication_niveau0 :: 1 :: [ populaire ]
Total feature counts: 8


====== Text Level Features ======

Features :: Feature-Counts :: Feature-Lemmas
--------------------------------------------
marqueurs :: 2 :: [ laisser, populaire ]
deontique :: 1 :: [ laisser ]
pas_d_indication :: 1 :: [ populaire ]
marqueurs_niveau2 :: 1 :: [ laisser ]
marqueurs_niveau0 :: 1 :: [ populaire ]
deontique_niveau2 :: 1 :: [ laisser ]
pas_d_indication_niveau0 :: 1 :: [ populaire ]
Total feature counts: 8

