====== Sentence Level Features ======

1. Sentence: Si de nouvelles formules de musée deviennent possibles , il ne faut nullement en déduire que le musée " entre quatre rues " constitue un type périmé et qu ' aucun effort de rénovation n ' est à y accomplir : en un semestre de 1964 , le Museum of modern art de New York a reçu 655 .
Features :: Feature-Counts :: Feature-Lemmas
--------------------------------------------
marqueurs :: 3 :: [ possible, falloir, aucun ]
marqueurs_niveau3 :: 3 :: [ possible, falloir, aucun ]
alethique :: 2 :: [ possible, aucun ]
alethique_niveau3 :: 2 :: [ possible, aucun ]
deontique :: 1 :: [ falloir ]
deontique_niveau3 :: 1 :: [ falloir ]
Total feature counts: 12


====== Text Level Features ======

Features :: Feature-Counts :: Feature-Lemmas
--------------------------------------------
marqueurs :: 3 :: [ possible, falloir, aucun ]
marqueurs_niveau3 :: 3 :: [ possible, falloir, aucun ]
alethique :: 2 :: [ possible, aucun ]
alethique_niveau3 :: 2 :: [ possible, aucun ]
deontique :: 1 :: [ falloir ]
deontique_niveau3 :: 1 :: [ falloir ]
Total feature counts: 12

