====== Sentence Level Features ======

1. Sentence: « Plongée du jour au lendemain dans un domaine que je ne connaissais pas et À Marcillé , juillet 2015 .
Features :: Feature-Counts :: Feature-Lemmas
--------------------------------------------
marqueurs :: 1 :: [ connaître ]
epistemique :: 1 :: [ connaître ]
marqueurs_niveau2 :: 1 :: [ connaître ]
epistemique_niveau2 :: 1 :: [ connaître ]
Total feature counts: 4


====== Text Level Features ======

Features :: Feature-Counts :: Feature-Lemmas
--------------------------------------------
marqueurs :: 1 :: [ connaître ]
epistemique :: 1 :: [ connaître ]
marqueurs_niveau2 :: 1 :: [ connaître ]
epistemique_niveau2 :: 1 :: [ connaître ]
Total feature counts: 4

