====== Sentence Level Features ======

1. Sentence: Quant au récit qui porte le projet , aucun sujet n ' est tabou : nous devons la transparence aux élus comme aux populations pour lesquelles nous travaillons .
Features :: Feature-Counts :: Feature-Lemmas
--------------------------------------------
marqueurs :: 4 :: [ aucun, devoir, élu, travailler ]
alethique :: 2 :: [ aucun, devoir ]
marqueurs_niveau3 :: 2 :: [ aucun, devoir ]
alethique_niveau3 :: 2 :: [ aucun, devoir ]
appreciatif :: 1 :: [ travailler ]
deontique :: 1 :: [ devoir ]
epistemique :: 1 :: [ devoir ]
pas_d_indication :: 1 :: [ élu ]
marqueurs_niveau2 :: 1 :: [ travailler ]
marqueurs_niveau0 :: 1 :: [ élu ]
appreciatif_niveau2 :: 1 :: [ travailler ]
deontique_niveau3 :: 1 :: [ devoir ]
epistemique_niveau3 :: 1 :: [ devoir ]
pas_d_indication_niveau0 :: 1 :: [ élu ]
Total feature counts: 20


====== Text Level Features ======

Features :: Feature-Counts :: Feature-Lemmas
--------------------------------------------
marqueurs :: 4 :: [ aucun, devoir, élu, travailler ]
alethique :: 2 :: [ aucun, devoir ]
marqueurs_niveau3 :: 2 :: [ aucun, devoir ]
alethique_niveau3 :: 2 :: [ aucun, devoir ]
appreciatif :: 1 :: [ travailler ]
deontique :: 1 :: [ devoir ]
epistemique :: 1 :: [ devoir ]
pas_d_indication :: 1 :: [ élu ]
marqueurs_niveau2 :: 1 :: [ travailler ]
marqueurs_niveau0 :: 1 :: [ élu ]
appreciatif_niveau2 :: 1 :: [ travailler ]
deontique_niveau3 :: 1 :: [ devoir ]
epistemique_niveau3 :: 1 :: [ devoir ]
pas_d_indication_niveau0 :: 1 :: [ élu ]
Total feature counts: 20

