====== Sentence Level Features ======

1. Sentence: L ' idée de superposer grandes et moyennes surfaces commerciales et complexes tertiaires et d ' habitat sur des gares TGV , RER ou métro sur le modèle asiatique va-t-elle se développer ?
Features :: Feature-Counts :: Feature-Lemmas
--------------------------------------------
marqueurs :: 2 :: [ grand, aller ]
alethique :: 1 :: [ aller ]
epistemique :: 1 :: [ grand ]
marqueurs_niveau3 :: 1 :: [ grand ]
marqueurs_niveau1 :: 1 :: [ aller ]
alethique_niveau1 :: 1 :: [ aller ]
epistemique_niveau3 :: 1 :: [ grand ]
Total feature counts: 8


====== Text Level Features ======

Features :: Feature-Counts :: Feature-Lemmas
--------------------------------------------
marqueurs :: 2 :: [ grand, aller ]
alethique :: 1 :: [ aller ]
epistemique :: 1 :: [ grand ]
marqueurs_niveau3 :: 1 :: [ grand ]
marqueurs_niveau1 :: 1 :: [ aller ]
alethique_niveau1 :: 1 :: [ aller ]
epistemique_niveau3 :: 1 :: [ grand ]
Total feature counts: 8

