====== Sentence Level Features ======

1. Sentence: Penser l ' avenir : regarder en avant , élargir le champ de vision , observer de vastes horizons , se détacher du contingent .
Features :: Feature-Counts :: Feature-Lemmas
--------------------------------------------
marqueurs :: 1 :: [ penser ]
epistemique :: 1 :: [ penser ]
marqueurs_niveau3 :: 1 :: [ penser ]
epistemique_niveau3 :: 1 :: [ penser ]
Total feature counts: 4


====== Text Level Features ======

Features :: Feature-Counts :: Feature-Lemmas
--------------------------------------------
marqueurs :: 1 :: [ penser ]
epistemique :: 1 :: [ penser ]
marqueurs_niveau3 :: 1 :: [ penser ]
epistemique_niveau3 :: 1 :: [ penser ]
Total feature counts: 4

