
********** Entity Names Features **********
*******************************************

1. Sentence: (3) Voir ci-après : B - Situation de droit , b)
Entity Name (Type) :: Situation de droit (MISC)


********** Emotions Features **********
***************************************

1. Sentence: (3) Voir ci-après : B - Situation de droit , b)
No features found.


********** Modality Features **********
***************************************

1. Sentence: (3) Voir ci-après : B - Situation de droit , b)
Features :: Feature-Counts :: Feature-Lemmas
--------------------------------------------
marqueurs :: 1 :: [ droit ]
deontique :: 1 :: [ droit ]
marqueurs_niveau3 :: 1 :: [ droit ]
deontique_niveau3 :: 1 :: [ droit ]
Total feature counts: 4


********** Adverbiaux Temporels Features **********
********************************************************

1. Sentence: (3) Voir ci-après : B - Situation de droit , b)
No features found.

