
********** Entity Names Features **********
*******************************************

1. Sentence: Comment déﬁnir celle-ci ?
No features found.


********** Emotions Features **********
***************************************

1. Sentence: Comment déﬁnir celle-ci ?
No features found.


********** Modality Features **********
***************************************

1. Sentence: Comment déﬁnir celle-ci ?
No features found.


********** Adverbiaux Temporels Features **********
********************************************************

1. Sentence: Comment déﬁnir celle-ci ?
No features found.

