====== Sentence Level Features ======

1. Sentence: Aujourd ' hui , les lieux d ' interconnexion des transports sont devenus les carrefours de la métropole contemporaine , les lieux où l ' on se croise , où l ' on échange et où l ' on fait aussi beaucoup d ' autre chose .
Features :: Feature-Counts :: Feature-Lemmas
--------------------------------------------
marqueurs :: 1 :: [ beaucoup ]
epistemique :: 1 :: [ beaucoup ]
marqueurs_niveau1 :: 1 :: [ beaucoup ]
epistemique_niveau1 :: 1 :: [ beaucoup ]
Total feature counts: 4


====== Text Level Features ======

Features :: Feature-Counts :: Feature-Lemmas
--------------------------------------------
marqueurs :: 1 :: [ beaucoup ]
epistemique :: 1 :: [ beaucoup ]
marqueurs_niveau1 :: 1 :: [ beaucoup ]
epistemique_niveau1 :: 1 :: [ beaucoup ]
Total feature counts: 4

