
********** Entity Names Features **********
*******************************************

1. Sentence: Enfin , il est complété par un règlement général des Constructions adaptées aux situations particulières des Communes de la Banlieue .
Entity Name (Type) :: Communes de la Banlieue (LOC)


********** Emotions Features **********
***************************************

1. Sentence: Enfin , il est complété par un règlement général des Constructions adaptées aux situations particulières des Communes de la Banlieue .
No features found.


********** Modality Features **********
***************************************

1. Sentence: Enfin , il est complété par un règlement général des Constructions adaptées aux situations particulières des Communes de la Banlieue .
No features found.


********** Adverbiaux Temporels Features **********
********************************************************

1. Sentence: Enfin , il est complété par un règlement général des Constructions adaptées aux situations particulières des Communes de la Banlieue .
No features found.

