
********** Entity Names Features **********
*******************************************

1. Sentence: Le deuxième chantier est l ' ouverture vers le non fini .
No features found.


********** Emotions Features **********
***************************************

1. Sentence: Le deuxième chantier est l ' ouverture vers le non fini .
No features found.


********** Modality Features **********
***************************************

1. Sentence: Le deuxième chantier est l ' ouverture vers le non fini .
No features found.


********** Adverbiaux Temporels Features **********
********************************************************

1. Sentence: Le deuxième chantier est l ' ouverture vers le non fini .
No features found.

