
********** Entity Names Features **********
*******************************************

1. Sentence: d ’ ailleurs il n ’ y a plus de vie sociale car tout est prémédité dans cette ville diffuse où la circonférence est partout et le centre nulle part .
No features found.


********** Emotions Features **********
***************************************

1. Sentence: d ’ ailleurs il n ’ y a plus de vie sociale car tout est prémédité dans cette ville diffuse où la circonférence est partout et le centre nulle part .
No features found.


********** Modality Features **********
***************************************

1. Sentence: d ’ ailleurs il n ’ y a plus de vie sociale car tout est prémédité dans cette ville diffuse où la circonférence est partout et le centre nulle part .
Features :: Feature-Counts :: Feature-Lemmas
--------------------------------------------
marqueurs :: 2 :: [ partout, nul ]
marqueurs_niveau2 :: 2 :: [ partout, nul ]
alethique :: 1 :: [ partout ]
appreciatif :: 1 :: [ nul ]
axiologique :: 1 :: [ nul ]
alethique_niveau2 :: 1 :: [ partout ]
appreciatif_niveau2 :: 1 :: [ nul ]
axiologique_niveau2 :: 1 :: [ nul ]
Total feature counts: 10


********** Adverbiaux Temporels Features **********
********************************************************

1. Sentence: d ’ ailleurs il n ’ y a plus de vie sociale car tout est prémédité dans cette ville diffuse où la circonférence est partout et le centre nulle part .
No features found.

