
********** Entity Names Features **********
*******************************************

1. Sentence: Les cités lacustres et les villes sur pilotis émergent des cartons .
No features found.


********** Emotions Features **********
***************************************

1. Sentence: Les cités lacustres et les villes sur pilotis émergent des cartons .
No features found.


********** Modality Features **********
***************************************

1. Sentence: Les cités lacustres et les villes sur pilotis émergent des cartons .
No features found.


********** Adverbiaux Temporels Features **********
********************************************************

1. Sentence: Les cités lacustres et les villes sur pilotis émergent des cartons .
No features found.

