====== Sentence Level Features ======

1. Sentence: Sont illustrés , par exemple , les retraits obligatoires , les décollements , les porosités , les fragmentations/transparence , les continuités visuelles , les masses construites , etc .
Features :: Feature-Counts :: Feature-Lemmas
--------------------------------------------
marqueurs :: 1 :: [ obligatoire ]
deontique :: 1 :: [ obligatoire ]
marqueurs_niveau3 :: 1 :: [ obligatoire ]
deontique_niveau3 :: 1 :: [ obligatoire ]
Total feature counts: 4


====== Text Level Features ======

Features :: Feature-Counts :: Feature-Lemmas
--------------------------------------------
marqueurs :: 1 :: [ obligatoire ]
deontique :: 1 :: [ obligatoire ]
marqueurs_niveau3 :: 1 :: [ obligatoire ]
deontique_niveau3 :: 1 :: [ obligatoire ]
Total feature counts: 4

