====== Sentence Level Features ======

1. Sentence: Ce problème de la flexibilité n ’ est pas totalement obtenu dans la ville compacte , et cela c ’ est un problème extrêmement redoutable .
Features :: Feature-Counts :: Feature-Lemmas
--------------------------------------------
marqueurs :: 2 :: [ problème, problème ]
appreciatif :: 2 :: [ problème, problème ]
marqueurs_niveau2 :: 2 :: [ problème, problème ]
appreciatif_niveau2 :: 2 :: [ problème, problème ]
Total feature counts: 8


====== Text Level Features ======

Features :: Feature-Counts :: Feature-Lemmas
--------------------------------------------
marqueurs :: 2 :: [ problème, problème ]
appreciatif :: 2 :: [ problème, problème ]
marqueurs_niveau2 :: 2 :: [ problème, problème ]
appreciatif_niveau2 :: 2 :: [ problème, problème ]
Total feature counts: 8

