====== Sentence Level Features ======

1. Sentence: Si nous voulons une mondialisation civilisée nous avons besoin à la fois de plus d ' Europe , de régions réaffirmées , mais aussi d ' un espace politique national modernisé et revitalisé .
Features :: Feature-Counts :: Feature-Lemmas
--------------------------------------------
marqueurs :: 2 :: [ vouloir, besoin ]
boulique :: 2 :: [ vouloir, besoin ]
marqueurs_niveau3 :: 2 :: [ vouloir, besoin ]
boulique_niveau3 :: 2 :: [ vouloir, besoin ]
alethique :: 1 :: [ besoin ]
alethique_niveau3 :: 1 :: [ besoin ]
Total feature counts: 10


====== Text Level Features ======

Features :: Feature-Counts :: Feature-Lemmas
--------------------------------------------
marqueurs :: 2 :: [ vouloir, besoin ]
boulique :: 2 :: [ vouloir, besoin ]
marqueurs_niveau3 :: 2 :: [ vouloir, besoin ]
boulique_niveau3 :: 2 :: [ vouloir, besoin ]
alethique :: 1 :: [ besoin ]
alethique_niveau3 :: 1 :: [ besoin ]
Total feature counts: 10

