
********** Entity Names Features **********
*******************************************

1. Sentence: Le droit d ' usage , ou la non-propriété du sol , restent étrangers à nos cultures à l ' inverse des Anglo-saxons qui , usant de l ' emphytéose , en ont fait la règle .
Entity Name (Type) :: Anglo-saxons (MISC)


********** Emotions Features **********
***************************************

1. Sentence: Le droit d ' usage , ou la non-propriété du sol , restent étrangers à nos cultures à l ' inverse des Anglo-saxons qui , usant de l ' emphytéose , en ont fait la règle .
No features found.


********** Modality Features **********
***************************************

1. Sentence: Le droit d ' usage , ou la non-propriété du sol , restent étrangers à nos cultures à l ' inverse des Anglo-saxons qui , usant de l ' emphytéose , en ont fait la règle .
Features :: Feature-Counts :: Feature-Lemmas
--------------------------------------------
marqueurs :: 1 :: [ droit ]
deontique :: 1 :: [ droit ]
marqueurs_niveau3 :: 1 :: [ droit ]
deontique_niveau3 :: 1 :: [ droit ]
Total feature counts: 4


********** Adverbiaux Temporels Features **********
********************************************************

1. Sentence: Le droit d ' usage , ou la non-propriété du sol , restent étrangers à nos cultures à l ' inverse des Anglo-saxons qui , usant de l ' emphytéose , en ont fait la règle .
No features found.

