
********** Entity Names Features **********
*******************************************

1. Sentence: Et la grande majorité des activités n ' exige guère plus que l ' accès désormais ubiquitaire aux réseaux .
No features found.


********** Emotions Features **********
***************************************

1. Sentence: Et la grande majorité des activités n ' exige guère plus que l ' accès désormais ubiquitaire aux réseaux .
No features found.


********** Modality Features **********
***************************************

1. Sentence: Et la grande majorité des activités n ' exige guère plus que l ' accès désormais ubiquitaire aux réseaux .
Features :: Feature-Counts :: Feature-Lemmas
--------------------------------------------
marqueurs :: 2 :: [ grand, exiger ]
marqueurs_niveau3 :: 2 :: [ grand, exiger ]
alethique :: 1 :: [ exiger ]
boulique :: 1 :: [ exiger ]
deontique :: 1 :: [ exiger ]
epistemique :: 1 :: [ grand ]
alethique_niveau3 :: 1 :: [ exiger ]
boulique_niveau3 :: 1 :: [ exiger ]
deontique_niveau3 :: 1 :: [ exiger ]
epistemique_niveau3 :: 1 :: [ grand ]
Total feature counts: 12


********** Adverbiaux Temporels Features **********
********************************************************

1. Sentence: Et la grande majorité des activités n ' exige guère plus que l ' accès désormais ubiquitaire aux réseaux .
Features :: Feature-Counts :: Feature-Texts
--------------------------------------------
adverbiaux_temporels::1::['désormais']
adverbiaux_duratifs_iteratifs::1::['désormais']

