
********** Entity Names Features **********
*******************************************

1. Sentence: Maîtrise d ' ouvrage : EPA de Saint-Étienne .
Entity Name (Type) :: Saint-Étienne (LOC)


********** Emotions Features **********
***************************************

1. Sentence: Maîtrise d ' ouvrage : EPA de Saint-Étienne .
No features found.


********** Modality Features **********
***************************************

1. Sentence: Maîtrise d ' ouvrage : EPA de Saint-Étienne .
No features found.


********** Adverbiaux Temporels Features **********
********************************************************

1. Sentence: Maîtrise d ' ouvrage : EPA de Saint-Étienne .
No features found.

