====== Sentence Level Features ======

1. Sentence: un grand magasin ne peut pas s ’ établir , compte tenu de la variété de stocks et de la variation de ces stocks , sans une clientèle potentielle d ’ au moins un million .
Features :: Feature-Counts :: Feature-Lemmas
--------------------------------------------
marqueurs :: 2 :: [ grand, pouvoir ]
epistemique :: 2 :: [ grand, pouvoir ]
marqueurs_niveau3 :: 2 :: [ grand, pouvoir ]
epistemique_niveau3 :: 2 :: [ grand, pouvoir ]
alethique :: 1 :: [ pouvoir ]
deontique :: 1 :: [ pouvoir ]
alethique_niveau3 :: 1 :: [ pouvoir ]
deontique_niveau3 :: 1 :: [ pouvoir ]
Total feature counts: 12


====== Text Level Features ======

Features :: Feature-Counts :: Feature-Lemmas
--------------------------------------------
marqueurs :: 2 :: [ grand, pouvoir ]
epistemique :: 2 :: [ grand, pouvoir ]
marqueurs_niveau3 :: 2 :: [ grand, pouvoir ]
epistemique_niveau3 :: 2 :: [ grand, pouvoir ]
alethique :: 1 :: [ pouvoir ]
deontique :: 1 :: [ pouvoir ]
alethique_niveau3 :: 1 :: [ pouvoir ]
deontique_niveau3 :: 1 :: [ pouvoir ]
Total feature counts: 12

