====== Sentence Level Features ======

1. Sentence: À deux choses , me semble-t-il .
Features :: Feature-Counts :: Feature-Lemmas
--------------------------------------------
marqueurs :: 1 :: [ sembler ]
epistemique :: 1 :: [ sembler ]
marqueurs_niveau3 :: 1 :: [ sembler ]
epistemique_niveau3 :: 1 :: [ sembler ]
Total feature counts: 4


====== Text Level Features ======

Features :: Feature-Counts :: Feature-Lemmas
--------------------------------------------
marqueurs :: 1 :: [ sembler ]
epistemique :: 1 :: [ sembler ]
marqueurs_niveau3 :: 1 :: [ sembler ]
epistemique_niveau3 :: 1 :: [ sembler ]
Total feature counts: 4

