
********** Entity Names Features **********
*******************************************

1. Sentence: PART DES MIGRATIONS ALTERNANTES EFFECTUÉE EN VOITURE PARTICULIÈRE ,
Entity Name (Type) :: VOITURE PARTICULIÈRE (ORG)


********** Emotions Features **********
***************************************

1. Sentence: PART DES MIGRATIONS ALTERNANTES EFFECTUÉE EN VOITURE PARTICULIÈRE ,
No features found.


********** Modality Features **********
***************************************

1. Sentence: PART DES MIGRATIONS ALTERNANTES EFFECTUÉE EN VOITURE PARTICULIÈRE ,
No features found.


********** Adverbiaux Temporels Features **********
********************************************************

1. Sentence: PART DES MIGRATIONS ALTERNANTES EFFECTUÉE EN VOITURE PARTICULIÈRE ,
No features found.

