====== Sentence Level Features ======

1. Sentence: CHAPITRE IV : LES LOISIRS
Entity Name (Type) :: LES LOISIRS (ORG)


====== Text Level Features ======

Entity Name (Entity Type)
-------------------------
CHAPITRE IV (MISC)
LES LOISIRS (ORG)
Total entitiy counts: 2

