====== Sentence Level Features ======

1. Sentence: En périphérie nous repérons des lambeaux Le paysage en préalable 1998-2000 .
Features :: Feature-Counts :: Feature-Texts
--------------------------------------------
adverbiaux_temporels::1::['1998_2000']
adverbiaux_localisation_temporelle::1::['1998_2000']
adverbiaux_pointage_absolu::1::['1998_2000']
adverbiaux_loc_temp_focalisation_id::1::['1998_2000']
adverbiaux_loc_temp_regionalisation_id::1::['1998_2000']
adverbiaux_loc_temp_pointage_absolu::1::['1998_2000']


====== Text Level Features ======

Features :: Feature-Counts :: Feature-Texts
--------------------------------------------
adverbiaux_temporels::1::['1998_2000']
adverbiaux_localisation_temporelle::1::['1998_2000']
adverbiaux_pointage_absolu::1::['1998_2000']
adverbiaux_loc_temp_focalisation_id::1::['1998_2000']
adverbiaux_loc_temp_regionalisation_id::1::['1998_2000']
adverbiaux_loc_temp_pointage_absolu::1::['1998_2000']
Total feature counts: 6

