
********** Entity Names Features **********
*******************************************

1. Sentence: La notion de « volume du piéton » est plus riche et spatiale que celle de rez-de-chaussée qui n ' évoque que le rapport au sol et l ' occupation des locaux .
No features found.


********** Emotions Features **********
***************************************

1. Sentence: La notion de « volume du piéton » est plus riche et spatiale que celle de rez-de-chaussée qui n ' évoque que le rapport au sol et l ' occupation des locaux .
No features found.


********** Modality Features **********
***************************************

1. Sentence: La notion de « volume du piéton » est plus riche et spatiale que celle de rez-de-chaussée qui n ' évoque que le rapport au sol et l ' occupation des locaux .
Features :: Feature-Counts :: Feature-Lemmas
--------------------------------------------
marqueurs :: 2 :: [ riche, occupation ]
marqueurs_niveau2 :: 2 :: [ riche, occupation ]
appreciatif :: 1 :: [ riche ]
axiologique :: 1 :: [ occupation ]
appreciatif_niveau2 :: 1 :: [ riche ]
axiologique_niveau2 :: 1 :: [ occupation ]
Total feature counts: 8


********** Adverbiaux Temporels Features **********
********************************************************

1. Sentence: La notion de « volume du piéton » est plus riche et spatiale que celle de rez-de-chaussée qui n ' évoque que le rapport au sol et l ' occupation des locaux .
No features found.

