====== Sentence Level Features ======

1. Sentence: La Plaine…
Entity Name (Type) :: La Plaine (LOC)


====== Text Level Features ======

Entity Name (Entity Type)
-------------------------
La Plaine (LOC)
Total entitiy counts: 1

