
********** Entity Names Features **********
*******************************************

1. Sentence: Ariella Masboungi  : Plus largement je suis frappée que la dimension économique et la dimension emploi soient si peu présentes dans les études d ' urbanisme .
Entity Name (Type) :: Ariella Masboungi (PER)


********** Emotions Features **********
***************************************

1. Sentence: Ariella Masboungi  : Plus largement je suis frappée que la dimension économique et la dimension emploi soient si peu présentes dans les études d ' urbanisme .
No features found.


********** Modality Features **********
***************************************

1. Sentence: Ariella Masboungi  : Plus largement je suis frappée que la dimension économique et la dimension emploi soient si peu présentes dans les études d ' urbanisme .
Features :: Feature-Counts :: Feature-Lemmas
--------------------------------------------
marqueurs :: 2 :: [ frapper, emploi ]
appreciatif :: 2 :: [ frapper, emploi ]
axiologique :: 1 :: [ frapper ]
marqueurs_niveau2 :: 1 :: [ emploi ]
marqueurs_niveau1 :: 1 :: [ frapper ]
appreciatif_niveau2 :: 1 :: [ emploi ]
appreciatif_niveau1 :: 1 :: [ frapper ]
axiologique_niveau1 :: 1 :: [ frapper ]
Total feature counts: 10


********** Adverbiaux Temporels Features **********
********************************************************

1. Sentence: Ariella Masboungi  : Plus largement je suis frappée que la dimension économique et la dimension emploi soient si peu présentes dans les études d ' urbanisme .
No features found.

