
********** Entity Names Features **********
*******************************************

1. Sentence: Enﬁn , le projet inclut la «mise à niveau» environnementale du quartier : déplacements doux , présence de l ' eau , rénovation énergétique , cours-jardins sur les îlots de la dalle , esplanade-jardin , terrasses habitées…
Entity Name (Type) :: Enﬁn (LOC)


********** Emotions Features **********
***************************************

1. Sentence: Enﬁn , le projet inclut la «mise à niveau» environnementale du quartier : déplacements doux , présence de l ' eau , rénovation énergétique , cours-jardins sur les îlots de la dalle , esplanade-jardin , terrasses habitées…
No features found.


********** Modality Features **********
***************************************

1. Sentence: Enﬁn , le projet inclut la «mise à niveau» environnementale du quartier : déplacements doux , présence de l ' eau , rénovation énergétique , cours-jardins sur les îlots de la dalle , esplanade-jardin , terrasses habitées…
Features :: Feature-Counts :: Feature-Lemmas
--------------------------------------------
marqueurs :: 1 :: [ doux ]
appreciatif :: 1 :: [ doux ]
marqueurs_niveau2 :: 1 :: [ doux ]
appreciatif_niveau2 :: 1 :: [ doux ]
Total feature counts: 4


********** Adverbiaux Temporels Features **********
********************************************************

1. Sentence: Enﬁn , le projet inclut la «mise à niveau» environnementale du quartier : déplacements doux , présence de l ' eau , rénovation énergétique , cours-jardins sur les îlots de la dalle , esplanade-jardin , terrasses habitées…
No features found.

