====== Sentence Level Features ======

1. Sentence: À Nantes , qui s ' était toujours tenue à l ' écart de toute planification , la création de la communauté urbaine fut un acte politique volontaire de Jean-Marc Ayrault .
Features :: Feature-Counts :: Feature-Lemmas
--------------------------------------------
marqueurs :: 1 :: [ toujours ]
alethique :: 1 :: [ toujours ]
marqueurs_niveau3 :: 1 :: [ toujours ]
alethique_niveau3 :: 1 :: [ toujours ]
Total feature counts: 4


====== Text Level Features ======

Features :: Feature-Counts :: Feature-Lemmas
--------------------------------------------
marqueurs :: 1 :: [ toujours ]
alethique :: 1 :: [ toujours ]
marqueurs_niveau3 :: 1 :: [ toujours ]
alethique_niveau3 :: 1 :: [ toujours ]
Total feature counts: 4

