====== Sentence Level Features ======

1. Sentence: (1) Le 5e Plan (1966-1970) et le 6e Plan (1971-1975) .
Features :: Feature-Counts :: Feature-Texts
--------------------------------------------
adverbiaux_temporels::2::['(1966_1970)', '(1971_1975)']
adverbiaux_localisation_temporelle::2::['(1966_1970)', '(1971_1975)']
adverbiaux_pointage_absolu::2::['(1966_1970)', '(1971_1975)']
adverbiaux_loc_temp_pointage_absolu::2::['(1966_1970)', '(1971_1975)']


====== Text Level Features ======

Features :: Feature-Counts :: Feature-Texts
--------------------------------------------
adverbiaux_temporels::2::['(1966_1970)', '(1971_1975)']
adverbiaux_localisation_temporelle::2::['(1966_1970)', '(1971_1975)']
adverbiaux_pointage_absolu::2::['(1966_1970)', '(1971_1975)']
adverbiaux_loc_temp_pointage_absolu::2::['(1966_1970)', '(1971_1975)']
Total feature counts: 8

