
********** Entity Names Features **********
*******************************************

1. Sentence: Le réseau routier : principes d ' organisation
No features found.


********** Emotions Features **********
***************************************

1. Sentence: Le réseau routier : principes d ' organisation
No features found.


********** Modality Features **********
***************************************

1. Sentence: Le réseau routier : principes d ' organisation
No features found.


********** Adverbiaux Temporels Features **********
********************************************************

1. Sentence: Le réseau routier : principes d ' organisation
No features found.

