
********** Entity Names Features **********
*******************************************

1. Sentence: Pourtant la rue les assemble , par des pans de façades alignées .
No features found.


********** Emotions Features **********
***************************************

1. Sentence: Pourtant la rue les assemble , par des pans de façades alignées .
No features found.


********** Modality Features **********
***************************************

1. Sentence: Pourtant la rue les assemble , par des pans de façades alignées .
No features found.


********** Adverbiaux Temporels Features **********
********************************************************

1. Sentence: Pourtant la rue les assemble , par des pans de façades alignées .
No features found.

