
********** Entity Names Features **********
*******************************************

1. Sentence: II stipule que " l‘association syndicale procédera au remembrement de tous les immeubles bâtis ou non bâtis compris dans la zone ou la section de zone . . . " Ces dispositions - qui peuvent être étendues , en vertu de l ’ art .
Entity Name (Type) :: II (LOC)


********** Emotions Features **********
***************************************

1. Sentence: II stipule que " l‘association syndicale procédera au remembrement de tous les immeubles bâtis ou non bâtis compris dans la zone ou la section de zone . . . " Ces dispositions - qui peuvent être étendues , en vertu de l ’ art .
No features found.


********** Modality Features **********
***************************************

1. Sentence: II stipule que " l‘association syndicale procédera au remembrement de tous les immeubles bâtis ou non bâtis compris dans la zone ou la section de zone . . . " Ces dispositions - qui peuvent être étendues , en vertu de l ’ art .
Features :: Feature-Counts :: Feature-Lemmas
--------------------------------------------
marqueurs :: 1 :: [ pouvoir ]
alethique :: 1 :: [ pouvoir ]
deontique :: 1 :: [ pouvoir ]
epistemique :: 1 :: [ pouvoir ]
marqueurs_niveau3 :: 1 :: [ pouvoir ]
alethique_niveau3 :: 1 :: [ pouvoir ]
deontique_niveau3 :: 1 :: [ pouvoir ]
epistemique_niveau3 :: 1 :: [ pouvoir ]
Total feature counts: 8


********** Adverbiaux Temporels Features **********
********************************************************

1. Sentence: II stipule que " l‘association syndicale procédera au remembrement de tous les immeubles bâtis ou non bâtis compris dans la zone ou la section de zone . . . " Ces dispositions - qui peuvent être étendues , en vertu de l ’ art .
No features found.

