====== Sentence Level Features ======

1. Sentence: Cette voie dont le tracé a été étudié sur le terrain avec des variantes , découvrirait de très beaux aperçus sur le panorama de la région parisienne .
Features :: Feature-Counts :: Feature-Lemmas
--------------------------------------------
marqueurs :: 2 :: [ découvrir, beau ]
appreciatif :: 1 :: [ beau ]
pas_d_indication :: 1 :: [ découvrir ]
marqueurs_niveau3 :: 1 :: [ beau ]
marqueurs_niveau0 :: 1 :: [ découvrir ]
appreciatif_niveau3 :: 1 :: [ beau ]
pas_d_indication_niveau0 :: 1 :: [ découvrir ]
Total feature counts: 8


====== Text Level Features ======

Features :: Feature-Counts :: Feature-Lemmas
--------------------------------------------
marqueurs :: 2 :: [ découvrir, beau ]
appreciatif :: 1 :: [ beau ]
pas_d_indication :: 1 :: [ découvrir ]
marqueurs_niveau3 :: 1 :: [ beau ]
marqueurs_niveau0 :: 1 :: [ découvrir ]
appreciatif_niveau3 :: 1 :: [ beau ]
pas_d_indication_niveau0 :: 1 :: [ découvrir ]
Total feature counts: 8

