====== Sentence Level Features ======

1. Sentence: Même si les acteurs changent ,  l ' ensemble a besoin d ' une certaine stabilité .
Entity Name (Type) :: Même (LOC)


====== Text Level Features ======

Entity Name (Entity Type)
-------------------------
Même (LOC)
Total entitiy counts: 1

