====== Sentence Level Features ======

1. Sentence: ce phénomène , qui concerne l ' ensemble des villes de France joue , de 1946 à 1962 , moins au bénéfice de la région de Paris* ( + 27 % : de 6 , 6 millions à 8 , 4 millions) qu ' à celui des autres agglomérations françaises (+ 3 7 % : de 15 , 4 millions à 21 , 1 millions) .
Features :: Feature-Counts :: Feature-Texts
--------------------------------------------
adverbiaux_temporels::1::['de 1946 à 1962']
adverbiaux_duratifs_iteratifs::1::['de 1946 à 1962']
adverbiaux_pointage_absolu::1::['de 1946 à 1962']
adverbiaux_loc_temp_focalisation_id::1::['de 1946 à 1962']
adverbiaux_loc_temp_regionalisation_id::1::['de 1946 à 1962']
adverbiaux_dur_iter_absolu::1::['de 1946 à 1962']


====== Text Level Features ======

Features :: Feature-Counts :: Feature-Texts
--------------------------------------------
adverbiaux_temporels::1::['de 1946 à 1962']
adverbiaux_duratifs_iteratifs::1::['de 1946 à 1962']
adverbiaux_pointage_absolu::1::['de 1946 à 1962']
adverbiaux_loc_temp_focalisation_id::1::['de 1946 à 1962']
adverbiaux_loc_temp_regionalisation_id::1::['de 1946 à 1962']
adverbiaux_dur_iter_absolu::1::['de 1946 à 1962']
Total feature counts: 6

