====== Sentence Level Features ======

1. Sentence: Banques et assurances 				154 , 1	48 %
Entity Name (Type) :: Banques (ORG)


====== Text Level Features ======

Entity Name (Entity Type)
-------------------------
Banques (ORG)
Total entitiy counts: 1

