====== Sentence Level Features ======

1. Sentence: la zone industrielle est l ' endroit où on travaille , même si ce n ' est pas sale , et l ’ endroit où on réside est à part , et c ' est un peu la projection sur le sol de cette espèce d ' opération de découpage artificielle qu ' on avait opéré sur l ’ homme .
Features :: Feature-Counts :: Feature-Lemmas
--------------------------------------------
marqueurs :: 2 :: [ travailler, sale ]
appreciatif :: 2 :: [ travailler, sale ]
marqueurs_niveau2 :: 2 :: [ travailler, sale ]
appreciatif_niveau2 :: 2 :: [ travailler, sale ]
Total feature counts: 8


====== Text Level Features ======

Features :: Feature-Counts :: Feature-Lemmas
--------------------------------------------
marqueurs :: 2 :: [ travailler, sale ]
appreciatif :: 2 :: [ travailler, sale ]
marqueurs_niveau2 :: 2 :: [ travailler, sale ]
appreciatif_niveau2 :: 2 :: [ travailler, sale ]
Total feature counts: 8

