====== Sentence Level Features ======

1. Sentence: sinon ce n ' est pas vers l ' an 2090 que la région de Paris aurait plus de 14 millions d ' habitants , mais plus tôt .
Features :: Feature-Counts :: Feature-Texts
--------------------------------------------
adverbiaux_temporels::1::['vers l ` an 2090']
adverbiaux_localisation_temporelle::1::['vers l ` an 2090']
adverbiaux_pointage_absolu::1::['vers l ` an 2090']
adverbiaux_loc_temp_focalisation_id::1::['vers l ` an 2090']
adverbiaux_loc_temp_regionalisation_non_id::1::['vers l ` an 2090']
adverbiaux_loc_temp_pointage_absolu::1::['vers l ` an 2090']


====== Text Level Features ======

Features :: Feature-Counts :: Feature-Texts
--------------------------------------------
adverbiaux_temporels::1::['vers l ` an 2090']
adverbiaux_localisation_temporelle::1::['vers l ` an 2090']
adverbiaux_pointage_absolu::1::['vers l ` an 2090']
adverbiaux_loc_temp_focalisation_id::1::['vers l ` an 2090']
adverbiaux_loc_temp_regionalisation_non_id::1::['vers l ` an 2090']
adverbiaux_loc_temp_pointage_absolu::1::['vers l ` an 2090']
Total feature counts: 6

