
********** Entity Names Features **********
*******************************************

1. Sentence: Coupure qui , aujourd ' hui , renforce les effets de ghetto que l ' homogénéité sociale a progressivement initiée .
Entity Name (Type) :: Coupure (MISC)


********** Emotions Features **********
***************************************

1. Sentence: Coupure qui , aujourd ' hui , renforce les effets de ghetto que l ' homogénéité sociale a progressivement initiée .
No features found.


********** Modality Features **********
***************************************

1. Sentence: Coupure qui , aujourd ' hui , renforce les effets de ghetto que l ' homogénéité sociale a progressivement initiée .
No features found.


********** Adverbiaux Temporels Features **********
********************************************************

1. Sentence: Coupure qui , aujourd ' hui , renforce les effets de ghetto que l ' homogénéité sociale a progressivement initiée .
No features found.

