
********** Entity Names Features **********
*******************************************

2. Sentence: Quitter pour revenir .
No features found.


********** Emotions Features **********
***************************************

2. Sentence: Quitter pour revenir .
No features found.


********** Modality Features **********
***************************************

2. Sentence: Quitter pour revenir .
Features :: Feature-Counts :: Feature-Lemmas
--------------------------------------------
marqueurs :: 1 :: [ quitter ]
alethique :: 1 :: [ quitter ]
marqueurs_niveau2 :: 1 :: [ quitter ]
alethique_niveau2 :: 1 :: [ quitter ]
Total feature counts: 4


********** Adverbiaux Temporels Features **********
********************************************************

2. Sentence: Quitter pour revenir .
No features found.

