====== Sentence Level Features ======

1. Sentence: L ' enjeu de l ' urbanisme est bien de trouver des réponses à ce type de demande .
Entity Name (Type) :: L (LOC)


====== Text Level Features ======

Entity Name (Entity Type)
-------------------------
L (LOC)
Total entitiy counts: 1

