
********** Entity Names Features **********
*******************************************

1. Sentence: Le pari de Saint-Nazaire est d ' avoir misé sur l ' urbain pour relancer une ville en crise économique .
Entity Name (Type) :: Saint-Nazaire (LOC)


********** Emotions Features **********
***************************************

1. Sentence: Le pari de Saint-Nazaire est d ' avoir misé sur l ' urbain pour relancer une ville en crise économique .
No features found.


********** Modality Features **********
***************************************

1. Sentence: Le pari de Saint-Nazaire est d ' avoir misé sur l ' urbain pour relancer une ville en crise économique .
Features :: Feature-Counts :: Feature-Lemmas
--------------------------------------------
marqueurs :: 1 :: [ crise ]
appreciatif :: 1 :: [ crise ]
epistemique :: 1 :: [ crise ]
marqueurs_niveau2 :: 1 :: [ crise ]
appreciatif_niveau2 :: 1 :: [ crise ]
epistemique_niveau2 :: 1 :: [ crise ]
Total feature counts: 6


********** Adverbiaux Temporels Features **********
********************************************************

1. Sentence: Le pari de Saint-Nazaire est d ' avoir misé sur l ' urbain pour relancer une ville en crise économique .
No features found.

