====== Sentence Level Features ======

1. Sentence: Dans une enquête récente , 20 % des personnes interrogées ont estimé qu ' en matière d ' urbanisme il fallait prendre une perspective plus lointaine que l ' an 2000 .
Features :: Feature-Counts :: Feature-Texts
--------------------------------------------
adverbiaux_temporels::1::['l ` an 2000']
adverbiaux_localisation_temporelle::1::['l ` an 2000']
adverbiaux_pointage_absolu::1::['l ` an 2000']
adverbiaux_loc_temp_focalisation_id::1::['l ` an 2000']
adverbiaux_loc_temp_regionalisation_id::1::['l ` an 2000']
adverbiaux_loc_temp_pointage_absolu::1::['l ` an 2000']


====== Text Level Features ======

Features :: Feature-Counts :: Feature-Texts
--------------------------------------------
adverbiaux_temporels::1::['l ` an 2000']
adverbiaux_localisation_temporelle::1::['l ` an 2000']
adverbiaux_pointage_absolu::1::['l ` an 2000']
adverbiaux_loc_temp_focalisation_id::1::['l ` an 2000']
adverbiaux_loc_temp_regionalisation_id::1::['l ` an 2000']
adverbiaux_loc_temp_pointage_absolu::1::['l ` an 2000']
Total feature counts: 6

