====== Sentence Level Features ======

1. Sentence: Dans une enquête récente , 20 % des personnes interrogées ont estimé qu ' en matière d ' urbanisme il fallait prendre une perspective plus lointaine que l ' an 2000 .
Features :: Feature-Counts :: Feature-Lemmas
--------------------------------------------
marqueurs :: 2 :: [ personne, falloir ]
alethique :: 1 :: [ personne ]
deontique :: 1 :: [ falloir ]
marqueurs_niveau3 :: 1 :: [ falloir ]
marqueurs_niveau2 :: 1 :: [ personne ]
alethique_niveau2 :: 1 :: [ personne ]
deontique_niveau3 :: 1 :: [ falloir ]
Total feature counts: 8


====== Text Level Features ======

Features :: Feature-Counts :: Feature-Lemmas
--------------------------------------------
marqueurs :: 2 :: [ personne, falloir ]
alethique :: 1 :: [ personne ]
deontique :: 1 :: [ falloir ]
marqueurs_niveau3 :: 1 :: [ falloir ]
marqueurs_niveau2 :: 1 :: [ personne ]
alethique_niveau2 :: 1 :: [ personne ]
deontique_niveau3 :: 1 :: [ falloir ]
Total feature counts: 8

