====== Sentence Level Features ======

1. Sentence: Mais ils sont surtout offerts à l ' interprétation , à la manière d ' une pièce de théâtre ou d ' un mythe 1 .
Features :: Feature-Counts :: Feature-Lemmas
--------------------------------------------
marqueurs :: 1 :: [ offrir ]
appreciatif :: 1 :: [ offrir ]
marqueurs_niveau2 :: 1 :: [ offrir ]
appreciatif_niveau2 :: 1 :: [ offrir ]
Total feature counts: 4


====== Text Level Features ======

Features :: Feature-Counts :: Feature-Lemmas
--------------------------------------------
marqueurs :: 1 :: [ offrir ]
appreciatif :: 1 :: [ offrir ]
marqueurs_niveau2 :: 1 :: [ offrir ]
appreciatif_niveau2 :: 1 :: [ offrir ]
Total feature counts: 4

