====== Sentence Level Features ======

1. Sentence: Pour donner davantage de cohérence à la ville-territoire , faite de produits (commerces , restaurants , hôtels , etc . ) , il faut s ' interroger sur le projet de ville à élaborer et prendre en compte les évolutions des modes de vie .
Features :: Feature-Counts :: Feature-Lemmas
--------------------------------------------
marqueurs :: 1 :: [ falloir ]
deontique :: 1 :: [ falloir ]
marqueurs_niveau3 :: 1 :: [ falloir ]
deontique_niveau3 :: 1 :: [ falloir ]
Total feature counts: 4


====== Text Level Features ======

Features :: Feature-Counts :: Feature-Lemmas
--------------------------------------------
marqueurs :: 1 :: [ falloir ]
deontique :: 1 :: [ falloir ]
marqueurs_niveau3 :: 1 :: [ falloir ]
deontique_niveau3 :: 1 :: [ falloir ]
Total feature counts: 4

