====== Sentence Level Features ======

1. Sentence: Les architectes finlandais ont su jouer des écarts , des distances et magnifier par les édifices les grands espaces naturels .
Features :: Feature-Counts :: Feature-Lemmas
--------------------------------------------
marqueurs :: 3 :: [ savoir, jouer, grand ]
epistemique :: 2 :: [ savoir, grand ]
marqueurs_niveau3 :: 2 :: [ savoir, grand ]
epistemique_niveau3 :: 2 :: [ savoir, grand ]
appreciatif :: 1 :: [ jouer ]
marqueurs_niveau2 :: 1 :: [ jouer ]
appreciatif_niveau2 :: 1 :: [ jouer ]
Total feature counts: 12


====== Text Level Features ======

Features :: Feature-Counts :: Feature-Lemmas
--------------------------------------------
marqueurs :: 3 :: [ savoir, jouer, grand ]
epistemique :: 2 :: [ savoir, grand ]
marqueurs_niveau3 :: 2 :: [ savoir, grand ]
epistemique_niveau3 :: 2 :: [ savoir, grand ]
appreciatif :: 1 :: [ jouer ]
marqueurs_niveau2 :: 1 :: [ jouer ]
appreciatif_niveau2 :: 1 :: [ jouer ]
Total feature counts: 12

