
********** Entity Names Features **********
*******************************************

1. Sentence: Seule une intelligence conjointe , cultivée , ouverte et exigeante peut en effet nous permettre , à terme , de changer d ' époque .
No features found.


********** Emotions Features **********
***************************************

1. Sentence: Seule une intelligence conjointe , cultivée , ouverte et exigeante peut en effet nous permettre , à terme , de changer d ' époque .
No features found.


********** Modality Features **********
***************************************

1. Sentence: Seule une intelligence conjointe , cultivée , ouverte et exigeante peut en effet nous permettre , à terme , de changer d ' époque .
Features :: Feature-Counts :: Feature-Lemmas
--------------------------------------------
marqueurs :: 3 :: [ ouvrir, pouvoir, permettre ]
marqueurs_niveau3 :: 3 :: [ ouvrir, pouvoir, permettre ]
deontique :: 2 :: [ pouvoir, permettre ]
deontique_niveau3 :: 2 :: [ pouvoir, permettre ]
alethique :: 1 :: [ pouvoir ]
boulique :: 1 :: [ ouvrir ]
epistemique :: 1 :: [ pouvoir ]
alethique_niveau3 :: 1 :: [ pouvoir ]
boulique_niveau3 :: 1 :: [ ouvrir ]
epistemique_niveau3 :: 1 :: [ pouvoir ]
Total feature counts: 16


********** Adverbiaux Temporels Features **********
********************************************************

1. Sentence: Seule une intelligence conjointe , cultivée , ouverte et exigeante peut en effet nous permettre , à terme , de changer d ' époque .
No features found.

