====== Sentence Level Features ======

1. Sentence: En 1987 , le premier de mes cinquante-quatre voyages en Finlande fut un choc décisif 1 .
Entity Name (Type) :: Finlande (LOC)


====== Text Level Features ======

Entity Name (Entity Type)
-------------------------
Finlande (LOC)
Total entitiy counts: 1

