
********** Entity Names Features **********
*******************************************

1. Sentence: L ' avenue Pierre-Mendès-France correspond à l ' entrée principale de Montpellier .
Entity Name (Type) :: Montpellier (LOC)


********** Emotions Features **********
***************************************

1. Sentence: L ' avenue Pierre-Mendès-France correspond à l ' entrée principale de Montpellier .
No features found.


********** Modality Features **********
***************************************

1. Sentence: L ' avenue Pierre-Mendès-France correspond à l ' entrée principale de Montpellier .
No features found.


********** Adverbiaux Temporels Features **********
********************************************************

1. Sentence: L ' avenue Pierre-Mendès-France correspond à l ' entrée principale de Montpellier .
No features found.

