====== Sentence Level Features ======

1. Sentence: La réflexion que nous menons est aussi une forme de résistance à une approche technocratique des questions territoriales et architecturales .
Features :: Feature-Counts :: Feature-Lemmas
--------------------------------------------
marqueurs :: 1 :: [ résistance ]
axiologique :: 1 :: [ résistance ]
marqueurs_niveau3 :: 1 :: [ résistance ]
axiologique_niveau3 :: 1 :: [ résistance ]
Total feature counts: 4


====== Text Level Features ======

Features :: Feature-Counts :: Feature-Lemmas
--------------------------------------------
marqueurs :: 1 :: [ résistance ]
axiologique :: 1 :: [ résistance ]
marqueurs_niveau3 :: 1 :: [ résistance ]
axiologique_niveau3 :: 1 :: [ résistance ]
Total feature counts: 4

