
********** Entity Names Features **********
*******************************************

1. Sentence: Métamorphose de l ' ordinaire la taille du parc actuel de la ville au XIXe siècle) .
No features found.


********** Emotions Features **********
***************************************

1. Sentence: Métamorphose de l ' ordinaire la taille du parc actuel de la ville au XIXe siècle) .
No features found.


********** Modality Features **********
***************************************

1. Sentence: Métamorphose de l ' ordinaire la taille du parc actuel de la ville au XIXe siècle) .
No features found.


********** Adverbiaux Temporels Features **********
********************************************************

1. Sentence: Métamorphose de l ' ordinaire la taille du parc actuel de la ville au XIXe siècle) .
Features :: Feature-Counts :: Feature-Texts
--------------------------------------------
adverbiaux_temporels::1::['au XIXe siècle']
adverbiaux_localisation_temporelle::1::['au XIXe siècle']
adverbiaux_pointage_absolu::1::['au XIXe siècle']
adverbiaux_loc_temp_focalisation_id::1::['au XIXe siècle']
adverbiaux_loc_temp_regionalisation_id::1::['au XIXe siècle']
adverbiaux_loc_temp_pointage_absolu::1::['au XIXe siècle']

