
********** Entity Names Features **********
*******************************************

1. Sentence: Faire un projet , modifier le territoire , c ' est agir sur le «langage» , c ' est imaginer non pas une forme , mais un processus de transformation .
No features found.


********** Emotions Features **********
***************************************

1. Sentence: Faire un projet , modifier le territoire , c ' est agir sur le «langage» , c ' est imaginer non pas une forme , mais un processus de transformation .
No features found.


********** Modality Features **********
***************************************

1. Sentence: Faire un projet , modifier le territoire , c ' est agir sur le «langage» , c ' est imaginer non pas une forme , mais un processus de transformation .
Features :: Feature-Counts :: Feature-Lemmas
--------------------------------------------
marqueurs :: 1 :: [ imaginer ]
epistemique :: 1 :: [ imaginer ]
marqueurs_niveau3 :: 1 :: [ imaginer ]
epistemique_niveau3 :: 1 :: [ imaginer ]
Total feature counts: 4


********** Adverbiaux Temporels Features **********
********************************************************

1. Sentence: Faire un projet , modifier le territoire , c ' est agir sur le «langage» , c ' est imaginer non pas une forme , mais un processus de transformation .
No features found.

