
********** Entity Names Features **********
*******************************************

1. Sentence: Il nous reste quatre ou cinq ans de chantier .
No features found.


********** Emotions Features **********
***************************************

1. Sentence: Il nous reste quatre ou cinq ans de chantier .
No features found.


********** Modality Features **********
***************************************

1. Sentence: Il nous reste quatre ou cinq ans de chantier .
No features found.


********** Adverbiaux Temporels Features **********
********************************************************

1. Sentence: Il nous reste quatre ou cinq ans de chantier .
No features found.

