====== Sentence Level Features ======

1. Sentence: Elle le sera d ' autant plus que subsistera la pénurie de logements .
Features :: Feature-Counts :: Feature-Lemmas
--------------------------------------------
marqueurs :: 1 :: [ pénurie ]
pas_d_indication :: 1 :: [ pénurie ]
marqueurs_niveau0 :: 1 :: [ pénurie ]
pas_d_indication_niveau0 :: 1 :: [ pénurie ]
Total feature counts: 4


====== Text Level Features ======

Features :: Feature-Counts :: Feature-Lemmas
--------------------------------------------
marqueurs :: 1 :: [ pénurie ]
pas_d_indication :: 1 :: [ pénurie ]
marqueurs_niveau0 :: 1 :: [ pénurie ]
pas_d_indication_niveau0 :: 1 :: [ pénurie ]
Total feature counts: 4

