====== Sentence Level Features ======

1. Sentence: Il y a une floraison de villes nouvelles sur la rive gauche de la Seine amont et de villes nouvelles sur la rive droite de la Seine amont .
Features :: Feature-Counts :: Feature-Lemmas
--------------------------------------------
marqueurs :: 1 :: [ droit ]
deontique :: 1 :: [ droit ]
marqueurs_niveau3 :: 1 :: [ droit ]
deontique_niveau3 :: 1 :: [ droit ]
Total feature counts: 4


====== Text Level Features ======

Features :: Feature-Counts :: Feature-Lemmas
--------------------------------------------
marqueurs :: 1 :: [ droit ]
deontique :: 1 :: [ droit ]
marqueurs_niveau3 :: 1 :: [ droit ]
deontique_niveau3 :: 1 :: [ droit ]
Total feature counts: 4

