====== Sentence Level Features ======

1. Sentence: Le passé nous a suffisamment démontré les méfaits de cette approche segmentée , et cela implique une vraie polyvalence et une capacité à intégrer de nombreux périmètres et échelles en permanence .
Features :: Feature-Counts :: Feature-Lemmas
--------------------------------------------
marqueurs :: 2 :: [ suffisamment, vrai ]
alethique :: 1 :: [ vrai ]
pas_d_indication :: 1 :: [ suffisamment ]
marqueurs_niveau1 :: 1 :: [ vrai ]
marqueurs_niveau0 :: 1 :: [ suffisamment ]
alethique_niveau1 :: 1 :: [ vrai ]
pas_d_indication_niveau0 :: 1 :: [ suffisamment ]
Total feature counts: 8


====== Text Level Features ======

Features :: Feature-Counts :: Feature-Lemmas
--------------------------------------------
marqueurs :: 2 :: [ suffisamment, vrai ]
alethique :: 1 :: [ vrai ]
pas_d_indication :: 1 :: [ suffisamment ]
marqueurs_niveau1 :: 1 :: [ vrai ]
marqueurs_niveau0 :: 1 :: [ suffisamment ]
alethique_niveau1 :: 1 :: [ vrai ]
pas_d_indication_niveau0 :: 1 :: [ suffisamment ]
Total feature counts: 8

