====== Sentence Level Features ======

1. Sentence: Le Louvre-Lens , lui , n ' a aucun impact sur l ' activité des entreprises locales si ce n ' est que des repas d ' affaires peuvent se dérouler en ses murs plutôt qu ' à Arras .
Features :: Feature-Counts :: Feature-Lemmas
--------------------------------------------
marqueurs :: 4 :: [ lui, aucun, repas, pouvoir ]
alethique :: 4 :: [ lui, aucun, repas, pouvoir ]
marqueurs_niveau3 :: 3 :: [ lui, aucun, pouvoir ]
alethique_niveau3 :: 3 :: [ lui, aucun, pouvoir ]
epistemique :: 2 :: [ lui, pouvoir ]
epistemique_niveau3 :: 2 :: [ lui, pouvoir ]
appreciatif :: 1 :: [ repas ]
deontique :: 1 :: [ pouvoir ]
marqueurs_niveau1 :: 1 :: [ repas ]
alethique_niveau1 :: 1 :: [ repas ]
appreciatif_niveau1 :: 1 :: [ repas ]
deontique_niveau3 :: 1 :: [ pouvoir ]
Total feature counts: 24


====== Text Level Features ======

Features :: Feature-Counts :: Feature-Lemmas
--------------------------------------------
marqueurs :: 4 :: [ lui, aucun, repas, pouvoir ]
alethique :: 4 :: [ lui, aucun, repas, pouvoir ]
marqueurs_niveau3 :: 3 :: [ lui, aucun, pouvoir ]
alethique_niveau3 :: 3 :: [ lui, aucun, pouvoir ]
epistemique :: 2 :: [ lui, pouvoir ]
epistemique_niveau3 :: 2 :: [ lui, pouvoir ]
appreciatif :: 1 :: [ repas ]
deontique :: 1 :: [ pouvoir ]
marqueurs_niveau1 :: 1 :: [ repas ]
alethique_niveau1 :: 1 :: [ repas ]
appreciatif_niveau1 :: 1 :: [ repas ]
deontique_niveau3 :: 1 :: [ pouvoir ]
Total feature counts: 24

