====== Sentence Level Features ======

1. Sentence: Pourquoi envoyer à Casablanca les étudiants de «la ville et des territoires» observer de près et conforter d ' illégales constructions , et tenter même d ' en faire le germe de certaines villes nouvelles ?
Features :: Feature-Counts :: Feature-Lemmas
--------------------------------------------
marqueurs :: 3 :: [ illégal, tenter, certain ]
marqueurs_niveau3 :: 2 :: [ illégal, certain ]
axiologique :: 1 :: [ illégal ]
boulique :: 1 :: [ tenter ]
epistemique :: 1 :: [ certain ]
marqueurs_niveau2 :: 1 :: [ tenter ]
axiologique_niveau3 :: 1 :: [ illégal ]
boulique_niveau2 :: 1 :: [ tenter ]
epistemique_niveau3 :: 1 :: [ certain ]
Total feature counts: 12


====== Text Level Features ======

Features :: Feature-Counts :: Feature-Lemmas
--------------------------------------------
marqueurs :: 3 :: [ illégal, tenter, certain ]
marqueurs_niveau3 :: 2 :: [ illégal, certain ]
axiologique :: 1 :: [ illégal ]
boulique :: 1 :: [ tenter ]
epistemique :: 1 :: [ certain ]
marqueurs_niveau2 :: 1 :: [ tenter ]
axiologique_niveau3 :: 1 :: [ illégal ]
boulique_niveau2 :: 1 :: [ tenter ]
epistemique_niveau3 :: 1 :: [ certain ]
Total feature counts: 12

