
********** Entity Names Features **********
*******************************************

1. Sentence: En voici quelques-uns qui me motivent particulièrement  : le projet Euralens animé par Jean-Louis Subileau dans le bassin minier du Pas-de-Calais ;
Entity Name (Type) :: bassin minier du Pas-de-Calais (LOC)


********** Emotions Features **********
***************************************

1. Sentence: En voici quelques-uns qui me motivent particulièrement  : le projet Euralens animé par Jean-Louis Subileau dans le bassin minier du Pas-de-Calais ;
No features found.


********** Modality Features **********
***************************************

1. Sentence: En voici quelques-uns qui me motivent particulièrement  : le projet Euralens animé par Jean-Louis Subileau dans le bassin minier du Pas-de-Calais ;
Features :: Feature-Counts :: Feature-Lemmas
--------------------------------------------
marqueurs :: 1 :: [ quelqu'un ]
alethique :: 1 :: [ quelqu'un ]
marqueurs_niveau2 :: 1 :: [ quelqu'un ]
alethique_niveau2 :: 1 :: [ quelqu'un ]
Total feature counts: 4


********** Adverbiaux Temporels Features **********
********************************************************

1. Sentence: En voici quelques-uns qui me motivent particulièrement  : le projet Euralens animé par Jean-Louis Subileau dans le bassin minier du Pas-de-Calais ;
No features found.

