====== Sentence Level Features ======

1. Sentence: Nous souhaitons faire mention de tous ceux qui ont travaillé avec nous et qui ont tous , chacun à leur manière , beaucoup apporté à ce travail commun .
Features :: Feature-Counts :: Feature-Lemmas
--------------------------------------------
marqueurs :: 3 :: [ travailler, beaucoup, travail ]
appreciatif :: 2 :: [ travailler, travail ]
epistemique :: 1 :: [ beaucoup ]
marqueurs_niveau3 :: 1 :: [ travail ]
marqueurs_niveau2 :: 1 :: [ travailler ]
marqueurs_niveau1 :: 1 :: [ beaucoup ]
appreciatif_niveau3 :: 1 :: [ travail ]
appreciatif_niveau2 :: 1 :: [ travailler ]
epistemique_niveau1 :: 1 :: [ beaucoup ]
Total feature counts: 12


====== Text Level Features ======

Features :: Feature-Counts :: Feature-Lemmas
--------------------------------------------
marqueurs :: 3 :: [ travailler, beaucoup, travail ]
appreciatif :: 2 :: [ travailler, travail ]
epistemique :: 1 :: [ beaucoup ]
marqueurs_niveau3 :: 1 :: [ travail ]
marqueurs_niveau2 :: 1 :: [ travailler ]
marqueurs_niveau1 :: 1 :: [ beaucoup ]
appreciatif_niveau3 :: 1 :: [ travail ]
appreciatif_niveau2 :: 1 :: [ travailler ]
epistemique_niveau1 :: 1 :: [ beaucoup ]
Total feature counts: 12

