====== Sentence Level Features ======

1. Sentence: Lorsqu ' il s ' agit de travailler dans des zones péri urbaines qui ont perdu tout contact avec leur géographie naturelle , essayer de retrouver cette géographie n ' a aucun sens .
Features :: Feature-Counts :: Feature-Lemmas
--------------------------------------------
marqueurs :: 4 :: [ travailler, perdre, essayer, aucun ]
appreciatif :: 2 :: [ travailler, perdre ]
marqueurs_niveau3 :: 2 :: [ essayer, aucun ]
marqueurs_niveau2 :: 2 :: [ travailler, perdre ]
appreciatif_niveau2 :: 2 :: [ travailler, perdre ]
alethique :: 1 :: [ aucun ]
boulique :: 1 :: [ essayer ]
epistemique :: 1 :: [ essayer ]
alethique_niveau3 :: 1 :: [ aucun ]
boulique_niveau3 :: 1 :: [ essayer ]
epistemique_niveau3 :: 1 :: [ essayer ]
Total feature counts: 18


====== Text Level Features ======

Features :: Feature-Counts :: Feature-Lemmas
--------------------------------------------
marqueurs :: 4 :: [ travailler, perdre, essayer, aucun ]
appreciatif :: 2 :: [ travailler, perdre ]
marqueurs_niveau3 :: 2 :: [ essayer, aucun ]
marqueurs_niveau2 :: 2 :: [ travailler, perdre ]
appreciatif_niveau2 :: 2 :: [ travailler, perdre ]
alethique :: 1 :: [ aucun ]
boulique :: 1 :: [ essayer ]
epistemique :: 1 :: [ essayer ]
alethique_niveau3 :: 1 :: [ aucun ]
boulique_niveau3 :: 1 :: [ essayer ]
epistemique_niveau3 :: 1 :: [ essayer ]
Total feature counts: 18

