
********** Entity Names Features **********
*******************************************

1. Sentence: Frank Lloyd Wright m ' a fait rêver d ' une architecture poétique née du site et d ' un urbanisme ﬂirtant avec la nature .
Entity Name (Type) :: Frank Lloyd Wright (PER)


********** Emotions Features **********
***************************************

1. Sentence: Frank Lloyd Wright m ' a fait rêver d ' une architecture poétique née du site et d ' un urbanisme ﬂirtant avec la nature .
No features found.


********** Modality Features **********
***************************************

1. Sentence: Frank Lloyd Wright m ' a fait rêver d ' une architecture poétique née du site et d ' un urbanisme ﬂirtant avec la nature .
Features :: Feature-Counts :: Feature-Lemmas
--------------------------------------------
marqueurs :: 1 :: [ rêver ]
boulique :: 1 :: [ rêver ]
marqueurs_niveau2 :: 1 :: [ rêver ]
boulique_niveau2 :: 1 :: [ rêver ]
Total feature counts: 4


********** Adverbiaux Temporels Features **********
********************************************************

1. Sentence: Frank Lloyd Wright m ' a fait rêver d ' une architecture poétique née du site et d ' un urbanisme ﬂirtant avec la nature .
No features found.

