
********** Entity Names Features **********
*******************************************

1. Sentence: Elles auront les caractéristiques de l ' Auto-Route :
Entity Name (Type) :: Auto-Route (MISC)


********** Emotions Features **********
***************************************

1. Sentence: Elles auront les caractéristiques de l ' Auto-Route :
No features found.


********** Modality Features **********
***************************************

1. Sentence: Elles auront les caractéristiques de l ' Auto-Route :
No features found.


********** Adverbiaux Temporels Features **********
********************************************************

1. Sentence: Elles auront les caractéristiques de l ' Auto-Route :
No features found.

