====== Sentence Level Features ======

1. Sentence: Copenhague : + 1 million en 40 ans (de 1 , 5 à 2 , 5 millions , de 1960 à 2000) .
No features found.


====== Text Level Features ======

No features found.

