====== Sentence Level Features ======

1. Sentence: Financer le gain d ' intelligence des projets  : les 1%
Features :: Feature-Counts :: Feature-Lemmas
--------------------------------------------
marqueurs :: 1 :: [ gain ]
appreciatif :: 1 :: [ gain ]
marqueurs_niveau2 :: 1 :: [ gain ]
appreciatif_niveau2 :: 1 :: [ gain ]
Total feature counts: 4


====== Text Level Features ======

Features :: Feature-Counts :: Feature-Lemmas
--------------------------------------------
marqueurs :: 1 :: [ gain ]
appreciatif :: 1 :: [ gain ]
marqueurs_niveau2 :: 1 :: [ gain ]
appreciatif_niveau2 :: 1 :: [ gain ]
Total feature counts: 4

