
********** Entity Names Features **********
*******************************************

1. Sentence: Le processus amorce une inversion du statut de cette arrière-ville (et donc de ses habitants) , qui se pare de nouvelles qualités .
Entity Name (Type) :: Le (LOC)


********** Emotions Features **********
***************************************

1. Sentence: Le processus amorce une inversion du statut de cette arrière-ville (et donc de ses habitants) , qui se pare de nouvelles qualités .
No features found.


********** Modality Features **********
***************************************

1. Sentence: Le processus amorce une inversion du statut de cette arrière-ville (et donc de ses habitants) , qui se pare de nouvelles qualités .
No features found.


********** Adverbiaux Temporels Features **********
********************************************************

1. Sentence: Le processus amorce une inversion du statut de cette arrière-ville (et donc de ses habitants) , qui se pare de nouvelles qualités .
No features found.

