
********** Entity Names Features **********
*******************************************

1. Sentence: Mais si le concept de parc ramifié apparaissait comme une amélioration de la faisabilité , son intérêt est surtout d ' associer étroitement parc et bâti .
No features found.


********** Emotions Features **********
***************************************

1. Sentence: Mais si le concept de parc ramifié apparaissait comme une amélioration de la faisabilité , son intérêt est surtout d ' associer étroitement parc et bâti .
Tokens having emotion: [ intérêt ]
Lemmas having emotion: [ intérêt ]
Categories of the emotion lemmas: [ desir ]


********** Modality Features **********
***************************************

1. Sentence: Mais si le concept de parc ramifié apparaissait comme une amélioration de la faisabilité , son intérêt est surtout d ' associer étroitement parc et bâti .
Features :: Feature-Counts :: Feature-Lemmas
--------------------------------------------
marqueurs :: 1 :: [ intérêt ]
boulique :: 1 :: [ intérêt ]
marqueurs_niveau2 :: 1 :: [ intérêt ]
boulique_niveau2 :: 1 :: [ intérêt ]
Total feature counts: 4


********** Adverbiaux Temporels Features **********
********************************************************

1. Sentence: Mais si le concept de parc ramifié apparaissait comme une amélioration de la faisabilité , son intérêt est surtout d ' associer étroitement parc et bâti .
No features found.

