
********** Entity Names Features **********
*******************************************

1. Sentence: Alors que se passe-t-il à l ’ intérieur de cette région urbaine ?
No features found.


********** Emotions Features **********
***************************************

1. Sentence: Alors que se passe-t-il à l ’ intérieur de cette région urbaine ?
No features found.


********** Modality Features **********
***************************************

1. Sentence: Alors que se passe-t-il à l ’ intérieur de cette région urbaine ?
No features found.


********** Adverbiaux Temporels Features **********
********************************************************

1. Sentence: Alors que se passe-t-il à l ’ intérieur de cette région urbaine ?
No features found.

