====== Sentence Level Features ======

1. Sentence: Enquête réalisée par la Société d ' études techniques et économiques dans 343 bureaux pour le compte de la Délégation générale au District de la région de Paris .
Features :: Feature-Counts :: Feature-Lemmas
--------------------------------------------
marqueurs :: 1 :: [ réaliser ]
alethique :: 1 :: [ réaliser ]
marqueurs_niveau1 :: 1 :: [ réaliser ]
alethique_niveau1 :: 1 :: [ réaliser ]
Total feature counts: 4


====== Text Level Features ======

Features :: Feature-Counts :: Feature-Lemmas
--------------------------------------------
marqueurs :: 1 :: [ réaliser ]
alethique :: 1 :: [ réaliser ]
marqueurs_niveau1 :: 1 :: [ réaliser ]
alethique_niveau1 :: 1 :: [ réaliser ]
Total feature counts: 4

