
********** Entity Names Features **********
*******************************************

1. Sentence: En démontrant d ' une «force de frappe» par une chaîne de projets autour du fleuve — des projets de nature et d ' ampleur très différentes : des projets environnementaux , urbains , économiques , culturels , de déplacement…
No features found.


********** Emotions Features **********
***************************************

1. Sentence: En démontrant d ' une «force de frappe» par une chaîne de projets autour du fleuve — des projets de nature et d ' ampleur très différentes : des projets environnementaux , urbains , économiques , culturels , de déplacement…
No features found.


********** Modality Features **********
***************************************

1. Sentence: En démontrant d ' une «force de frappe» par une chaîne de projets autour du fleuve — des projets de nature et d ' ampleur très différentes : des projets environnementaux , urbains , économiques , culturels , de déplacement…
Features :: Feature-Counts :: Feature-Lemmas
--------------------------------------------
marqueurs :: 2 :: [ force, frapper ]
appreciatif :: 1 :: [ frapper ]
axiologique :: 1 :: [ frapper ]
pas_d_indication :: 1 :: [ force ]
marqueurs_niveau1 :: 1 :: [ frapper ]
marqueurs_niveau0 :: 1 :: [ force ]
appreciatif_niveau1 :: 1 :: [ frapper ]
axiologique_niveau1 :: 1 :: [ frapper ]
pas_d_indication_niveau0 :: 1 :: [ force ]
Total feature counts: 10


********** Adverbiaux Temporels Features **********
********************************************************

1. Sentence: En démontrant d ' une «force de frappe» par une chaîne de projets autour du fleuve — des projets de nature et d ' ampleur très différentes : des projets environnementaux , urbains , économiques , culturels , de déplacement…
No features found.

