====== Sentence Level Features ======

1. Sentence: Un troisième élément peut être ajouté : l ' urbanisme doit créer le cadre et les conditions d ' une meilleure architecture .
Features :: Feature-Counts :: Feature-Lemmas
--------------------------------------------
marqueurs :: 3 :: [ pouvoir, devoir, meilleur ]
alethique :: 2 :: [ pouvoir, devoir ]
deontique :: 2 :: [ pouvoir, devoir ]
epistemique :: 2 :: [ pouvoir, devoir ]
marqueurs_niveau3 :: 2 :: [ pouvoir, devoir ]
alethique_niveau3 :: 2 :: [ pouvoir, devoir ]
deontique_niveau3 :: 2 :: [ pouvoir, devoir ]
epistemique_niveau3 :: 2 :: [ pouvoir, devoir ]
appreciatif :: 1 :: [ meilleur ]
axiologique :: 1 :: [ meilleur ]
marqueurs_niveau2 :: 1 :: [ meilleur ]
appreciatif_niveau2 :: 1 :: [ meilleur ]
axiologique_niveau2 :: 1 :: [ meilleur ]
Total feature counts: 22


====== Text Level Features ======

Features :: Feature-Counts :: Feature-Lemmas
--------------------------------------------
marqueurs :: 3 :: [ pouvoir, devoir, meilleur ]
alethique :: 2 :: [ pouvoir, devoir ]
deontique :: 2 :: [ pouvoir, devoir ]
epistemique :: 2 :: [ pouvoir, devoir ]
marqueurs_niveau3 :: 2 :: [ pouvoir, devoir ]
alethique_niveau3 :: 2 :: [ pouvoir, devoir ]
deontique_niveau3 :: 2 :: [ pouvoir, devoir ]
epistemique_niveau3 :: 2 :: [ pouvoir, devoir ]
appreciatif :: 1 :: [ meilleur ]
axiologique :: 1 :: [ meilleur ]
marqueurs_niveau2 :: 1 :: [ meilleur ]
appreciatif_niveau2 :: 1 :: [ meilleur ]
axiologique_niveau2 :: 1 :: [ meilleur ]
Total feature counts: 22

