====== Sentence Level Features ======

1. Sentence: c ' est que tout de même une des caractéristiques du grand ensemble , en dehors de ses défauts accidentels auxquels on pourrait remédier c ’ est qu ' il combine les inconvénients de la maison individuelle avec ceux de l ' habitat collectif .
Features :: Feature-Counts :: Feature-Lemmas
--------------------------------------------
marqueurs :: 2 :: [ grand, pouvoir ]
epistemique :: 2 :: [ grand, pouvoir ]
marqueurs_niveau3 :: 2 :: [ grand, pouvoir ]
epistemique_niveau3 :: 2 :: [ grand, pouvoir ]
alethique :: 1 :: [ pouvoir ]
deontique :: 1 :: [ pouvoir ]
alethique_niveau3 :: 1 :: [ pouvoir ]
deontique_niveau3 :: 1 :: [ pouvoir ]
Total feature counts: 12


====== Text Level Features ======

Features :: Feature-Counts :: Feature-Lemmas
--------------------------------------------
marqueurs :: 2 :: [ grand, pouvoir ]
epistemique :: 2 :: [ grand, pouvoir ]
marqueurs_niveau3 :: 2 :: [ grand, pouvoir ]
epistemique_niveau3 :: 2 :: [ grand, pouvoir ]
alethique :: 1 :: [ pouvoir ]
deontique :: 1 :: [ pouvoir ]
alethique_niveau3 :: 1 :: [ pouvoir ]
deontique_niveau3 :: 1 :: [ pouvoir ]
Total feature counts: 12

