
********** Entity Names Features **********
*******************************************

1. Sentence: La multiplication des universités périphériques , qu ' entraîne l ' augmentation des étudiants prévisible en région parisienne , offre un autre instrument d ' orientation .
No features found.


********** Emotions Features **********
***************************************

1. Sentence: La multiplication des universités périphériques , qu ' entraîne l ' augmentation des étudiants prévisible en région parisienne , offre un autre instrument d ' orientation .
No features found.


********** Modality Features **********
***************************************

1. Sentence: La multiplication des universités périphériques , qu ' entraîne l ' augmentation des étudiants prévisible en région parisienne , offre un autre instrument d ' orientation .
Features :: Feature-Counts :: Feature-Lemmas
--------------------------------------------
marqueurs :: 1 :: [ offrir ]
appreciatif :: 1 :: [ offrir ]
marqueurs_niveau2 :: 1 :: [ offrir ]
appreciatif_niveau2 :: 1 :: [ offrir ]
Total feature counts: 4


********** Adverbiaux Temporels Features **********
********************************************************

1. Sentence: La multiplication des universités périphériques , qu ' entraîne l ' augmentation des étudiants prévisible en région parisienne , offre un autre instrument d ' orientation .
No features found.

