====== Sentence Level Features ======

1. Sentence: Malgré tout , nous avons considérablement gagné en compacité par rapport à l ' existant .
Features :: Feature-Counts :: Feature-Lemmas
--------------------------------------------
marqueurs :: 2 :: [ malgré, gagner ]
appreciatif :: 1 :: [ gagner ]
pas_d_indication :: 1 :: [ malgré ]
marqueurs_niveau2 :: 1 :: [ gagner ]
marqueurs_niveau0 :: 1 :: [ malgré ]
appreciatif_niveau2 :: 1 :: [ gagner ]
pas_d_indication_niveau0 :: 1 :: [ malgré ]
Total feature counts: 8


====== Text Level Features ======

Features :: Feature-Counts :: Feature-Lemmas
--------------------------------------------
marqueurs :: 2 :: [ malgré, gagner ]
appreciatif :: 1 :: [ gagner ]
pas_d_indication :: 1 :: [ malgré ]
marqueurs_niveau2 :: 1 :: [ gagner ]
marqueurs_niveau0 :: 1 :: [ malgré ]
appreciatif_niveau2 :: 1 :: [ gagner ]
pas_d_indication_niveau0 :: 1 :: [ malgré ]
Total feature counts: 8

