
********** Entity Names Features **********
*******************************************

1. Sentence: Le projet consiste en une vue d ' avenir partageable , une stratégie ou une construction prospective de tous ordres , social , économique , culturel , urbain…
No features found.


********** Emotions Features **********
***************************************

1. Sentence: Le projet consiste en une vue d ' avenir partageable , une stratégie ou une construction prospective de tous ordres , social , économique , culturel , urbain…
No features found.


********** Modality Features **********
***************************************

1. Sentence: Le projet consiste en une vue d ' avenir partageable , une stratégie ou une construction prospective de tous ordres , social , économique , culturel , urbain…
Features :: Feature-Counts :: Feature-Lemmas
--------------------------------------------
marqueurs :: 1 :: [ ordre ]
deontique :: 1 :: [ ordre ]
marqueurs_niveau2 :: 1 :: [ ordre ]
deontique_niveau2 :: 1 :: [ ordre ]
Total feature counts: 4


********** Adverbiaux Temporels Features **********
********************************************************

1. Sentence: Le projet consiste en une vue d ' avenir partageable , une stratégie ou une construction prospective de tous ordres , social , économique , culturel , urbain…
No features found.

