
********** Entity Names Features **********
*******************************************

1. Sentence: Je respecte les choix du professionnel . )
No features found.


********** Emotions Features **********
***************************************

1. Sentence: Je respecte les choix du professionnel . )
Tokens having emotion: [ respecte ]
Lemmas having emotion: [ respecter ]
Categories of the emotion lemmas: [ admiration ]


********** Modality Features **********
***************************************

1. Sentence: Je respecte les choix du professionnel . )
Features :: Feature-Counts :: Feature-Lemmas
--------------------------------------------
marqueurs :: 2 :: [ respecter, choix ]
marqueurs_niveau2 :: 2 :: [ respecter, choix ]
appreciatif :: 1 :: [ respecter ]
axiologique :: 1 :: [ respecter ]
boulique :: 1 :: [ choix ]
appreciatif_niveau2 :: 1 :: [ respecter ]
axiologique_niveau2 :: 1 :: [ respecter ]
boulique_niveau2 :: 1 :: [ choix ]
Total feature counts: 10


********** Adverbiaux Temporels Features **********
********************************************************

1. Sentence: Je respecte les choix du professionnel . )
No features found.

