
********** Entity Names Features **********
*******************************************

1. Sentence: Comme toujours , ceci appelle un travail collectif .
No features found.


********** Emotions Features **********
***************************************

1. Sentence: Comme toujours , ceci appelle un travail collectif .
No features found.


********** Modality Features **********
***************************************

1. Sentence: Comme toujours , ceci appelle un travail collectif .
Features :: Feature-Counts :: Feature-Lemmas
--------------------------------------------
marqueurs :: 2 :: [ toujours, travail ]
marqueurs_niveau3 :: 2 :: [ toujours, travail ]
alethique :: 1 :: [ toujours ]
appreciatif :: 1 :: [ travail ]
alethique_niveau3 :: 1 :: [ toujours ]
appreciatif_niveau3 :: 1 :: [ travail ]
Total feature counts: 8


********** Adverbiaux Temporels Features **********
********************************************************

1. Sentence: Comme toujours , ceci appelle un travail collectif .
Features :: Feature-Counts :: Feature-Texts
--------------------------------------------
adverbiaux_temporels::1::['toujours']
adverbiaux_duratifs_iteratifs::1::['toujours']

