
********** Entity Names Features **********
*******************************************

1. Sentence: Puis , c ' est autour de cet axe et en fonction de lui que s ' ordonne le secteur , déjà en partie urbanisé , de Stains-Saint-Denis-Pierrefitte .
Entity Name (Type) :: Stains-Saint-Denis-Pierrefitte (LOC)


********** Emotions Features **********
***************************************

1. Sentence: Puis , c ' est autour de cet axe et en fonction de lui que s ' ordonne le secteur , déjà en partie urbanisé , de Stains-Saint-Denis-Pierrefitte .
No features found.


********** Modality Features **********
***************************************

1. Sentence: Puis , c ' est autour de cet axe et en fonction de lui que s ' ordonne le secteur , déjà en partie urbanisé , de Stains-Saint-Denis-Pierrefitte .
Features :: Feature-Counts :: Feature-Lemmas
--------------------------------------------
marqueurs :: 2 :: [ lui, ordonner ]
marqueurs_niveau3 :: 2 :: [ lui, ordonner ]
alethique :: 1 :: [ lui ]
deontique :: 1 :: [ ordonner ]
epistemique :: 1 :: [ lui ]
alethique_niveau3 :: 1 :: [ lui ]
deontique_niveau3 :: 1 :: [ ordonner ]
epistemique_niveau3 :: 1 :: [ lui ]
Total feature counts: 10


********** Adverbiaux Temporels Features **********
********************************************************

1. Sentence: Puis , c ' est autour de cet axe et en fonction de lui que s ' ordonne le secteur , déjà en partie urbanisé , de Stains-Saint-Denis-Pierrefitte .
No features found.

