====== Sentence Level Features ======

1. Sentence: La recherche comme sport de plein air Ingénieur passé aux sciences sociales , je suis chercheur et fier de l ' être .
Features :: Feature-Counts :: Feature-Lemmas
--------------------------------------------
marqueurs :: 1 :: [ fier ]
appreciatif :: 1 :: [ fier ]
axiologique :: 1 :: [ fier ]
marqueurs_niveau1 :: 1 :: [ fier ]
appreciatif_niveau1 :: 1 :: [ fier ]
axiologique_niveau1 :: 1 :: [ fier ]
Total feature counts: 6


====== Text Level Features ======

Features :: Feature-Counts :: Feature-Lemmas
--------------------------------------------
marqueurs :: 1 :: [ fier ]
appreciatif :: 1 :: [ fier ]
axiologique :: 1 :: [ fier ]
marqueurs_niveau1 :: 1 :: [ fier ]
appreciatif_niveau1 :: 1 :: [ fier ]
axiologique_niveau1 :: 1 :: [ fier ]
Total feature counts: 6

