====== Sentence Level Features ======

1. Sentence: Cet Âge III , c ' est l ' éparpillement des concepts .
Entity Name (Type) :: Âge III (MISC)


====== Text Level Features ======

Entity Name (Entity Type)
-------------------------
Âge III (MISC)
Total entitiy counts: 1

