====== Sentence Level Features ======

1. Sentence: Schéma directeur , il n ' est ni plan d ' urbanisme , ni programme d ' équipement;
Entity Name (Type) :: Schéma (LOC)


====== Text Level Features ======

Entity Name (Entity Type)
-------------------------
Schéma (LOC)
Total entitiy counts: 1

