====== Sentence Level Features ======

1. Sentence: Ainsi , un schéma de cohérence territoriale (Scot) est souvent initié par nécessité réglementaire , sans être induit par une stratégie à mettre en œuvre;
Features :: Feature-Counts :: Feature-Lemmas
--------------------------------------------
marqueurs :: 2 :: [ souvent, nécessité ]
alethique :: 2 :: [ souvent, nécessité ]
marqueurs_niveau3 :: 2 :: [ souvent, nécessité ]
alethique_niveau3 :: 2 :: [ souvent, nécessité ]
Total feature counts: 8


====== Text Level Features ======

Features :: Feature-Counts :: Feature-Lemmas
--------------------------------------------
marqueurs :: 2 :: [ souvent, nécessité ]
alethique :: 2 :: [ souvent, nécessité ]
marqueurs_niveau3 :: 2 :: [ souvent, nécessité ]
alethique_niveau3 :: 2 :: [ souvent, nécessité ]
Total feature counts: 8

