
********** Entity Names Features **********
*******************************************

1. Sentence: Le développement dépend plus de la pertinence des cadres collectifs d ' action , de la vigueur des projets que des infrastructures et des équipements .
No features found.


********** Emotions Features **********
***************************************

1. Sentence: Le développement dépend plus de la pertinence des cadres collectifs d ' action , de la vigueur des projets que des infrastructures et des équipements .
No features found.


********** Modality Features **********
***************************************

1. Sentence: Le développement dépend plus de la pertinence des cadres collectifs d ' action , de la vigueur des projets que des infrastructures et des équipements .
No features found.


********** Adverbiaux Temporels Features **********
********************************************************

1. Sentence: Le développement dépend plus de la pertinence des cadres collectifs d ' action , de la vigueur des projets que des infrastructures et des équipements .
No features found.

