====== Sentence Level Features ======

1. Sentence: La pépinière n ' impose pas ses contraintes d ' exploitation en niant ce qui l ' entoure .
Features :: Feature-Counts :: Feature-Lemmas
--------------------------------------------
marqueurs :: 1 :: [ imposer ]
deontique :: 1 :: [ imposer ]
marqueurs_niveau2 :: 1 :: [ imposer ]
deontique_niveau2 :: 1 :: [ imposer ]
Total feature counts: 4


====== Text Level Features ======

Features :: Feature-Counts :: Feature-Lemmas
--------------------------------------------
marqueurs :: 1 :: [ imposer ]
deontique :: 1 :: [ imposer ]
marqueurs_niveau2 :: 1 :: [ imposer ]
deontique_niveau2 :: 1 :: [ imposer ]
Total feature counts: 4

