
********** Entity Names Features **********
*******************************************

1. Sentence: Je me suis intéressé à l ' histoire réglementaire , non par passion répressive , ni par esprit de normalisation , mais pour prendre
No features found.


********** Emotions Features **********
***************************************

1. Sentence: Je me suis intéressé à l ' histoire réglementaire , non par passion répressive , ni par esprit de normalisation , mais pour prendre
Tokens having emotion: [ intéressé, passion ]
Lemmas having emotion: [ intéresser, passion ]
Categories of the emotion lemmas: [ desir, amour ]


********** Modality Features **********
***************************************

1. Sentence: Je me suis intéressé à l ' histoire réglementaire , non par passion répressive , ni par esprit de normalisation , mais pour prendre
Features :: Feature-Counts :: Feature-Lemmas
--------------------------------------------
marqueurs :: 2 :: [ intéresser, esprit ]
epistemique :: 1 :: [ esprit ]
pas_d_indication :: 1 :: [ intéresser ]
marqueurs_niveau3 :: 1 :: [ esprit ]
marqueurs_niveau0 :: 1 :: [ intéresser ]
epistemique_niveau3 :: 1 :: [ esprit ]
pas_d_indication_niveau0 :: 1 :: [ intéresser ]
Total feature counts: 8


********** Adverbiaux Temporels Features **********
********************************************************

1. Sentence: Je me suis intéressé à l ' histoire réglementaire , non par passion répressive , ni par esprit de normalisation , mais pour prendre
No features found.

