
********** Entity Names Features **********
*******************************************

1. Sentence: Lorsqu ' on arrive après un autre concepteur , il s ' agit de ne pas nier le travail de celui-ci ni de chercher à exister en s ' opposant , mais de prendre la suite .
No features found.


********** Emotions Features **********
***************************************

1. Sentence: Lorsqu ' on arrive après un autre concepteur , il s ' agit de ne pas nier le travail de celui-ci ni de chercher à exister en s ' opposant , mais de prendre la suite .
No features found.


********** Modality Features **********
***************************************

1. Sentence: Lorsqu ' on arrive après un autre concepteur , il s ' agit de ne pas nier le travail de celui-ci ni de chercher à exister en s ' opposant , mais de prendre la suite .
Features :: Feature-Counts :: Feature-Lemmas
--------------------------------------------
marqueurs :: 3 :: [ arriver, travail, chercher ]
marqueurs_niveau3 :: 2 :: [ travail, chercher ]
alethique :: 1 :: [ arriver ]
appreciatif :: 1 :: [ travail ]
boulique :: 1 :: [ chercher ]
marqueurs_niveau2 :: 1 :: [ arriver ]
alethique_niveau2 :: 1 :: [ arriver ]
appreciatif_niveau3 :: 1 :: [ travail ]
boulique_niveau3 :: 1 :: [ chercher ]
Total feature counts: 12


********** Adverbiaux Temporels Features **********
********************************************************

1. Sentence: Lorsqu ' on arrive après un autre concepteur , il s ' agit de ne pas nier le travail de celui-ci ni de chercher à exister en s ' opposant , mais de prendre la suite .
No features found.

