
********** Entity Names Features **********
*******************************************

1. Sentence: C ' était presque par hasard , suite à un entretien .
Entity Name (Type) :: C (MISC)


********** Emotions Features **********
***************************************

1. Sentence: C ' était presque par hasard , suite à un entretien .
No features found.


********** Modality Features **********
***************************************

1. Sentence: C ' était presque par hasard , suite à un entretien .
No features found.


********** Adverbiaux Temporels Features **********
********************************************************

1. Sentence: C ' était presque par hasard , suite à un entretien .
No features found.

