
********** Entity Names Features **********
*******************************************

1. Sentence: PREMIÈRE ORIENTATION
Entity Name (Type) :: PREMIÈRE ORIENTATION (ORG)


********** Emotions Features **********
***************************************

1. Sentence: PREMIÈRE ORIENTATION
No features found.


********** Modality Features **********
***************************************

1. Sentence: PREMIÈRE ORIENTATION
No features found.


********** Adverbiaux Temporels Features **********
********************************************************

1. Sentence: PREMIÈRE ORIENTATION
No features found.

