
********** Entity Names Features **********
*******************************************

1. Sentence: La transformation de la voie autoroutière existante permet de faire place aux variations hydrologiques de la Maine .
Entity Name (Type) :: Maine (LOC)


********** Emotions Features **********
***************************************

1. Sentence: La transformation de la voie autoroutière existante permet de faire place aux variations hydrologiques de la Maine .
No features found.


********** Modality Features **********
***************************************

1. Sentence: La transformation de la voie autoroutière existante permet de faire place aux variations hydrologiques de la Maine .
Features :: Feature-Counts :: Feature-Lemmas
--------------------------------------------
marqueurs :: 1 :: [ permettre ]
deontique :: 1 :: [ permettre ]
marqueurs_niveau3 :: 1 :: [ permettre ]
deontique_niveau3 :: 1 :: [ permettre ]
Total feature counts: 4


********** Adverbiaux Temporels Features **********
********************************************************

1. Sentence: La transformation de la voie autoroutière existante permet de faire place aux variations hydrologiques de la Maine .
No features found.

