====== Sentence Level Features ======

1. Sentence: La nationale N° 20 conduit vers Orléans et Biarritz ;
Entity Name (Type) :: Biarritz (LOC)


====== Text Level Features ======

Entity Name (Entity Type)
-------------------------
N° 20 (LOC)
Orléans (LOC)
Biarritz (LOC)
Total entitiy counts: 3

