
********** Entity Names Features **********
*******************************************

1. Sentence: Faire du logement étudiant , même de manière massive , ne suffit absolument pas pour assurer le caractère urbain .
No features found.


********** Emotions Features **********
***************************************

1. Sentence: Faire du logement étudiant , même de manière massive , ne suffit absolument pas pour assurer le caractère urbain .
No features found.


********** Modality Features **********
***************************************

1. Sentence: Faire du logement étudiant , même de manière massive , ne suffit absolument pas pour assurer le caractère urbain .
Features :: Feature-Counts :: Feature-Lemmas
--------------------------------------------
marqueurs :: 1 :: [ suffire ]
pas_d_indication :: 1 :: [ suffire ]
marqueurs_niveau0 :: 1 :: [ suffire ]
pas_d_indication_niveau0 :: 1 :: [ suffire ]
Total feature counts: 4


********** Adverbiaux Temporels Features **********
********************************************************

1. Sentence: Faire du logement étudiant , même de manière massive , ne suffit absolument pas pour assurer le caractère urbain .
No features found.

