
********** Entity Names Features **********
*******************************************

1. Sentence: Cette capacité est d ' ailleurs calculée en admettant de 78 à 86 % de voyageurs debout .
Entity Name (Type) :: Cette (LOC)


********** Emotions Features **********
***************************************

1. Sentence: Cette capacité est d ' ailleurs calculée en admettant de 78 à 86 % de voyageurs debout .
No features found.


********** Modality Features **********
***************************************

1. Sentence: Cette capacité est d ' ailleurs calculée en admettant de 78 à 86 % de voyageurs debout .
No features found.


********** Adverbiaux Temporels Features **********
********************************************************

1. Sentence: Cette capacité est d ' ailleurs calculée en admettant de 78 à 86 % de voyageurs debout .
No features found.

