
********** Entity Names Features **********
*******************************************

1. Sentence: La diversité des projets couvre un grand nombre de situations appelées à incarner autant de démonstrations en faveur d ' un changement généralisé .
No features found.


********** Emotions Features **********
***************************************

1. Sentence: La diversité des projets couvre un grand nombre de situations appelées à incarner autant de démonstrations en faveur d ' un changement généralisé .
No features found.


********** Modality Features **********
***************************************

1. Sentence: La diversité des projets couvre un grand nombre de situations appelées à incarner autant de démonstrations en faveur d ' un changement généralisé .
Features :: Feature-Counts :: Feature-Lemmas
--------------------------------------------
marqueurs :: 1 :: [ grand ]
epistemique :: 1 :: [ grand ]
marqueurs_niveau3 :: 1 :: [ grand ]
epistemique_niveau3 :: 1 :: [ grand ]
Total feature counts: 4


********** Adverbiaux Temporels Features **********
********************************************************

1. Sentence: La diversité des projets couvre un grand nombre de situations appelées à incarner autant de démonstrations en faveur d ' un changement généralisé .
No features found.

