
********** Entity Names Features **********
*******************************************

1. Sentence: LONDRES : L ’ AGGLOMÉRATION EN 1958
Entity Name (Type) :: AGGLOMÉRATION (LOC)


********** Emotions Features **********
***************************************

1. Sentence: LONDRES : L ’ AGGLOMÉRATION EN 1958
No features found.


********** Modality Features **********
***************************************

1. Sentence: LONDRES : L ’ AGGLOMÉRATION EN 1958
No features found.


********** Adverbiaux Temporels Features **********
********************************************************

1. Sentence: LONDRES : L ’ AGGLOMÉRATION EN 1958
Features :: Feature-Counts :: Feature-Texts
--------------------------------------------
adverbiaux_temporels::1::['EN 1958']
adverbiaux_localisation_temporelle::1::['EN 1958']
adverbiaux_pointage_absolu::1::['EN 1958']
adverbiaux_pointage_non_absolu::1::['EN 1958']
adverbiaux_loc_temp_focalisation_id::1::['EN 1958']
adverbiaux_loc_temp_regionalisation_id::1::['EN 1958']
adverbiaux_loc_temp_pointage_non_absolu::1::['EN 1958']
adverbiaux_dur_iter_absolu::1::['EN 1958']

