
********** Entity Names Features **********
*******************************************

1. Sentence: PRINCIPE D ' AMÉNAGEMENT DES ZONES SUD ET OUEST
Entity Name (Type) :: AMÉNAGEMENT DES ZONES SUD ET OUEST (LOC)


********** Emotions Features **********
***************************************

1. Sentence: PRINCIPE D ' AMÉNAGEMENT DES ZONES SUD ET OUEST
No features found.


********** Modality Features **********
***************************************

1. Sentence: PRINCIPE D ' AMÉNAGEMENT DES ZONES SUD ET OUEST
No features found.


********** Adverbiaux Temporels Features **********
********************************************************

1. Sentence: PRINCIPE D ' AMÉNAGEMENT DES ZONES SUD ET OUEST
No features found.

