
********** Entity Names Features **********
*******************************************

1. Sentence: Pour ce faire , je crois qu ' il faut être libre de tout préjugé , tout dogmatisme , tout formalisme .
No features found.


********** Emotions Features **********
***************************************

1. Sentence: Pour ce faire , je crois qu ' il faut être libre de tout préjugé , tout dogmatisme , tout formalisme .
No features found.


********** Modality Features **********
***************************************

1. Sentence: Pour ce faire , je crois qu ' il faut être libre de tout préjugé , tout dogmatisme , tout formalisme .
Features :: Feature-Counts :: Feature-Lemmas
--------------------------------------------
marqueurs :: 3 :: [ croire, falloir, libre ]
marqueurs_niveau3 :: 2 :: [ croire, falloir ]
appreciatif :: 1 :: [ libre ]
deontique :: 1 :: [ falloir ]
epistemique :: 1 :: [ croire ]
marqueurs_niveau1 :: 1 :: [ libre ]
appreciatif_niveau1 :: 1 :: [ libre ]
deontique_niveau3 :: 1 :: [ falloir ]
epistemique_niveau3 :: 1 :: [ croire ]
Total feature counts: 12


********** Adverbiaux Temporels Features **********
********************************************************

1. Sentence: Pour ce faire , je crois qu ' il faut être libre de tout préjugé , tout dogmatisme , tout formalisme .
No features found.

