
********** Entity Names Features **********
*******************************************

1. Sentence: Elle prend naissance sur l ' Avenue conduisant du Pont de St .
Entity Name (Type) :: Pont de St (LOC)


********** Emotions Features **********
***************************************

1. Sentence: Elle prend naissance sur l ' Avenue conduisant du Pont de St .
No features found.


********** Modality Features **********
***************************************

1. Sentence: Elle prend naissance sur l ' Avenue conduisant du Pont de St .
No features found.


********** Adverbiaux Temporels Features **********
********************************************************

1. Sentence: Elle prend naissance sur l ' Avenue conduisant du Pont de St .
No features found.

