
********** Entity Names Features **********
*******************************************

1. Sentence: J ' ai eu la chance , à Saint-Nazaire comme à Nantes , d ' accompagner des élus porteurs d ' une vision de leur ville .
Entity Name (Type) :: Nantes (LOC)


********** Emotions Features **********
***************************************

1. Sentence: J ' ai eu la chance , à Saint-Nazaire comme à Nantes , d ' accompagner des élus porteurs d ' une vision de leur ville .
No features found.


********** Modality Features **********
***************************************

1. Sentence: J ' ai eu la chance , à Saint-Nazaire comme à Nantes , d ' accompagner des élus porteurs d ' une vision de leur ville .
Features :: Feature-Counts :: Feature-Lemmas
--------------------------------------------
marqueurs :: 2 :: [ chance, élu ]
appreciatif :: 1 :: [ chance ]
pas_d_indication :: 1 :: [ élu ]
marqueurs_niveau3 :: 1 :: [ chance ]
marqueurs_niveau0 :: 1 :: [ élu ]
appreciatif_niveau3 :: 1 :: [ chance ]
pas_d_indication_niveau0 :: 1 :: [ élu ]
Total feature counts: 8


********** Adverbiaux Temporels Features **********
********************************************************

1. Sentence: J ' ai eu la chance , à Saint-Nazaire comme à Nantes , d ' accompagner des élus porteurs d ' une vision de leur ville .
No features found.

