
********** Entity Names Features **********
*******************************************

1. Sentence: Le sociologue François Ascher avait fait de ce combat un credo .
Entity Name (Type) :: François Ascher (PER)


********** Emotions Features **********
***************************************

1. Sentence: Le sociologue François Ascher avait fait de ce combat un credo .
No features found.


********** Modality Features **********
***************************************

1. Sentence: Le sociologue François Ascher avait fait de ce combat un credo .
Features :: Feature-Counts :: Feature-Lemmas
--------------------------------------------
marqueurs :: 1 :: [ combat ]
axiologique :: 1 :: [ combat ]
marqueurs_niveau2 :: 1 :: [ combat ]
axiologique_niveau2 :: 1 :: [ combat ]
Total feature counts: 4


********** Adverbiaux Temporels Features **********
********************************************************

1. Sentence: Le sociologue François Ascher avait fait de ce combat un credo .
No features found.

