====== Sentence Level Features ======

1. Sentence: J ' ai donc pris la décision d ' un travail très libre , de faire fi du terrain qui nous était imparti , pour permettre à ce gros équipement d ' être le support ou en tout cas de participer à un fort développement urbain .
Features :: Feature-Counts :: Feature-Lemmas
--------------------------------------------
marqueurs :: 6 :: [ décision, travail, libre, permettre, gros, fort ]
appreciatif :: 2 :: [ travail, libre ]
epistemique :: 2 :: [ décision, gros ]
marqueurs_niveau3 :: 2 :: [ travail, permettre ]
marqueurs_niveau2 :: 2 :: [ décision, gros ]
epistemique_niveau2 :: 2 :: [ décision, gros ]
boulique :: 1 :: [ décision ]
deontique :: 1 :: [ permettre ]
pas_d_indication :: 1 :: [ fort ]
marqueurs_niveau1 :: 1 :: [ libre ]
marqueurs_niveau0 :: 1 :: [ fort ]
appreciatif_niveau3 :: 1 :: [ travail ]
appreciatif_niveau1 :: 1 :: [ libre ]
boulique_niveau2 :: 1 :: [ décision ]
deontique_niveau3 :: 1 :: [ permettre ]
pas_d_indication_niveau0 :: 1 :: [ fort ]
Total feature counts: 26


====== Text Level Features ======

Features :: Feature-Counts :: Feature-Lemmas
--------------------------------------------
marqueurs :: 6 :: [ décision, travail, libre, permettre, gros, fort ]
appreciatif :: 2 :: [ travail, libre ]
epistemique :: 2 :: [ décision, gros ]
marqueurs_niveau3 :: 2 :: [ travail, permettre ]
marqueurs_niveau2 :: 2 :: [ décision, gros ]
epistemique_niveau2 :: 2 :: [ décision, gros ]
boulique :: 1 :: [ décision ]
deontique :: 1 :: [ permettre ]
pas_d_indication :: 1 :: [ fort ]
marqueurs_niveau1 :: 1 :: [ libre ]
marqueurs_niveau0 :: 1 :: [ fort ]
appreciatif_niveau3 :: 1 :: [ travail ]
appreciatif_niveau1 :: 1 :: [ libre ]
boulique_niveau2 :: 1 :: [ décision ]
deontique_niveau3 :: 1 :: [ permettre ]
pas_d_indication_niveau0 :: 1 :: [ fort ]
Total feature counts: 26

