====== Sentence Level Features ======

1. Sentence: Désormais le contexte économique conduit à imaginer des projets plus économes , plus sobres , car la crise actuelle relève plutôt d ' une profonde réorganisation mondiale .
Features :: Feature-Counts :: Feature-Lemmas
--------------------------------------------
marqueurs :: 3 :: [ imaginer, économe, crise ]
epistemique :: 2 :: [ imaginer, crise ]
marqueurs_niveau3 :: 2 :: [ imaginer, économe ]
appreciatif :: 1 :: [ crise ]
axiologique :: 1 :: [ économe ]
marqueurs_niveau2 :: 1 :: [ crise ]
appreciatif_niveau2 :: 1 :: [ crise ]
axiologique_niveau3 :: 1 :: [ économe ]
epistemique_niveau3 :: 1 :: [ imaginer ]
epistemique_niveau2 :: 1 :: [ crise ]
Total feature counts: 14


====== Text Level Features ======

Features :: Feature-Counts :: Feature-Lemmas
--------------------------------------------
marqueurs :: 3 :: [ imaginer, économe, crise ]
epistemique :: 2 :: [ imaginer, crise ]
marqueurs_niveau3 :: 2 :: [ imaginer, économe ]
appreciatif :: 1 :: [ crise ]
axiologique :: 1 :: [ économe ]
marqueurs_niveau2 :: 1 :: [ crise ]
appreciatif_niveau2 :: 1 :: [ crise ]
axiologique_niveau3 :: 1 :: [ économe ]
epistemique_niveau3 :: 1 :: [ imaginer ]
epistemique_niveau2 :: 1 :: [ crise ]
Total feature counts: 14

