
********** Entity Names Features **********
*******************************************

1. Sentence: À chaque instant de l ' évolution du projet ,  l ' objectif fut de maintenir ou d ' amplifier le lien avec le fleuve ou son affluent ,  l ' Erdre .
Entity Name (Type) :: Erdre (LOC)


********** Emotions Features **********
***************************************

1. Sentence: À chaque instant de l ' évolution du projet ,  l ' objectif fut de maintenir ou d ' amplifier le lien avec le fleuve ou son affluent ,  l ' Erdre .
No features found.


********** Modality Features **********
***************************************

1. Sentence: À chaque instant de l ' évolution du projet ,  l ' objectif fut de maintenir ou d ' amplifier le lien avec le fleuve ou son affluent ,  l ' Erdre .
No features found.


********** Adverbiaux Temporels Features **********
********************************************************

1. Sentence: À chaque instant de l ' évolution du projet ,  l ' objectif fut de maintenir ou d ' amplifier le lien avec le fleuve ou son affluent ,  l ' Erdre .
Features :: Feature-Counts :: Feature-Texts
--------------------------------------------
adverbiaux_temporels::1::['chaque instant']
adverbiaux_purement_iteratifs::1::['chaque instant']
adverbiaux_iterateur_calendaire::1::['chaque instant']

