
********** Entity Names Features **********
*******************************************

1. Sentence: Nous avions été accueillis par l ' institut d ' Urbanisme de Hanoï qui était engagé dans des programmes de coopération avec l ' Atelier parisien d ' urbanisme et l ' Iaurif .
Entity Name (Type) :: Atelier parisien d ' urbanisme et l ' Iaurif (LOC)


********** Emotions Features **********
***************************************

1. Sentence: Nous avions été accueillis par l ' institut d ' Urbanisme de Hanoï qui était engagé dans des programmes de coopération avec l ' Atelier parisien d ' urbanisme et l ' Iaurif .
No features found.


********** Modality Features **********
***************************************

1. Sentence: Nous avions été accueillis par l ' institut d ' Urbanisme de Hanoï qui était engagé dans des programmes de coopération avec l ' Atelier parisien d ' urbanisme et l ' Iaurif .
No features found.


********** Adverbiaux Temporels Features **********
********************************************************

1. Sentence: Nous avions été accueillis par l ' institut d ' Urbanisme de Hanoï qui était engagé dans des programmes de coopération avec l ' Atelier parisien d ' urbanisme et l ' Iaurif .
No features found.

