
********** Entity Names Features **********
*******************************************

1. Sentence: Peu de concepteurs se présentaient aux concours d ' architecture ou d ' espaces publics ;
No features found.


********** Emotions Features **********
***************************************

1. Sentence: Peu de concepteurs se présentaient aux concours d ' architecture ou d ' espaces publics ;
No features found.


********** Modality Features **********
***************************************

1. Sentence: Peu de concepteurs se présentaient aux concours d ' architecture ou d ' espaces publics ;
No features found.


********** Adverbiaux Temporels Features **********
********************************************************

1. Sentence: Peu de concepteurs se présentaient aux concours d ' architecture ou d ' espaces publics ;
No features found.

