
********** Entity Names Features **********
*******************************************

1. Sentence: Ce processus ouvert a nécessité d ' inventer une nouvelle manière de piloter la réalisation du projet en se fondant essentiellement sur une logique d ' accueil .
No features found.


********** Emotions Features **********
***************************************

1. Sentence: Ce processus ouvert a nécessité d ' inventer une nouvelle manière de piloter la réalisation du projet en se fondant essentiellement sur une logique d ' accueil .
No features found.


********** Modality Features **********
***************************************

1. Sentence: Ce processus ouvert a nécessité d ' inventer une nouvelle manière de piloter la réalisation du projet en se fondant essentiellement sur une logique d ' accueil .
Features :: Feature-Counts :: Feature-Lemmas
--------------------------------------------
marqueurs :: 2 :: [ nécessité, inventer ]
alethique :: 1 :: [ nécessité ]
epistemique :: 1 :: [ inventer ]
marqueurs_niveau3 :: 1 :: [ nécessité ]
marqueurs_niveau2 :: 1 :: [ inventer ]
alethique_niveau3 :: 1 :: [ nécessité ]
epistemique_niveau2 :: 1 :: [ inventer ]
Total feature counts: 8


********** Adverbiaux Temporels Features **********
********************************************************

1. Sentence: Ce processus ouvert a nécessité d ' inventer une nouvelle manière de piloter la réalisation du projet en se fondant essentiellement sur une logique d ' accueil .
No features found.

