====== Sentence Level Features ======

1. Sentence: Leur caractère industriel est très accusé dans des quartiers vétustes où se juxtaposent souvent usines incommodes et habitations .
Features :: Feature-Counts :: Feature-Lemmas
--------------------------------------------
marqueurs :: 2 :: [ accuser, souvent ]
alethique :: 1 :: [ souvent ]
axiologique :: 1 :: [ accuser ]
marqueurs_niveau3 :: 1 :: [ souvent ]
marqueurs_niveau2 :: 1 :: [ accuser ]
alethique_niveau3 :: 1 :: [ souvent ]
axiologique_niveau2 :: 1 :: [ accuser ]
Total feature counts: 8


====== Text Level Features ======

Features :: Feature-Counts :: Feature-Lemmas
--------------------------------------------
marqueurs :: 2 :: [ accuser, souvent ]
alethique :: 1 :: [ souvent ]
axiologique :: 1 :: [ accuser ]
marqueurs_niveau3 :: 1 :: [ souvent ]
marqueurs_niveau2 :: 1 :: [ accuser ]
alethique_niveau3 :: 1 :: [ souvent ]
axiologique_niveau2 :: 1 :: [ accuser ]
Total feature counts: 8

