====== Sentence Level Features ======

1. Sentence: A partir des besoins actuels et des orientations ainsi définies , des " objectifs 1975 " d ' ’ équipement ont été établis;
Features :: Feature-Counts :: Feature-Lemmas
--------------------------------------------
marqueurs :: 2 :: [ partir, besoin ]
alethique :: 2 :: [ partir, besoin ]
boulique :: 1 :: [ besoin ]
marqueurs_niveau3 :: 1 :: [ besoin ]
marqueurs_niveau1 :: 1 :: [ partir ]
alethique_niveau3 :: 1 :: [ besoin ]
alethique_niveau1 :: 1 :: [ partir ]
boulique_niveau3 :: 1 :: [ besoin ]
Total feature counts: 10


====== Text Level Features ======

Features :: Feature-Counts :: Feature-Lemmas
--------------------------------------------
marqueurs :: 2 :: [ partir, besoin ]
alethique :: 2 :: [ partir, besoin ]
boulique :: 1 :: [ besoin ]
marqueurs_niveau3 :: 1 :: [ besoin ]
marqueurs_niveau1 :: 1 :: [ partir ]
alethique_niveau3 :: 1 :: [ besoin ]
alethique_niveau1 :: 1 :: [ partir ]
boulique_niveau3 :: 1 :: [ besoin ]
Total feature counts: 10

