
********** Entity Names Features **********
*******************************************

1. Sentence: Mais le chaos ,  l ' informe ,  l ' aléatoire ne doivent pas être à la ville démocratique ce que l ' espace ordonné fût à la monarchie ou à la République bourgeoise .
Entity Name (Type) :: République bourgeoise (MISC)


********** Emotions Features **********
***************************************

1. Sentence: Mais le chaos ,  l ' informe ,  l ' aléatoire ne doivent pas être à la ville démocratique ce que l ' espace ordonné fût à la monarchie ou à la République bourgeoise .
No features found.


********** Modality Features **********
***************************************

1. Sentence: Mais le chaos ,  l ' informe ,  l ' aléatoire ne doivent pas être à la ville démocratique ce que l ' espace ordonné fût à la monarchie ou à la République bourgeoise .
Features :: Feature-Counts :: Feature-Lemmas
--------------------------------------------
marqueurs :: 3 :: [ informe, devoir, ordonner ]
deontique :: 2 :: [ devoir, ordonner ]
marqueurs_niveau3 :: 2 :: [ devoir, ordonner ]
deontique_niveau3 :: 2 :: [ devoir, ordonner ]
alethique :: 1 :: [ devoir ]
epistemique :: 1 :: [ devoir ]
pas_d_indication :: 1 :: [ informe ]
marqueurs_niveau0 :: 1 :: [ informe ]
alethique_niveau3 :: 1 :: [ devoir ]
epistemique_niveau3 :: 1 :: [ devoir ]
pas_d_indication_niveau0 :: 1 :: [ informe ]
Total feature counts: 16


********** Adverbiaux Temporels Features **********
********************************************************

1. Sentence: Mais le chaos ,  l ' informe ,  l ' aléatoire ne doivent pas être à la ville démocratique ce que l ' espace ordonné fût à la monarchie ou à la République bourgeoise .
No features found.

