====== Sentence Level Features ======

1. Sentence: Nantes - Saint-Nazaire	438 . 000	505 .
No features found.

2. Sentence: 000
No features found.


====== Text Level Features ======

No features found.

