====== Sentence Level Features ======

1. Sentence: Il faut parler beaucoup;
Features :: Feature-Counts :: Feature-Lemmas
--------------------------------------------
marqueurs :: 2 :: [ falloir, beaucoup ]
deontique :: 1 :: [ falloir ]
epistemique :: 1 :: [ beaucoup ]
marqueurs_niveau3 :: 1 :: [ falloir ]
marqueurs_niveau1 :: 1 :: [ beaucoup ]
deontique_niveau3 :: 1 :: [ falloir ]
epistemique_niveau1 :: 1 :: [ beaucoup ]
Total feature counts: 8


====== Text Level Features ======

Features :: Feature-Counts :: Feature-Lemmas
--------------------------------------------
marqueurs :: 2 :: [ falloir, beaucoup ]
deontique :: 1 :: [ falloir ]
epistemique :: 1 :: [ beaucoup ]
marqueurs_niveau3 :: 1 :: [ falloir ]
marqueurs_niveau1 :: 1 :: [ beaucoup ]
deontique_niveau3 :: 1 :: [ falloir ]
epistemique_niveau1 :: 1 :: [ beaucoup ]
Total feature counts: 8

