====== Sentence Level Features ======

1. Sentence: Rien n ' est plus difﬁcile .
Features :: Feature-Counts :: Feature-Lemmas
--------------------------------------------
marqueurs :: 1 :: [ rien ]
alethique :: 1 :: [ rien ]
marqueurs_niveau2 :: 1 :: [ rien ]
alethique_niveau2 :: 1 :: [ rien ]
Total feature counts: 4


====== Text Level Features ======

Features :: Feature-Counts :: Feature-Lemmas
--------------------------------------------
marqueurs :: 1 :: [ rien ]
alethique :: 1 :: [ rien ]
marqueurs_niveau2 :: 1 :: [ rien ]
alethique_niveau2 :: 1 :: [ rien ]
Total feature counts: 4

