====== Sentence Level Features ======

1. Sentence: «Dans notre logement , nous disposons enfin d ' un espace de vie séparé : c ' est un véritable promontoire sur la ville , en plus ça fonctionne comme une petite serre ventilée réchauffant tout l ' appartement en hiver .
Features :: Feature-Counts :: Feature-Lemmas
--------------------------------------------
marqueurs :: 2 :: [ véritable, petit ]
epistemique :: 1 :: [ petit ]
pas_d_indication :: 1 :: [ véritable ]
marqueurs_niveau3 :: 1 :: [ petit ]
marqueurs_niveau0 :: 1 :: [ véritable ]
epistemique_niveau3 :: 1 :: [ petit ]
pas_d_indication_niveau0 :: 1 :: [ véritable ]
Total feature counts: 8


====== Text Level Features ======

Features :: Feature-Counts :: Feature-Lemmas
--------------------------------------------
marqueurs :: 2 :: [ véritable, petit ]
epistemique :: 1 :: [ petit ]
pas_d_indication :: 1 :: [ véritable ]
marqueurs_niveau3 :: 1 :: [ petit ]
marqueurs_niveau0 :: 1 :: [ véritable ]
epistemique_niveau3 :: 1 :: [ petit ]
pas_d_indication_niveau0 :: 1 :: [ véritable ]
Total feature counts: 8

