
********** Entity Names Features **********
*******************************************

1. Sentence: Avec les îlots ouverts , qui sont ici assez petits , je propose des rues plus étroites , mais lumineuses grâce à l ' ouverture de vues entre les bâtiments sur l ' intérieur des îlots et leurs plantations .
No features found.


********** Emotions Features **********
***************************************

1. Sentence: Avec les îlots ouverts , qui sont ici assez petits , je propose des rues plus étroites , mais lumineuses grâce à l ' ouverture de vues entre les bâtiments sur l ' intérieur des îlots et leurs plantations .
No features found.


********** Modality Features **********
***************************************

1. Sentence: Avec les îlots ouverts , qui sont ici assez petits , je propose des rues plus étroites , mais lumineuses grâce à l ' ouverture de vues entre les bâtiments sur l ' intérieur des îlots et leurs plantations .
Features :: Feature-Counts :: Feature-Lemmas
--------------------------------------------
marqueurs :: 2 :: [ petit, lumineux ]
epistemique :: 1 :: [ petit ]
pas_d_indication :: 1 :: [ lumineux ]
marqueurs_niveau3 :: 1 :: [ petit ]
marqueurs_niveau0 :: 1 :: [ lumineux ]
epistemique_niveau3 :: 1 :: [ petit ]
pas_d_indication_niveau0 :: 1 :: [ lumineux ]
Total feature counts: 8


********** Adverbiaux Temporels Features **********
********************************************************

1. Sentence: Avec les îlots ouverts , qui sont ici assez petits , je propose des rues plus étroites , mais lumineuses grâce à l ' ouverture de vues entre les bâtiments sur l ' intérieur des îlots et leurs plantations .
No features found.

