====== Sentence Level Features ======

1. Sentence: B - Évolution démographique (3)
Entity Name (Type) :: B (LOC)


====== Text Level Features ======

Entity Name (Entity Type)
-------------------------
B (LOC)
Total entitiy counts: 1

