
********** Entity Names Features **********
*******************************************

1. Sentence: - Mais seulement 23 % des entreprises décentralisées;
No features found.


********** Emotions Features **********
***************************************

1. Sentence: - Mais seulement 23 % des entreprises décentralisées;
No features found.


********** Modality Features **********
***************************************

1. Sentence: - Mais seulement 23 % des entreprises décentralisées;
No features found.


********** Adverbiaux Temporels Features **********
********************************************************

1. Sentence: - Mais seulement 23 % des entreprises décentralisées;
No features found.

