====== Sentence Level Features ======

1. Sentence: Et naturellement , l ' entretenir ce n ' est pas seulement des fonds publics .
Features :: Feature-Counts :: Feature-Lemmas
--------------------------------------------
marqueurs :: 1 :: [ naturellement ]
alethique :: 1 :: [ naturellement ]
marqueurs_niveau2 :: 1 :: [ naturellement ]
alethique_niveau2 :: 1 :: [ naturellement ]
Total feature counts: 4


====== Text Level Features ======

Features :: Feature-Counts :: Feature-Lemmas
--------------------------------------------
marqueurs :: 1 :: [ naturellement ]
alethique :: 1 :: [ naturellement ]
marqueurs_niveau2 :: 1 :: [ naturellement ]
alethique_niveau2 :: 1 :: [ naturellement ]
Total feature counts: 4

