
********** Entity Names Features **********
*******************************************

1. Sentence: leur métamorphose progressive s ' exprime dans le passage d ' une ville de la production à une ville de la consommation .
No features found.


********** Emotions Features **********
***************************************

1. Sentence: leur métamorphose progressive s ' exprime dans le passage d ' une ville de la production à une ville de la consommation .
No features found.


********** Modality Features **********
***************************************

1. Sentence: leur métamorphose progressive s ' exprime dans le passage d ' une ville de la production à une ville de la consommation .
No features found.


********** Adverbiaux Temporels Features **********
********************************************************

1. Sentence: leur métamorphose progressive s ' exprime dans le passage d ' une ville de la production à une ville de la consommation .
No features found.

