====== Sentence Level Features ======

1. Sentence: Après lui , la page blanche disparaît de l ' esprit des paysagistes français .
Features :: Feature-Counts :: Feature-Lemmas
--------------------------------------------
marqueurs :: 3 :: [ lui, blanc, esprit ]
marqueurs_niveau3 :: 3 :: [ lui, blanc, esprit ]
alethique :: 2 :: [ lui, blanc ]
epistemique :: 2 :: [ lui, esprit ]
alethique_niveau3 :: 2 :: [ lui, blanc ]
epistemique_niveau3 :: 2 :: [ lui, esprit ]
Total feature counts: 14


====== Text Level Features ======

Features :: Feature-Counts :: Feature-Lemmas
--------------------------------------------
marqueurs :: 3 :: [ lui, blanc, esprit ]
marqueurs_niveau3 :: 3 :: [ lui, blanc, esprit ]
alethique :: 2 :: [ lui, blanc ]
epistemique :: 2 :: [ lui, esprit ]
alethique_niveau3 :: 2 :: [ lui, blanc ]
epistemique_niveau3 :: 2 :: [ lui, esprit ]
Total feature counts: 14

