====== Sentence Level Features ======

1. Sentence: 1 – ÉTAT ACTUEL
Entity Name (Type) :: ÉTAT ACTUEL (ORG)


====== Text Level Features ======

Entity Name (Entity Type)
-------------------------
ÉTAT ACTUEL (ORG)
Total entitiy counts: 1

