====== Sentence Level Features ======

1. Sentence: Le rôle de ce document répondait principalement à trois buts : — rendre public et développer une série de projets nouveaux en faveur de la vie locale des quartiers les moins favorisés;
Features :: Feature-Counts :: Feature-Lemmas
--------------------------------------------
marqueurs :: 1 :: [ favoriser ]
appreciatif :: 1 :: [ favoriser ]
marqueurs_niveau1 :: 1 :: [ favoriser ]
appreciatif_niveau1 :: 1 :: [ favoriser ]
Total feature counts: 4


====== Text Level Features ======

Features :: Feature-Counts :: Feature-Lemmas
--------------------------------------------
marqueurs :: 1 :: [ favoriser ]
appreciatif :: 1 :: [ favoriser ]
marqueurs_niveau1 :: 1 :: [ favoriser ]
appreciatif_niveau1 :: 1 :: [ favoriser ]
Total feature counts: 4

