====== Sentence Level Features ======

1. Sentence: Ce dernier visitera le Studio Théâtre de Vitry , ce qui le conduira ensuite à me demander d ' administrer son Théâtre du Radeau au Mans 4 , que je considère avoir été ma véritable école de théâtre et d ' archi tecture .
Features :: Feature-Counts :: Feature-Lemmas
--------------------------------------------
marqueurs :: 4 :: [ demander, considérer, véritable, école ]
marqueurs_niveau3 :: 2 :: [ demander, considérer ]
alethique :: 1 :: [ école ]
boulique :: 1 :: [ demander ]
epistemique :: 1 :: [ considérer ]
pas_d_indication :: 1 :: [ véritable ]
marqueurs_niveau1 :: 1 :: [ école ]
marqueurs_niveau0 :: 1 :: [ véritable ]
alethique_niveau1 :: 1 :: [ école ]
boulique_niveau3 :: 1 :: [ demander ]
epistemique_niveau3 :: 1 :: [ considérer ]
pas_d_indication_niveau0 :: 1 :: [ véritable ]
Total feature counts: 16


====== Text Level Features ======

Features :: Feature-Counts :: Feature-Lemmas
--------------------------------------------
marqueurs :: 4 :: [ demander, considérer, véritable, école ]
marqueurs_niveau3 :: 2 :: [ demander, considérer ]
alethique :: 1 :: [ école ]
boulique :: 1 :: [ demander ]
epistemique :: 1 :: [ considérer ]
pas_d_indication :: 1 :: [ véritable ]
marqueurs_niveau1 :: 1 :: [ école ]
marqueurs_niveau0 :: 1 :: [ véritable ]
alethique_niveau1 :: 1 :: [ école ]
boulique_niveau3 :: 1 :: [ demander ]
epistemique_niveau3 :: 1 :: [ considérer ]
pas_d_indication_niveau0 :: 1 :: [ véritable ]
Total feature counts: 16

