====== Sentence Level Features ======

1. Sentence: Chicago	178 km2 dans la ville de Chicago 1950- 1960	- 1 , 19%
Features :: Feature-Counts :: Feature-Texts
--------------------------------------------
adverbiaux_temporels::1::['1950_ 1960']
adverbiaux_localisation_temporelle::1::['1950_ 1960']
adverbiaux_pointage_absolu::1::['1950_ 1960']
adverbiaux_loc_temp_focalisation_id::1::['1950_ 1960']
adverbiaux_loc_temp_regionalisation_id::1::['1950_ 1960']
adverbiaux_loc_temp_pointage_absolu::1::['1950_ 1960']


====== Text Level Features ======

Features :: Feature-Counts :: Feature-Texts
--------------------------------------------
adverbiaux_temporels::1::['1950_ 1960']
adverbiaux_localisation_temporelle::1::['1950_ 1960']
adverbiaux_pointage_absolu::1::['1950_ 1960']
adverbiaux_loc_temp_focalisation_id::1::['1950_ 1960']
adverbiaux_loc_temp_regionalisation_id::1::['1950_ 1960']
adverbiaux_loc_temp_pointage_absolu::1::['1950_ 1960']
Total feature counts: 6

