
********** Entity Names Features **********
*******************************************

1. Sentence: Métro			1 .
Entity Name (Type) :: Métro			1 (MISC)


********** Emotions Features **********
***************************************

1. Sentence: Métro			1 .
No features found.


********** Modality Features **********
***************************************

1. Sentence: Métro			1 .
No features found.


********** Adverbiaux Temporels Features **********
********************************************************

1. Sentence: Métro			1 .
No features found.

