
********** Entity Names Features **********
*******************************************

1. Sentence: Cet îlot était fermé , en impasse .
Entity Name (Type) :: Cet (LOC)


********** Emotions Features **********
***************************************

1. Sentence: Cet îlot était fermé , en impasse .
No features found.


********** Modality Features **********
***************************************

1. Sentence: Cet îlot était fermé , en impasse .
No features found.


********** Adverbiaux Temporels Features **********
********************************************************

1. Sentence: Cet îlot était fermé , en impasse .
No features found.

