
********** Entity Names Features **********
*******************************************

1. Sentence: La configuration n ' est pas celle de Bordeaux ou de Lyon .
Entity Name (Type) :: Lyon (LOC)


********** Emotions Features **********
***************************************

1. Sentence: La configuration n ' est pas celle de Bordeaux ou de Lyon .
No features found.


********** Modality Features **********
***************************************

1. Sentence: La configuration n ' est pas celle de Bordeaux ou de Lyon .
No features found.


********** Adverbiaux Temporels Features **********
********************************************************

1. Sentence: La configuration n ' est pas celle de Bordeaux ou de Lyon .
No features found.

