
********** Entity Names Features **********
*******************************************

1. Sentence: 000 visiteurs , tandis que le Musée national d ' art moderne de Paris n ' en recevait que 80 . 000 .
Entity Name (Type) :: Musée national d ' art moderne de Paris (LOC)


********** Emotions Features **********
***************************************

1. Sentence: 000 visiteurs , tandis que le Musée national d ' art moderne de Paris n ' en recevait que 80 . 000 .
No features found.


********** Modality Features **********
***************************************

1. Sentence: 000 visiteurs , tandis que le Musée national d ' art moderne de Paris n ' en recevait que 80 . 000 .
Features :: Feature-Counts :: Feature-Lemmas
--------------------------------------------
marqueurs :: 1 :: [ moderne ]
pas_d_indication :: 1 :: [ moderne ]
marqueurs_niveau0 :: 1 :: [ moderne ]
pas_d_indication_niveau0 :: 1 :: [ moderne ]
Total feature counts: 4


********** Adverbiaux Temporels Features **********
********************************************************

1. Sentence: 000 visiteurs , tandis que le Musée national d ' art moderne de Paris n ' en recevait que 80 . 000 .
No features found.

