====== Sentence Level Features ======

1. Sentence: D ’ une part , il y a la famille je dirai Los Angeles; c ’ est la famille créée pour l ' auto;
Entity Name (Type) :: Los Angeles; (MISC)


====== Text Level Features ======

Entity Name (Entity Type)
-------------------------
Los Angeles; (MISC)
Total entitiy counts: 1

