====== Sentence Level Features ======

1. Sentence: Le croquis donne vie à un dispositif qui peut rester suffisamment indéfini .
Features :: Feature-Counts :: Feature-Lemmas
--------------------------------------------
marqueurs :: 2 :: [ pouvoir, suffisamment ]
alethique :: 1 :: [ pouvoir ]
deontique :: 1 :: [ pouvoir ]
epistemique :: 1 :: [ pouvoir ]
pas_d_indication :: 1 :: [ suffisamment ]
marqueurs_niveau3 :: 1 :: [ pouvoir ]
marqueurs_niveau0 :: 1 :: [ suffisamment ]
alethique_niveau3 :: 1 :: [ pouvoir ]
deontique_niveau3 :: 1 :: [ pouvoir ]
epistemique_niveau3 :: 1 :: [ pouvoir ]
pas_d_indication_niveau0 :: 1 :: [ suffisamment ]
Total feature counts: 12


====== Text Level Features ======

Features :: Feature-Counts :: Feature-Lemmas
--------------------------------------------
marqueurs :: 2 :: [ pouvoir, suffisamment ]
alethique :: 1 :: [ pouvoir ]
deontique :: 1 :: [ pouvoir ]
epistemique :: 1 :: [ pouvoir ]
pas_d_indication :: 1 :: [ suffisamment ]
marqueurs_niveau3 :: 1 :: [ pouvoir ]
marqueurs_niveau0 :: 1 :: [ suffisamment ]
alethique_niveau3 :: 1 :: [ pouvoir ]
deontique_niveau3 :: 1 :: [ pouvoir ]
epistemique_niveau3 :: 1 :: [ pouvoir ]
pas_d_indication_niveau0 :: 1 :: [ suffisamment ]
Total feature counts: 12

