
********** Entity Names Features **********
*******************************************

1. Sentence: malheureusement cela a renchéri son autoroute qui du milliard est passé à 14 ;
No features found.


********** Emotions Features **********
***************************************

1. Sentence: malheureusement cela a renchéri son autoroute qui du milliard est passé à 14 ;
Tokens having emotion: [ malheureusement ]
Lemmas having emotion: [ malheureusement ]
Categories of the emotion lemmas: [ tristesse ]


********** Modality Features **********
***************************************

1. Sentence: malheureusement cela a renchéri son autoroute qui du milliard est passé à 14 ;
Features :: Feature-Counts :: Feature-Lemmas
--------------------------------------------
marqueurs :: 1 :: [ malheureusement ]
appreciatif :: 1 :: [ malheureusement ]
marqueurs_niveau2 :: 1 :: [ malheureusement ]
appreciatif_niveau2 :: 1 :: [ malheureusement ]
Total feature counts: 4


********** Adverbiaux Temporels Features **********
********************************************************

1. Sentence: malheureusement cela a renchéri son autoroute qui du milliard est passé à 14 ;
No features found.

