
********** Entity Names Features **********
*******************************************

1. Sentence: L ' outil n ' est pas l ' adversaire du projet — sauf si le mécanisme en tient lieu .
Entity Name (Type) :: L (MISC)


********** Emotions Features **********
***************************************

1. Sentence: L ' outil n ' est pas l ' adversaire du projet — sauf si le mécanisme en tient lieu .
No features found.


********** Modality Features **********
***************************************

1. Sentence: L ' outil n ' est pas l ' adversaire du projet — sauf si le mécanisme en tient lieu .
No features found.


********** Adverbiaux Temporels Features **********
********************************************************

1. Sentence: L ' outil n ' est pas l ' adversaire du projet — sauf si le mécanisme en tient lieu .
No features found.

