
********** Entity Names Features **********
*******************************************

1. Sentence: En été lorsque l ' on y déjeune on a réellement la sensation de manger dehors .
No features found.


********** Emotions Features **********
***************************************

1. Sentence: En été lorsque l ' on y déjeune on a réellement la sensation de manger dehors .
No features found.


********** Modality Features **********
***************************************

1. Sentence: En été lorsque l ' on y déjeune on a réellement la sensation de manger dehors .
No features found.


********** Adverbiaux Temporels Features **********
********************************************************

1. Sentence: En été lorsque l ' on y déjeune on a réellement la sensation de manger dehors .
Features :: Feature-Counts :: Feature-Texts
--------------------------------------------
adverbiaux_temporels::1::['En été']
adverbiaux_localisation_temporelle::1::['En été']
adverbiaux_pointage_non_absolu::1::['En été']
adverbiaux_loc_temp_focalisation_id::1::['En été']
adverbiaux_loc_temp_regionalisation_id::1::['En été']
adverbiaux_loc_temp_pointage_non_absolu::1::['En été']

