====== Sentence Level Features ======

1. Sentence: Expliquer notre projet , le développer et le bâtir d ' ici 2012 nécessite depuis 2004 un engagement constant .
Features :: Feature-Counts :: Feature-Lemmas
--------------------------------------------
marqueurs :: 1 :: [ nécessiter ]
alethique :: 1 :: [ nécessiter ]
marqueurs_niveau3 :: 1 :: [ nécessiter ]
alethique_niveau3 :: 1 :: [ nécessiter ]
Total feature counts: 4


====== Text Level Features ======

Features :: Feature-Counts :: Feature-Lemmas
--------------------------------------------
marqueurs :: 1 :: [ nécessiter ]
alethique :: 1 :: [ nécessiter ]
marqueurs_niveau3 :: 1 :: [ nécessiter ]
alethique_niveau3 :: 1 :: [ nécessiter ]
Total feature counts: 4

