
********** Entity Names Features **********
*******************************************

1. Sentence: Fils de forestier , il acquis très jeune une grande connaissance du milieu vivant , des plantes , des arbres , dont il fait des dessins superbes .
No features found.


********** Emotions Features **********
***************************************

1. Sentence: Fils de forestier , il acquis très jeune une grande connaissance du milieu vivant , des plantes , des arbres , dont il fait des dessins superbes .
No features found.


********** Modality Features **********
***************************************

1. Sentence: Fils de forestier , il acquis très jeune une grande connaissance du milieu vivant , des plantes , des arbres , dont il fait des dessins superbes .
Features :: Feature-Counts :: Feature-Lemmas
--------------------------------------------
marqueurs :: 3 :: [ jeune, grand, superbe ]
marqueurs_niveau3 :: 2 :: [ grand, superbe ]
appreciatif :: 1 :: [ superbe ]
epistemique :: 1 :: [ grand ]
pas_d_indication :: 1 :: [ jeune ]
marqueurs_niveau0 :: 1 :: [ jeune ]
appreciatif_niveau3 :: 1 :: [ superbe ]
epistemique_niveau3 :: 1 :: [ grand ]
pas_d_indication_niveau0 :: 1 :: [ jeune ]
Total feature counts: 12


********** Adverbiaux Temporels Features **********
********************************************************

1. Sentence: Fils de forestier , il acquis très jeune une grande connaissance du milieu vivant , des plantes , des arbres , dont il fait des dessins superbes .
No features found.

