
********** Entity Names Features **********
*******************************************

1. Sentence: En aucun cas ils ne peuvent devenir la façade étiquetée d ' un développement durable qui s ' en contenterait .
No features found.


********** Emotions Features **********
***************************************

1. Sentence: En aucun cas ils ne peuvent devenir la façade étiquetée d ' un développement durable qui s ' en contenterait .
Tokens having emotion: [ contenterait ]
Lemmas having emotion: [ contenter ]
Categories of the emotion lemmas: [ joie ]


********** Modality Features **********
***************************************

1. Sentence: En aucun cas ils ne peuvent devenir la façade étiquetée d ' un développement durable qui s ' en contenterait .
Features :: Feature-Counts :: Feature-Lemmas
--------------------------------------------
marqueurs :: 2 :: [ aucun, pouvoir ]
alethique :: 2 :: [ aucun, pouvoir ]
marqueurs_niveau3 :: 2 :: [ aucun, pouvoir ]
alethique_niveau3 :: 2 :: [ aucun, pouvoir ]
deontique :: 1 :: [ pouvoir ]
epistemique :: 1 :: [ pouvoir ]
deontique_niveau3 :: 1 :: [ pouvoir ]
epistemique_niveau3 :: 1 :: [ pouvoir ]
Total feature counts: 12


********** Adverbiaux Temporels Features **********
********************************************************

1. Sentence: En aucun cas ils ne peuvent devenir la façade étiquetée d ' un développement durable qui s ' en contenterait .
No features found.

