
********** Entity Names Features **********
*******************************************

1. Sentence: 2 - PRINCIPES D ' AMÉNAGEMENT , L ' AGGLOMÉRATION ACTUELLE
Entity Name (Type) :: AGGLOMÉRATION ACTUELLE (ORG)


********** Emotions Features **********
***************************************

1. Sentence: 2 - PRINCIPES D ' AMÉNAGEMENT , L ' AGGLOMÉRATION ACTUELLE
No features found.


********** Modality Features **********
***************************************

1. Sentence: 2 - PRINCIPES D ' AMÉNAGEMENT , L ' AGGLOMÉRATION ACTUELLE
No features found.


********** Adverbiaux Temporels Features **********
********************************************************

1. Sentence: 2 - PRINCIPES D ' AMÉNAGEMENT , L ' AGGLOMÉRATION ACTUELLE
No features found.

