====== Sentence Level Features ======

1. Sentence: Le mail Pablo-Picasso .
Entity Name (Type) :: Pablo-Picasso (MISC)


====== Text Level Features ======

Entity Name (Entity Type)
-------------------------
Pablo-Picasso (MISC)
Total entitiy counts: 1

