====== Sentence Level Features ======

1. Sentence: Je pense donc qu ' il y aurait place pour une “agence d ' urbanisme de la France” .
Entity Name (Type) :: la France (LOC)


====== Text Level Features ======

Entity Name (Entity Type)
-------------------------
la France (LOC)
Total entitiy counts: 1

