
********** Entity Names Features **********
*******************************************

1. Sentence: L ' attention a été portée sur la perception lointaine du projet dans la rade de Marseille et dans les perspectives du littoral .
Entity Name (Type) :: Marseille (LOC)


********** Emotions Features **********
***************************************

1. Sentence: L ' attention a été portée sur la perception lointaine du projet dans la rade de Marseille et dans les perspectives du littoral .
No features found.


********** Modality Features **********
***************************************

1. Sentence: L ' attention a été portée sur la perception lointaine du projet dans la rade de Marseille et dans les perspectives du littoral .
No features found.


********** Adverbiaux Temporels Features **********
********************************************************

1. Sentence: L ' attention a été portée sur la perception lointaine du projet dans la rade de Marseille et dans les perspectives du littoral .
No features found.

