
********** Entity Names Features **********
*******************************************

1. Sentence: Processus plutôt que plan-masse
No features found.


********** Emotions Features **********
***************************************

1. Sentence: Processus plutôt que plan-masse
No features found.


********** Modality Features **********
***************************************

1. Sentence: Processus plutôt que plan-masse
No features found.


********** Adverbiaux Temporels Features **********
********************************************************

1. Sentence: Processus plutôt que plan-masse
No features found.

