
********** Entity Names Features **********
*******************************************

1. Sentence: Ainsi Paris se donnera les moyens de remplir , à la mesure des besoins de la fin du siècle ,
Entity Name (Type) :: Paris (LOC)


********** Emotions Features **********
***************************************

1. Sentence: Ainsi Paris se donnera les moyens de remplir , à la mesure des besoins de la fin du siècle ,
No features found.


********** Modality Features **********
***************************************

1. Sentence: Ainsi Paris se donnera les moyens de remplir , à la mesure des besoins de la fin du siècle ,
Features :: Feature-Counts :: Feature-Lemmas
--------------------------------------------
marqueurs :: 1 :: [ besoin ]
alethique :: 1 :: [ besoin ]
boulique :: 1 :: [ besoin ]
marqueurs_niveau3 :: 1 :: [ besoin ]
alethique_niveau3 :: 1 :: [ besoin ]
boulique_niveau3 :: 1 :: [ besoin ]
Total feature counts: 6


********** Adverbiaux Temporels Features **********
********************************************************

1. Sentence: Ainsi Paris se donnera les moyens de remplir , à la mesure des besoins de la fin du siècle ,
No features found.

