====== Sentence Level Features ======

1. Sentence: Je pense que ce prix a salué la rencontre entre la recherche urbaine et la pratique professionnelle et ouvre des voies d ' avenir pour mes successeurs .
Features :: Feature-Counts :: Feature-Lemmas
--------------------------------------------
marqueurs :: 3 :: [ penser, prix, ouvrir ]
marqueurs_niveau3 :: 2 :: [ penser, ouvrir ]
appreciatif :: 1 :: [ prix ]
axiologique :: 1 :: [ prix ]
boulique :: 1 :: [ ouvrir ]
epistemique :: 1 :: [ penser ]
marqueurs_niveau2 :: 1 :: [ prix ]
appreciatif_niveau2 :: 1 :: [ prix ]
axiologique_niveau2 :: 1 :: [ prix ]
boulique_niveau3 :: 1 :: [ ouvrir ]
epistemique_niveau3 :: 1 :: [ penser ]
Total feature counts: 14


====== Text Level Features ======

Features :: Feature-Counts :: Feature-Lemmas
--------------------------------------------
marqueurs :: 3 :: [ penser, prix, ouvrir ]
marqueurs_niveau3 :: 2 :: [ penser, ouvrir ]
appreciatif :: 1 :: [ prix ]
axiologique :: 1 :: [ prix ]
boulique :: 1 :: [ ouvrir ]
epistemique :: 1 :: [ penser ]
marqueurs_niveau2 :: 1 :: [ prix ]
appreciatif_niveau2 :: 1 :: [ prix ]
axiologique_niveau2 :: 1 :: [ prix ]
boulique_niveau3 :: 1 :: [ ouvrir ]
epistemique_niveau3 :: 1 :: [ penser ]
Total feature counts: 14

