====== Sentence Level Features ======

1. Sentence: Cet article fait allusion aux approches communes de Bernardo Secchi et Vittorio Gregotti , présentées dans la revue Casabella , sur la modification de la ville à partir de l ' existant .
Features :: Feature-Counts :: Feature-Lemmas
--------------------------------------------
marqueurs :: 1 :: [ partir ]
alethique :: 1 :: [ partir ]
marqueurs_niveau1 :: 1 :: [ partir ]
alethique_niveau1 :: 1 :: [ partir ]
Total feature counts: 4


====== Text Level Features ======

Features :: Feature-Counts :: Feature-Lemmas
--------------------------------------------
marqueurs :: 1 :: [ partir ]
alethique :: 1 :: [ partir ]
marqueurs_niveau1 :: 1 :: [ partir ]
alethique_niveau1 :: 1 :: [ partir ]
Total feature counts: 4

