====== Sentence Level Features ======

1. Sentence: Aartill , éclairagiste; EEG Simecsol [Arcadis] , BET VRD . )
Entity Name (Type) :: BET VRD (ORG)


====== Text Level Features ======

Entity Name (Entity Type)
-------------------------
EEG Simecsol (ORG)
Arcadis (ORG)
BET VRD (ORG)
Total entitiy counts: 3

