====== Sentence Level Features ======

1. Sentence: Je crois néanmoins beaucoup au maintien des aménageurs publics .
Features :: Feature-Counts :: Feature-Lemmas
--------------------------------------------
marqueurs :: 2 :: [ croire, beaucoup ]
epistemique :: 2 :: [ croire, beaucoup ]
marqueurs_niveau3 :: 1 :: [ croire ]
marqueurs_niveau1 :: 1 :: [ beaucoup ]
epistemique_niveau3 :: 1 :: [ croire ]
epistemique_niveau1 :: 1 :: [ beaucoup ]
Total feature counts: 8


====== Text Level Features ======

Features :: Feature-Counts :: Feature-Lemmas
--------------------------------------------
marqueurs :: 2 :: [ croire, beaucoup ]
epistemique :: 2 :: [ croire, beaucoup ]
marqueurs_niveau3 :: 1 :: [ croire ]
marqueurs_niveau1 :: 1 :: [ beaucoup ]
epistemique_niveau3 :: 1 :: [ croire ]
epistemique_niveau1 :: 1 :: [ beaucoup ]
Total feature counts: 8

