
********** Entity Names Features **********
*******************************************

1. Sentence: Ce sol intérieur public , tout comme le jardin dessiné par Alexandre Chemetoff , prend l ' importance que mérite l ' institution .
Entity Name (Type) :: Alexandre Chemetoff (PER)


********** Emotions Features **********
***************************************

1. Sentence: Ce sol intérieur public , tout comme le jardin dessiné par Alexandre Chemetoff , prend l ' importance que mérite l ' institution .
No features found.


********** Modality Features **********
***************************************

1. Sentence: Ce sol intérieur public , tout comme le jardin dessiné par Alexandre Chemetoff , prend l ' importance que mérite l ' institution .
Features :: Feature-Counts :: Feature-Lemmas
--------------------------------------------
marqueurs :: 1 :: [ mériter ]
axiologique :: 1 :: [ mériter ]
marqueurs_niveau2 :: 1 :: [ mériter ]
axiologique_niveau2 :: 1 :: [ mériter ]
Total feature counts: 4


********** Adverbiaux Temporels Features **********
********************************************************

1. Sentence: Ce sol intérieur public , tout comme le jardin dessiné par Alexandre Chemetoff , prend l ' importance que mérite l ' institution .
No features found.

