====== Sentence Level Features ======

1. Sentence: Je vous le promets; venons-en aux choses un peu plus sérieuses;
Features :: Feature-Counts :: Feature-Lemmas
--------------------------------------------
marqueurs :: 2 :: [ venir, sérieux ]
alethique :: 1 :: [ venir ]
pas_d_indication :: 1 :: [ sérieux ]
marqueurs_niveau3 :: 1 :: [ venir ]
marqueurs_niveau0 :: 1 :: [ sérieux ]
alethique_niveau3 :: 1 :: [ venir ]
pas_d_indication_niveau0 :: 1 :: [ sérieux ]
Total feature counts: 8


====== Text Level Features ======

Features :: Feature-Counts :: Feature-Lemmas
--------------------------------------------
marqueurs :: 2 :: [ venir, sérieux ]
alethique :: 1 :: [ venir ]
pas_d_indication :: 1 :: [ sérieux ]
marqueurs_niveau3 :: 1 :: [ venir ]
marqueurs_niveau0 :: 1 :: [ sérieux ]
alethique_niveau3 :: 1 :: [ venir ]
pas_d_indication_niveau0 :: 1 :: [ sérieux ]
Total feature counts: 8

