
********** Entity Names Features **********
*******************************************

1. Sentence: Un lien fort doit donc exister entre projet et planification dans l ' urbanisme contemporain .
Entity Name (Type) :: Un (LOC)


********** Emotions Features **********
***************************************

1. Sentence: Un lien fort doit donc exister entre projet et planification dans l ' urbanisme contemporain .
No features found.


********** Modality Features **********
***************************************

1. Sentence: Un lien fort doit donc exister entre projet et planification dans l ' urbanisme contemporain .
Features :: Feature-Counts :: Feature-Lemmas
--------------------------------------------
marqueurs :: 2 :: [ fort, devoir ]
alethique :: 1 :: [ devoir ]
deontique :: 1 :: [ devoir ]
epistemique :: 1 :: [ devoir ]
pas_d_indication :: 1 :: [ fort ]
marqueurs_niveau3 :: 1 :: [ devoir ]
marqueurs_niveau0 :: 1 :: [ fort ]
alethique_niveau3 :: 1 :: [ devoir ]
deontique_niveau3 :: 1 :: [ devoir ]
epistemique_niveau3 :: 1 :: [ devoir ]
pas_d_indication_niveau0 :: 1 :: [ fort ]
Total feature counts: 12


********** Adverbiaux Temporels Features **********
********************************************************

1. Sentence: Un lien fort doit donc exister entre projet et planification dans l ' urbanisme contemporain .
No features found.

