====== Sentence Level Features ======

1. Sentence: La familiarité acquise en travaillant sur le milieu vivant nous incline à penser le paysage comme le lieu où tous les éléments s ' entredéterminent .
Features :: Feature-Counts :: Feature-Lemmas
--------------------------------------------
marqueurs :: 2 :: [ travailler, penser ]
appreciatif :: 1 :: [ travailler ]
epistemique :: 1 :: [ penser ]
marqueurs_niveau3 :: 1 :: [ penser ]
marqueurs_niveau2 :: 1 :: [ travailler ]
appreciatif_niveau2 :: 1 :: [ travailler ]
epistemique_niveau3 :: 1 :: [ penser ]
Total feature counts: 8


====== Text Level Features ======

Features :: Feature-Counts :: Feature-Lemmas
--------------------------------------------
marqueurs :: 2 :: [ travailler, penser ]
appreciatif :: 1 :: [ travailler ]
epistemique :: 1 :: [ penser ]
marqueurs_niveau3 :: 1 :: [ penser ]
marqueurs_niveau2 :: 1 :: [ travailler ]
appreciatif_niveau2 :: 1 :: [ travailler ]
epistemique_niveau3 :: 1 :: [ penser ]
Total feature counts: 8

