
********** Entity Names Features **********
*******************************************

1. Sentence: Ce n ' est pas un alibi , il inspire une vision économe de l ' utilisation des ressources naturelles de ce territoire .
No features found.


********** Emotions Features **********
***************************************

1. Sentence: Ce n ' est pas un alibi , il inspire une vision économe de l ' utilisation des ressources naturelles de ce territoire .
No features found.


********** Modality Features **********
***************************************

1. Sentence: Ce n ' est pas un alibi , il inspire une vision économe de l ' utilisation des ressources naturelles de ce territoire .
Features :: Feature-Counts :: Feature-Lemmas
--------------------------------------------
marqueurs :: 1 :: [ économe ]
axiologique :: 1 :: [ économe ]
marqueurs_niveau3 :: 1 :: [ économe ]
axiologique_niveau3 :: 1 :: [ économe ]
Total feature counts: 4


********** Adverbiaux Temporels Features **********
********************************************************

1. Sentence: Ce n ' est pas un alibi , il inspire une vision économe de l ' utilisation des ressources naturelles de ce territoire .
No features found.

