====== Sentence Level Features ======

1. Sentence: Par la suite , je n ' ai plus eu droit aux pages de Libération .
Entity Name (Type) :: Libération (ORG)


====== Text Level Features ======

Entity Name (Entity Type)
-------------------------
Libération (ORG)
Total entitiy counts: 1

