
********** Entity Names Features **********
*******************************************

1. Sentence: Ainsi Paris-dans-les-murs , ville plus essentielle , restera la ville la plus complète qui soit au monde .
Entity Name (Type) :: Paris-dans-les-murs (LOC)


********** Emotions Features **********
***************************************

1. Sentence: Ainsi Paris-dans-les-murs , ville plus essentielle , restera la ville la plus complète qui soit au monde .
No features found.


********** Modality Features **********
***************************************

1. Sentence: Ainsi Paris-dans-les-murs , ville plus essentielle , restera la ville la plus complète qui soit au monde .
No features found.


********** Adverbiaux Temporels Features **********
********************************************************

1. Sentence: Ainsi Paris-dans-les-murs , ville plus essentielle , restera la ville la plus complète qui soit au monde .
No features found.

