====== Sentence Level Features ======

1. Sentence: Comment remédier à ces maux , comment éviter qu ’ ils ne s ' aggravent avec la croissance inéluctable , comment une agglomération , demain plus grande et plus nombreuse , pourra-t-elle vivre mieux qu ' elle ne vit aujourd ' hui ?
Features :: Feature-Counts :: Feature-Lemmas
--------------------------------------------
marqueurs :: 4 :: [ mal, grand, pouvoir, mieux ]
marqueurs_niveau3 :: 3 :: [ mal, grand, pouvoir ]
appreciatif :: 2 :: [ mal, mieux ]
axiologique :: 2 :: [ mal, mieux ]
epistemique :: 2 :: [ grand, pouvoir ]
epistemique_niveau3 :: 2 :: [ grand, pouvoir ]
alethique :: 1 :: [ pouvoir ]
deontique :: 1 :: [ pouvoir ]
marqueurs_niveau2 :: 1 :: [ mieux ]
alethique_niveau3 :: 1 :: [ pouvoir ]
appreciatif_niveau3 :: 1 :: [ mal ]
appreciatif_niveau2 :: 1 :: [ mieux ]
axiologique_niveau3 :: 1 :: [ mal ]
axiologique_niveau2 :: 1 :: [ mieux ]
deontique_niveau3 :: 1 :: [ pouvoir ]
Total feature counts: 24


====== Text Level Features ======

Features :: Feature-Counts :: Feature-Lemmas
--------------------------------------------
marqueurs :: 4 :: [ mal, grand, pouvoir, mieux ]
marqueurs_niveau3 :: 3 :: [ mal, grand, pouvoir ]
appreciatif :: 2 :: [ mal, mieux ]
axiologique :: 2 :: [ mal, mieux ]
epistemique :: 2 :: [ grand, pouvoir ]
epistemique_niveau3 :: 2 :: [ grand, pouvoir ]
alethique :: 1 :: [ pouvoir ]
deontique :: 1 :: [ pouvoir ]
marqueurs_niveau2 :: 1 :: [ mieux ]
alethique_niveau3 :: 1 :: [ pouvoir ]
appreciatif_niveau3 :: 1 :: [ mal ]
appreciatif_niveau2 :: 1 :: [ mieux ]
axiologique_niveau3 :: 1 :: [ mal ]
axiologique_niveau2 :: 1 :: [ mieux ]
deontique_niveau3 :: 1 :: [ pouvoir ]
Total feature counts: 24

