====== Sentence Level Features ======

1. Sentence: socles de métal , ce n ' était pas incongru puisqu ' avec la présence active des chantiers navals , on sait le faire sans difficulté , « nous , Nazairiens !
Features :: Feature-Counts :: Feature-Lemmas
--------------------------------------------
marqueurs :: 2 :: [ savoir, difficulté ]
epistemique :: 1 :: [ savoir ]
pas_d_indication :: 1 :: [ difficulté ]
marqueurs_niveau3 :: 1 :: [ savoir ]
marqueurs_niveau0 :: 1 :: [ difficulté ]
epistemique_niveau3 :: 1 :: [ savoir ]
pas_d_indication_niveau0 :: 1 :: [ difficulté ]
Total feature counts: 8


====== Text Level Features ======

Features :: Feature-Counts :: Feature-Lemmas
--------------------------------------------
marqueurs :: 2 :: [ savoir, difficulté ]
epistemique :: 1 :: [ savoir ]
pas_d_indication :: 1 :: [ difficulté ]
marqueurs_niveau3 :: 1 :: [ savoir ]
marqueurs_niveau0 :: 1 :: [ difficulté ]
epistemique_niveau3 :: 1 :: [ savoir ]
pas_d_indication_niveau0 :: 1 :: [ difficulté ]
Total feature counts: 8

