====== Sentence Level Features ======

1. Sentence: L ' exemple du Pays basque espagnol est éloquent .
Entity Name (Type) :: Pays basque (LOC)


====== Text Level Features ======

Entity Name (Entity Type)
-------------------------
Pays basque (LOC)
Total entitiy counts: 1

