====== Sentence Level Features ======

1. Sentence: Il y avait eu auparavant le concours du parc de la Villette , gagné par Bernard Tschumi en 1983 , inauguré quatre ans plus tard .
Features :: Feature-Counts :: Feature-Texts
--------------------------------------------
adverbiaux_temporels::2::['en 1983', 'plus tard']
adverbiaux_localisation_temporelle::2::['en 1983', 'plus tard']
adverbiaux_pointage_absolu::1::['en 1983']
adverbiaux_pointage_non_absolu::2::['en 1983', 'plus tard']
adverbiaux_loc_temp_focalisation_id::1::['en 1983']
adverbiaux_loc_temp_regionalisation_id::2::['en 1983', 'plus tard']
adverbiaux_loc_temp_pointage_non_absolu::2::['en 1983', 'plus tard']
adverbiaux_dur_iter_absolu::1::['en 1983']


====== Text Level Features ======

Features :: Feature-Counts :: Feature-Texts
--------------------------------------------
adverbiaux_temporels::2::['en 1983', 'plus tard']
adverbiaux_localisation_temporelle::2::['en 1983', 'plus tard']
adverbiaux_pointage_absolu::1::['en 1983']
adverbiaux_pointage_non_absolu::2::['en 1983', 'plus tard']
adverbiaux_loc_temp_focalisation_id::1::['en 1983']
adverbiaux_loc_temp_regionalisation_id::2::['en 1983', 'plus tard']
adverbiaux_loc_temp_pointage_non_absolu::2::['en 1983', 'plus tard']
adverbiaux_dur_iter_absolu::1::['en 1983']
Total feature counts: 13

