
********** Entity Names Features **********
*******************************************

1. Sentence: (3) Bureaux , magasins de vente , dépôts .
Entity Name (Type) :: (3) Bureaux (LOC)


********** Emotions Features **********
***************************************

1. Sentence: (3) Bureaux , magasins de vente , dépôts .
No features found.


********** Modality Features **********
***************************************

1. Sentence: (3) Bureaux , magasins de vente , dépôts .
No features found.


********** Adverbiaux Temporels Features **********
********************************************************

1. Sentence: (3) Bureaux , magasins de vente , dépôts .
No features found.

