
********** Entity Names Features **********
*******************************************

1. Sentence: La dépollution de la péninsule nécessite une véritable table rase .
No features found.


********** Emotions Features **********
***************************************

1. Sentence: La dépollution de la péninsule nécessite une véritable table rase .
No features found.


********** Modality Features **********
***************************************

1. Sentence: La dépollution de la péninsule nécessite une véritable table rase .
Features :: Feature-Counts :: Feature-Lemmas
--------------------------------------------
marqueurs :: 3 :: [ nécessiter, véritable, table ]
alethique :: 2 :: [ nécessiter, table ]
marqueurs_niveau3 :: 2 :: [ nécessiter, table ]
alethique_niveau3 :: 2 :: [ nécessiter, table ]
pas_d_indication :: 1 :: [ véritable ]
marqueurs_niveau0 :: 1 :: [ véritable ]
pas_d_indication_niveau0 :: 1 :: [ véritable ]
Total feature counts: 12


********** Adverbiaux Temporels Features **********
********************************************************

1. Sentence: La dépollution de la péninsule nécessite une véritable table rase .
No features found.

