
********** Entity Names Features **********
*******************************************

1. Sentence: Elles animent le cadre urbain et lui donnent son caractère .
No features found.


********** Emotions Features **********
***************************************

1. Sentence: Elles animent le cadre urbain et lui donnent son caractère .
No features found.


********** Modality Features **********
***************************************

1. Sentence: Elles animent le cadre urbain et lui donnent son caractère .
Features :: Feature-Counts :: Feature-Lemmas
--------------------------------------------
marqueurs :: 1 :: [ lui ]
alethique :: 1 :: [ lui ]
epistemique :: 1 :: [ lui ]
marqueurs_niveau3 :: 1 :: [ lui ]
alethique_niveau3 :: 1 :: [ lui ]
epistemique_niveau3 :: 1 :: [ lui ]
Total feature counts: 6


********** Adverbiaux Temporels Features **********
********************************************************

1. Sentence: Elles animent le cadre urbain et lui donnent son caractère .
No features found.

