====== Sentence Level Features ======

1. Sentence: avec François Deslaugiers , nous réalisons enfin une passerelle au-dessus de la gare Lille-Flandres;
Features :: Feature-Counts :: Feature-Lemmas
--------------------------------------------
marqueurs :: 1 :: [ réaliser ]
alethique :: 1 :: [ réaliser ]
marqueurs_niveau1 :: 1 :: [ réaliser ]
alethique_niveau1 :: 1 :: [ réaliser ]
Total feature counts: 4


====== Text Level Features ======

Features :: Feature-Counts :: Feature-Lemmas
--------------------------------------------
marqueurs :: 1 :: [ réaliser ]
alethique :: 1 :: [ réaliser ]
marqueurs_niveau1 :: 1 :: [ réaliser ]
alethique_niveau1 :: 1 :: [ réaliser ]
Total feature counts: 4

