====== Sentence Level Features ======

1. Sentence: Dans le but principal de développer l ' habitat et en particulier les logements en accession à prix maîtrisé , ce projet urbain propose une alternative à la maison individuelle de grande périphérie .
Features :: Feature-Counts :: Feature-Lemmas
--------------------------------------------
marqueurs :: 2 :: [ prix, grand ]
appreciatif :: 1 :: [ prix ]
axiologique :: 1 :: [ prix ]
epistemique :: 1 :: [ grand ]
marqueurs_niveau3 :: 1 :: [ grand ]
marqueurs_niveau2 :: 1 :: [ prix ]
appreciatif_niveau2 :: 1 :: [ prix ]
axiologique_niveau2 :: 1 :: [ prix ]
epistemique_niveau3 :: 1 :: [ grand ]
Total feature counts: 10


====== Text Level Features ======

Features :: Feature-Counts :: Feature-Lemmas
--------------------------------------------
marqueurs :: 2 :: [ prix, grand ]
appreciatif :: 1 :: [ prix ]
axiologique :: 1 :: [ prix ]
epistemique :: 1 :: [ grand ]
marqueurs_niveau3 :: 1 :: [ grand ]
marqueurs_niveau2 :: 1 :: [ prix ]
appreciatif_niveau2 :: 1 :: [ prix ]
axiologique_niveau2 :: 1 :: [ prix ]
epistemique_niveau3 :: 1 :: [ grand ]
Total feature counts: 10

