
********** Entity Names Features **********
*******************************************

1. Sentence: — la fauche pour le fourrage ;
No features found.


********** Emotions Features **********
***************************************

1. Sentence: — la fauche pour le fourrage ;
No features found.


********** Modality Features **********
***************************************

1. Sentence: — la fauche pour le fourrage ;
No features found.


********** Adverbiaux Temporels Features **********
********************************************************

1. Sentence: — la fauche pour le fourrage ;
No features found.

