
********** Entity Names Features **********
*******************************************

1. Sentence: le Plan pourra demander une prolongation de Z . A . D si c ’ est nécessaire .
Entity Name (Type) :: Plan (LOC)


********** Emotions Features **********
***************************************

1. Sentence: le Plan pourra demander une prolongation de Z . A . D si c ’ est nécessaire .
No features found.


********** Modality Features **********
***************************************

1. Sentence: le Plan pourra demander une prolongation de Z . A . D si c ’ est nécessaire .
Features :: Feature-Counts :: Feature-Lemmas
--------------------------------------------
marqueurs :: 3 :: [ pouvoir, demander, nécessaire ]
marqueurs_niveau3 :: 3 :: [ pouvoir, demander, nécessaire ]
alethique :: 2 :: [ pouvoir, nécessaire ]
alethique_niveau3 :: 2 :: [ pouvoir, nécessaire ]
boulique :: 1 :: [ demander ]
deontique :: 1 :: [ pouvoir ]
epistemique :: 1 :: [ pouvoir ]
boulique_niveau3 :: 1 :: [ demander ]
deontique_niveau3 :: 1 :: [ pouvoir ]
epistemique_niveau3 :: 1 :: [ pouvoir ]
Total feature counts: 16


********** Adverbiaux Temporels Features **********
********************************************************

1. Sentence: le Plan pourra demander une prolongation de Z . A . D si c ’ est nécessaire .
No features found.

