
********** Entity Names Features **********
*******************************************

2. Sentence: Il me semble aussi nécessaire de clariﬁer les alternatives qui nous sont offertes .
No features found.


********** Emotions Features **********
***************************************

2. Sentence: Il me semble aussi nécessaire de clariﬁer les alternatives qui nous sont offertes .
No features found.


********** Modality Features **********
***************************************

2. Sentence: Il me semble aussi nécessaire de clariﬁer les alternatives qui nous sont offertes .
Features :: Feature-Counts :: Feature-Lemmas
--------------------------------------------
marqueurs :: 3 :: [ sembler, nécessaire, offrir ]
marqueurs_niveau3 :: 2 :: [ sembler, nécessaire ]
alethique :: 1 :: [ nécessaire ]
appreciatif :: 1 :: [ offrir ]
epistemique :: 1 :: [ sembler ]
marqueurs_niveau2 :: 1 :: [ offrir ]
alethique_niveau3 :: 1 :: [ nécessaire ]
appreciatif_niveau2 :: 1 :: [ offrir ]
epistemique_niveau3 :: 1 :: [ sembler ]
Total feature counts: 12


********** Adverbiaux Temporels Features **********
********************************************************

2. Sentence: Il me semble aussi nécessaire de clariﬁer les alternatives qui nous sont offertes .
No features found.

