====== Sentence Level Features ======

1. Sentence: Cela en dit long sur la méconnaissance du métier d ' architecte .
Features :: Feature-Counts :: Feature-Lemmas
--------------------------------------------
marqueurs :: 2 :: [ dire, long ]
boulique :: 1 :: [ dire ]
epistemique :: 1 :: [ long ]
marqueurs_niveau3 :: 1 :: [ dire ]
marqueurs_niveau2 :: 1 :: [ long ]
boulique_niveau3 :: 1 :: [ dire ]
epistemique_niveau2 :: 1 :: [ long ]
Total feature counts: 8


====== Text Level Features ======

Features :: Feature-Counts :: Feature-Lemmas
--------------------------------------------
marqueurs :: 2 :: [ dire, long ]
boulique :: 1 :: [ dire ]
epistemique :: 1 :: [ long ]
marqueurs_niveau3 :: 1 :: [ dire ]
marqueurs_niveau2 :: 1 :: [ long ]
boulique_niveau3 :: 1 :: [ dire ]
epistemique_niveau2 :: 1 :: [ long ]
Total feature counts: 8

