
********** Entity Names Features **********
*******************************************

1. Sentence: En 2010 , la seconde phase du projet Lyon Confluence étend l ' imbrication étroite entre paysage et bâti sur deux nouveaux secteurs , mais de façon clairement distincte .
Entity Name (Type) :: Lyon Confluence (LOC)


********** Emotions Features **********
***************************************

1. Sentence: En 2010 , la seconde phase du projet Lyon Confluence étend l ' imbrication étroite entre paysage et bâti sur deux nouveaux secteurs , mais de façon clairement distincte .
No features found.


********** Modality Features **********
***************************************

1. Sentence: En 2010 , la seconde phase du projet Lyon Confluence étend l ' imbrication étroite entre paysage et bâti sur deux nouveaux secteurs , mais de façon clairement distincte .
No features found.


********** Adverbiaux Temporels Features **********
********************************************************

1. Sentence: En 2010 , la seconde phase du projet Lyon Confluence étend l ' imbrication étroite entre paysage et bâti sur deux nouveaux secteurs , mais de façon clairement distincte .
Features :: Feature-Counts :: Feature-Texts
--------------------------------------------
adverbiaux_temporels::1::['En 2010']
adverbiaux_localisation_temporelle::1::['En 2010']
adverbiaux_pointage_absolu::1::['En 2010']
adverbiaux_pointage_non_absolu::1::['En 2010']
adverbiaux_loc_temp_focalisation_id::1::['En 2010']
adverbiaux_loc_temp_regionalisation_id::1::['En 2010']
adverbiaux_loc_temp_pointage_non_absolu::1::['En 2010']
adverbiaux_dur_iter_absolu::1::['En 2010']

