====== Sentence Level Features ======

1. Sentence: L ' espace public et le paysage s ' y rencontrent et agissent ,  l ' un et l ' autre , comme de véritables infrastructures sociales .
Features :: Feature-Counts :: Feature-Lemmas
--------------------------------------------
marqueurs :: 1 :: [ véritable ]
pas_d_indication :: 1 :: [ véritable ]
marqueurs_niveau0 :: 1 :: [ véritable ]
pas_d_indication_niveau0 :: 1 :: [ véritable ]
Total feature counts: 4


====== Text Level Features ======

Features :: Feature-Counts :: Feature-Lemmas
--------------------------------------------
marqueurs :: 1 :: [ véritable ]
pas_d_indication :: 1 :: [ véritable ]
marqueurs_niveau0 :: 1 :: [ véritable ]
pas_d_indication_niveau0 :: 1 :: [ véritable ]
Total feature counts: 4

