====== Sentence Level Features ======

1. Sentence: Appliqué aux 30 millions de voyageurs qui , en 1963 , sont partis des gares parisiennes pour la province ou l ' étranger , ce pourcentage permet d ' évaluer à quelques 10 millions le nombre des déplacements professionnels issus annuellement de la région parisienne , et utilisant le train .
Features :: Feature-Counts :: Feature-Lemmas
--------------------------------------------
marqueurs :: 2 :: [ partir, permettre ]
alethique :: 1 :: [ partir ]
deontique :: 1 :: [ permettre ]
marqueurs_niveau3 :: 1 :: [ permettre ]
marqueurs_niveau1 :: 1 :: [ partir ]
alethique_niveau1 :: 1 :: [ partir ]
deontique_niveau3 :: 1 :: [ permettre ]
Total feature counts: 8


====== Text Level Features ======

Features :: Feature-Counts :: Feature-Lemmas
--------------------------------------------
marqueurs :: 2 :: [ partir, permettre ]
alethique :: 1 :: [ partir ]
deontique :: 1 :: [ permettre ]
marqueurs_niveau3 :: 1 :: [ permettre ]
marqueurs_niveau1 :: 1 :: [ partir ]
alethique_niveau1 :: 1 :: [ partir ]
deontique_niveau3 :: 1 :: [ permettre ]
Total feature counts: 8

