
********** Entity Names Features **********
*******************************************

1. Sentence: Le Mont Valérien , les collines de Cormeilles sont notamment protégés par les dispositions envisagées ;
Entity Name (Type) :: Cormeilles (LOC)


********** Emotions Features **********
***************************************

1. Sentence: Le Mont Valérien , les collines de Cormeilles sont notamment protégés par les dispositions envisagées ;
No features found.


********** Modality Features **********
***************************************

1. Sentence: Le Mont Valérien , les collines de Cormeilles sont notamment protégés par les dispositions envisagées ;
Features :: Feature-Counts :: Feature-Lemmas
--------------------------------------------
marqueurs :: 1 :: [ protéger ]
pas_d_indication :: 1 :: [ protéger ]
marqueurs_niveau0 :: 1 :: [ protéger ]
pas_d_indication_niveau0 :: 1 :: [ protéger ]
Total feature counts: 4


********** Adverbiaux Temporels Features **********
********************************************************

1. Sentence: Le Mont Valérien , les collines de Cormeilles sont notamment protégés par les dispositions envisagées ;
No features found.

