====== Sentence Level Features ======

1. Sentence: Les travaux de Laurent Davezies ont souligné le rôle énorme que joue , dans de nombreuses villes moyennes et dans les territoires en général (y compris métropolitains) ,  l ' injection de ressources publiques et de revenus de transfert .
Features :: Feature-Counts :: Feature-Lemmas
--------------------------------------------
marqueurs :: 3 :: [ travail, énorme, jouer ]
appreciatif :: 2 :: [ travail, jouer ]
marqueurs_niveau2 :: 2 :: [ énorme, jouer ]
epistemique :: 1 :: [ énorme ]
marqueurs_niveau3 :: 1 :: [ travail ]
appreciatif_niveau3 :: 1 :: [ travail ]
appreciatif_niveau2 :: 1 :: [ jouer ]
epistemique_niveau2 :: 1 :: [ énorme ]
Total feature counts: 12


====== Text Level Features ======

Features :: Feature-Counts :: Feature-Lemmas
--------------------------------------------
marqueurs :: 3 :: [ travail, énorme, jouer ]
appreciatif :: 2 :: [ travail, jouer ]
marqueurs_niveau2 :: 2 :: [ énorme, jouer ]
epistemique :: 1 :: [ énorme ]
marqueurs_niveau3 :: 1 :: [ travail ]
appreciatif_niveau3 :: 1 :: [ travail ]
appreciatif_niveau2 :: 1 :: [ jouer ]
epistemique_niveau2 :: 1 :: [ énorme ]
Total feature counts: 12

