
********** Entity Names Features **********
*******************************************

1. Sentence: Le réseau express régional (R . E . R . )
No features found.


********** Emotions Features **********
***************************************

1. Sentence: Le réseau express régional (R . E . R . )
No features found.


********** Modality Features **********
***************************************

1. Sentence: Le réseau express régional (R . E . R . )
No features found.


********** Adverbiaux Temporels Features **********
********************************************************

1. Sentence: Le réseau express régional (R . E . R . )
No features found.

