====== Sentence Level Features ======

1. Sentence: DIVERS À mon âge , on est sollicité pour un nombre incroyable de comités , commissions , conseils divers .
Features :: Feature-Counts :: Feature-Lemmas
--------------------------------------------
marqueurs :: 1 :: [ incroyable ]
appreciatif :: 1 :: [ incroyable ]
epistemique :: 1 :: [ incroyable ]
marqueurs_niveau2 :: 1 :: [ incroyable ]
appreciatif_niveau2 :: 1 :: [ incroyable ]
epistemique_niveau2 :: 1 :: [ incroyable ]
Total feature counts: 6


====== Text Level Features ======

Features :: Feature-Counts :: Feature-Lemmas
--------------------------------------------
marqueurs :: 1 :: [ incroyable ]
appreciatif :: 1 :: [ incroyable ]
epistemique :: 1 :: [ incroyable ]
marqueurs_niveau2 :: 1 :: [ incroyable ]
appreciatif_niveau2 :: 1 :: [ incroyable ]
epistemique_niveau2 :: 1 :: [ incroyable ]
Total feature counts: 6

