====== Sentence Level Features ======

1. Sentence: Venu des trottoirs ombragés , le mouvement du piéton est attiré vers la lumière de la grande pelouse .
Features :: Feature-Counts :: Feature-Lemmas
--------------------------------------------
marqueurs :: 3 :: [ venir, lumière, grand ]
alethique :: 2 :: [ venir, lumière ]
marqueurs_niveau3 :: 2 :: [ venir, grand ]
appreciatif :: 1 :: [ lumière ]
epistemique :: 1 :: [ grand ]
marqueurs_niveau1 :: 1 :: [ lumière ]
alethique_niveau3 :: 1 :: [ venir ]
alethique_niveau1 :: 1 :: [ lumière ]
appreciatif_niveau1 :: 1 :: [ lumière ]
epistemique_niveau3 :: 1 :: [ grand ]
Total feature counts: 14


====== Text Level Features ======

Features :: Feature-Counts :: Feature-Lemmas
--------------------------------------------
marqueurs :: 3 :: [ venir, lumière, grand ]
alethique :: 2 :: [ venir, lumière ]
marqueurs_niveau3 :: 2 :: [ venir, grand ]
appreciatif :: 1 :: [ lumière ]
epistemique :: 1 :: [ grand ]
marqueurs_niveau1 :: 1 :: [ lumière ]
alethique_niveau3 :: 1 :: [ venir ]
alethique_niveau1 :: 1 :: [ lumière ]
appreciatif_niveau1 :: 1 :: [ lumière ]
epistemique_niveau3 :: 1 :: [ grand ]
Total feature counts: 14

