
********** Entity Names Features **********
*******************************************

1. Sentence: Avec le zapping habituel des outils publics , ils ont un peu disparu  : c ' est dommage .
No features found.


********** Emotions Features **********
***************************************

1. Sentence: Avec le zapping habituel des outils publics , ils ont un peu disparu  : c ' est dommage .
No features found.


********** Modality Features **********
***************************************

1. Sentence: Avec le zapping habituel des outils publics , ils ont un peu disparu  : c ' est dommage .
Features :: Feature-Counts :: Feature-Lemmas
--------------------------------------------
marqueurs :: 1 :: [ dommage ]
appreciatif :: 1 :: [ dommage ]
marqueurs_niveau3 :: 1 :: [ dommage ]
appreciatif_niveau3 :: 1 :: [ dommage ]
Total feature counts: 4


********** Adverbiaux Temporels Features **********
********************************************************

1. Sentence: Avec le zapping habituel des outils publics , ils ont un peu disparu  : c ' est dommage .
No features found.

