
********** Entity Names Features **********
*******************************************

1. Sentence: L ' interpréter et le pousser dans ses retranchements ne revient pas à rendre les aménagements plus dangereux mais plus humains .
No features found.


********** Emotions Features **********
***************************************

1. Sentence: L ' interpréter et le pousser dans ses retranchements ne revient pas à rendre les aménagements plus dangereux mais plus humains .
Tokens having emotion: [ dangereux ]
Lemmas having emotion: [ dangereux ]
Categories of the emotion lemmas: [ peur ]


********** Modality Features **********
***************************************

1. Sentence: L ' interpréter et le pousser dans ses retranchements ne revient pas à rendre les aménagements plus dangereux mais plus humains .
Features :: Feature-Counts :: Feature-Lemmas
--------------------------------------------
marqueurs :: 1 :: [ dangereux ]
appreciatif :: 1 :: [ dangereux ]
marqueurs_niveau2 :: 1 :: [ dangereux ]
appreciatif_niveau2 :: 1 :: [ dangereux ]
Total feature counts: 4


********** Adverbiaux Temporels Features **********
********************************************************

1. Sentence: L ' interpréter et le pousser dans ses retranchements ne revient pas à rendre les aménagements plus dangereux mais plus humains .
No features found.

