
********** Entity Names Features **********
*******************************************

1. Sentence: Les études de cas nous donnent la mesure des différents «tissus» composant la ville , de leur transformation possible .
No features found.


********** Emotions Features **********
***************************************

1. Sentence: Les études de cas nous donnent la mesure des différents «tissus» composant la ville , de leur transformation possible .
No features found.


********** Modality Features **********
***************************************

1. Sentence: Les études de cas nous donnent la mesure des différents «tissus» composant la ville , de leur transformation possible .
Features :: Feature-Counts :: Feature-Lemmas
--------------------------------------------
marqueurs :: 1 :: [ possible ]
alethique :: 1 :: [ possible ]
marqueurs_niveau3 :: 1 :: [ possible ]
alethique_niveau3 :: 1 :: [ possible ]
Total feature counts: 4


********** Adverbiaux Temporels Features **********
********************************************************

1. Sentence: Les études de cas nous donnent la mesure des différents «tissus» composant la ville , de leur transformation possible .
No features found.

