
********** Entity Names Features **********
*******************************************

1. Sentence: » Julia insiste aussi sur ce côté direct , « la liberté de se dire les choses » .
Entity Name (Type) :: Julia (PER)


********** Emotions Features **********
***************************************

1. Sentence: » Julia insiste aussi sur ce côté direct , « la liberté de se dire les choses » .
No features found.


********** Modality Features **********
***************************************

1. Sentence: » Julia insiste aussi sur ce côté direct , « la liberté de se dire les choses » .
Features :: Feature-Counts :: Feature-Lemmas
--------------------------------------------
marqueurs :: 2 :: [ liberté, dire ]
appreciatif :: 1 :: [ liberté ]
boulique :: 1 :: [ dire ]
marqueurs_niveau3 :: 1 :: [ dire ]
marqueurs_niveau1 :: 1 :: [ liberté ]
appreciatif_niveau1 :: 1 :: [ liberté ]
boulique_niveau3 :: 1 :: [ dire ]
Total feature counts: 8


********** Adverbiaux Temporels Features **********
********************************************************

1. Sentence: » Julia insiste aussi sur ce côté direct , « la liberté de se dire les choses » .
No features found.

