
********** Entity Names Features **********
*******************************************

1. Sentence: Il s ' organise sur une superficie double de celle que limite l ' actuel périmètre urbain .
No features found.


********** Emotions Features **********
***************************************

1. Sentence: Il s ' organise sur une superficie double de celle que limite l ' actuel périmètre urbain .
No features found.


********** Modality Features **********
***************************************

1. Sentence: Il s ' organise sur une superficie double de celle que limite l ' actuel périmètre urbain .
No features found.


********** Adverbiaux Temporels Features **********
********************************************************

1. Sentence: Il s ' organise sur une superficie double de celle que limite l ' actuel périmètre urbain .
No features found.

