
********** Entity Names Features **********
*******************************************

1. Sentence: Toutefois , je de mon point de vue , à deux moments de construction fondamentaux du projet pour la ville et le territoire contemporains .
No features found.


********** Emotions Features **********
***************************************

1. Sentence: Toutefois , je de mon point de vue , à deux moments de construction fondamentaux du projet pour la ville et le territoire contemporains .
No features found.


********** Modality Features **********
***************************************

1. Sentence: Toutefois , je de mon point de vue , à deux moments de construction fondamentaux du projet pour la ville et le territoire contemporains .
No features found.


********** Adverbiaux Temporels Features **********
********************************************************

1. Sentence: Toutefois , je de mon point de vue , à deux moments de construction fondamentaux du projet pour la ville et le territoire contemporains .
No features found.

