====== Sentence Level Features ======

1. Sentence: La demande est la suivante  : inventez-nous quelque chose pour renforcer les polarités urbaines et assurer le dynamisme des bassins de vie qu ' elles irriguent .
Features :: Feature-Counts :: Feature-Lemmas
--------------------------------------------
marqueurs :: 1 :: [ inventer ]
epistemique :: 1 :: [ inventer ]
marqueurs_niveau2 :: 1 :: [ inventer ]
epistemique_niveau2 :: 1 :: [ inventer ]
Total feature counts: 4


====== Text Level Features ======

Features :: Feature-Counts :: Feature-Lemmas
--------------------------------------------
marqueurs :: 1 :: [ inventer ]
epistemique :: 1 :: [ inventer ]
marqueurs_niveau2 :: 1 :: [ inventer ]
epistemique_niveau2 :: 1 :: [ inventer ]
Total feature counts: 4

