====== Sentence Level Features ======

1. Sentence: Rennes à 1 h 25 de Paris , ce n ' est tout simplement pas la même ville qu ' il y a dix ou vingt ans .
Entity Name (Type) :: Paris (LOC)


====== Text Level Features ======

Entity Name (Entity Type)
-------------------------
Rennes (LOC)
Paris (LOC)
Total entitiy counts: 2

