====== Sentence Level Features ======

1. Sentence: Un maître d ' ouvrage urbain de qualité doit répondre à une commande tout en ouvrant son champ d ' action à des sujets transversaux , à des questions nouvelles , à d ' autres échelles .
Features :: Feature-Counts :: Feature-Lemmas
--------------------------------------------
marqueurs :: 2 :: [ devoir, ouvrir ]
marqueurs_niveau3 :: 2 :: [ devoir, ouvrir ]
alethique :: 1 :: [ devoir ]
boulique :: 1 :: [ ouvrir ]
deontique :: 1 :: [ devoir ]
epistemique :: 1 :: [ devoir ]
alethique_niveau3 :: 1 :: [ devoir ]
boulique_niveau3 :: 1 :: [ ouvrir ]
deontique_niveau3 :: 1 :: [ devoir ]
epistemique_niveau3 :: 1 :: [ devoir ]
Total feature counts: 12


====== Text Level Features ======

Features :: Feature-Counts :: Feature-Lemmas
--------------------------------------------
marqueurs :: 2 :: [ devoir, ouvrir ]
marqueurs_niveau3 :: 2 :: [ devoir, ouvrir ]
alethique :: 1 :: [ devoir ]
boulique :: 1 :: [ ouvrir ]
deontique :: 1 :: [ devoir ]
epistemique :: 1 :: [ devoir ]
alethique_niveau3 :: 1 :: [ devoir ]
boulique_niveau3 :: 1 :: [ ouvrir ]
deontique_niveau3 :: 1 :: [ devoir ]
epistemique_niveau3 :: 1 :: [ devoir ]
Total feature counts: 12

