====== Sentence Level Features ======

1. Sentence: Dans l ' agence , je noue des relations fortes avec les architectes que j ' aide .
Features :: Feature-Counts :: Feature-Lemmas
--------------------------------------------
marqueurs :: 1 :: [ fort ]
pas_d_indication :: 1 :: [ fort ]
marqueurs_niveau0 :: 1 :: [ fort ]
pas_d_indication_niveau0 :: 1 :: [ fort ]
Total feature counts: 4


====== Text Level Features ======

Features :: Feature-Counts :: Feature-Lemmas
--------------------------------------------
marqueurs :: 1 :: [ fort ]
pas_d_indication :: 1 :: [ fort ]
marqueurs_niveau0 :: 1 :: [ fort ]
pas_d_indication_niveau0 :: 1 :: [ fort ]
Total feature counts: 4

