
********** Entity Names Features **********
*******************************************

1. Sentence: Cette opération , associée à la reconfiguration de l ' avenue longue de 1 , 5 km qui constitue l ' axe nord-sud de la ville (Atelier Ruelle , urbaniste) et à une réhabilitation de l ' habitat , a redonné une dynamique au centre ville .
Entity Name (Type) :: Atelier Ruelle (LOC)


********** Emotions Features **********
***************************************

1. Sentence: Cette opération , associée à la reconfiguration de l ' avenue longue de 1 , 5 km qui constitue l ' axe nord-sud de la ville (Atelier Ruelle , urbaniste) et à une réhabilitation de l ' habitat , a redonné une dynamique au centre ville .
No features found.


********** Modality Features **********
***************************************

1. Sentence: Cette opération , associée à la reconfiguration de l ' avenue longue de 1 , 5 km qui constitue l ' axe nord-sud de la ville (Atelier Ruelle , urbaniste) et à une réhabilitation de l ' habitat , a redonné une dynamique au centre ville .
Features :: Feature-Counts :: Feature-Lemmas
--------------------------------------------
marqueurs :: 1 :: [ long ]
epistemique :: 1 :: [ long ]
marqueurs_niveau2 :: 1 :: [ long ]
epistemique_niveau2 :: 1 :: [ long ]
Total feature counts: 4


********** Adverbiaux Temporels Features **********
********************************************************

1. Sentence: Cette opération , associée à la reconfiguration de l ' avenue longue de 1 , 5 km qui constitue l ' axe nord-sud de la ville (Atelier Ruelle , urbaniste) et à une réhabilitation de l ' habitat , a redonné une dynamique au centre ville .
No features found.

