====== Sentence Level Features ======

1. Sentence: Une des particularités est que je cumulais les fonctions de président et de directeur général , alors que dans un epa c ' est toujours un élu qui préside .
Features :: Feature-Counts :: Feature-Lemmas
--------------------------------------------
marqueurs :: 2 :: [ toujours, élu ]
alethique :: 1 :: [ toujours ]
pas_d_indication :: 1 :: [ élu ]
marqueurs_niveau3 :: 1 :: [ toujours ]
marqueurs_niveau0 :: 1 :: [ élu ]
alethique_niveau3 :: 1 :: [ toujours ]
pas_d_indication_niveau0 :: 1 :: [ élu ]
Total feature counts: 8


====== Text Level Features ======

Features :: Feature-Counts :: Feature-Lemmas
--------------------------------------------
marqueurs :: 2 :: [ toujours, élu ]
alethique :: 1 :: [ toujours ]
pas_d_indication :: 1 :: [ élu ]
marqueurs_niveau3 :: 1 :: [ toujours ]
marqueurs_niveau0 :: 1 :: [ élu ]
alethique_niveau3 :: 1 :: [ toujours ]
pas_d_indication_niveau0 :: 1 :: [ élu ]
Total feature counts: 8

