
********** Entity Names Features **********
*******************************************

1. Sentence: des centres de recherche s ' implantent au sud de l ' agglomération , des sièges sociaux à l ' ouest .
No features found.


********** Emotions Features **********
***************************************

1. Sentence: des centres de recherche s ' implantent au sud de l ' agglomération , des sièges sociaux à l ' ouest .
No features found.


********** Modality Features **********
***************************************

1. Sentence: des centres de recherche s ' implantent au sud de l ' agglomération , des sièges sociaux à l ' ouest .
No features found.


********** Adverbiaux Temporels Features **********
********************************************************

1. Sentence: des centres de recherche s ' implantent au sud de l ' agglomération , des sièges sociaux à l ' ouest .
No features found.

