
********** Entity Names Features **********
*******************************************

1. Sentence: Il faut inventer un grand espace public pour cette ville qui n ' en a pas et où l ' on tient aussi beaucoup à faire un espace civique où les tribus du Nord pourraient se retrouver .
Entity Name (Type) :: Nord (LOC)


********** Emotions Features **********
***************************************

1. Sentence: Il faut inventer un grand espace public pour cette ville qui n ' en a pas et où l ' on tient aussi beaucoup à faire un espace civique où les tribus du Nord pourraient se retrouver .
No features found.


********** Modality Features **********
***************************************

1. Sentence: Il faut inventer un grand espace public pour cette ville qui n ' en a pas et où l ' on tient aussi beaucoup à faire un espace civique où les tribus du Nord pourraient se retrouver .
Features :: Feature-Counts :: Feature-Lemmas
--------------------------------------------
marqueurs :: 5 :: [ falloir, inventer, grand, beaucoup, pouvoir ]
epistemique :: 4 :: [ inventer, grand, beaucoup, pouvoir ]
marqueurs_niveau3 :: 3 :: [ falloir, grand, pouvoir ]
deontique :: 2 :: [ falloir, pouvoir ]
deontique_niveau3 :: 2 :: [ falloir, pouvoir ]
epistemique_niveau3 :: 2 :: [ grand, pouvoir ]
alethique :: 1 :: [ pouvoir ]
marqueurs_niveau2 :: 1 :: [ inventer ]
marqueurs_niveau1 :: 1 :: [ beaucoup ]
alethique_niveau3 :: 1 :: [ pouvoir ]
epistemique_niveau2 :: 1 :: [ inventer ]
epistemique_niveau1 :: 1 :: [ beaucoup ]
Total feature counts: 24


********** Adverbiaux Temporels Features **********
********************************************************

1. Sentence: Il faut inventer un grand espace public pour cette ville qui n ' en a pas et où l ' on tient aussi beaucoup à faire un espace civique où les tribus du Nord pourraient se retrouver .
No features found.

