====== Sentence Level Features ======

1. Sentence: je suis en train de monter un enseignement avec l ’ Université , et surtout à côté sans l ’ Université , car il faut agir vite .
Features :: Feature-Counts :: Feature-Lemmas
--------------------------------------------
marqueurs :: 2 :: [ falloir, vite ]
marqueurs_niveau3 :: 2 :: [ falloir, vite ]
deontique :: 1 :: [ falloir ]
epistemique :: 1 :: [ vite ]
deontique_niveau3 :: 1 :: [ falloir ]
epistemique_niveau3 :: 1 :: [ vite ]
Total feature counts: 8


====== Text Level Features ======

Features :: Feature-Counts :: Feature-Lemmas
--------------------------------------------
marqueurs :: 2 :: [ falloir, vite ]
marqueurs_niveau3 :: 2 :: [ falloir, vite ]
deontique :: 1 :: [ falloir ]
epistemique :: 1 :: [ vite ]
deontique_niveau3 :: 1 :: [ falloir ]
epistemique_niveau3 :: 1 :: [ vite ]
Total feature counts: 8

