====== Sentence Level Features ======

1. Sentence: Il détermine et réserve les emprises de terrain nécessaires à l ' assiette des Voies Nouvelles , des Voies à élargir et des Espaces libres .
Features :: Feature-Counts :: Feature-Lemmas
--------------------------------------------
marqueurs :: 2 :: [ nécessaire, libre ]
alethique :: 1 :: [ nécessaire ]
appreciatif :: 1 :: [ libre ]
marqueurs_niveau3 :: 1 :: [ nécessaire ]
marqueurs_niveau1 :: 1 :: [ libre ]
alethique_niveau3 :: 1 :: [ nécessaire ]
appreciatif_niveau1 :: 1 :: [ libre ]
Total feature counts: 8


====== Text Level Features ======

Features :: Feature-Counts :: Feature-Lemmas
--------------------------------------------
marqueurs :: 2 :: [ nécessaire, libre ]
alethique :: 1 :: [ nécessaire ]
appreciatif :: 1 :: [ libre ]
marqueurs_niveau3 :: 1 :: [ nécessaire ]
marqueurs_niveau1 :: 1 :: [ libre ]
alethique_niveau3 :: 1 :: [ nécessaire ]
appreciatif_niveau1 :: 1 :: [ libre ]
Total feature counts: 8

