====== Sentence Level Features ======

1. Sentence: C ' est pour le groupe d ' étudiants que nous formons , sans aucun doute , la chance de notre vie : Pingusson a construit un des plus beaux monuments du XXe siècle à Paris , au bout de l ' île de la Cité déportation , 1961) , et , dans les années 1950 , il a reconstruit une bonne partie des villes sinistrées à l ' Est .
Features :: Feature-Counts :: Feature-Lemmas
--------------------------------------------
marqueurs :: 5 :: [ aucun, doute, chance, beau, bon ]
marqueurs_niveau3 :: 5 :: [ aucun, doute, chance, beau, bon ]
appreciatif :: 3 :: [ chance, beau, bon ]
appreciatif_niveau3 :: 3 :: [ chance, beau, bon ]
alethique :: 1 :: [ aucun ]
axiologique :: 1 :: [ bon ]
epistemique :: 1 :: [ doute ]
alethique_niveau3 :: 1 :: [ aucun ]
axiologique_niveau3 :: 1 :: [ bon ]
epistemique_niveau3 :: 1 :: [ doute ]
Total feature counts: 22


====== Text Level Features ======

Features :: Feature-Counts :: Feature-Lemmas
--------------------------------------------
marqueurs :: 5 :: [ aucun, doute, chance, beau, bon ]
marqueurs_niveau3 :: 5 :: [ aucun, doute, chance, beau, bon ]
appreciatif :: 3 :: [ chance, beau, bon ]
appreciatif_niveau3 :: 3 :: [ chance, beau, bon ]
alethique :: 1 :: [ aucun ]
axiologique :: 1 :: [ bon ]
epistemique :: 1 :: [ doute ]
alethique_niveau3 :: 1 :: [ aucun ]
axiologique_niveau3 :: 1 :: [ bon ]
epistemique_niveau3 :: 1 :: [ doute ]
Total feature counts: 22

