
********** Entity Names Features **********
*******************************************

1. Sentence: Car , comme le dit Christian Devillers , les logiques sectorielles restent puissantes chez les acteurs qui produisent les routes .
Entity Name (Type) :: Christian Devillers (PER)


********** Emotions Features **********
***************************************

1. Sentence: Car , comme le dit Christian Devillers , les logiques sectorielles restent puissantes chez les acteurs qui produisent les routes .
No features found.


********** Modality Features **********
***************************************

1. Sentence: Car , comme le dit Christian Devillers , les logiques sectorielles restent puissantes chez les acteurs qui produisent les routes .
Features :: Feature-Counts :: Feature-Lemmas
--------------------------------------------
marqueurs :: 2 :: [ dire, puissant ]
boulique :: 1 :: [ dire ]
pas_d_indication :: 1 :: [ puissant ]
marqueurs_niveau3 :: 1 :: [ dire ]
marqueurs_niveau0 :: 1 :: [ puissant ]
boulique_niveau3 :: 1 :: [ dire ]
pas_d_indication_niveau0 :: 1 :: [ puissant ]
Total feature counts: 8


********** Adverbiaux Temporels Features **********
********************************************************

1. Sentence: Car , comme le dit Christian Devillers , les logiques sectorielles restent puissantes chez les acteurs qui produisent les routes .
No features found.

