
********** Entity Names Features **********
*******************************************

1. Sentence: Maîtrise d ' ouvrage : SAEM Euralille et Lille Métropole Communauté urbaine .
Entity Name (Type) :: Lille Métropole Communauté urbaine (LOC)


********** Emotions Features **********
***************************************

1. Sentence: Maîtrise d ' ouvrage : SAEM Euralille et Lille Métropole Communauté urbaine .
No features found.


********** Modality Features **********
***************************************

1. Sentence: Maîtrise d ' ouvrage : SAEM Euralille et Lille Métropole Communauté urbaine .
No features found.


********** Adverbiaux Temporels Features **********
********************************************************

1. Sentence: Maîtrise d ' ouvrage : SAEM Euralille et Lille Métropole Communauté urbaine .
No features found.

