====== Sentence Level Features ======

1. Sentence: L ' entreprise , qui exporte partout dans le monde , se porte fort bien et a réussi à lier industries mixtes et services .
Features :: Feature-Counts :: Feature-Lemmas
--------------------------------------------
marqueurs :: 4 :: [ partout, fort, bien, réussir ]
appreciatif :: 2 :: [ bien, réussir ]
marqueurs_niveau3 :: 2 :: [ bien, réussir ]
appreciatif_niveau3 :: 2 :: [ bien, réussir ]
alethique :: 1 :: [ partout ]
axiologique :: 1 :: [ bien ]
pas_d_indication :: 1 :: [ fort ]
marqueurs_niveau2 :: 1 :: [ partout ]
marqueurs_niveau0 :: 1 :: [ fort ]
alethique_niveau2 :: 1 :: [ partout ]
axiologique_niveau3 :: 1 :: [ bien ]
pas_d_indication_niveau0 :: 1 :: [ fort ]
Total feature counts: 18


====== Text Level Features ======

Features :: Feature-Counts :: Feature-Lemmas
--------------------------------------------
marqueurs :: 4 :: [ partout, fort, bien, réussir ]
appreciatif :: 2 :: [ bien, réussir ]
marqueurs_niveau3 :: 2 :: [ bien, réussir ]
appreciatif_niveau3 :: 2 :: [ bien, réussir ]
alethique :: 1 :: [ partout ]
axiologique :: 1 :: [ bien ]
pas_d_indication :: 1 :: [ fort ]
marqueurs_niveau2 :: 1 :: [ partout ]
marqueurs_niveau0 :: 1 :: [ fort ]
alethique_niveau2 :: 1 :: [ partout ]
axiologique_niveau3 :: 1 :: [ bien ]
pas_d_indication_niveau0 :: 1 :: [ fort ]
Total feature counts: 18

