
********** Entity Names Features **********
*******************************************

1. Sentence: Aujourd ' hui , les compétences du paysagiste sont mieux connues et reconnues .
No features found.


********** Emotions Features **********
***************************************

1. Sentence: Aujourd ' hui , les compétences du paysagiste sont mieux connues et reconnues .
No features found.


********** Modality Features **********
***************************************

1. Sentence: Aujourd ' hui , les compétences du paysagiste sont mieux connues et reconnues .
Features :: Feature-Counts :: Feature-Lemmas
--------------------------------------------
marqueurs :: 2 :: [ mieux, connaître ]
marqueurs_niveau2 :: 2 :: [ mieux, connaître ]
appreciatif :: 1 :: [ mieux ]
axiologique :: 1 :: [ mieux ]
epistemique :: 1 :: [ connaître ]
appreciatif_niveau2 :: 1 :: [ mieux ]
axiologique_niveau2 :: 1 :: [ mieux ]
epistemique_niveau2 :: 1 :: [ connaître ]
Total feature counts: 10


********** Adverbiaux Temporels Features **********
********************************************************

1. Sentence: Aujourd ' hui , les compétences du paysagiste sont mieux connues et reconnues .
No features found.

