
********** Entity Names Features **********
*******************************************

1. Sentence: Comment peut-on parler de centres urbains - au pluriel - pour une seule agglomération ?
No features found.


********** Emotions Features **********
***************************************

1. Sentence: Comment peut-on parler de centres urbains - au pluriel - pour une seule agglomération ?
No features found.


********** Modality Features **********
***************************************

1. Sentence: Comment peut-on parler de centres urbains - au pluriel - pour une seule agglomération ?
Features :: Feature-Counts :: Feature-Lemmas
--------------------------------------------
marqueurs :: 1 :: [ pouvoir ]
alethique :: 1 :: [ pouvoir ]
deontique :: 1 :: [ pouvoir ]
epistemique :: 1 :: [ pouvoir ]
marqueurs_niveau3 :: 1 :: [ pouvoir ]
alethique_niveau3 :: 1 :: [ pouvoir ]
deontique_niveau3 :: 1 :: [ pouvoir ]
epistemique_niveau3 :: 1 :: [ pouvoir ]
Total feature counts: 8


********** Adverbiaux Temporels Features **********
********************************************************

1. Sentence: Comment peut-on parler de centres urbains - au pluriel - pour une seule agglomération ?
No features found.

