
********** Entity Names Features **********
*******************************************

1. Sentence: Il est acquis que Michel Corajoud a refondé la pensée du paysage en France .
Entity Name (Type) :: France (LOC)


********** Emotions Features **********
***************************************

1. Sentence: Il est acquis que Michel Corajoud a refondé la pensée du paysage en France .
No features found.


********** Modality Features **********
***************************************

1. Sentence: Il est acquis que Michel Corajoud a refondé la pensée du paysage en France .
No features found.


********** Adverbiaux Temporels Features **********
********************************************************

1. Sentence: Il est acquis que Michel Corajoud a refondé la pensée du paysage en France .
No features found.

