
********** Entity Names Features **********
*******************************************

1. Sentence: Quand les complémentarités locales , les tissus relationnels sont forts , il y a un coût élevé à payer si on veut partir .
Entity Name (Type) :: Quand (LOC)


********** Emotions Features **********
***************************************

1. Sentence: Quand les complémentarités locales , les tissus relationnels sont forts , il y a un coût élevé à payer si on veut partir .
No features found.


********** Modality Features **********
***************************************

1. Sentence: Quand les complémentarités locales , les tissus relationnels sont forts , il y a un coût élevé à payer si on veut partir .
Features :: Feature-Counts :: Feature-Lemmas
--------------------------------------------
marqueurs :: 3 :: [ fort, vouloir, partir ]
alethique :: 1 :: [ partir ]
boulique :: 1 :: [ vouloir ]
pas_d_indication :: 1 :: [ fort ]
marqueurs_niveau3 :: 1 :: [ vouloir ]
marqueurs_niveau1 :: 1 :: [ partir ]
marqueurs_niveau0 :: 1 :: [ fort ]
alethique_niveau1 :: 1 :: [ partir ]
boulique_niveau3 :: 1 :: [ vouloir ]
pas_d_indication_niveau0 :: 1 :: [ fort ]
Total feature counts: 12


********** Adverbiaux Temporels Features **********
********************************************************

1. Sentence: Quand les complémentarités locales , les tissus relationnels sont forts , il y a un coût élevé à payer si on veut partir .
No features found.

