====== Sentence Level Features ======

1. Sentence: Mais je savais porter un discours politique sur la fabrication urbaine .
Features :: Feature-Counts :: Feature-Lemmas
--------------------------------------------
marqueurs :: 1 :: [ savoir ]
epistemique :: 1 :: [ savoir ]
marqueurs_niveau3 :: 1 :: [ savoir ]
epistemique_niveau3 :: 1 :: [ savoir ]
Total feature counts: 4


====== Text Level Features ======

Features :: Feature-Counts :: Feature-Lemmas
--------------------------------------------
marqueurs :: 1 :: [ savoir ]
epistemique :: 1 :: [ savoir ]
marqueurs_niveau3 :: 1 :: [ savoir ]
epistemique_niveau3 :: 1 :: [ savoir ]
Total feature counts: 4

