
********** Entity Names Features **********
*******************************************

1. Sentence: Toute la vigilance de l ' Atelier Ruelle est portée aux « petites choses » , aux lieux de passage , qui ne supposent pas des aménagements exceptionnels mais de l ' attention aux détails .
Entity Name (Type) :: Atelier Ruelle (LOC)


********** Emotions Features **********
***************************************

1. Sentence: Toute la vigilance de l ' Atelier Ruelle est portée aux « petites choses » , aux lieux de passage , qui ne supposent pas des aménagements exceptionnels mais de l ' attention aux détails .
No features found.


********** Modality Features **********
***************************************

1. Sentence: Toute la vigilance de l ' Atelier Ruelle est portée aux « petites choses » , aux lieux de passage , qui ne supposent pas des aménagements exceptionnels mais de l ' attention aux détails .
Features :: Feature-Counts :: Feature-Lemmas
--------------------------------------------
marqueurs :: 2 :: [ petit, exceptionnel ]
epistemique :: 2 :: [ petit, exceptionnel ]
appreciatif :: 1 :: [ exceptionnel ]
axiologique :: 1 :: [ exceptionnel ]
marqueurs_niveau3 :: 1 :: [ petit ]
marqueurs_niveau1 :: 1 :: [ exceptionnel ]
appreciatif_niveau1 :: 1 :: [ exceptionnel ]
axiologique_niveau1 :: 1 :: [ exceptionnel ]
epistemique_niveau3 :: 1 :: [ petit ]
epistemique_niveau1 :: 1 :: [ exceptionnel ]
Total feature counts: 12


********** Adverbiaux Temporels Features **********
********************************************************

1. Sentence: Toute la vigilance de l ' Atelier Ruelle est portée aux « petites choses » , aux lieux de passage , qui ne supposent pas des aménagements exceptionnels mais de l ' attention aux détails .
No features found.

