
********** Entity Names Features **********
*******************************************

1. Sentence: Ce sont des moteurs de développement , des catalyseurs de vie urbaine… et de formidables occasions de faire de l ' architecture .
No features found.


********** Emotions Features **********
***************************************

1. Sentence: Ce sont des moteurs de développement , des catalyseurs de vie urbaine… et de formidables occasions de faire de l ' architecture .
No features found.


********** Modality Features **********
***************************************

1. Sentence: Ce sont des moteurs de développement , des catalyseurs de vie urbaine… et de formidables occasions de faire de l ' architecture .
Features :: Feature-Counts :: Feature-Lemmas
--------------------------------------------
marqueurs :: 1 :: [ formidable ]
appreciatif :: 1 :: [ formidable ]
marqueurs_niveau2 :: 1 :: [ formidable ]
appreciatif_niveau2 :: 1 :: [ formidable ]
Total feature counts: 4


********** Adverbiaux Temporels Features **********
********************************************************

1. Sentence: Ce sont des moteurs de développement , des catalyseurs de vie urbaine… et de formidables occasions de faire de l ' architecture .
No features found.

