
********** Entity Names Features **********
*******************************************

1. Sentence: Euralille représente une figure d ' avenir , tournée vers le tertiaire et vers l ' international .
Entity Name (Type) :: Euralille (LOC)


********** Emotions Features **********
***************************************

1. Sentence: Euralille représente une figure d ' avenir , tournée vers le tertiaire et vers l ' international .
No features found.


********** Modality Features **********
***************************************

1. Sentence: Euralille représente une figure d ' avenir , tournée vers le tertiaire et vers l ' international .
No features found.


********** Adverbiaux Temporels Features **********
********************************************************

1. Sentence: Euralille représente une figure d ' avenir , tournée vers le tertiaire et vers l ' international .
No features found.

