
********** Entity Names Features **********
*******************************************

1. Sentence: Finie , la continuité fermée de sa paroi qui fût son caractère le plus marquant .
Entity Name (Type) :: Finie (PER)


********** Emotions Features **********
***************************************

1. Sentence: Finie , la continuité fermée de sa paroi qui fût son caractère le plus marquant .
No features found.


********** Modality Features **********
***************************************

1. Sentence: Finie , la continuité fermée de sa paroi qui fût son caractère le plus marquant .
No features found.


********** Adverbiaux Temporels Features **********
********************************************************

1. Sentence: Finie , la continuité fermée de sa paroi qui fût son caractère le plus marquant .
No features found.

