====== Sentence Level Features ======

1. Sentence: Seine-et-Marne		253 km2	867 km2	1 . 120 km2	5 .
No features found.

2. Sentence: 931 km2
No features found.


====== Text Level Features ======

No features found.

