====== Sentence Level Features ======

1. Sentence: Seine-et-Marne		253 km2	867 km2	1 . 120 km2	5 .
Entity Name (Type) :: Seine-et-Marne (LOC)

2. Sentence: 931 km2
No features found.


====== Text Level Features ======

Entity Name (Entity Type)
-------------------------
Seine-et-Marne (LOC)
Total entitiy counts: 1

