
********** Entity Names Features **********
*******************************************

1. Sentence: La production de la ville mobilise des acteurs variés , aux intérêts et aux modes de fonctionnement différents voire divergents .
No features found.


********** Emotions Features **********
***************************************

1. Sentence: La production de la ville mobilise des acteurs variés , aux intérêts et aux modes de fonctionnement différents voire divergents .
Tokens having emotion: [ intérêts ]
Lemmas having emotion: [ intérêt ]
Categories of the emotion lemmas: [ desir ]


********** Modality Features **********
***************************************

1. Sentence: La production de la ville mobilise des acteurs variés , aux intérêts et aux modes de fonctionnement différents voire divergents .
Features :: Feature-Counts :: Feature-Lemmas
--------------------------------------------
marqueurs :: 1 :: [ intérêt ]
boulique :: 1 :: [ intérêt ]
marqueurs_niveau2 :: 1 :: [ intérêt ]
boulique_niveau2 :: 1 :: [ intérêt ]
Total feature counts: 4


********** Adverbiaux Temporels Features **********
********************************************************

1. Sentence: La production de la ville mobilise des acteurs variés , aux intérêts et aux modes de fonctionnement différents voire divergents .
No features found.

