====== Sentence Level Features ======

1. Sentence: Le tout en échappant à une logique de compensation absurde qui voudrait que chaque territoire rural artificialisé soit équilibré par un territoire urbain reconquis par l ' agriculture .
Features :: Feature-Counts :: Feature-Lemmas
--------------------------------------------
marqueurs :: 2 :: [ échapper, vouloir ]
boulique :: 1 :: [ vouloir ]
pas_d_indication :: 1 :: [ échapper ]
marqueurs_niveau3 :: 1 :: [ vouloir ]
marqueurs_niveau0 :: 1 :: [ échapper ]
boulique_niveau3 :: 1 :: [ vouloir ]
pas_d_indication_niveau0 :: 1 :: [ échapper ]
Total feature counts: 8


====== Text Level Features ======

Features :: Feature-Counts :: Feature-Lemmas
--------------------------------------------
marqueurs :: 2 :: [ échapper, vouloir ]
boulique :: 1 :: [ vouloir ]
pas_d_indication :: 1 :: [ échapper ]
marqueurs_niveau3 :: 1 :: [ vouloir ]
marqueurs_niveau0 :: 1 :: [ échapper ]
boulique_niveau3 :: 1 :: [ vouloir ]
pas_d_indication_niveau0 :: 1 :: [ échapper ]
Total feature counts: 8

