
********** Entity Names Features **********
*******************************************

1. Sentence: Lorsqu ' elles seront achevées , elles autoriseront des prévisions plus ambitieuses en se projetant sur un avenir plus lointain " ,
No features found.


********** Emotions Features **********
***************************************

1. Sentence: Lorsqu ' elles seront achevées , elles autoriseront des prévisions plus ambitieuses en se projetant sur un avenir plus lointain " ,
No features found.


********** Modality Features **********
***************************************

1. Sentence: Lorsqu ' elles seront achevées , elles autoriseront des prévisions plus ambitieuses en se projetant sur un avenir plus lointain " ,
No features found.


********** Adverbiaux Temporels Features **********
********************************************************

1. Sentence: Lorsqu ' elles seront achevées , elles autoriseront des prévisions plus ambitieuses en se projetant sur un avenir plus lointain " ,
No features found.

