
********** Entity Names Features **********
*******************************************

1. Sentence: En clair  : la loi doit permettre de vivre ensemble et le texte de loi , pour être compris , doit être accompagné par des éléments de langage .
No features found.


********** Emotions Features **********
***************************************

1. Sentence: En clair  : la loi doit permettre de vivre ensemble et le texte de loi , pour être compris , doit être accompagné par des éléments de langage .
No features found.


********** Modality Features **********
***************************************

1. Sentence: En clair  : la loi doit permettre de vivre ensemble et le texte de loi , pour être compris , doit être accompagné par des éléments de langage .
Features :: Feature-Counts :: Feature-Lemmas
--------------------------------------------
marqueurs :: 5 :: [ loi, devoir, permettre, loi, devoir ]
deontique :: 5 :: [ loi, devoir, permettre, loi, devoir ]
marqueurs_niveau3 :: 3 :: [ devoir, permettre, devoir ]
deontique_niveau3 :: 3 :: [ devoir, permettre, devoir ]
alethique :: 2 :: [ devoir, devoir ]
epistemique :: 2 :: [ devoir, devoir ]
marqueurs_niveau2 :: 2 :: [ loi, loi ]
alethique_niveau3 :: 2 :: [ devoir, devoir ]
deontique_niveau2 :: 2 :: [ loi, loi ]
epistemique_niveau3 :: 2 :: [ devoir, devoir ]
Total feature counts: 28


********** Adverbiaux Temporels Features **********
********************************************************

1. Sentence: En clair  : la loi doit permettre de vivre ensemble et le texte de loi , pour être compris , doit être accompagné par des éléments de langage .
No features found.

