
********** Entity Names Features **********
*******************************************

1. Sentence: Ces données simples sont à décliner et à exploiter dans la conception des projets urbains de rivages fluviaux et maritimes .
Entity Name (Type) :: Ces (LOC)


********** Emotions Features **********
***************************************

1. Sentence: Ces données simples sont à décliner et à exploiter dans la conception des projets urbains de rivages fluviaux et maritimes .
No features found.


********** Modality Features **********
***************************************

1. Sentence: Ces données simples sont à décliner et à exploiter dans la conception des projets urbains de rivages fluviaux et maritimes .
Features :: Feature-Counts :: Feature-Lemmas
--------------------------------------------
marqueurs :: 1 :: [ exploiter ]
appreciatif :: 1 :: [ exploiter ]
axiologique :: 1 :: [ exploiter ]
marqueurs_niveau1 :: 1 :: [ exploiter ]
appreciatif_niveau1 :: 1 :: [ exploiter ]
axiologique_niveau1 :: 1 :: [ exploiter ]
Total feature counts: 6


********** Adverbiaux Temporels Features **********
********************************************************

1. Sentence: Ces données simples sont à décliner et à exploiter dans la conception des projets urbains de rivages fluviaux et maritimes .
No features found.

