
********** Entity Names Features **********
*******************************************

1. Sentence: Quand les communes font mal leur travail , les instances plus élevées peuvent et doivent agir .
Entity Name (Type) :: Quand (LOC)


********** Emotions Features **********
***************************************

1. Sentence: Quand les communes font mal leur travail , les instances plus élevées peuvent et doivent agir .
No features found.


********** Modality Features **********
***************************************

1. Sentence: Quand les communes font mal leur travail , les instances plus élevées peuvent et doivent agir .
Features :: Feature-Counts :: Feature-Lemmas
--------------------------------------------
marqueurs :: 4 :: [ mal, travail, pouvoir, devoir ]
marqueurs_niveau3 :: 4 :: [ mal, travail, pouvoir, devoir ]
alethique :: 2 :: [ pouvoir, devoir ]
appreciatif :: 2 :: [ mal, travail ]
deontique :: 2 :: [ pouvoir, devoir ]
epistemique :: 2 :: [ pouvoir, devoir ]
alethique_niveau3 :: 2 :: [ pouvoir, devoir ]
appreciatif_niveau3 :: 2 :: [ mal, travail ]
deontique_niveau3 :: 2 :: [ pouvoir, devoir ]
epistemique_niveau3 :: 2 :: [ pouvoir, devoir ]
axiologique :: 1 :: [ mal ]
axiologique_niveau3 :: 1 :: [ mal ]
Total feature counts: 26


********** Adverbiaux Temporels Features **********
********************************************************

1. Sentence: Quand les communes font mal leur travail , les instances plus élevées peuvent et doivent agir .
No features found.

