
********** Entity Names Features **********
*******************************************

1. Sentence: Dans la ville de New York , les quatre parcelles de Con Edison situées sur la Première Avenue , au bord de l ' East River , constituent le site non développé le plus important de l ' île de Manhattan .
Entity Name (Type) :: île de Manhattan (LOC)


********** Emotions Features **********
***************************************

1. Sentence: Dans la ville de New York , les quatre parcelles de Con Edison situées sur la Première Avenue , au bord de l ' East River , constituent le site non développé le plus important de l ' île de Manhattan .
No features found.


********** Modality Features **********
***************************************

1. Sentence: Dans la ville de New York , les quatre parcelles de Con Edison situées sur la Première Avenue , au bord de l ' East River , constituent le site non développé le plus important de l ' île de Manhattan .
Features :: Feature-Counts :: Feature-Lemmas
--------------------------------------------
marqueurs :: 1 :: [ important ]
appreciatif :: 1 :: [ important ]
axiologique :: 1 :: [ important ]
epistemique :: 1 :: [ important ]
marqueurs_niveau1 :: 1 :: [ important ]
appreciatif_niveau1 :: 1 :: [ important ]
axiologique_niveau1 :: 1 :: [ important ]
epistemique_niveau1 :: 1 :: [ important ]
Total feature counts: 8


********** Adverbiaux Temporels Features **********
********************************************************

1. Sentence: Dans la ville de New York , les quatre parcelles de Con Edison situées sur la Première Avenue , au bord de l ' East River , constituent le site non développé le plus important de l ' île de Manhattan .
No features found.

