====== Sentence Level Features ======

1. Sentence: On entendait des critiques , des plaintes un peu anxieuses .
Features :: Feature-Counts :: Feature-Lemmas
--------------------------------------------
marqueurs :: 1 :: [ plainte ]
pas_d_indication :: 1 :: [ plainte ]
marqueurs_niveau0 :: 1 :: [ plainte ]
pas_d_indication_niveau0 :: 1 :: [ plainte ]
Total feature counts: 4


====== Text Level Features ======

Features :: Feature-Counts :: Feature-Lemmas
--------------------------------------------
marqueurs :: 1 :: [ plainte ]
pas_d_indication :: 1 :: [ plainte ]
marqueurs_niveau0 :: 1 :: [ plainte ]
pas_d_indication_niveau0 :: 1 :: [ plainte ]
Total feature counts: 4

