
********** Entity Names Features **********
*******************************************

1. Sentence: - une voie ferrée , électrifiée à partir de 1968;
No features found.


********** Emotions Features **********
***************************************

1. Sentence: - une voie ferrée , électrifiée à partir de 1968;
No features found.


********** Modality Features **********
***************************************

1. Sentence: - une voie ferrée , électrifiée à partir de 1968;
Features :: Feature-Counts :: Feature-Lemmas
--------------------------------------------
marqueurs :: 1 :: [ partir ]
alethique :: 1 :: [ partir ]
marqueurs_niveau1 :: 1 :: [ partir ]
alethique_niveau1 :: 1 :: [ partir ]
Total feature counts: 4


********** Adverbiaux Temporels Features **********
********************************************************

1. Sentence: - une voie ferrée , électrifiée à partir de 1968;
Features :: Feature-Counts :: Feature-Texts
--------------------------------------------
adverbiaux_temporels::1::['à partir de 1968']
adverbiaux_duratifs_iteratifs::1::['à partir de 1968']
adverbiaux_pointage_absolu::1::['à partir de 1968']
adverbiaux_loc_temp_focalisation_id::1::['à partir de 1968']
adverbiaux_loc_temp_regionalisation_non_id::1::['à partir de 1968']
adverbiaux_dur_iter_absolu::1::['à partir de 1968']

