
********** Entity Names Features **********
*******************************************

1. Sentence: Castro , dubitatif devant le résultat , m ' a dit : « J ' ai demandé un abribus .
Entity Name (Type) :: Castro (PER)


********** Emotions Features **********
***************************************

1. Sentence: Castro , dubitatif devant le résultat , m ' a dit : « J ' ai demandé un abribus .
No features found.


********** Modality Features **********
***************************************

1. Sentence: Castro , dubitatif devant le résultat , m ' a dit : « J ' ai demandé un abribus .
Features :: Feature-Counts :: Feature-Lemmas
--------------------------------------------
marqueurs :: 2 :: [ dire, demander ]
boulique :: 2 :: [ dire, demander ]
marqueurs_niveau3 :: 2 :: [ dire, demander ]
boulique_niveau3 :: 2 :: [ dire, demander ]
Total feature counts: 8


********** Adverbiaux Temporels Features **********
********************************************************

1. Sentence: Castro , dubitatif devant le résultat , m ' a dit : « J ' ai demandé un abribus .
No features found.

