
********** Entity Names Features **********
*******************************************

1. Sentence: Ce ne fut pas un parcours facile .
No features found.


********** Emotions Features **********
***************************************

1. Sentence: Ce ne fut pas un parcours facile .
No features found.


********** Modality Features **********
***************************************

1. Sentence: Ce ne fut pas un parcours facile .
Features :: Feature-Counts :: Feature-Lemmas
--------------------------------------------
marqueurs :: 1 :: [ facile ]
appreciatif :: 1 :: [ facile ]
epistemique :: 1 :: [ facile ]
marqueurs_niveau2 :: 1 :: [ facile ]
appreciatif_niveau2 :: 1 :: [ facile ]
epistemique_niveau2 :: 1 :: [ facile ]
Total feature counts: 6


********** Adverbiaux Temporels Features **********
********************************************************

1. Sentence: Ce ne fut pas un parcours facile .
No features found.

