====== Sentence Level Features ======

1. Sentence: Ces projets sont devenus pour nous une famille à part entière .
Entity Name (Type) :: Ces (LOC)


====== Text Level Features ======

Entity Name (Entity Type)
-------------------------
Ces (LOC)
Total entitiy counts: 1

