
********** Entity Names Features **********
*******************************************

1. Sentence: Dans ce cas , la place de l ' automobile qui est reconsidérée sous la forme d ' un boulevard épais intégrant tout le stationnement et les services à la voiture .
No features found.


********** Emotions Features **********
***************************************

1. Sentence: Dans ce cas , la place de l ' automobile qui est reconsidérée sous la forme d ' un boulevard épais intégrant tout le stationnement et les services à la voiture .
No features found.


********** Modality Features **********
***************************************

1. Sentence: Dans ce cas , la place de l ' automobile qui est reconsidérée sous la forme d ' un boulevard épais intégrant tout le stationnement et les services à la voiture .
No features found.


********** Adverbiaux Temporels Features **********
********************************************************

1. Sentence: Dans ce cas , la place de l ' automobile qui est reconsidérée sous la forme d ' un boulevard épais intégrant tout le stationnement et les services à la voiture .
No features found.

