====== Sentence Level Features ======

1. Sentence: Connaissant le projet , un restaurateur proposa de se glisser sous le ponton et d ' y exercer ses talents .
Features :: Feature-Counts :: Feature-Lemmas
--------------------------------------------
marqueurs :: 2 :: [ connaître, talent ]
epistemique :: 1 :: [ connaître ]
pas_d_indication :: 1 :: [ talent ]
marqueurs_niveau2 :: 1 :: [ connaître ]
marqueurs_niveau0 :: 1 :: [ talent ]
epistemique_niveau2 :: 1 :: [ connaître ]
pas_d_indication_niveau0 :: 1 :: [ talent ]
Total feature counts: 8


====== Text Level Features ======

Features :: Feature-Counts :: Feature-Lemmas
--------------------------------------------
marqueurs :: 2 :: [ connaître, talent ]
epistemique :: 1 :: [ connaître ]
pas_d_indication :: 1 :: [ talent ]
marqueurs_niveau2 :: 1 :: [ connaître ]
marqueurs_niveau0 :: 1 :: [ talent ]
epistemique_niveau2 :: 1 :: [ connaître ]
pas_d_indication_niveau0 :: 1 :: [ talent ]
Total feature counts: 8

