
********** Entity Names Features **********
*******************************************

1. Sentence: Alain Payeur a , nous semble-t-il , su développer , à l ' occasion des métalleries du boulevard Richard-Lenoir , un dessin qui dépasse la mode (Guimard , Alphand , Alechinsky…) pour s ' installer durablement dans la ville .
Entity Name (Type) :: Alechinsky (PER)


********** Emotions Features **********
***************************************

1. Sentence: Alain Payeur a , nous semble-t-il , su développer , à l ' occasion des métalleries du boulevard Richard-Lenoir , un dessin qui dépasse la mode (Guimard , Alphand , Alechinsky…) pour s ' installer durablement dans la ville .
No features found.


********** Modality Features **********
***************************************

1. Sentence: Alain Payeur a , nous semble-t-il , su développer , à l ' occasion des métalleries du boulevard Richard-Lenoir , un dessin qui dépasse la mode (Guimard , Alphand , Alechinsky…) pour s ' installer durablement dans la ville .
Features :: Feature-Counts :: Feature-Lemmas
--------------------------------------------
marqueurs :: 2 :: [ sembler, savoir ]
epistemique :: 2 :: [ sembler, savoir ]
marqueurs_niveau3 :: 2 :: [ sembler, savoir ]
epistemique_niveau3 :: 2 :: [ sembler, savoir ]
Total feature counts: 8


********** Adverbiaux Temporels Features **********
********************************************************

1. Sentence: Alain Payeur a , nous semble-t-il , su développer , à l ' occasion des métalleries du boulevard Richard-Lenoir , un dessin qui dépasse la mode (Guimard , Alphand , Alechinsky…) pour s ' installer durablement dans la ville .
No features found.

