====== Sentence Level Features ======

1. Sentence: Il y a trop de différences pour imaginer un quelconque moule .
Features :: Feature-Counts :: Feature-Lemmas
--------------------------------------------
marqueurs :: 1 :: [ imaginer ]
epistemique :: 1 :: [ imaginer ]
marqueurs_niveau3 :: 1 :: [ imaginer ]
epistemique_niveau3 :: 1 :: [ imaginer ]
Total feature counts: 4


====== Text Level Features ======

Features :: Feature-Counts :: Feature-Lemmas
--------------------------------------------
marqueurs :: 1 :: [ imaginer ]
epistemique :: 1 :: [ imaginer ]
marqueurs_niveau3 :: 1 :: [ imaginer ]
epistemique_niveau3 :: 1 :: [ imaginer ]
Total feature counts: 4

