
********** Entity Names Features **********
*******************************************

1. Sentence: Où vivent les électeurs de Le Pen ?
Entity Name (Type) :: Le Pen (PER)


********** Emotions Features **********
***************************************

1. Sentence: Où vivent les électeurs de Le Pen ?
No features found.


********** Modality Features **********
***************************************

1. Sentence: Où vivent les électeurs de Le Pen ?
No features found.


********** Adverbiaux Temporels Features **********
********************************************************

1. Sentence: Où vivent les électeurs de Le Pen ?
No features found.

