
********** Entity Names Features **********
*******************************************

1. Sentence: Il y a au contraire , à Paris-Rive-Gauche , une grande liberté donnée aux architectes , et les projets s ' enchaînent bien .
Entity Name (Type) :: Paris-Rive-Gauche (LOC)


********** Emotions Features **********
***************************************

1. Sentence: Il y a au contraire , à Paris-Rive-Gauche , une grande liberté donnée aux architectes , et les projets s ' enchaînent bien .
No features found.


********** Modality Features **********
***************************************

1. Sentence: Il y a au contraire , à Paris-Rive-Gauche , une grande liberté donnée aux architectes , et les projets s ' enchaînent bien .
Features :: Feature-Counts :: Feature-Lemmas
--------------------------------------------
marqueurs :: 3 :: [ grand, liberté, bien ]
appreciatif :: 2 :: [ liberté, bien ]
marqueurs_niveau3 :: 2 :: [ grand, bien ]
axiologique :: 1 :: [ bien ]
epistemique :: 1 :: [ grand ]
marqueurs_niveau1 :: 1 :: [ liberté ]
appreciatif_niveau3 :: 1 :: [ bien ]
appreciatif_niveau1 :: 1 :: [ liberté ]
axiologique_niveau3 :: 1 :: [ bien ]
epistemique_niveau3 :: 1 :: [ grand ]
Total feature counts: 14


********** Adverbiaux Temporels Features **********
********************************************************

1. Sentence: Il y a au contraire , à Paris-Rive-Gauche , une grande liberté donnée aux architectes , et les projets s ' enchaînent bien .
No features found.

