
********** Entity Names Features **********
*******************************************

1. Sentence: En d ' autres termes  : pourquoi la mondialisation ne signe pas l ' effacement des territoires locaux , mais au contraire appelle leur retour .
No features found.


********** Emotions Features **********
***************************************

1. Sentence: En d ' autres termes  : pourquoi la mondialisation ne signe pas l ' effacement des territoires locaux , mais au contraire appelle leur retour .
No features found.


********** Modality Features **********
***************************************

1. Sentence: En d ' autres termes  : pourquoi la mondialisation ne signe pas l ' effacement des territoires locaux , mais au contraire appelle leur retour .
No features found.


********** Adverbiaux Temporels Features **********
********************************************************

1. Sentence: En d ' autres termes  : pourquoi la mondialisation ne signe pas l ' effacement des territoires locaux , mais au contraire appelle leur retour .
No features found.

