====== Sentence Level Features ======

1. Sentence: Deux familles , qui dérivent d ' archétypes absolus et rarement réalisés .
Features :: Feature-Counts :: Feature-Lemmas
--------------------------------------------
marqueurs :: 3 :: [ famille, rarement, réaliser ]
alethique :: 3 :: [ famille, rarement, réaliser ]
marqueurs_niveau1 :: 2 :: [ famille, réaliser ]
alethique_niveau1 :: 2 :: [ famille, réaliser ]
marqueurs_niveau3 :: 1 :: [ rarement ]
alethique_niveau3 :: 1 :: [ rarement ]
Total feature counts: 12


====== Text Level Features ======

Features :: Feature-Counts :: Feature-Lemmas
--------------------------------------------
marqueurs :: 3 :: [ famille, rarement, réaliser ]
alethique :: 3 :: [ famille, rarement, réaliser ]
marqueurs_niveau1 :: 2 :: [ famille, réaliser ]
alethique_niveau1 :: 2 :: [ famille, réaliser ]
marqueurs_niveau3 :: 1 :: [ rarement ]
alethique_niveau3 :: 1 :: [ rarement ]
Total feature counts: 12

