
********** Entity Names Features **********
*******************************************

1. Sentence: Nul n ' ignorant l ' extrême lenteur de croissance d ' une forêt , on destinait donc à des populations futures un parc pour lequel il était prématuré d ' imaginer les usages .
Entity Name (Type) :: Nul (LOC)


********** Emotions Features **********
***************************************

1. Sentence: Nul n ' ignorant l ' extrême lenteur de croissance d ' une forêt , on destinait donc à des populations futures un parc pour lequel il était prématuré d ' imaginer les usages .
No features found.


********** Modality Features **********
***************************************

1. Sentence: Nul n ' ignorant l ' extrême lenteur de croissance d ' une forêt , on destinait donc à des populations futures un parc pour lequel il était prématuré d ' imaginer les usages .
Features :: Feature-Counts :: Feature-Lemmas
--------------------------------------------
marqueurs :: 2 :: [ nul, imaginer ]
appreciatif :: 1 :: [ nul ]
axiologique :: 1 :: [ nul ]
epistemique :: 1 :: [ imaginer ]
marqueurs_niveau3 :: 1 :: [ imaginer ]
marqueurs_niveau2 :: 1 :: [ nul ]
appreciatif_niveau2 :: 1 :: [ nul ]
axiologique_niveau2 :: 1 :: [ nul ]
epistemique_niveau3 :: 1 :: [ imaginer ]
Total feature counts: 10


********** Adverbiaux Temporels Features **********
********************************************************

1. Sentence: Nul n ' ignorant l ' extrême lenteur de croissance d ' une forêt , on destinait donc à des populations futures un parc pour lequel il était prématuré d ' imaginer les usages .
No features found.

