
********** Entity Names Features **********
*******************************************

1. Sentence: C ' est-à-dire produire , comme l ' a théorisé Bruno Latour , une pensée en termes de territoires , à toutes les échelles , du village au monde en son entier , et bien sûr aux différentes échelles de la ville .
Entity Name (Type) :: Bruno Latour (PER)


********** Emotions Features **********
***************************************

1. Sentence: C ' est-à-dire produire , comme l ' a théorisé Bruno Latour , une pensée en termes de territoires , à toutes les échelles , du village au monde en son entier , et bien sûr aux différentes échelles de la ville .
No features found.


********** Modality Features **********
***************************************

1. Sentence: C ' est-à-dire produire , comme l ' a théorisé Bruno Latour , une pensée en termes de territoires , à toutes les échelles , du village au monde en son entier , et bien sûr aux différentes échelles de la ville .
Features :: Feature-Counts :: Feature-Lemmas
--------------------------------------------
marqueurs :: 2 :: [ bien, sûr ]
appreciatif :: 1 :: [ bien ]
axiologique :: 1 :: [ bien ]
epistemique :: 1 :: [ sûr ]
marqueurs_niveau3 :: 1 :: [ bien ]
marqueurs_niveau2 :: 1 :: [ sûr ]
appreciatif_niveau3 :: 1 :: [ bien ]
axiologique_niveau3 :: 1 :: [ bien ]
epistemique_niveau2 :: 1 :: [ sûr ]
Total feature counts: 10


********** Adverbiaux Temporels Features **********
********************************************************

1. Sentence: C ' est-à-dire produire , comme l ' a théorisé Bruno Latour , une pensée en termes de territoires , à toutes les échelles , du village au monde en son entier , et bien sûr aux différentes échelles de la ville .
No features found.

