====== Sentence Level Features ======

1. Sentence: De la terre à la ville C ' est ainsi qu ' il me semble avoir toujours procédé .
Entity Name (Type) :: C (LOC)


====== Text Level Features ======

Entity Name (Entity Type)
-------------------------
C (LOC)
Total entitiy counts: 1

