====== Sentence Level Features ======

1. Sentence: Force est de constater que la création de richesse et d ' emploi promise n ' est pas au rendez-vous .
Features :: Feature-Counts :: Feature-Lemmas
--------------------------------------------
marqueurs :: 2 :: [ force, emploi ]
appreciatif :: 1 :: [ emploi ]
pas_d_indication :: 1 :: [ force ]
marqueurs_niveau2 :: 1 :: [ emploi ]
marqueurs_niveau0 :: 1 :: [ force ]
appreciatif_niveau2 :: 1 :: [ emploi ]
pas_d_indication_niveau0 :: 1 :: [ force ]
Total feature counts: 8


====== Text Level Features ======

Features :: Feature-Counts :: Feature-Lemmas
--------------------------------------------
marqueurs :: 2 :: [ force, emploi ]
appreciatif :: 1 :: [ emploi ]
pas_d_indication :: 1 :: [ force ]
marqueurs_niveau2 :: 1 :: [ emploi ]
marqueurs_niveau0 :: 1 :: [ force ]
appreciatif_niveau2 :: 1 :: [ emploi ]
pas_d_indication_niveau0 :: 1 :: [ force ]
Total feature counts: 8

