
********** Entity Names Features **********
*******************************************

1. Sentence: Elle procure une petite notoriété auprès de nos contacts .
No features found.


********** Emotions Features **********
***************************************

1. Sentence: Elle procure une petite notoriété auprès de nos contacts .
No features found.


********** Modality Features **********
***************************************

1. Sentence: Elle procure une petite notoriété auprès de nos contacts .
Features :: Feature-Counts :: Feature-Lemmas
--------------------------------------------
marqueurs :: 1 :: [ petit ]
epistemique :: 1 :: [ petit ]
marqueurs_niveau3 :: 1 :: [ petit ]
epistemique_niveau3 :: 1 :: [ petit ]
Total feature counts: 4


********** Adverbiaux Temporels Features **********
********************************************************

1. Sentence: Elle procure une petite notoriété auprès de nos contacts .
No features found.

