====== Sentence Level Features ======

1. Sentence: Ville Port 2 , Saint-Nazaire , 2005-2010 Accumulation progressive Avec Ville Port 2 (dont la maîtrise d ' œuvre urbaine a été confiée à Bernardo Secchi et Paola Viganò) ,  l ' Atelier Ruelle a poursuivi et relayé le travail topographique commencé avec Manuel de Solà Morales pour la réalisation de la place de l ' AmériqueLatine dans le cadre de Ville-Port 1 .
Features :: Feature-Counts :: Feature-Texts
--------------------------------------------
adverbiaux_temporels::1::['2005_2010']
adverbiaux_localisation_temporelle::1::['2005_2010']
adverbiaux_pointage_absolu::1::['2005_2010']
adverbiaux_loc_temp_focalisation_id::1::['2005_2010']
adverbiaux_loc_temp_regionalisation_id::1::['2005_2010']
adverbiaux_loc_temp_pointage_absolu::1::['2005_2010']


====== Text Level Features ======

Features :: Feature-Counts :: Feature-Texts
--------------------------------------------
adverbiaux_temporels::1::['2005_2010']
adverbiaux_localisation_temporelle::1::['2005_2010']
adverbiaux_pointage_absolu::1::['2005_2010']
adverbiaux_loc_temp_focalisation_id::1::['2005_2010']
adverbiaux_loc_temp_regionalisation_id::1::['2005_2010']
adverbiaux_loc_temp_pointage_absolu::1::['2005_2010']
Total feature counts: 6

