
********** Entity Names Features **********
*******************************************

1. Sentence: Mais ils sont surtout offerts à l ' interprétation , à la manière d ' une pièce de théâtre ou d ' un mythe 1 .
No features found.


********** Emotions Features **********
***************************************

1. Sentence: Mais ils sont surtout offerts à l ' interprétation , à la manière d ' une pièce de théâtre ou d ' un mythe 1 .
No features found.


********** Modality Features **********
***************************************

1. Sentence: Mais ils sont surtout offerts à l ' interprétation , à la manière d ' une pièce de théâtre ou d ' un mythe 1 .
Features :: Feature-Counts :: Feature-Lemmas
--------------------------------------------
marqueurs :: 1 :: [ offrir ]
appreciatif :: 1 :: [ offrir ]
marqueurs_niveau2 :: 1 :: [ offrir ]
appreciatif_niveau2 :: 1 :: [ offrir ]
Total feature counts: 4


********** Adverbiaux Temporels Features **********
********************************************************

1. Sentence: Mais ils sont surtout offerts à l ' interprétation , à la manière d ' une pièce de théâtre ou d ' un mythe 1 .
No features found.

