
********** Entity Names Features **********
*******************************************

1. Sentence: - Il semble que , sans tunnel , il soit impossible de gagner les parties élevées de la rive gauche .
No features found.


********** Emotions Features **********
***************************************

1. Sentence: - Il semble que , sans tunnel , il soit impossible de gagner les parties élevées de la rive gauche .
No features found.


********** Modality Features **********
***************************************

1. Sentence: - Il semble que , sans tunnel , il soit impossible de gagner les parties élevées de la rive gauche .
Features :: Feature-Counts :: Feature-Lemmas
--------------------------------------------
marqueurs :: 3 :: [ sembler, impossible, gagner ]
marqueurs_niveau3 :: 2 :: [ sembler, impossible ]
alethique :: 1 :: [ impossible ]
appreciatif :: 1 :: [ gagner ]
epistemique :: 1 :: [ sembler ]
marqueurs_niveau2 :: 1 :: [ gagner ]
alethique_niveau3 :: 1 :: [ impossible ]
appreciatif_niveau2 :: 1 :: [ gagner ]
epistemique_niveau3 :: 1 :: [ sembler ]
Total feature counts: 12


********** Adverbiaux Temporels Features **********
********************************************************

1. Sentence: - Il semble que , sans tunnel , il soit impossible de gagner les parties élevées de la rive gauche .
No features found.

