====== Sentence Level Features ======

1. Sentence: Elle a permis de maintenir le cap et de transcender les obstacles pour atteindre la réussite actuelle , avec la constitution d ' un vrai centre ville , la reconquête de la base sous-marine et du port .
Features :: Feature-Counts :: Feature-Lemmas
--------------------------------------------
marqueurs :: 3 :: [ permettre, réussite, vrai ]
alethique :: 1 :: [ vrai ]
appreciatif :: 1 :: [ réussite ]
deontique :: 1 :: [ permettre ]
marqueurs_niveau3 :: 1 :: [ permettre ]
marqueurs_niveau2 :: 1 :: [ réussite ]
marqueurs_niveau1 :: 1 :: [ vrai ]
alethique_niveau1 :: 1 :: [ vrai ]
appreciatif_niveau2 :: 1 :: [ réussite ]
deontique_niveau3 :: 1 :: [ permettre ]
Total feature counts: 12


====== Text Level Features ======

Features :: Feature-Counts :: Feature-Lemmas
--------------------------------------------
marqueurs :: 3 :: [ permettre, réussite, vrai ]
alethique :: 1 :: [ vrai ]
appreciatif :: 1 :: [ réussite ]
deontique :: 1 :: [ permettre ]
marqueurs_niveau3 :: 1 :: [ permettre ]
marqueurs_niveau2 :: 1 :: [ réussite ]
marqueurs_niveau1 :: 1 :: [ vrai ]
alethique_niveau1 :: 1 :: [ vrai ]
appreciatif_niveau2 :: 1 :: [ réussite ]
deontique_niveau3 :: 1 :: [ permettre ]
Total feature counts: 12

