====== Sentence Level Features ======

1. Sentence: Par exemple : les réparations mécaniques et électriques , l ' ordre des architectes , les services des Ponts et Chaussées sont classés dans le secteur secondaire selon l ' I . N . S . E . E . (industries mécaniques , bâtiment et travaux publics) , dans les services ou l ' administration selon le S . E . E . F .
Features :: Feature-Counts :: Feature-Lemmas
--------------------------------------------
marqueurs :: 4 :: [ ordre, selon, travail, selon ]
marqueurs_niveau3 :: 3 :: [ selon, travail, selon ]
epistemique :: 2 :: [ selon, selon ]
epistemique_niveau3 :: 2 :: [ selon, selon ]
appreciatif :: 1 :: [ travail ]
deontique :: 1 :: [ ordre ]
marqueurs_niveau2 :: 1 :: [ ordre ]
appreciatif_niveau3 :: 1 :: [ travail ]
deontique_niveau2 :: 1 :: [ ordre ]
Total feature counts: 16


====== Text Level Features ======

Features :: Feature-Counts :: Feature-Lemmas
--------------------------------------------
marqueurs :: 4 :: [ ordre, selon, travail, selon ]
marqueurs_niveau3 :: 3 :: [ selon, travail, selon ]
epistemique :: 2 :: [ selon, selon ]
epistemique_niveau3 :: 2 :: [ selon, selon ]
appreciatif :: 1 :: [ travail ]
deontique :: 1 :: [ ordre ]
marqueurs_niveau2 :: 1 :: [ ordre ]
appreciatif_niveau3 :: 1 :: [ travail ]
deontique_niveau2 :: 1 :: [ ordre ]
Total feature counts: 16

