
********** Entity Names Features **********
*******************************************

1. Sentence: La ville de Paris ne peut pas , à elle seule , faire vivre l ' économie francilienne .
Entity Name (Type) :: Paris (LOC)


********** Emotions Features **********
***************************************

1. Sentence: La ville de Paris ne peut pas , à elle seule , faire vivre l ' économie francilienne .
No features found.


********** Modality Features **********
***************************************

1. Sentence: La ville de Paris ne peut pas , à elle seule , faire vivre l ' économie francilienne .
Features :: Feature-Counts :: Feature-Lemmas
--------------------------------------------
marqueurs :: 1 :: [ pouvoir ]
alethique :: 1 :: [ pouvoir ]
deontique :: 1 :: [ pouvoir ]
epistemique :: 1 :: [ pouvoir ]
marqueurs_niveau3 :: 1 :: [ pouvoir ]
alethique_niveau3 :: 1 :: [ pouvoir ]
deontique_niveau3 :: 1 :: [ pouvoir ]
epistemique_niveau3 :: 1 :: [ pouvoir ]
Total feature counts: 8


********** Adverbiaux Temporels Features **********
********************************************************

1. Sentence: La ville de Paris ne peut pas , à elle seule , faire vivre l ' économie francilienne .
No features found.

