====== Sentence Level Features ======

1. Sentence: En l ' absence de volonté publique , ils restent à l ' abandon vingt à trente ans .
Features :: Feature-Counts :: Feature-Lemmas
--------------------------------------------
marqueurs :: 1 :: [ volonté ]
boulique :: 1 :: [ volonté ]
marqueurs_niveau3 :: 1 :: [ volonté ]
boulique_niveau3 :: 1 :: [ volonté ]
Total feature counts: 4


====== Text Level Features ======

Features :: Feature-Counts :: Feature-Lemmas
--------------------------------------------
marqueurs :: 1 :: [ volonté ]
boulique :: 1 :: [ volonté ]
marqueurs_niveau3 :: 1 :: [ volonté ]
boulique_niveau3 :: 1 :: [ volonté ]
Total feature counts: 4

