
********** Entity Names Features **********
*******************************************

1. Sentence: Un tel centre urbain , plus ou moins développé , existe dans toutes les villes .
Entity Name (Type) :: Un (LOC)


********** Emotions Features **********
***************************************

1. Sentence: Un tel centre urbain , plus ou moins développé , existe dans toutes les villes .
No features found.


********** Modality Features **********
***************************************

1. Sentence: Un tel centre urbain , plus ou moins développé , existe dans toutes les villes .
No features found.


********** Adverbiaux Temporels Features **********
********************************************************

1. Sentence: Un tel centre urbain , plus ou moins développé , existe dans toutes les villes .
No features found.

