
********** Entity Names Features **********
*******************************************

1. Sentence: S‘il y a des cas , en particulier où on estime que le principe n ’ a pas été respecté , il conviendra de les examiner . 
6°)
No features found.


********** Emotions Features **********
***************************************

1. Sentence: S‘il y a des cas , en particulier où on estime que le principe n ’ a pas été respecté , il conviendra de les examiner . 
6°)
Tokens having emotion: [ estime, respecté ]
Lemmas having emotion: [ estimer, respecter ]
Categories of the emotion lemmas: [ admiration, admiration ]


********** Modality Features **********
***************************************

1. Sentence: S‘il y a des cas , en particulier où on estime que le principe n ’ a pas été respecté , il conviendra de les examiner . 
6°)
Features :: Feature-Counts :: Feature-Lemmas
--------------------------------------------
marqueurs :: 1 :: [ respecter ]
appreciatif :: 1 :: [ respecter ]
axiologique :: 1 :: [ respecter ]
marqueurs_niveau2 :: 1 :: [ respecter ]
appreciatif_niveau2 :: 1 :: [ respecter ]
axiologique_niveau2 :: 1 :: [ respecter ]
Total feature counts: 6


********** Adverbiaux Temporels Features **********
********************************************************

1. Sentence: S‘il y a des cas , en particulier où on estime que le principe n ’ a pas été respecté , il conviendra de les examiner . 
6°)
No features found.

