
********** Entity Names Features **********
*******************************************

1. Sentence: Les centres commerciaux du modèle «no parking no business» sont-ils condamnés à muter ?
No features found.


********** Emotions Features **********
***************************************

1. Sentence: Les centres commerciaux du modèle «no parking no business» sont-ils condamnés à muter ?
No features found.


********** Modality Features **********
***************************************

1. Sentence: Les centres commerciaux du modèle «no parking no business» sont-ils condamnés à muter ?
Features :: Feature-Counts :: Feature-Lemmas
--------------------------------------------
marqueurs :: 1 :: [ condamner ]
axiologique :: 1 :: [ condamner ]
marqueurs_niveau3 :: 1 :: [ condamner ]
axiologique_niveau3 :: 1 :: [ condamner ]
Total feature counts: 4


********** Adverbiaux Temporels Features **********
********************************************************

1. Sentence: Les centres commerciaux du modèle «no parking no business» sont-ils condamnés à muter ?
No features found.

