
********** Entity Names Features **********
*******************************************

1. Sentence: SALUT FRANÇOIS l ' action .
Entity Name (Type) :: SALUT FRANÇOIS (PER)


********** Emotions Features **********
***************************************

1. Sentence: SALUT FRANÇOIS l ' action .
No features found.


********** Modality Features **********
***************************************

1. Sentence: SALUT FRANÇOIS l ' action .
No features found.


********** Adverbiaux Temporels Features **********
********************************************************

1. Sentence: SALUT FRANÇOIS l ' action .
No features found.

