
********** Entity Names Features **********
*******************************************

1. Sentence: Comme l ' est ce principe de la poétique claudelienne : «du plus grand ange qui vous voit jusqu ' au caillou sur le chemin , il ne cesse point continuité» .
No features found.


********** Emotions Features **********
***************************************

1. Sentence: Comme l ' est ce principe de la poétique claudelienne : «du plus grand ange qui vous voit jusqu ' au caillou sur le chemin , il ne cesse point continuité» .
No features found.


********** Modality Features **********
***************************************

1. Sentence: Comme l ' est ce principe de la poétique claudelienne : «du plus grand ange qui vous voit jusqu ' au caillou sur le chemin , il ne cesse point continuité» .
Features :: Feature-Counts :: Feature-Lemmas
--------------------------------------------
marqueurs :: 1 :: [ grand ]
epistemique :: 1 :: [ grand ]
marqueurs_niveau3 :: 1 :: [ grand ]
epistemique_niveau3 :: 1 :: [ grand ]
Total feature counts: 4


********** Adverbiaux Temporels Features **********
********************************************************

1. Sentence: Comme l ' est ce principe de la poétique claudelienne : «du plus grand ange qui vous voit jusqu ' au caillou sur le chemin , il ne cesse point continuité» .
No features found.

