
********** Entity Names Features **********
*******************************************

1. Sentence: Celui-ci lui pose les bonnes questions qu ' il étudie ou fait étudier par le monde de la recherche .
No features found.


********** Emotions Features **********
***************************************

1. Sentence: Celui-ci lui pose les bonnes questions qu ' il étudie ou fait étudier par le monde de la recherche .
No features found.


********** Modality Features **********
***************************************

1. Sentence: Celui-ci lui pose les bonnes questions qu ' il étudie ou fait étudier par le monde de la recherche .
Features :: Feature-Counts :: Feature-Lemmas
--------------------------------------------
marqueurs :: 2 :: [ lui, bon ]
marqueurs_niveau3 :: 2 :: [ lui, bon ]
alethique :: 1 :: [ lui ]
appreciatif :: 1 :: [ bon ]
axiologique :: 1 :: [ bon ]
epistemique :: 1 :: [ lui ]
alethique_niveau3 :: 1 :: [ lui ]
appreciatif_niveau3 :: 1 :: [ bon ]
axiologique_niveau3 :: 1 :: [ bon ]
epistemique_niveau3 :: 1 :: [ lui ]
Total feature counts: 12


********** Adverbiaux Temporels Features **********
********************************************************

1. Sentence: Celui-ci lui pose les bonnes questions qu ' il étudie ou fait étudier par le monde de la recherche .
No features found.

