
********** Entity Names Features **********
*******************************************

1. Sentence: Activités portuaires et parc ramifié entre les îlots bâtis se conjuguent le long de la rivière .
Entity Name (Type) :: Activités (LOC)


********** Emotions Features **********
***************************************

1. Sentence: Activités portuaires et parc ramifié entre les îlots bâtis se conjuguent le long de la rivière .
No features found.


********** Modality Features **********
***************************************

1. Sentence: Activités portuaires et parc ramifié entre les îlots bâtis se conjuguent le long de la rivière .
Features :: Feature-Counts :: Feature-Lemmas
--------------------------------------------
marqueurs :: 1 :: [ long ]
epistemique :: 1 :: [ long ]
marqueurs_niveau2 :: 1 :: [ long ]
epistemique_niveau2 :: 1 :: [ long ]
Total feature counts: 4


********** Adverbiaux Temporels Features **********
********************************************************

1. Sentence: Activités portuaires et parc ramifié entre les îlots bâtis se conjuguent le long de la rivière .
No features found.

