
********** Entity Names Features **********
*******************************************

1. Sentence: Mais les voyages à longue distance ne représentent que 4 % de l ' ensemble des déplacements .
No features found.


********** Emotions Features **********
***************************************

1. Sentence: Mais les voyages à longue distance ne représentent que 4 % de l ' ensemble des déplacements .
No features found.


********** Modality Features **********
***************************************

1. Sentence: Mais les voyages à longue distance ne représentent que 4 % de l ' ensemble des déplacements .
Features :: Feature-Counts :: Feature-Lemmas
--------------------------------------------
marqueurs :: 1 :: [ long ]
epistemique :: 1 :: [ long ]
marqueurs_niveau2 :: 1 :: [ long ]
epistemique_niveau2 :: 1 :: [ long ]
Total feature counts: 4


********** Adverbiaux Temporels Features **********
********************************************************

1. Sentence: Mais les voyages à longue distance ne représentent que 4 % de l ' ensemble des déplacements .
No features found.

