
********** Entity Names Features **********
*******************************************

1. Sentence: Le terme d ' arrondissement n ' est pas pris ici dans un sens administratif .
No features found.


********** Emotions Features **********
***************************************

1. Sentence: Le terme d ' arrondissement n ' est pas pris ici dans un sens administratif .
No features found.


********** Modality Features **********
***************************************

1. Sentence: Le terme d ' arrondissement n ' est pas pris ici dans un sens administratif .
No features found.


********** Adverbiaux Temporels Features **********
********************************************************

1. Sentence: Le terme d ' arrondissement n ' est pas pris ici dans un sens administratif .
No features found.

