====== Sentence Level Features ======

1. Sentence: Maîtrise d ' ouvrage : Grand Lyon .
Entity Name (Type) :: Lyon (LOC)


====== Text Level Features ======

Entity Name (Entity Type)
-------------------------
Lyon (LOC)
Total entitiy counts: 1

