====== Sentence Level Features ======

1. Sentence: Il n ' y a rien d ' écrit dans les astres sur ces sujets ,  l ' avenir dépendra de nos choix collectifs .
Features :: Feature-Counts :: Feature-Lemmas
--------------------------------------------
marqueurs :: 2 :: [ rien, choix ]
marqueurs_niveau2 :: 2 :: [ rien, choix ]
alethique :: 1 :: [ rien ]
boulique :: 1 :: [ choix ]
alethique_niveau2 :: 1 :: [ rien ]
boulique_niveau2 :: 1 :: [ choix ]
Total feature counts: 8


====== Text Level Features ======

Features :: Feature-Counts :: Feature-Lemmas
--------------------------------------------
marqueurs :: 2 :: [ rien, choix ]
marqueurs_niveau2 :: 2 :: [ rien, choix ]
alethique :: 1 :: [ rien ]
boulique :: 1 :: [ choix ]
alethique_niveau2 :: 1 :: [ rien ]
boulique_niveau2 :: 1 :: [ choix ]
Total feature counts: 8

