====== Sentence Level Features ======

1. Sentence: (1) Ainsi la Commission nationale d ' aménagement du territoire prévoit qu ' en France , de 1962 à 1965 , le nombre des emplois croîtra de 20 % dans l ' industrie , de 60 % dans les activités tertiaires , 40 % dans les commerces , 50 % dans les institutions financières , 70 % dans l ' administration et 80 % dans les services .
Features :: Feature-Counts :: Feature-Texts
--------------------------------------------
adverbiaux_temporels::1::['de 1962 à 1965']
adverbiaux_duratifs_iteratifs::1::['de 1962 à 1965']
adverbiaux_pointage_absolu::1::['de 1962 à 1965']
adverbiaux_loc_temp_focalisation_id::1::['de 1962 à 1965']
adverbiaux_loc_temp_regionalisation_id::1::['de 1962 à 1965']
adverbiaux_dur_iter_absolu::1::['de 1962 à 1965']


====== Text Level Features ======

Features :: Feature-Counts :: Feature-Texts
--------------------------------------------
adverbiaux_temporels::1::['de 1962 à 1965']
adverbiaux_duratifs_iteratifs::1::['de 1962 à 1965']
adverbiaux_pointage_absolu::1::['de 1962 à 1965']
adverbiaux_loc_temp_focalisation_id::1::['de 1962 à 1965']
adverbiaux_loc_temp_regionalisation_id::1::['de 1962 à 1965']
adverbiaux_dur_iter_absolu::1::['de 1962 à 1965']
Total feature counts: 6

