====== Sentence Level Features ======

1. Sentence: La disparition de cette définition ouvre d ' immenses interrogations collectives sur la nature même du phénomène urbain .
Features :: Feature-Counts :: Feature-Lemmas
--------------------------------------------
marqueurs :: 2 :: [ ouvrir, immense ]
boulique :: 1 :: [ ouvrir ]
epistemique :: 1 :: [ immense ]
marqueurs_niveau3 :: 1 :: [ ouvrir ]
marqueurs_niveau2 :: 1 :: [ immense ]
boulique_niveau3 :: 1 :: [ ouvrir ]
epistemique_niveau2 :: 1 :: [ immense ]
Total feature counts: 8


====== Text Level Features ======

Features :: Feature-Counts :: Feature-Lemmas
--------------------------------------------
marqueurs :: 2 :: [ ouvrir, immense ]
boulique :: 1 :: [ ouvrir ]
epistemique :: 1 :: [ immense ]
marqueurs_niveau3 :: 1 :: [ ouvrir ]
marqueurs_niveau2 :: 1 :: [ immense ]
boulique_niveau3 :: 1 :: [ ouvrir ]
epistemique_niveau2 :: 1 :: [ immense ]
Total feature counts: 8

