
********** Entity Names Features **********
*******************************************

1. Sentence: Strate par strate , parmi toutes les hypothèses de transformation envisageables , nous élaborons les processus de choix .
Entity Name (Type) :: Strate (LOC)


********** Emotions Features **********
***************************************

1. Sentence: Strate par strate , parmi toutes les hypothèses de transformation envisageables , nous élaborons les processus de choix .
No features found.


********** Modality Features **********
***************************************

1. Sentence: Strate par strate , parmi toutes les hypothèses de transformation envisageables , nous élaborons les processus de choix .
Features :: Feature-Counts :: Feature-Lemmas
--------------------------------------------
marqueurs :: 1 :: [ choix ]
boulique :: 1 :: [ choix ]
marqueurs_niveau2 :: 1 :: [ choix ]
boulique_niveau2 :: 1 :: [ choix ]
Total feature counts: 4


********** Adverbiaux Temporels Features **********
********************************************************

1. Sentence: Strate par strate , parmi toutes les hypothèses de transformation envisageables , nous élaborons les processus de choix .
No features found.

