
********** Entity Names Features **********
*******************************************

1. Sentence: compter sur l ’ élargissement rapide des Voies existantes dans les Agglomérations pour assurer la circulation générale est impossible .
Entity Name (Type) :: Agglomérations (LOC)


********** Emotions Features **********
***************************************

1. Sentence: compter sur l ’ élargissement rapide des Voies existantes dans les Agglomérations pour assurer la circulation générale est impossible .
No features found.


********** Modality Features **********
***************************************

1. Sentence: compter sur l ’ élargissement rapide des Voies existantes dans les Agglomérations pour assurer la circulation générale est impossible .
Features :: Feature-Counts :: Feature-Lemmas
--------------------------------------------
marqueurs :: 2 :: [ rapide, impossible ]
marqueurs_niveau3 :: 2 :: [ rapide, impossible ]
alethique :: 1 :: [ impossible ]
epistemique :: 1 :: [ rapide ]
alethique_niveau3 :: 1 :: [ impossible ]
epistemique_niveau3 :: 1 :: [ rapide ]
Total feature counts: 8


********** Adverbiaux Temporels Features **********
********************************************************

1. Sentence: compter sur l ’ élargissement rapide des Voies existantes dans les Agglomérations pour assurer la circulation générale est impossible .
No features found.

