
********** Entity Names Features **********
*******************************************

1. Sentence: La qualité urbaine ne se mesure pas aux arabesques de la voirie !
No features found.


********** Emotions Features **********
***************************************

1. Sentence: La qualité urbaine ne se mesure pas aux arabesques de la voirie !
No features found.


********** Modality Features **********
***************************************

1. Sentence: La qualité urbaine ne se mesure pas aux arabesques de la voirie !
No features found.


********** Adverbiaux Temporels Features **********
********************************************************

1. Sentence: La qualité urbaine ne se mesure pas aux arabesques de la voirie !
No features found.

