
********** Entity Names Features **********
*******************************************

1. Sentence: j ’ ai beaucoup renâclé moi-même avant de passer à l ’ exercice de livrer à l ' urbanisation le plateau de Trappes;
Entity Name (Type) :: Trappes (LOC)


********** Emotions Features **********
***************************************

1. Sentence: j ’ ai beaucoup renâclé moi-même avant de passer à l ’ exercice de livrer à l ' urbanisation le plateau de Trappes;
No features found.


********** Modality Features **********
***************************************

1. Sentence: j ’ ai beaucoup renâclé moi-même avant de passer à l ’ exercice de livrer à l ' urbanisation le plateau de Trappes;
Features :: Feature-Counts :: Feature-Lemmas
--------------------------------------------
marqueurs :: 1 :: [ beaucoup ]
epistemique :: 1 :: [ beaucoup ]
marqueurs_niveau1 :: 1 :: [ beaucoup ]
epistemique_niveau1 :: 1 :: [ beaucoup ]
Total feature counts: 4


********** Adverbiaux Temporels Features **********
********************************************************

1. Sentence: j ’ ai beaucoup renâclé moi-même avant de passer à l ’ exercice de livrer à l ' urbanisation le plateau de Trappes;
No features found.

