====== Sentence Level Features ======

1. Sentence: on n ’ oubliera pas .
Features :: Feature-Counts :: Feature-Lemmas
--------------------------------------------
marqueurs :: 1 :: [ oublier ]
pas_d_indication :: 1 :: [ oublier ]
marqueurs_niveau0 :: 1 :: [ oublier ]
pas_d_indication_niveau0 :: 1 :: [ oublier ]
Total feature counts: 4


====== Text Level Features ======

Features :: Feature-Counts :: Feature-Lemmas
--------------------------------------------
marqueurs :: 1 :: [ oublier ]
pas_d_indication :: 1 :: [ oublier ]
marqueurs_niveau0 :: 1 :: [ oublier ]
pas_d_indication_niveau0 :: 1 :: [ oublier ]
Total feature counts: 4

