====== Sentence Level Features ======

1. Sentence: prat .  , eod . v° , n° 1517 in fine et SuppL , eod . v°; n° 1517-2°);
Entity Name (Type) :: SuppL (MISC)


====== Text Level Features ======

Entity Name (Entity Type)
-------------------------
SuppL (MISC)
Total entitiy counts: 1

