
********** Entity Names Features **********
*******************************************

1. Sentence: Il faut créer les conditions de l ' inter pellation permanente .
No features found.


********** Emotions Features **********
***************************************

1. Sentence: Il faut créer les conditions de l ' inter pellation permanente .
No features found.


********** Modality Features **********
***************************************

1. Sentence: Il faut créer les conditions de l ' inter pellation permanente .
Features :: Feature-Counts :: Feature-Lemmas
--------------------------------------------
marqueurs :: 1 :: [ falloir ]
deontique :: 1 :: [ falloir ]
marqueurs_niveau3 :: 1 :: [ falloir ]
deontique_niveau3 :: 1 :: [ falloir ]
Total feature counts: 4


********** Adverbiaux Temporels Features **********
********************************************************

1. Sentence: Il faut créer les conditions de l ' inter pellation permanente .
No features found.

