
********** Entity Names Features **********
*******************************************

1. Sentence: les chiffres cités s ' appliquent aux mouvements du Sud vers le Nord , que leur destination soit proche ou lointaine .
Entity Name (Type) :: Nord (LOC)


********** Emotions Features **********
***************************************

1. Sentence: les chiffres cités s ' appliquent aux mouvements du Sud vers le Nord , que leur destination soit proche ou lointaine .
No features found.


********** Modality Features **********
***************************************

1. Sentence: les chiffres cités s ' appliquent aux mouvements du Sud vers le Nord , que leur destination soit proche ou lointaine .
No features found.


********** Adverbiaux Temporels Features **********
********************************************************

1. Sentence: les chiffres cités s ' appliquent aux mouvements du Sud vers le Nord , que leur destination soit proche ou lointaine .
No features found.

