
********** Entity Names Features **********
*******************************************

2. Sentence: Le système démocratique n ' est fait que de délégation , structurée par un État équipé de services et opérant un contrôle .
Entity Name (Type) :: État (LOC)


********** Emotions Features **********
***************************************

2. Sentence: Le système démocratique n ' est fait que de délégation , structurée par un État équipé de services et opérant un contrôle .
Tokens having emotion: [ État ]
Lemmas having emotion: [ état ]
Categories of the emotion lemmas: [ non_specifiee ]


********** Modality Features **********
***************************************

2. Sentence: Le système démocratique n ' est fait que de délégation , structurée par un État équipé de services et opérant un contrôle .
No features found.


********** Adverbiaux Temporels Features **********
********************************************************

2. Sentence: Le système démocratique n ' est fait que de délégation , structurée par un État équipé de services et opérant un contrôle .
No features found.

