====== Sentence Level Features ======

1. Sentence: Tokyo : + 6 , 8 millions en 20 ans (de 19 , 8 à 26 , 6 millions , de 1955 à 1975) .
No features found.


====== Text Level Features ======

No features found.

