====== Sentence Level Features ======

1. Sentence: Ce qui permet aux banlieues pauvres de ne preuve les nombreux projets initiés sur les territoires franciliens dans la dynamique de la consultation .
Features :: Feature-Counts :: Feature-Lemmas
--------------------------------------------
marqueurs :: 3 :: [ permettre, pauvre, preuve ]
pas_d_indication :: 2 :: [ pauvre, preuve ]
marqueurs_niveau0 :: 2 :: [ pauvre, preuve ]
pas_d_indication_niveau0 :: 2 :: [ pauvre, preuve ]
deontique :: 1 :: [ permettre ]
marqueurs_niveau3 :: 1 :: [ permettre ]
deontique_niveau3 :: 1 :: [ permettre ]
Total feature counts: 12


====== Text Level Features ======

Features :: Feature-Counts :: Feature-Lemmas
--------------------------------------------
marqueurs :: 3 :: [ permettre, pauvre, preuve ]
pas_d_indication :: 2 :: [ pauvre, preuve ]
marqueurs_niveau0 :: 2 :: [ pauvre, preuve ]
pas_d_indication_niveau0 :: 2 :: [ pauvre, preuve ]
deontique :: 1 :: [ permettre ]
marqueurs_niveau3 :: 1 :: [ permettre ]
deontique_niveau3 :: 1 :: [ permettre ]
Total feature counts: 12

