
********** Entity Names Features **********
*******************************************

1. Sentence: Comme j ' ai beaucoup écrit sur ce sujet , ma position est souvent caricaturée sur le mode  : hors des métropoles point de salut !
No features found.


********** Emotions Features **********
***************************************

1. Sentence: Comme j ' ai beaucoup écrit sur ce sujet , ma position est souvent caricaturée sur le mode  : hors des métropoles point de salut !
No features found.


********** Modality Features **********
***************************************

1. Sentence: Comme j ' ai beaucoup écrit sur ce sujet , ma position est souvent caricaturée sur le mode  : hors des métropoles point de salut !
Features :: Feature-Counts :: Feature-Lemmas
--------------------------------------------
marqueurs :: 2 :: [ beaucoup, souvent ]
alethique :: 1 :: [ souvent ]
epistemique :: 1 :: [ beaucoup ]
marqueurs_niveau3 :: 1 :: [ souvent ]
marqueurs_niveau1 :: 1 :: [ beaucoup ]
alethique_niveau3 :: 1 :: [ souvent ]
epistemique_niveau1 :: 1 :: [ beaucoup ]
Total feature counts: 8


********** Adverbiaux Temporels Features **********
********************************************************

1. Sentence: Comme j ' ai beaucoup écrit sur ce sujet , ma position est souvent caricaturée sur le mode  : hors des métropoles point de salut !
Features :: Feature-Counts :: Feature-Texts
--------------------------------------------
adverbiaux_temporels::1::['souvent']
adverbiaux_purement_iteratifs::1::['souvent']
adverbiaux_iterateur_frequentiel::1::['souvent']

