
********** Entity Names Features **********
*******************************************

1. Sentence: Ce projet revendiquait une forte densité , une grande continuité formelle du bâti .
Entity Name (Type) :: Ce (LOC)


********** Emotions Features **********
***************************************

1. Sentence: Ce projet revendiquait une forte densité , une grande continuité formelle du bâti .
No features found.


********** Modality Features **********
***************************************

1. Sentence: Ce projet revendiquait une forte densité , une grande continuité formelle du bâti .
Features :: Feature-Counts :: Feature-Lemmas
--------------------------------------------
marqueurs :: 3 :: [ revendiquer, fort, grand ]
boulique :: 1 :: [ revendiquer ]
deontique :: 1 :: [ revendiquer ]
epistemique :: 1 :: [ grand ]
pas_d_indication :: 1 :: [ fort ]
marqueurs_niveau3 :: 1 :: [ grand ]
marqueurs_niveau1 :: 1 :: [ revendiquer ]
marqueurs_niveau0 :: 1 :: [ fort ]
boulique_niveau1 :: 1 :: [ revendiquer ]
deontique_niveau1 :: 1 :: [ revendiquer ]
epistemique_niveau3 :: 1 :: [ grand ]
pas_d_indication_niveau0 :: 1 :: [ fort ]
Total feature counts: 14


********** Adverbiaux Temporels Features **********
********************************************************

1. Sentence: Ce projet revendiquait une forte densité , une grande continuité formelle du bâti .
No features found.

