====== Sentence Level Features ======

1. Sentence: Il est naturel que dans la plus grande de ces métropoles , l ' agglomération parisienne , cette évolution soit plus rapide qu ' ailleurs .
Features :: Feature-Counts :: Feature-Lemmas
--------------------------------------------
marqueurs :: 2 :: [ grand, rapide ]
epistemique :: 2 :: [ grand, rapide ]
marqueurs_niveau3 :: 2 :: [ grand, rapide ]
epistemique_niveau3 :: 2 :: [ grand, rapide ]
Total feature counts: 8


====== Text Level Features ======

Features :: Feature-Counts :: Feature-Lemmas
--------------------------------------------
marqueurs :: 2 :: [ grand, rapide ]
epistemique :: 2 :: [ grand, rapide ]
marqueurs_niveau3 :: 2 :: [ grand, rapide ]
epistemique_niveau3 :: 2 :: [ grand, rapide ]
Total feature counts: 8

