====== Sentence Level Features ======

1. Sentence: L ' autre idée a été de concevoir cet ensemble comme une fête , depuis la concertation avec les habitants jusqu ' à la livraison des bâtiments .
Features :: Feature-Counts :: Feature-Lemmas
--------------------------------------------
marqueurs :: 1 :: [ fête ]
appreciatif :: 1 :: [ fête ]
marqueurs_niveau3 :: 1 :: [ fête ]
appreciatif_niveau3 :: 1 :: [ fête ]
Total feature counts: 4


====== Text Level Features ======

Features :: Feature-Counts :: Feature-Lemmas
--------------------------------------------
marqueurs :: 1 :: [ fête ]
appreciatif :: 1 :: [ fête ]
marqueurs_niveau3 :: 1 :: [ fête ]
appreciatif_niveau3 :: 1 :: [ fête ]
Total feature counts: 4

