====== Sentence Level Features ======

1. Sentence: Est-ce suffisant ?
Features :: Feature-Counts :: Feature-Lemmas
--------------------------------------------
marqueurs :: 1 :: [ suffisant ]
pas_d_indication :: 1 :: [ suffisant ]
marqueurs_niveau0 :: 1 :: [ suffisant ]
pas_d_indication_niveau0 :: 1 :: [ suffisant ]
Total feature counts: 4


====== Text Level Features ======

Features :: Feature-Counts :: Feature-Lemmas
--------------------------------------------
marqueurs :: 1 :: [ suffisant ]
pas_d_indication :: 1 :: [ suffisant ]
marqueurs_niveau0 :: 1 :: [ suffisant ]
pas_d_indication_niveau0 :: 1 :: [ suffisant ]
Total feature counts: 4

