
********** Entity Names Features **********
*******************************************

1. Sentence: (Tout le contraire des grands ensembles , cette machine froide qui s ' est mise en marche de façon autiste . )
No features found.


********** Emotions Features **********
***************************************

1. Sentence: (Tout le contraire des grands ensembles , cette machine froide qui s ' est mise en marche de façon autiste . )
No features found.


********** Modality Features **********
***************************************

1. Sentence: (Tout le contraire des grands ensembles , cette machine froide qui s ' est mise en marche de façon autiste . )
Features :: Feature-Counts :: Feature-Lemmas
--------------------------------------------
marqueurs :: 1 :: [ grand ]
epistemique :: 1 :: [ grand ]
marqueurs_niveau3 :: 1 :: [ grand ]
epistemique_niveau3 :: 1 :: [ grand ]
Total feature counts: 4


********** Adverbiaux Temporels Features **********
********************************************************

1. Sentence: (Tout le contraire des grands ensembles , cette machine froide qui s ' est mise en marche de façon autiste . )
No features found.

