====== Sentence Level Features ======

1. Sentence: Figure	6
No features found.

2. Sentence: La région parisienne en 1965
Features :: Feature-Counts :: Feature-Texts
--------------------------------------------
adverbiaux_temporels::1::['en 1965']
adverbiaux_localisation_temporelle::1::['en 1965']
adverbiaux_pointage_absolu::1::['en 1965']
adverbiaux_pointage_non_absolu::1::['en 1965']
adverbiaux_loc_temp_focalisation_id::1::['en 1965']
adverbiaux_loc_temp_regionalisation_id::1::['en 1965']
adverbiaux_loc_temp_pointage_non_absolu::1::['en 1965']
adverbiaux_dur_iter_absolu::1::['en 1965']


====== Text Level Features ======

Features :: Feature-Counts :: Feature-Texts
--------------------------------------------
adverbiaux_temporels::1::['en 1965']
adverbiaux_localisation_temporelle::1::['en 1965']
adverbiaux_pointage_absolu::1::['en 1965']
adverbiaux_pointage_non_absolu::1::['en 1965']
adverbiaux_loc_temp_focalisation_id::1::['en 1965']
adverbiaux_loc_temp_regionalisation_id::1::['en 1965']
adverbiaux_loc_temp_pointage_non_absolu::1::['en 1965']
adverbiaux_dur_iter_absolu::1::['en 1965']
Total feature counts: 8

