====== Sentence Level Features ======

1. Sentence: À Saint-Nazaire , marquée à la fin des années 1970 par une crise industrielle et urbaine ,  l ' élaboration d ' un projet global de développement (PGD) dans les années 1980 a permis de hiérarchiser la réalisation d ' opérations stratégiques .
Features :: Feature-Counts :: Feature-Lemmas
--------------------------------------------
marqueurs :: 2 :: [ crise, permettre ]
appreciatif :: 1 :: [ crise ]
deontique :: 1 :: [ permettre ]
epistemique :: 1 :: [ crise ]
marqueurs_niveau3 :: 1 :: [ permettre ]
marqueurs_niveau2 :: 1 :: [ crise ]
appreciatif_niveau2 :: 1 :: [ crise ]
deontique_niveau3 :: 1 :: [ permettre ]
epistemique_niveau2 :: 1 :: [ crise ]
Total feature counts: 10


====== Text Level Features ======

Features :: Feature-Counts :: Feature-Lemmas
--------------------------------------------
marqueurs :: 2 :: [ crise, permettre ]
appreciatif :: 1 :: [ crise ]
deontique :: 1 :: [ permettre ]
epistemique :: 1 :: [ crise ]
marqueurs_niveau3 :: 1 :: [ permettre ]
marqueurs_niveau2 :: 1 :: [ crise ]
appreciatif_niveau2 :: 1 :: [ crise ]
deontique_niveau3 :: 1 :: [ permettre ]
epistemique_niveau2 :: 1 :: [ crise ]
Total feature counts: 10

