
********** Entity Names Features **********
*******************************************

1. Sentence: La lisière ainsi établie a l ' allure d ' une catastrophe ordinaire .
Entity Name (Type) :: La lisière (MISC)


********** Emotions Features **********
***************************************

1. Sentence: La lisière ainsi établie a l ' allure d ' une catastrophe ordinaire .
No features found.


********** Modality Features **********
***************************************

1. Sentence: La lisière ainsi établie a l ' allure d ' une catastrophe ordinaire .
No features found.


********** Adverbiaux Temporels Features **********
********************************************************

1. Sentence: La lisière ainsi établie a l ' allure d ' une catastrophe ordinaire .
No features found.

