
********** Entity Names Features **********
*******************************************

1. Sentence: Pierre Veltz  : À l ' échelle du pays , c ' est le rôle de l ' État d ' assurer cette cohérence .
Entity Name (Type) :: État (LOC)


********** Emotions Features **********
***************************************

1. Sentence: Pierre Veltz  : À l ' échelle du pays , c ' est le rôle de l ' État d ' assurer cette cohérence .
Tokens having emotion: [ État ]
Lemmas having emotion: [ état ]
Categories of the emotion lemmas: [ non_specifiee ]


********** Modality Features **********
***************************************

1. Sentence: Pierre Veltz  : À l ' échelle du pays , c ' est le rôle de l ' État d ' assurer cette cohérence .
No features found.


********** Adverbiaux Temporels Features **********
********************************************************

1. Sentence: Pierre Veltz  : À l ' échelle du pays , c ' est le rôle de l ' État d ' assurer cette cohérence .
No features found.

