====== Sentence Level Features ======

1. Sentence: Quoi qu ' il en soit , quand les comptes d ' un projet d ' urbanisme arrivent à l ' équilibre , c ' est presque toujours artificiel .
Features :: Feature-Counts :: Feature-Texts
--------------------------------------------
adverbiaux_temporels::1::['toujours']
adverbiaux_duratifs_iteratifs::1::['toujours']


====== Text Level Features ======

Features :: Feature-Counts :: Feature-Texts
--------------------------------------------
adverbiaux_temporels::1::['toujours']
adverbiaux_duratifs_iteratifs::1::['toujours']
Total feature counts: 2

