
********** Entity Names Features **********
*******************************************

1. Sentence: Il sera également très souhaitable d ' étudier les tracés complémentaires suivants :
No features found.


********** Emotions Features **********
***************************************

1. Sentence: Il sera également très souhaitable d ' étudier les tracés complémentaires suivants :
No features found.


********** Modality Features **********
***************************************

1. Sentence: Il sera également très souhaitable d ' étudier les tracés complémentaires suivants :
Features :: Feature-Counts :: Feature-Lemmas
--------------------------------------------
marqueurs :: 1 :: [ souhaitable ]
boulique :: 1 :: [ souhaitable ]
marqueurs_niveau3 :: 1 :: [ souhaitable ]
boulique_niveau3 :: 1 :: [ souhaitable ]
Total feature counts: 4


********** Adverbiaux Temporels Features **********
********************************************************

1. Sentence: Il sera également très souhaitable d ' étudier les tracés complémentaires suivants :
No features found.

