====== Sentence Level Features ======

1. Sentence: Il n ' a pas été possible de conserver ici la nomenclature S . E . E . F . , insuffisamment détaillée pour les activités tertiaires .
Features :: Feature-Counts :: Feature-Lemmas
--------------------------------------------
marqueurs :: 1 :: [ possible ]
alethique :: 1 :: [ possible ]
marqueurs_niveau3 :: 1 :: [ possible ]
alethique_niveau3 :: 1 :: [ possible ]
Total feature counts: 4


====== Text Level Features ======

Features :: Feature-Counts :: Feature-Lemmas
--------------------------------------------
marqueurs :: 1 :: [ possible ]
alethique :: 1 :: [ possible ]
marqueurs_niveau3 :: 1 :: [ possible ]
alethique_niveau3 :: 1 :: [ possible ]
Total feature counts: 4

