
********** Entity Names Features **********
*******************************************

1. Sentence: La décision d ' installer à Masséna l ' Université Paris VII renforcera cette logique .
Entity Name (Type) :: Université Paris VII (ORG)


********** Emotions Features **********
***************************************

1. Sentence: La décision d ' installer à Masséna l ' Université Paris VII renforcera cette logique .
No features found.


********** Modality Features **********
***************************************

1. Sentence: La décision d ' installer à Masséna l ' Université Paris VII renforcera cette logique .
Features :: Feature-Counts :: Feature-Lemmas
--------------------------------------------
marqueurs :: 1 :: [ décision ]
boulique :: 1 :: [ décision ]
epistemique :: 1 :: [ décision ]
marqueurs_niveau2 :: 1 :: [ décision ]
boulique_niveau2 :: 1 :: [ décision ]
epistemique_niveau2 :: 1 :: [ décision ]
Total feature counts: 6


********** Adverbiaux Temporels Features **********
********************************************************

1. Sentence: La décision d ' installer à Masséna l ' Université Paris VII renforcera cette logique .
No features found.

