
********** Entity Names Features **********
*******************************************

1. Sentence: ROUTE du NORD
Entity Name (Type) :: NORD (LOC)


********** Emotions Features **********
***************************************

1. Sentence: ROUTE du NORD
No features found.


********** Modality Features **********
***************************************

1. Sentence: ROUTE du NORD
No features found.


********** Adverbiaux Temporels Features **********
********************************************************

1. Sentence: ROUTE du NORD
No features found.

