
********** Entity Names Features **********
*******************************************

1. Sentence: Les opposants ont donc parlé d ' un projet purement « économique » .
No features found.


********** Emotions Features **********
***************************************

1. Sentence: Les opposants ont donc parlé d ' un projet purement « économique » .
No features found.


********** Modality Features **********
***************************************

1. Sentence: Les opposants ont donc parlé d ' un projet purement « économique » .
No features found.


********** Adverbiaux Temporels Features **********
********************************************************

1. Sentence: Les opposants ont donc parlé d ' un projet purement « économique » .
No features found.

