
********** Entity Names Features **********
*******************************************

1. Sentence: Il y avait une « ségrégation associée » .
No features found.


********** Emotions Features **********
***************************************

1. Sentence: Il y avait une « ségrégation associée » .
No features found.


********** Modality Features **********
***************************************

1. Sentence: Il y avait une « ségrégation associée » .
No features found.


********** Adverbiaux Temporels Features **********
********************************************************

1. Sentence: Il y avait une « ségrégation associée » .
No features found.

