
********** Entity Names Features **********
*******************************************

1. Sentence: La gestion des procédures est un volet important et prenant du travail quotidien .
No features found.


********** Emotions Features **********
***************************************

1. Sentence: La gestion des procédures est un volet important et prenant du travail quotidien .
No features found.


********** Modality Features **********
***************************************

1. Sentence: La gestion des procédures est un volet important et prenant du travail quotidien .
Features :: Feature-Counts :: Feature-Lemmas
--------------------------------------------
marqueurs :: 2 :: [ important, travail ]
appreciatif :: 2 :: [ important, travail ]
axiologique :: 1 :: [ important ]
epistemique :: 1 :: [ important ]
marqueurs_niveau3 :: 1 :: [ travail ]
marqueurs_niveau1 :: 1 :: [ important ]
appreciatif_niveau3 :: 1 :: [ travail ]
appreciatif_niveau1 :: 1 :: [ important ]
axiologique_niveau1 :: 1 :: [ important ]
epistemique_niveau1 :: 1 :: [ important ]
Total feature counts: 12


********** Adverbiaux Temporels Features **********
********************************************************

1. Sentence: La gestion des procédures est un volet important et prenant du travail quotidien .
No features found.

