
********** Entity Names Features **********
*******************************************

1. Sentence: un aller et retour est compté pour deux déplacements .
No features found.


********** Emotions Features **********
***************************************

1. Sentence: un aller et retour est compté pour deux déplacements .
No features found.


********** Modality Features **********
***************************************

1. Sentence: un aller et retour est compté pour deux déplacements .
Features :: Feature-Counts :: Feature-Lemmas
--------------------------------------------
marqueurs :: 1 :: [ aller ]
alethique :: 1 :: [ aller ]
marqueurs_niveau1 :: 1 :: [ aller ]
alethique_niveau1 :: 1 :: [ aller ]
Total feature counts: 4


********** Adverbiaux Temporels Features **********
********************************************************

1. Sentence: un aller et retour est compté pour deux déplacements .
No features found.

