
********** Entity Names Features **********
*******************************************

1. Sentence: – Faire en sorte que les pèlerins puissent prier partout en direction de la Ka ' bah grâce à la création de voies piétonnes – une grande première à La Mecque .
Entity Name (Type) :: La Mecque (LOC)


********** Emotions Features **********
***************************************

1. Sentence: – Faire en sorte que les pèlerins puissent prier partout en direction de la Ka ' bah grâce à la création de voies piétonnes – une grande première à La Mecque .
No features found.


********** Modality Features **********
***************************************

1. Sentence: – Faire en sorte que les pèlerins puissent prier partout en direction de la Ka ' bah grâce à la création de voies piétonnes – une grande première à La Mecque .
Features :: Feature-Counts :: Feature-Lemmas
--------------------------------------------
marqueurs :: 3 :: [ pouvoir, partout, grand ]
alethique :: 2 :: [ pouvoir, partout ]
epistemique :: 2 :: [ pouvoir, grand ]
marqueurs_niveau3 :: 2 :: [ pouvoir, grand ]
epistemique_niveau3 :: 2 :: [ pouvoir, grand ]
deontique :: 1 :: [ pouvoir ]
marqueurs_niveau2 :: 1 :: [ partout ]
alethique_niveau3 :: 1 :: [ pouvoir ]
alethique_niveau2 :: 1 :: [ partout ]
deontique_niveau3 :: 1 :: [ pouvoir ]
Total feature counts: 16


********** Adverbiaux Temporels Features **********
********************************************************

1. Sentence: – Faire en sorte que les pèlerins puissent prier partout en direction de la Ka ' bah grâce à la création de voies piétonnes – une grande première à La Mecque .
No features found.

