
********** Entity Names Features **********
*******************************************

1. Sentence: une maison n ’ est habitée que quand elle est terminée;
No features found.


********** Emotions Features **********
***************************************

1. Sentence: une maison n ’ est habitée que quand elle est terminée;
No features found.


********** Modality Features **********
***************************************

1. Sentence: une maison n ’ est habitée que quand elle est terminée;
No features found.


********** Adverbiaux Temporels Features **********
********************************************************

1. Sentence: une maison n ’ est habitée que quand elle est terminée;
No features found.

