====== Sentence Level Features ======

1. Sentence: L ' idée est séduisante , notamment par le champ nouveau qu ' elle ouvrirait à l ' innovation architecturale , qui ne s ' est pas manifestée jusqu ' à présent en France aussi vigoureusement que dans d ' autres pays , peut-être parce qu ' elle y a été plus bridée .
Features :: Feature-Counts :: Feature-Lemmas
--------------------------------------------
marqueurs :: 3 :: [ ouvrir, manifester, peut-être ]
marqueurs_niveau3 :: 2 :: [ ouvrir, peut-être ]
boulique :: 1 :: [ ouvrir ]
epistemique :: 1 :: [ peut-être ]
pas_d_indication :: 1 :: [ manifester ]
marqueurs_niveau0 :: 1 :: [ manifester ]
boulique_niveau3 :: 1 :: [ ouvrir ]
epistemique_niveau3 :: 1 :: [ peut-être ]
pas_d_indication_niveau0 :: 1 :: [ manifester ]
Total feature counts: 12


====== Text Level Features ======

Features :: Feature-Counts :: Feature-Lemmas
--------------------------------------------
marqueurs :: 3 :: [ ouvrir, manifester, peut-être ]
marqueurs_niveau3 :: 2 :: [ ouvrir, peut-être ]
boulique :: 1 :: [ ouvrir ]
epistemique :: 1 :: [ peut-être ]
pas_d_indication :: 1 :: [ manifester ]
marqueurs_niveau0 :: 1 :: [ manifester ]
boulique_niveau3 :: 1 :: [ ouvrir ]
epistemique_niveau3 :: 1 :: [ peut-être ]
pas_d_indication_niveau0 :: 1 :: [ manifester ]
Total feature counts: 12

