
********** Entity Names Features **********
*******************************************

1. Sentence: Cette règle vise aussi à garantir la production de quartiers mixtes ou habitants , actifs et visiteurs partagent des espaces communs .
Entity Name (Type) :: Cette (LOC)


********** Emotions Features **********
***************************************

1. Sentence: Cette règle vise aussi à garantir la production de quartiers mixtes ou habitants , actifs et visiteurs partagent des espaces communs .
No features found.


********** Modality Features **********
***************************************

1. Sentence: Cette règle vise aussi à garantir la production de quartiers mixtes ou habitants , actifs et visiteurs partagent des espaces communs .
No features found.


********** Adverbiaux Temporels Features **********
********************************************************

1. Sentence: Cette règle vise aussi à garantir la production de quartiers mixtes ou habitants , actifs et visiteurs partagent des espaces communs .
No features found.

