====== Sentence Level Features ======

1. Sentence: - ni sur le plan des fonctions : quelle ville , même neuve , pourrait se hisser rapidement et aisément au niveau de qualité et de séduction qu ' offre le cœur de Paris ?
Features :: Feature-Counts :: Feature-Lemmas
--------------------------------------------
marqueurs :: 3 :: [ pouvoir, rapidement, offrir ]
epistemique :: 2 :: [ pouvoir, rapidement ]
marqueurs_niveau3 :: 2 :: [ pouvoir, rapidement ]
epistemique_niveau3 :: 2 :: [ pouvoir, rapidement ]
alethique :: 1 :: [ pouvoir ]
appreciatif :: 1 :: [ offrir ]
deontique :: 1 :: [ pouvoir ]
marqueurs_niveau2 :: 1 :: [ offrir ]
alethique_niveau3 :: 1 :: [ pouvoir ]
appreciatif_niveau2 :: 1 :: [ offrir ]
deontique_niveau3 :: 1 :: [ pouvoir ]
Total feature counts: 16


====== Text Level Features ======

Features :: Feature-Counts :: Feature-Lemmas
--------------------------------------------
marqueurs :: 3 :: [ pouvoir, rapidement, offrir ]
epistemique :: 2 :: [ pouvoir, rapidement ]
marqueurs_niveau3 :: 2 :: [ pouvoir, rapidement ]
epistemique_niveau3 :: 2 :: [ pouvoir, rapidement ]
alethique :: 1 :: [ pouvoir ]
appreciatif :: 1 :: [ offrir ]
deontique :: 1 :: [ pouvoir ]
marqueurs_niveau2 :: 1 :: [ offrir ]
alethique_niveau3 :: 1 :: [ pouvoir ]
appreciatif_niveau2 :: 1 :: [ offrir ]
deontique_niveau3 :: 1 :: [ pouvoir ]
Total feature counts: 16

