====== Sentence Level Features ======

1. Sentence: Nous avons en fait observé , décrit ce que nous voyions et essayé d ' en apprendre quelque chose .
Features :: Feature-Counts :: Feature-Lemmas
--------------------------------------------
marqueurs :: 1 :: [ essayer ]
boulique :: 1 :: [ essayer ]
epistemique :: 1 :: [ essayer ]
marqueurs_niveau3 :: 1 :: [ essayer ]
boulique_niveau3 :: 1 :: [ essayer ]
epistemique_niveau3 :: 1 :: [ essayer ]
Total feature counts: 6


====== Text Level Features ======

Features :: Feature-Counts :: Feature-Lemmas
--------------------------------------------
marqueurs :: 1 :: [ essayer ]
boulique :: 1 :: [ essayer ]
epistemique :: 1 :: [ essayer ]
marqueurs_niveau3 :: 1 :: [ essayer ]
boulique_niveau3 :: 1 :: [ essayer ]
epistemique_niveau3 :: 1 :: [ essayer ]
Total feature counts: 6

