
********** Entity Names Features **********
*******************************************

1. Sentence: ce qui explique l ' importance de la commande à l ' Atelier Ruelle .
Entity Name (Type) :: Atelier Ruelle (LOC)


********** Emotions Features **********
***************************************

1. Sentence: ce qui explique l ' importance de la commande à l ' Atelier Ruelle .
No features found.


********** Modality Features **********
***************************************

1. Sentence: ce qui explique l ' importance de la commande à l ' Atelier Ruelle .
No features found.


********** Adverbiaux Temporels Features **********
********************************************************

1. Sentence: ce qui explique l ' importance de la commande à l ' Atelier Ruelle .
No features found.

