
********** Entity Names Features **********
*******************************************

1. Sentence: Les mouvements tangentiels à l ' agglomération parisienne seront assurés , en venant de l ' ouest par cette autoroute A . 15 puis , à partir de Saint-Gratien , par l ' autoroute interurbaine de Seine-et-Oise (A . R . I . S . O . ) en direction du Bourget , de l ' aéroport Nord et de l ' est;
Entity Name (Type) :: aéroport Nord (LOC)


********** Emotions Features **********
***************************************

1. Sentence: Les mouvements tangentiels à l ' agglomération parisienne seront assurés , en venant de l ' ouest par cette autoroute A . 15 puis , à partir de Saint-Gratien , par l ' autoroute interurbaine de Seine-et-Oise (A . R . I . S . O . ) en direction du Bourget , de l ' aéroport Nord et de l ' est;
No features found.


********** Modality Features **********
***************************************

1. Sentence: Les mouvements tangentiels à l ' agglomération parisienne seront assurés , en venant de l ' ouest par cette autoroute A . 15 puis , à partir de Saint-Gratien , par l ' autoroute interurbaine de Seine-et-Oise (A . R . I . S . O . ) en direction du Bourget , de l ' aéroport Nord et de l ' est;
Features :: Feature-Counts :: Feature-Lemmas
--------------------------------------------
marqueurs :: 2 :: [ venir, partir ]
alethique :: 2 :: [ venir, partir ]
marqueurs_niveau3 :: 1 :: [ venir ]
marqueurs_niveau1 :: 1 :: [ partir ]
alethique_niveau3 :: 1 :: [ venir ]
alethique_niveau1 :: 1 :: [ partir ]
Total feature counts: 8


********** Adverbiaux Temporels Features **********
********************************************************

1. Sentence: Les mouvements tangentiels à l ' agglomération parisienne seront assurés , en venant de l ' ouest par cette autoroute A . 15 puis , à partir de Saint-Gratien , par l ' autoroute interurbaine de Seine-et-Oise (A . R . I . S . O . ) en direction du Bourget , de l ' aéroport Nord et de l ' est;
No features found.

