
********** Entity Names Features **********
*******************************************

1. Sentence: Un autre problème est que l ' entreprise a du mal à recruter localement .
No features found.


********** Emotions Features **********
***************************************

1. Sentence: Un autre problème est que l ' entreprise a du mal à recruter localement .
No features found.


********** Modality Features **********
***************************************

1. Sentence: Un autre problème est que l ' entreprise a du mal à recruter localement .
Features :: Feature-Counts :: Feature-Lemmas
--------------------------------------------
marqueurs :: 2 :: [ problème, mal ]
appreciatif :: 2 :: [ problème, mal ]
axiologique :: 1 :: [ mal ]
marqueurs_niveau3 :: 1 :: [ mal ]
marqueurs_niveau2 :: 1 :: [ problème ]
appreciatif_niveau3 :: 1 :: [ mal ]
appreciatif_niveau2 :: 1 :: [ problème ]
axiologique_niveau3 :: 1 :: [ mal ]
Total feature counts: 10


********** Adverbiaux Temporels Features **********
********************************************************

1. Sentence: Un autre problème est que l ' entreprise a du mal à recruter localement .
No features found.

