
********** Entity Names Features **********
*******************************************

1. Sentence: Toutes les matières sont possibles depuis les dalles de pierre , les pavés de béton ou de pierre , les briques .
Entity Name (Type) :: Toutes (LOC)


********** Emotions Features **********
***************************************

1. Sentence: Toutes les matières sont possibles depuis les dalles de pierre , les pavés de béton ou de pierre , les briques .
No features found.


********** Modality Features **********
***************************************

1. Sentence: Toutes les matières sont possibles depuis les dalles de pierre , les pavés de béton ou de pierre , les briques .
Features :: Feature-Counts :: Feature-Lemmas
--------------------------------------------
marqueurs :: 1 :: [ possible ]
alethique :: 1 :: [ possible ]
marqueurs_niveau3 :: 1 :: [ possible ]
alethique_niveau3 :: 1 :: [ possible ]
Total feature counts: 4


********** Adverbiaux Temporels Features **********
********************************************************

1. Sentence: Toutes les matières sont possibles depuis les dalles de pierre , les pavés de béton ou de pierre , les briques .
No features found.

