
********** Entity Names Features **********
*******************************************

1. Sentence: Fr .
Entity Name (Type) :: Fr (MISC)


********** Emotions Features **********
***************************************

1. Sentence: Fr .
No features found.


********** Modality Features **********
***************************************

1. Sentence: Fr .
No features found.


********** Adverbiaux Temporels Features **********
********************************************************

1. Sentence: Fr .
No features found.

