====== Sentence Level Features ======

1. Sentence: François Chaslin a conté l ' invention des lieux qui allaient recevoir les grands projets avec beaucoup de talent dans «les Paris de François Mitterrand» paru chez Gallimard en 1985 .
Features :: Feature-Counts :: Feature-Lemmas
--------------------------------------------
marqueurs :: 5 :: [ aller, grand, beaucoup, talent, paraître ]
epistemique :: 3 :: [ grand, beaucoup, paraître ]
marqueurs_niveau3 :: 2 :: [ grand, paraître ]
marqueurs_niveau1 :: 2 :: [ aller, beaucoup ]
epistemique_niveau3 :: 2 :: [ grand, paraître ]
alethique :: 1 :: [ aller ]
pas_d_indication :: 1 :: [ talent ]
marqueurs_niveau0 :: 1 :: [ talent ]
alethique_niveau1 :: 1 :: [ aller ]
epistemique_niveau1 :: 1 :: [ beaucoup ]
pas_d_indication_niveau0 :: 1 :: [ talent ]
Total feature counts: 20


====== Text Level Features ======

Features :: Feature-Counts :: Feature-Lemmas
--------------------------------------------
marqueurs :: 5 :: [ aller, grand, beaucoup, talent, paraître ]
epistemique :: 3 :: [ grand, beaucoup, paraître ]
marqueurs_niveau3 :: 2 :: [ grand, paraître ]
marqueurs_niveau1 :: 2 :: [ aller, beaucoup ]
epistemique_niveau3 :: 2 :: [ grand, paraître ]
alethique :: 1 :: [ aller ]
pas_d_indication :: 1 :: [ talent ]
marqueurs_niveau0 :: 1 :: [ talent ]
alethique_niveau1 :: 1 :: [ aller ]
epistemique_niveau1 :: 1 :: [ beaucoup ]
pas_d_indication_niveau0 :: 1 :: [ talent ]
Total feature counts: 20

