
********** Entity Names Features **********
*******************************************

1. Sentence: L ' orientation retenue : plusieurs axes préférentiels
No features found.


********** Emotions Features **********
***************************************

1. Sentence: L ' orientation retenue : plusieurs axes préférentiels
No features found.


********** Modality Features **********
***************************************

1. Sentence: L ' orientation retenue : plusieurs axes préférentiels
No features found.


********** Adverbiaux Temporels Features **********
********************************************************

1. Sentence: L ' orientation retenue : plusieurs axes préférentiels
No features found.

