
********** Entity Names Features **********
*******************************************

1. Sentence: À la très grande échelle , nous sommes inexistants .
No features found.


********** Emotions Features **********
***************************************

1. Sentence: À la très grande échelle , nous sommes inexistants .
No features found.


********** Modality Features **********
***************************************

1. Sentence: À la très grande échelle , nous sommes inexistants .
Features :: Feature-Counts :: Feature-Lemmas
--------------------------------------------
marqueurs :: 1 :: [ grand ]
epistemique :: 1 :: [ grand ]
marqueurs_niveau3 :: 1 :: [ grand ]
epistemique_niveau3 :: 1 :: [ grand ]
Total feature counts: 4


********** Adverbiaux Temporels Features **********
********************************************************

1. Sentence: À la très grande échelle , nous sommes inexistants .
No features found.

