
********** Entity Names Features **********
*******************************************

1. Sentence: EMPLACEMENT DES PRINCIPAUX GROUPES DE LOGEMENTS CONSTRUITS A L ' INTÉRIEUR DE L ' AGGLOMÉRATION DE 1939 A 1964 (VINGT-CINQ ANNÉES)
Entity Name (Type) :: CINQ ANNÉES (ORG)


********** Emotions Features **********
***************************************

1. Sentence: EMPLACEMENT DES PRINCIPAUX GROUPES DE LOGEMENTS CONSTRUITS A L ' INTÉRIEUR DE L ' AGGLOMÉRATION DE 1939 A 1964 (VINGT-CINQ ANNÉES)
No features found.


********** Modality Features **********
***************************************

1. Sentence: EMPLACEMENT DES PRINCIPAUX GROUPES DE LOGEMENTS CONSTRUITS A L ' INTÉRIEUR DE L ' AGGLOMÉRATION DE 1939 A 1964 (VINGT-CINQ ANNÉES)
No features found.


********** Adverbiaux Temporels Features **********
********************************************************

1. Sentence: EMPLACEMENT DES PRINCIPAUX GROUPES DE LOGEMENTS CONSTRUITS A L ' INTÉRIEUR DE L ' AGGLOMÉRATION DE 1939 A 1964 (VINGT-CINQ ANNÉES)
Features :: Feature-Counts :: Feature-Texts
--------------------------------------------
adverbiaux_temporels::1::['DE 1939 A 1964']
adverbiaux_localisation_temporelle::1::['DE 1939 A 1964']
adverbiaux_pointage_absolu::1::['DE 1939 A 1964']
adverbiaux_loc_temp_focalisation_id::1::['DE 1939 A 1964']
adverbiaux_loc_temp_regionalisation_id::1::['DE 1939 A 1964']
adverbiaux_loc_temp_pointage_absolu::1::['DE 1939 A 1964']

