====== Sentence Level Features ======

1. Sentence: Les étudiants ont envisagé divers développements sur ces terrains à l ' abandon , avec un usage de l ' écologie pragmatique , à l ' américaine , ni idéologique , ni romantique mais utilitaire , comme une sorte de petite agriculture urbaine . 2000-20 . .
Features :: Feature-Counts :: Feature-Lemmas
--------------------------------------------
marqueurs :: 2 :: [ romantique, petit ]
appreciatif :: 1 :: [ romantique ]
epistemique :: 1 :: [ petit ]
marqueurs_niveau3 :: 1 :: [ petit ]
marqueurs_niveau2 :: 1 :: [ romantique ]
appreciatif_niveau2 :: 1 :: [ romantique ]
epistemique_niveau3 :: 1 :: [ petit ]
Total feature counts: 8


====== Text Level Features ======

Features :: Feature-Counts :: Feature-Lemmas
--------------------------------------------
marqueurs :: 2 :: [ romantique, petit ]
appreciatif :: 1 :: [ romantique ]
epistemique :: 1 :: [ petit ]
marqueurs_niveau3 :: 1 :: [ petit ]
marqueurs_niveau2 :: 1 :: [ romantique ]
appreciatif_niveau2 :: 1 :: [ romantique ]
epistemique_niveau3 :: 1 :: [ petit ]
Total feature counts: 8

