
********** Entity Names Features **********
*******************************************

1. Sentence: Le cœur de la démarche de projet ne devrait pas être  : comment je réponds à la question qui m ' est posée ?
No features found.


********** Emotions Features **********
***************************************

1. Sentence: Le cœur de la démarche de projet ne devrait pas être  : comment je réponds à la question qui m ' est posée ?
No features found.


********** Modality Features **********
***************************************

1. Sentence: Le cœur de la démarche de projet ne devrait pas être  : comment je réponds à la question qui m ' est posée ?
Features :: Feature-Counts :: Feature-Lemmas
--------------------------------------------
marqueurs :: 1 :: [ devoir ]
alethique :: 1 :: [ devoir ]
deontique :: 1 :: [ devoir ]
epistemique :: 1 :: [ devoir ]
marqueurs_niveau3 :: 1 :: [ devoir ]
alethique_niveau3 :: 1 :: [ devoir ]
deontique_niveau3 :: 1 :: [ devoir ]
epistemique_niveau3 :: 1 :: [ devoir ]
Total feature counts: 8


********** Adverbiaux Temporels Features **********
********************************************************

1. Sentence: Le cœur de la démarche de projet ne devrait pas être  : comment je réponds à la question qui m ' est posée ?
No features found.

