====== Sentence Level Features ======

1. Sentence: - L ' aéroport d ' Orly est le principal centre d ' emploi du secteur .
Entity Name (Type) :: aéroport d ' Orly (LOC)


====== Text Level Features ======

Entity Name (Entity Type)
-------------------------
aéroport d ' Orly (LOC)
Total entitiy counts: 1

