
********** Entity Names Features **********
*******************************************

1. Sentence: À la même époque , Pierre Riboulet me demande de faire partie des équipes consultées à la Plaine-Saint-Denis .
Entity Name (Type) :: Plaine-Saint-Denis (LOC)


********** Emotions Features **********
***************************************

1. Sentence: À la même époque , Pierre Riboulet me demande de faire partie des équipes consultées à la Plaine-Saint-Denis .
No features found.


********** Modality Features **********
***************************************

1. Sentence: À la même époque , Pierre Riboulet me demande de faire partie des équipes consultées à la Plaine-Saint-Denis .
Features :: Feature-Counts :: Feature-Lemmas
--------------------------------------------
marqueurs :: 1 :: [ demander ]
boulique :: 1 :: [ demander ]
marqueurs_niveau3 :: 1 :: [ demander ]
boulique_niveau3 :: 1 :: [ demander ]
Total feature counts: 4


********** Adverbiaux Temporels Features **********
********************************************************

1. Sentence: À la même époque , Pierre Riboulet me demande de faire partie des équipes consultées à la Plaine-Saint-Denis .
Features :: Feature-Counts :: Feature-Texts
--------------------------------------------
adverbiaux_temporels::1::['À la même époque']
adverbiaux_localisation_temporelle::1::['À la même époque']
adverbiaux_pointage_non_absolu::1::['À la même époque']
adverbiaux_loc_temp_focalisation_id::1::['À la même époque']
adverbiaux_loc_temp_regionalisation_id::1::['À la même époque']
adverbiaux_loc_temp_pointage_non_absolu::1::['À la même époque']

