
********** Entity Names Features **********
*******************************************

1. Sentence: à Luxembourg , où nous avons mis en œuvre un aménagement absolument invisible : un jeu de maîtrise des pentes qui met en scène la vieille ville avec les murs de la forteresse de Vauban .
Entity Name (Type) :: Vauban (PER)


********** Emotions Features **********
***************************************

1. Sentence: à Luxembourg , où nous avons mis en œuvre un aménagement absolument invisible : un jeu de maîtrise des pentes qui met en scène la vieille ville avec les murs de la forteresse de Vauban .
No features found.


********** Modality Features **********
***************************************

1. Sentence: à Luxembourg , où nous avons mis en œuvre un aménagement absolument invisible : un jeu de maîtrise des pentes qui met en scène la vieille ville avec les murs de la forteresse de Vauban .
Features :: Feature-Counts :: Feature-Lemmas
--------------------------------------------
marqueurs :: 1 :: [ vieux ]
pas_d_indication :: 1 :: [ vieux ]
marqueurs_niveau0 :: 1 :: [ vieux ]
pas_d_indication_niveau0 :: 1 :: [ vieux ]
Total feature counts: 4


********** Adverbiaux Temporels Features **********
********************************************************

1. Sentence: à Luxembourg , où nous avons mis en œuvre un aménagement absolument invisible : un jeu de maîtrise des pentes qui met en scène la vieille ville avec les murs de la forteresse de Vauban .
No features found.

