====== Sentence Level Features ======

1. Sentence: L ' évolution du travail qui se fait souvent sans bureau ﬁxe , selon le sociologue Bruno Marzloff 5 , est un levier puissant à cet égard .
Features :: Feature-Counts :: Feature-Lemmas
--------------------------------------------
marqueurs :: 4 :: [ travail, souvent, selon, puissant ]
marqueurs_niveau3 :: 3 :: [ travail, souvent, selon ]
alethique :: 1 :: [ souvent ]
appreciatif :: 1 :: [ travail ]
epistemique :: 1 :: [ selon ]
pas_d_indication :: 1 :: [ puissant ]
marqueurs_niveau0 :: 1 :: [ puissant ]
alethique_niveau3 :: 1 :: [ souvent ]
appreciatif_niveau3 :: 1 :: [ travail ]
epistemique_niveau3 :: 1 :: [ selon ]
pas_d_indication_niveau0 :: 1 :: [ puissant ]
Total feature counts: 16


====== Text Level Features ======

Features :: Feature-Counts :: Feature-Lemmas
--------------------------------------------
marqueurs :: 4 :: [ travail, souvent, selon, puissant ]
marqueurs_niveau3 :: 3 :: [ travail, souvent, selon ]
alethique :: 1 :: [ souvent ]
appreciatif :: 1 :: [ travail ]
epistemique :: 1 :: [ selon ]
pas_d_indication :: 1 :: [ puissant ]
marqueurs_niveau0 :: 1 :: [ puissant ]
alethique_niveau3 :: 1 :: [ souvent ]
appreciatif_niveau3 :: 1 :: [ travail ]
epistemique_niveau3 :: 1 :: [ selon ]
pas_d_indication_niveau0 :: 1 :: [ puissant ]
Total feature counts: 16

