
********** Entity Names Features **********
*******************************************

1. Sentence: les premiers arbres de la pépinière — 6 ha — ont été plantés en 1997 .
No features found.


********** Emotions Features **********
***************************************

1. Sentence: les premiers arbres de la pépinière — 6 ha — ont été plantés en 1997 .
No features found.


********** Modality Features **********
***************************************

1. Sentence: les premiers arbres de la pépinière — 6 ha — ont été plantés en 1997 .
No features found.


********** Adverbiaux Temporels Features **********
********************************************************

1. Sentence: les premiers arbres de la pépinière — 6 ha — ont été plantés en 1997 .
Features :: Feature-Counts :: Feature-Texts
--------------------------------------------
adverbiaux_temporels::1::['en 1997']
adverbiaux_localisation_temporelle::1::['en 1997']
adverbiaux_pointage_absolu::1::['en 1997']
adverbiaux_pointage_non_absolu::1::['en 1997']
adverbiaux_loc_temp_focalisation_id::1::['en 1997']
adverbiaux_loc_temp_regionalisation_id::1::['en 1997']
adverbiaux_loc_temp_pointage_non_absolu::1::['en 1997']
adverbiaux_dur_iter_absolu::1::['en 1997']

