====== Sentence Level Features ======

1. Sentence: C ' est une tentation périodique de désirer que le Gouvernement quitte Paris .
Features :: Feature-Counts :: Feature-Lemmas
--------------------------------------------
marqueurs :: 2 :: [ désirer, quitter ]
alethique :: 1 :: [ quitter ]
boulique :: 1 :: [ désirer ]
marqueurs_niveau3 :: 1 :: [ désirer ]
marqueurs_niveau2 :: 1 :: [ quitter ]
alethique_niveau2 :: 1 :: [ quitter ]
boulique_niveau3 :: 1 :: [ désirer ]
Total feature counts: 8


====== Text Level Features ======

Features :: Feature-Counts :: Feature-Lemmas
--------------------------------------------
marqueurs :: 2 :: [ désirer, quitter ]
alethique :: 1 :: [ quitter ]
boulique :: 1 :: [ désirer ]
marqueurs_niveau3 :: 1 :: [ désirer ]
marqueurs_niveau2 :: 1 :: [ quitter ]
alethique_niveau2 :: 1 :: [ quitter ]
boulique_niveau3 :: 1 :: [ désirer ]
Total feature counts: 8

