====== Sentence Level Features ======

1. Sentence: Donner un vêtement semblait il y a encore peu un acte social concret  : on se voyait , on échangeait , le don était apprécié par celui qui donnait et celui qui le recevait .
Features :: Feature-Counts :: Feature-Lemmas
--------------------------------------------
marqueurs :: 2 :: [ sembler, apprécier ]
marqueurs_niveau3 :: 2 :: [ sembler, apprécier ]
appreciatif :: 1 :: [ apprécier ]
epistemique :: 1 :: [ sembler ]
appreciatif_niveau3 :: 1 :: [ apprécier ]
epistemique_niveau3 :: 1 :: [ sembler ]
Total feature counts: 8


====== Text Level Features ======

Features :: Feature-Counts :: Feature-Lemmas
--------------------------------------------
marqueurs :: 2 :: [ sembler, apprécier ]
marqueurs_niveau3 :: 2 :: [ sembler, apprécier ]
appreciatif :: 1 :: [ apprécier ]
epistemique :: 1 :: [ sembler ]
appreciatif_niveau3 :: 1 :: [ apprécier ]
epistemique_niveau3 :: 1 :: [ sembler ]
Total feature counts: 8

