
********** Entity Names Features **********
*******************************************

1. Sentence: Il se connecte à l ' avenue limitrophe par une place basse ;
No features found.


********** Emotions Features **********
***************************************

1. Sentence: Il se connecte à l ' avenue limitrophe par une place basse ;
No features found.


********** Modality Features **********
***************************************

1. Sentence: Il se connecte à l ' avenue limitrophe par une place basse ;
No features found.


********** Adverbiaux Temporels Features **********
********************************************************

1. Sentence: Il se connecte à l ' avenue limitrophe par une place basse ;
No features found.

