====== Sentence Level Features ======

1. Sentence: Nous savons aussi que nous avons tous des lacunes et que nous pouvons compter sur les autres .
Features :: Feature-Counts :: Feature-Lemmas
--------------------------------------------
marqueurs :: 2 :: [ savoir, pouvoir ]
epistemique :: 2 :: [ savoir, pouvoir ]
marqueurs_niveau3 :: 2 :: [ savoir, pouvoir ]
epistemique_niveau3 :: 2 :: [ savoir, pouvoir ]
alethique :: 1 :: [ pouvoir ]
deontique :: 1 :: [ pouvoir ]
alethique_niveau3 :: 1 :: [ pouvoir ]
deontique_niveau3 :: 1 :: [ pouvoir ]
Total feature counts: 12


====== Text Level Features ======

Features :: Feature-Counts :: Feature-Lemmas
--------------------------------------------
marqueurs :: 2 :: [ savoir, pouvoir ]
epistemique :: 2 :: [ savoir, pouvoir ]
marqueurs_niveau3 :: 2 :: [ savoir, pouvoir ]
epistemique_niveau3 :: 2 :: [ savoir, pouvoir ]
alethique :: 1 :: [ pouvoir ]
deontique :: 1 :: [ pouvoir ]
alethique_niveau3 :: 1 :: [ pouvoir ]
deontique_niveau3 :: 1 :: [ pouvoir ]
Total feature counts: 12

