
********** Entity Names Features **********
*******************************************

1. Sentence: À la Datar il y avait un groupe « Ville » .
Entity Name (Type) :: Datar (ORG)


********** Emotions Features **********
***************************************

1. Sentence: À la Datar il y avait un groupe « Ville » .
No features found.


********** Modality Features **********
***************************************

1. Sentence: À la Datar il y avait un groupe « Ville » .
No features found.


********** Adverbiaux Temporels Features **********
********************************************************

1. Sentence: À la Datar il y avait un groupe « Ville » .
No features found.

