
********** Entity Names Features **********
*******************************************

1. Sentence: L ' horizon plus que la perspective , voilà donc le facteur d ' évolution le plus évident .
Entity Name (Type) :: L (LOC)


********** Emotions Features **********
***************************************

1. Sentence: L ' horizon plus que la perspective , voilà donc le facteur d ' évolution le plus évident .
No features found.


********** Modality Features **********
***************************************

1. Sentence: L ' horizon plus que la perspective , voilà donc le facteur d ' évolution le plus évident .
No features found.


********** Adverbiaux Temporels Features **********
********************************************************

1. Sentence: L ' horizon plus que la perspective , voilà donc le facteur d ' évolution le plus évident .
No features found.

