
********** Entity Names Features **********
*******************************************

1. Sentence: 687	319 , 7	9 , 6
No features found.


********** Emotions Features **********
***************************************

1. Sentence: 687	319 , 7	9 , 6
No features found.


********** Modality Features **********
***************************************

1. Sentence: 687	319 , 7	9 , 6
No features found.


********** Adverbiaux Temporels Features **********
********************************************************

1. Sentence: 687	319 , 7	9 , 6
No features found.

