====== Sentence Level Features ======

1. Sentence: Une fierté collective des citadins en résulte , et le plaisir du touriste .
Features :: Feature-Counts :: Feature-Lemmas
--------------------------------------------
marqueurs :: 2 :: [ fierté, plaisir ]
appreciatif :: 2 :: [ fierté, plaisir ]
axiologique :: 1 :: [ fierté ]
marqueurs_niveau3 :: 1 :: [ plaisir ]
marqueurs_niveau1 :: 1 :: [ fierté ]
appreciatif_niveau3 :: 1 :: [ plaisir ]
appreciatif_niveau1 :: 1 :: [ fierté ]
axiologique_niveau1 :: 1 :: [ fierté ]
Total feature counts: 10


====== Text Level Features ======

Features :: Feature-Counts :: Feature-Lemmas
--------------------------------------------
marqueurs :: 2 :: [ fierté, plaisir ]
appreciatif :: 2 :: [ fierté, plaisir ]
axiologique :: 1 :: [ fierté ]
marqueurs_niveau3 :: 1 :: [ plaisir ]
marqueurs_niveau1 :: 1 :: [ fierté ]
appreciatif_niveau3 :: 1 :: [ plaisir ]
appreciatif_niveau1 :: 1 :: [ fierté ]
axiologique_niveau1 :: 1 :: [ fierté ]
Total feature counts: 10

