====== Sentence Level Features ======

1. Sentence: - Beauté : il ne s ' agit pas de luxe , et il est des beautés qui ne sont pas dispendieuses (1) .
Entity Name (Type) :: Beauté (MISC)


====== Text Level Features ======

Entity Name (Entity Type)
-------------------------
Beauté (MISC)
Total entitiy counts: 1

