
********** Entity Names Features **********
*******************************************

1. Sentence: - sur le grand axe nord de la vallée de la Seine , elle constituera l ' un des principaux éléments du développement de cette vallée;
Entity Name (Type) :: Seine (LOC)


********** Emotions Features **********
***************************************

1. Sentence: - sur le grand axe nord de la vallée de la Seine , elle constituera l ' un des principaux éléments du développement de cette vallée;
No features found.


********** Modality Features **********
***************************************

1. Sentence: - sur le grand axe nord de la vallée de la Seine , elle constituera l ' un des principaux éléments du développement de cette vallée;
Features :: Feature-Counts :: Feature-Lemmas
--------------------------------------------
marqueurs :: 1 :: [ grand ]
epistemique :: 1 :: [ grand ]
marqueurs_niveau3 :: 1 :: [ grand ]
epistemique_niveau3 :: 1 :: [ grand ]
Total feature counts: 4


********** Adverbiaux Temporels Features **********
********************************************************

1. Sentence: - sur le grand axe nord de la vallée de la Seine , elle constituera l ' un des principaux éléments du développement de cette vallée;
No features found.

