
********** Entity Names Features **********
*******************************************

1. Sentence: Maîtrise d ' ouvrage : Semapa .
Entity Name (Type) :: Semapa (MISC)


********** Emotions Features **********
***************************************

1. Sentence: Maîtrise d ' ouvrage : Semapa .
No features found.


********** Modality Features **********
***************************************

1. Sentence: Maîtrise d ' ouvrage : Semapa .
No features found.


********** Adverbiaux Temporels Features **********
********************************************************

1. Sentence: Maîtrise d ' ouvrage : Semapa .
No features found.

