====== Sentence Level Features ======

1. Sentence: Elle s ' est conceptualisée sur les traces de l ' art contemporain et a acquis un niveau d ' autonomie avec pour conséquence directe que c ' est souvent le projet qui « fait contexte » .
Features :: Feature-Counts :: Feature-Lemmas
--------------------------------------------
marqueurs :: 2 :: [ autonomie, souvent ]
alethique :: 1 :: [ souvent ]
pas_d_indication :: 1 :: [ autonomie ]
marqueurs_niveau3 :: 1 :: [ souvent ]
marqueurs_niveau0 :: 1 :: [ autonomie ]
alethique_niveau3 :: 1 :: [ souvent ]
pas_d_indication_niveau0 :: 1 :: [ autonomie ]
Total feature counts: 8


====== Text Level Features ======

Features :: Feature-Counts :: Feature-Lemmas
--------------------------------------------
marqueurs :: 2 :: [ autonomie, souvent ]
alethique :: 1 :: [ souvent ]
pas_d_indication :: 1 :: [ autonomie ]
marqueurs_niveau3 :: 1 :: [ souvent ]
marqueurs_niveau0 :: 1 :: [ autonomie ]
alethique_niveau3 :: 1 :: [ souvent ]
pas_d_indication_niveau0 :: 1 :: [ autonomie ]
Total feature counts: 8

