====== Sentence Level Features ======

1. Sentence: Seine et Seine-et-Oise	300 km2	820 km2	1 . 120 km2	6 .
No features found.

2. Sentence: 138 km2
No features found.


====== Text Level Features ======

No features found.

