
********** Entity Names Features **********
*******************************************

1. Sentence: Une ligne de tramway est-ouest constitue la colonne vertébrale du territoire , entre Le Bourget et Roissy-Charlesde-Gaulle , et génère , de part et d ' autre , un «ruban» de ville linéaire , sur 300 mètres .
Entity Name (Type) :: Roissy-Charlesde-Gaulle (LOC)


********** Emotions Features **********
***************************************

1. Sentence: Une ligne de tramway est-ouest constitue la colonne vertébrale du territoire , entre Le Bourget et Roissy-Charlesde-Gaulle , et génère , de part et d ' autre , un «ruban» de ville linéaire , sur 300 mètres .
No features found.


********** Modality Features **********
***************************************

1. Sentence: Une ligne de tramway est-ouest constitue la colonne vertébrale du territoire , entre Le Bourget et Roissy-Charlesde-Gaulle , et génère , de part et d ' autre , un «ruban» de ville linéaire , sur 300 mètres .
No features found.


********** Adverbiaux Temporels Features **********
********************************************************

1. Sentence: Une ligne de tramway est-ouest constitue la colonne vertébrale du territoire , entre Le Bourget et Roissy-Charlesde-Gaulle , et génère , de part et d ' autre , un «ruban» de ville linéaire , sur 300 mètres .
No features found.

