====== Sentence Level Features ======

1. Sentence: Enfin garantir la pérennité des aménagements passe par une mise en œuvre soignée en tirant le meilleur parti des matériaux , des éclairages , des plantations ;
Features :: Feature-Counts :: Feature-Lemmas
--------------------------------------------
marqueurs :: 2 :: [ tirer, meilleur ]
appreciatif :: 1 :: [ meilleur ]
axiologique :: 1 :: [ meilleur ]
pas_d_indication :: 1 :: [ tirer ]
marqueurs_niveau2 :: 1 :: [ meilleur ]
marqueurs_niveau0 :: 1 :: [ tirer ]
appreciatif_niveau2 :: 1 :: [ meilleur ]
axiologique_niveau2 :: 1 :: [ meilleur ]
pas_d_indication_niveau0 :: 1 :: [ tirer ]
Total feature counts: 10


====== Text Level Features ======

Features :: Feature-Counts :: Feature-Lemmas
--------------------------------------------
marqueurs :: 2 :: [ tirer, meilleur ]
appreciatif :: 1 :: [ meilleur ]
axiologique :: 1 :: [ meilleur ]
pas_d_indication :: 1 :: [ tirer ]
marqueurs_niveau2 :: 1 :: [ meilleur ]
marqueurs_niveau0 :: 1 :: [ tirer ]
appreciatif_niveau2 :: 1 :: [ meilleur ]
axiologique_niveau2 :: 1 :: [ meilleur ]
pas_d_indication_niveau0 :: 1 :: [ tirer ]
Total feature counts: 10

