
********** Entity Names Features **********
*******************************************

1. Sentence: L ' économie d ' archipel ?
No features found.


********** Emotions Features **********
***************************************

1. Sentence: L ' économie d ' archipel ?
No features found.


********** Modality Features **********
***************************************

1. Sentence: L ' économie d ' archipel ?
No features found.


********** Adverbiaux Temporels Features **********
********************************************************

1. Sentence: L ' économie d ' archipel ?
No features found.

