
********** Entity Names Features **********
*******************************************

1. Sentence: Mais que se passe-t-il dans les lieux où il n ' y a pas de gouvernance politique , et que peu de matière grise et d ' ingénierie ?
No features found.


********** Emotions Features **********
***************************************

1. Sentence: Mais que se passe-t-il dans les lieux où il n ' y a pas de gouvernance politique , et que peu de matière grise et d ' ingénierie ?
No features found.


********** Modality Features **********
***************************************

1. Sentence: Mais que se passe-t-il dans les lieux où il n ' y a pas de gouvernance politique , et que peu de matière grise et d ' ingénierie ?
No features found.


********** Adverbiaux Temporels Features **********
********************************************************

1. Sentence: Mais que se passe-t-il dans les lieux où il n ' y a pas de gouvernance politique , et que peu de matière grise et d ' ingénierie ?
No features found.

