
********** Entity Names Features **********
*******************************************

1. Sentence: a) Le Nord et La vallée de ' Oise ;
Entity Name (Type) :: La vallée de ' Oise (LOC)


********** Emotions Features **********
***************************************

1. Sentence: a) Le Nord et La vallée de ' Oise ;
No features found.


********** Modality Features **********
***************************************

1. Sentence: a) Le Nord et La vallée de ' Oise ;
No features found.


********** Adverbiaux Temporels Features **********
********************************************************

1. Sentence: a) Le Nord et La vallée de ' Oise ;
No features found.

