====== Sentence Level Features ======

1. Sentence: Le Latts vient de fêter ses trente ans (www . latts . fr) .
Entity Name (Type) :: Latts (MISC)


====== Text Level Features ======

Entity Name (Entity Type)
-------------------------
Latts (MISC)
Total entitiy counts: 1

