
********** Entity Names Features **********
*******************************************

1. Sentence: j ’ ai tout de même des crédits ouverts en quantité non négligeable , permettant d ’ exercer des droits de préemption dans les Z .
Entity Name (Type) :: Z (MISC)


********** Emotions Features **********
***************************************

1. Sentence: j ’ ai tout de même des crédits ouverts en quantité non négligeable , permettant d ’ exercer des droits de préemption dans les Z .
No features found.


********** Modality Features **********
***************************************

1. Sentence: j ’ ai tout de même des crédits ouverts en quantité non négligeable , permettant d ’ exercer des droits de préemption dans les Z .
Features :: Feature-Counts :: Feature-Lemmas
--------------------------------------------
marqueurs :: 3 :: [ ouvrir, permettre, droit ]
marqueurs_niveau3 :: 3 :: [ ouvrir, permettre, droit ]
deontique :: 2 :: [ permettre, droit ]
deontique_niveau3 :: 2 :: [ permettre, droit ]
boulique :: 1 :: [ ouvrir ]
boulique_niveau3 :: 1 :: [ ouvrir ]
Total feature counts: 12


********** Adverbiaux Temporels Features **********
********************************************************

1. Sentence: j ’ ai tout de même des crédits ouverts en quantité non négligeable , permettant d ’ exercer des droits de préemption dans les Z .
No features found.

