====== Sentence Level Features ======

1. Sentence: S ' agissant du centre-ville , l ' échelle à considérer n ' est
Features :: Feature-Counts :: Feature-Lemmas
--------------------------------------------
marqueurs :: 1 :: [ considérer ]
epistemique :: 1 :: [ considérer ]
marqueurs_niveau3 :: 1 :: [ considérer ]
epistemique_niveau3 :: 1 :: [ considérer ]
Total feature counts: 4


====== Text Level Features ======

Features :: Feature-Counts :: Feature-Lemmas
--------------------------------------------
marqueurs :: 1 :: [ considérer ]
epistemique :: 1 :: [ considérer ]
marqueurs_niveau3 :: 1 :: [ considérer ]
epistemique_niveau3 :: 1 :: [ considérer ]
Total feature counts: 4

