
********** Entity Names Features **********
*******************************************

1. Sentence: Un autre exemple est celui de la « vallée des biotechs » dans le Sud parisien (avec les hôpitaux de la vallée de la Bièvre , Villejuif , etc . ) .
Entity Name (Type) :: Villejuif (LOC)


********** Emotions Features **********
***************************************

1. Sentence: Un autre exemple est celui de la « vallée des biotechs » dans le Sud parisien (avec les hôpitaux de la vallée de la Bièvre , Villejuif , etc . ) .
No features found.


********** Modality Features **********
***************************************

1. Sentence: Un autre exemple est celui de la « vallée des biotechs » dans le Sud parisien (avec les hôpitaux de la vallée de la Bièvre , Villejuif , etc . ) .
No features found.


********** Adverbiaux Temporels Features **********
********************************************************

1. Sentence: Un autre exemple est celui de la « vallée des biotechs » dans le Sud parisien (avec les hôpitaux de la vallée de la Bièvre , Villejuif , etc . ) .
No features found.

