====== Sentence Level Features ======

1. Sentence: Mais les expérimentations sont souvent assez difficiles dans le domaine de l ' urbanisme , vu l ' ampleur des opérations , leur complexité et leur durée .
Features :: Feature-Counts :: Feature-Lemmas
--------------------------------------------
marqueurs :: 2 :: [ souvent, difficile ]
alethique :: 1 :: [ souvent ]
appreciatif :: 1 :: [ difficile ]
epistemique :: 1 :: [ difficile ]
marqueurs_niveau3 :: 1 :: [ souvent ]
marqueurs_niveau2 :: 1 :: [ difficile ]
alethique_niveau3 :: 1 :: [ souvent ]
appreciatif_niveau2 :: 1 :: [ difficile ]
epistemique_niveau2 :: 1 :: [ difficile ]
Total feature counts: 10


====== Text Level Features ======

Features :: Feature-Counts :: Feature-Lemmas
--------------------------------------------
marqueurs :: 2 :: [ souvent, difficile ]
alethique :: 1 :: [ souvent ]
appreciatif :: 1 :: [ difficile ]
epistemique :: 1 :: [ difficile ]
marqueurs_niveau3 :: 1 :: [ souvent ]
marqueurs_niveau2 :: 1 :: [ difficile ]
alethique_niveau3 :: 1 :: [ souvent ]
appreciatif_niveau2 :: 1 :: [ difficile ]
epistemique_niveau2 :: 1 :: [ difficile ]
Total feature counts: 10

