====== Sentence Level Features ======

1. Sentence: Plan de l ' Esplanade .
Entity Name (Type) :: Esplanade (LOC)


====== Text Level Features ======

Entity Name (Entity Type)
-------------------------
Esplanade (LOC)
Total entitiy counts: 1

