
********** Entity Names Features **********
*******************************************

1. Sentence: Mais quand je me perds dans les détails , il prend de la distance avec un pouvoir de synthèse assez fulgurant .
No features found.


********** Emotions Features **********
***************************************

1. Sentence: Mais quand je me perds dans les détails , il prend de la distance avec un pouvoir de synthèse assez fulgurant .
No features found.


********** Modality Features **********
***************************************

1. Sentence: Mais quand je me perds dans les détails , il prend de la distance avec un pouvoir de synthèse assez fulgurant .
Features :: Feature-Counts :: Feature-Lemmas
--------------------------------------------
marqueurs :: 2 :: [ perdre, pouvoir ]
alethique :: 1 :: [ pouvoir ]
appreciatif :: 1 :: [ perdre ]
deontique :: 1 :: [ pouvoir ]
epistemique :: 1 :: [ pouvoir ]
marqueurs_niveau3 :: 1 :: [ pouvoir ]
marqueurs_niveau2 :: 1 :: [ perdre ]
alethique_niveau3 :: 1 :: [ pouvoir ]
appreciatif_niveau2 :: 1 :: [ perdre ]
deontique_niveau3 :: 1 :: [ pouvoir ]
epistemique_niveau3 :: 1 :: [ pouvoir ]
Total feature counts: 12


********** Adverbiaux Temporels Features **********
********************************************************

1. Sentence: Mais quand je me perds dans les détails , il prend de la distance avec un pouvoir de synthèse assez fulgurant .
No features found.

