
********** Entity Names Features **********
*******************************************

1. Sentence: En y amenant les premières bases d ' un FabLab ?
Entity Name (Type) :: FabLab (MISC)


********** Emotions Features **********
***************************************

1. Sentence: En y amenant les premières bases d ' un FabLab ?
No features found.


********** Modality Features **********
***************************************

1. Sentence: En y amenant les premières bases d ' un FabLab ?
No features found.


********** Adverbiaux Temporels Features **********
********************************************************

1. Sentence: En y amenant les premières bases d ' un FabLab ?
No features found.

