====== Sentence Level Features ======

1. Sentence: Pendant cette période d ' ajustement , il faudra bien que l ' agglomération soit accessible et proche .
Features :: Feature-Counts :: Feature-Lemmas
--------------------------------------------
marqueurs :: 2 :: [ falloir, bien ]
marqueurs_niveau3 :: 2 :: [ falloir, bien ]
appreciatif :: 1 :: [ bien ]
axiologique :: 1 :: [ bien ]
deontique :: 1 :: [ falloir ]
appreciatif_niveau3 :: 1 :: [ bien ]
axiologique_niveau3 :: 1 :: [ bien ]
deontique_niveau3 :: 1 :: [ falloir ]
Total feature counts: 10


====== Text Level Features ======

Features :: Feature-Counts :: Feature-Lemmas
--------------------------------------------
marqueurs :: 2 :: [ falloir, bien ]
marqueurs_niveau3 :: 2 :: [ falloir, bien ]
appreciatif :: 1 :: [ bien ]
axiologique :: 1 :: [ bien ]
deontique :: 1 :: [ falloir ]
appreciatif_niveau3 :: 1 :: [ bien ]
axiologique_niveau3 :: 1 :: [ bien ]
deontique_niveau3 :: 1 :: [ falloir ]
Total feature counts: 10

