
********** Entity Names Features **********
*******************************************

1. Sentence: Le Grand Paris de la connaissance , le Grand Paris des affaires , le Grand Paris de la création sont en marche , avec des atouts fantastiques .
Entity Name (Type) :: Grand Paris (LOC)


********** Emotions Features **********
***************************************

1. Sentence: Le Grand Paris de la connaissance , le Grand Paris des affaires , le Grand Paris de la création sont en marche , avec des atouts fantastiques .
No features found.


********** Modality Features **********
***************************************

1. Sentence: Le Grand Paris de la connaissance , le Grand Paris des affaires , le Grand Paris de la création sont en marche , avec des atouts fantastiques .
Features :: Feature-Counts :: Feature-Lemmas
--------------------------------------------
marqueurs :: 3 :: [ grand, grand, grand ]
epistemique :: 3 :: [ grand, grand, grand ]
marqueurs_niveau3 :: 3 :: [ grand, grand, grand ]
epistemique_niveau3 :: 3 :: [ grand, grand, grand ]
Total feature counts: 12


********** Adverbiaux Temporels Features **********
********************************************************

1. Sentence: Le Grand Paris de la connaissance , le Grand Paris des affaires , le Grand Paris de la création sont en marche , avec des atouts fantastiques .
No features found.

