====== Sentence Level Features ======

1. Sentence: UN ÉLÈVE . - Mais les droits de préemption ne peuvent être exercés que pendant 8 ans , qu ’ arrivera-t-il au bout de 8 ans si vous déclarez ZAD toute cette région ?
Features :: Feature-Counts :: Feature-Lemmas
--------------------------------------------
marqueurs :: 4 :: [ droit, pouvoir, arriver, déclarer ]
alethique :: 2 :: [ pouvoir, arriver ]
deontique :: 2 :: [ droit, pouvoir ]
marqueurs_niveau3 :: 2 :: [ droit, pouvoir ]
deontique_niveau3 :: 2 :: [ droit, pouvoir ]
epistemique :: 1 :: [ pouvoir ]
pas_d_indication :: 1 :: [ déclarer ]
marqueurs_niveau2 :: 1 :: [ arriver ]
marqueurs_niveau0 :: 1 :: [ déclarer ]
alethique_niveau3 :: 1 :: [ pouvoir ]
alethique_niveau2 :: 1 :: [ arriver ]
epistemique_niveau3 :: 1 :: [ pouvoir ]
pas_d_indication_niveau0 :: 1 :: [ déclarer ]
Total feature counts: 20


====== Text Level Features ======

Features :: Feature-Counts :: Feature-Lemmas
--------------------------------------------
marqueurs :: 4 :: [ droit, pouvoir, arriver, déclarer ]
alethique :: 2 :: [ pouvoir, arriver ]
deontique :: 2 :: [ droit, pouvoir ]
marqueurs_niveau3 :: 2 :: [ droit, pouvoir ]
deontique_niveau3 :: 2 :: [ droit, pouvoir ]
epistemique :: 1 :: [ pouvoir ]
pas_d_indication :: 1 :: [ déclarer ]
marqueurs_niveau2 :: 1 :: [ arriver ]
marqueurs_niveau0 :: 1 :: [ déclarer ]
alethique_niveau3 :: 1 :: [ pouvoir ]
alethique_niveau2 :: 1 :: [ arriver ]
epistemique_niveau3 :: 1 :: [ pouvoir ]
pas_d_indication_niveau0 :: 1 :: [ déclarer ]
Total feature counts: 20

