
********** Entity Names Features **********
*******************************************

1. Sentence: Le projet urbain d ' Anfa sur les terrains de l ' ancien aéroport a été pensé en relation avec le développement des quartiers que ce nouveau projet pourrait aider .
Entity Name (Type) :: Anfa (LOC)


********** Emotions Features **********
***************************************

1. Sentence: Le projet urbain d ' Anfa sur les terrains de l ' ancien aéroport a été pensé en relation avec le développement des quartiers que ce nouveau projet pourrait aider .
No features found.


********** Modality Features **********
***************************************

1. Sentence: Le projet urbain d ' Anfa sur les terrains de l ' ancien aéroport a été pensé en relation avec le développement des quartiers que ce nouveau projet pourrait aider .
Features :: Feature-Counts :: Feature-Lemmas
--------------------------------------------
marqueurs :: 2 :: [ penser, pouvoir ]
epistemique :: 2 :: [ penser, pouvoir ]
marqueurs_niveau3 :: 2 :: [ penser, pouvoir ]
epistemique_niveau3 :: 2 :: [ penser, pouvoir ]
alethique :: 1 :: [ pouvoir ]
deontique :: 1 :: [ pouvoir ]
alethique_niveau3 :: 1 :: [ pouvoir ]
deontique_niveau3 :: 1 :: [ pouvoir ]
Total feature counts: 12


********** Adverbiaux Temporels Features **********
********************************************************

1. Sentence: Le projet urbain d ' Anfa sur les terrains de l ' ancien aéroport a été pensé en relation avec le développement des quartiers que ce nouveau projet pourrait aider .
No features found.

