
********** Entity Names Features **********
*******************************************

2. Sentence: 000 habitants .
No features found.


********** Emotions Features **********
***************************************

2. Sentence: 000 habitants .
No features found.


********** Modality Features **********
***************************************

2. Sentence: 000 habitants .
No features found.


********** Adverbiaux Temporels Features **********
********************************************************

2. Sentence: 000 habitants .
No features found.

