
********** Entity Names Features **********
*******************************************

1. Sentence: (1) Grâce à l ' aérotrain ou à quelqu ' autre innovation technique .
No features found.


********** Emotions Features **********
***************************************

1. Sentence: (1) Grâce à l ' aérotrain ou à quelqu ' autre innovation technique .
No features found.


********** Modality Features **********
***************************************

1. Sentence: (1) Grâce à l ' aérotrain ou à quelqu ' autre innovation technique .
No features found.


********** Adverbiaux Temporels Features **********
********************************************************

1. Sentence: (1) Grâce à l ' aérotrain ou à quelqu ' autre innovation technique .
No features found.

