====== Sentence Level Features ======

1. Sentence: il s ' étend du fort Saint-Jean au quartier d ' Arenc .
Entity Name (Type) :: Arenc (LOC)


====== Text Level Features ======

Entity Name (Entity Type)
-------------------------
fort Saint-Jean (LOC)
Arenc (LOC)
Total entitiy counts: 2

