
********** Entity Names Features **********
*******************************************

1. Sentence: REMARQUES
Entity Name (Type) :: REMARQUES (PER)


********** Emotions Features **********
***************************************

1. Sentence: REMARQUES
No features found.


********** Modality Features **********
***************************************

1. Sentence: REMARQUES
No features found.


********** Adverbiaux Temporels Features **********
********************************************************

1. Sentence: REMARQUES
No features found.

