
********** Entity Names Features **********
*******************************************

1. Sentence: Dans la campagne , elles seront doublées latéralement par des Voies destinées à recevoir les circulations secondaires .
Entity Name (Type) :: Voies (LOC)


********** Emotions Features **********
***************************************

1. Sentence: Dans la campagne , elles seront doublées latéralement par des Voies destinées à recevoir les circulations secondaires .
No features found.


********** Modality Features **********
***************************************

1. Sentence: Dans la campagne , elles seront doublées latéralement par des Voies destinées à recevoir les circulations secondaires .
No features found.


********** Adverbiaux Temporels Features **********
********************************************************

1. Sentence: Dans la campagne , elles seront doublées latéralement par des Voies destinées à recevoir les circulations secondaires .
No features found.

