
********** Entity Names Features **********
*******************************************

1. Sentence: Son expansion est un désastre .
No features found.


********** Emotions Features **********
***************************************

1. Sentence: Son expansion est un désastre .
No features found.


********** Modality Features **********
***************************************

1. Sentence: Son expansion est un désastre .
Features :: Feature-Counts :: Feature-Lemmas
--------------------------------------------
marqueurs :: 1 :: [ désastre ]
appreciatif :: 1 :: [ désastre ]
marqueurs_niveau2 :: 1 :: [ désastre ]
appreciatif_niveau2 :: 1 :: [ désastre ]
Total feature counts: 4


********** Adverbiaux Temporels Features **********
********************************************************

1. Sentence: Son expansion est un désastre .
No features found.

