====== Sentence Level Features ======

1. Sentence: Selon l ' idée qu ' un paysage était la résultante d ' une économie ,  l ' idée était de produire des arbres , entre autres .
Features :: Feature-Counts :: Feature-Lemmas
--------------------------------------------
marqueurs :: 1 :: [ selon ]
epistemique :: 1 :: [ selon ]
marqueurs_niveau3 :: 1 :: [ selon ]
epistemique_niveau3 :: 1 :: [ selon ]
Total feature counts: 4


====== Text Level Features ======

Features :: Feature-Counts :: Feature-Lemmas
--------------------------------------------
marqueurs :: 1 :: [ selon ]
epistemique :: 1 :: [ selon ]
marqueurs_niveau3 :: 1 :: [ selon ]
epistemique_niveau3 :: 1 :: [ selon ]
Total feature counts: 4

