
********** Entity Names Features **********
*******************************************

1. Sentence: Entre les deux derniers recensements de population , l ' exode industriel a fait perdre environ 70 .
Entity Name (Type) :: Entre (LOC)


********** Emotions Features **********
***************************************

1. Sentence: Entre les deux derniers recensements de population , l ' exode industriel a fait perdre environ 70 .
No features found.


********** Modality Features **********
***************************************

1. Sentence: Entre les deux derniers recensements de population , l ' exode industriel a fait perdre environ 70 .
Features :: Feature-Counts :: Feature-Lemmas
--------------------------------------------
marqueurs :: 1 :: [ perdre ]
appreciatif :: 1 :: [ perdre ]
marqueurs_niveau2 :: 1 :: [ perdre ]
appreciatif_niveau2 :: 1 :: [ perdre ]
Total feature counts: 4


********** Adverbiaux Temporels Features **********
********************************************************

1. Sentence: Entre les deux derniers recensements de population , l ' exode industriel a fait perdre environ 70 .
No features found.

