====== Sentence Level Features ======

1. Sentence: En aucun point , elles ne seront recoupées à niveau ;
Features :: Feature-Counts :: Feature-Lemmas
--------------------------------------------
marqueurs :: 1 :: [ aucun ]
alethique :: 1 :: [ aucun ]
marqueurs_niveau3 :: 1 :: [ aucun ]
alethique_niveau3 :: 1 :: [ aucun ]
Total feature counts: 4


====== Text Level Features ======

Features :: Feature-Counts :: Feature-Lemmas
--------------------------------------------
marqueurs :: 1 :: [ aucun ]
alethique :: 1 :: [ aucun ]
marqueurs_niveau3 :: 1 :: [ aucun ]
alethique_niveau3 :: 1 :: [ aucun ]
Total feature counts: 4

