
********** Entity Names Features **********
*******************************************

1. Sentence: Ce récit s ' appuie sur des mots-clés , des images simples , des évocations et des dialogues , des cartes et des dessins plus précis .
No features found.


********** Emotions Features **********
***************************************

1. Sentence: Ce récit s ' appuie sur des mots-clés , des images simples , des évocations et des dialogues , des cartes et des dessins plus précis .
No features found.


********** Modality Features **********
***************************************

1. Sentence: Ce récit s ' appuie sur des mots-clés , des images simples , des évocations et des dialogues , des cartes et des dessins plus précis .
No features found.


********** Adverbiaux Temporels Features **********
********************************************************

1. Sentence: Ce récit s ' appuie sur des mots-clés , des images simples , des évocations et des dialogues , des cartes et des dessins plus précis .
No features found.

