
********** Entity Names Features **********
*******************************************

1. Sentence: il s ’ agit d ’ une opposition de principe , de caractère politique et psycho-social .
No features found.


********** Emotions Features **********
***************************************

1. Sentence: il s ’ agit d ’ une opposition de principe , de caractère politique et psycho-social .
No features found.


********** Modality Features **********
***************************************

1. Sentence: il s ’ agit d ’ une opposition de principe , de caractère politique et psycho-social .
No features found.


********** Adverbiaux Temporels Features **********
********************************************************

1. Sentence: il s ’ agit d ’ une opposition de principe , de caractère politique et psycho-social .
No features found.

