====== Sentence Level Features ======

1. Sentence: Il y a près de dix ans , j ' ai travaillé avec Éric Le Breton sur les transports et les taxis collectifs .
Features :: Feature-Counts :: Feature-Lemmas
--------------------------------------------
marqueurs :: 1 :: [ travailler ]
appreciatif :: 1 :: [ travailler ]
marqueurs_niveau2 :: 1 :: [ travailler ]
appreciatif_niveau2 :: 1 :: [ travailler ]
Total feature counts: 4


====== Text Level Features ======

Features :: Feature-Counts :: Feature-Lemmas
--------------------------------------------
marqueurs :: 1 :: [ travailler ]
appreciatif :: 1 :: [ travailler ]
marqueurs_niveau2 :: 1 :: [ travailler ]
appreciatif_niveau2 :: 1 :: [ travailler ]
Total feature counts: 4

