
********** Entity Names Features **********
*******************************************

1. Sentence: - Les communes limitrophes de Paris , Gentilly , Ivry , et celles situées de part et d ' autre de la Seine , Vitry , Maisons-Alfort , Choisy-le-Roi , sont d ' urbanisation ancienne .
Entity Name (Type) :: Choisy-le-Roi (LOC)


********** Emotions Features **********
***************************************

1. Sentence: - Les communes limitrophes de Paris , Gentilly , Ivry , et celles situées de part et d ' autre de la Seine , Vitry , Maisons-Alfort , Choisy-le-Roi , sont d ' urbanisation ancienne .
No features found.


********** Modality Features **********
***************************************

1. Sentence: - Les communes limitrophes de Paris , Gentilly , Ivry , et celles situées de part et d ' autre de la Seine , Vitry , Maisons-Alfort , Choisy-le-Roi , sont d ' urbanisation ancienne .
No features found.


********** Adverbiaux Temporels Features **********
********************************************************

1. Sentence: - Les communes limitrophes de Paris , Gentilly , Ivry , et celles situées de part et d ' autre de la Seine , Vitry , Maisons-Alfort , Choisy-le-Roi , sont d ' urbanisation ancienne .
No features found.

