====== Sentence Level Features ======

1. Sentence: Je me sens un peu dans la même position que Francis Cuillier , directeur de l ' agence de l ' agglomération bordelaise (Grand Prix de l ' urbanisme 2006) , lui-même également très différent des autres détenteurs du prix .
Features :: Feature-Counts :: Feature-Lemmas
--------------------------------------------
marqueurs :: 3 :: [ grand, prix, prix ]
appreciatif :: 2 :: [ prix, prix ]
axiologique :: 2 :: [ prix, prix ]
marqueurs_niveau2 :: 2 :: [ prix, prix ]
appreciatif_niveau2 :: 2 :: [ prix, prix ]
axiologique_niveau2 :: 2 :: [ prix, prix ]
epistemique :: 1 :: [ grand ]
marqueurs_niveau3 :: 1 :: [ grand ]
epistemique_niveau3 :: 1 :: [ grand ]
Total feature counts: 16


====== Text Level Features ======

Features :: Feature-Counts :: Feature-Lemmas
--------------------------------------------
marqueurs :: 3 :: [ grand, prix, prix ]
appreciatif :: 2 :: [ prix, prix ]
axiologique :: 2 :: [ prix, prix ]
marqueurs_niveau2 :: 2 :: [ prix, prix ]
appreciatif_niveau2 :: 2 :: [ prix, prix ]
axiologique_niveau2 :: 2 :: [ prix, prix ]
epistemique :: 1 :: [ grand ]
marqueurs_niveau3 :: 1 :: [ grand ]
epistemique_niveau3 :: 1 :: [ grand ]
Total feature counts: 16

