====== Sentence Level Features ======

1. Sentence: Depuis la publication de La Ville franchisée , je tente donc d ' explorer ces questions au sein du Club ville-aménagement et du groupe animé par Ariella Masboungi et Laurent Théry sur les «grands territoires» .
Features :: Feature-Counts :: Feature-Lemmas
--------------------------------------------
marqueurs :: 2 :: [ tenter, grand ]
boulique :: 1 :: [ tenter ]
epistemique :: 1 :: [ grand ]
marqueurs_niveau3 :: 1 :: [ grand ]
marqueurs_niveau2 :: 1 :: [ tenter ]
boulique_niveau2 :: 1 :: [ tenter ]
epistemique_niveau3 :: 1 :: [ grand ]
Total feature counts: 8


====== Text Level Features ======

Features :: Feature-Counts :: Feature-Lemmas
--------------------------------------------
marqueurs :: 2 :: [ tenter, grand ]
boulique :: 1 :: [ tenter ]
epistemique :: 1 :: [ grand ]
marqueurs_niveau3 :: 1 :: [ grand ]
marqueurs_niveau2 :: 1 :: [ tenter ]
boulique_niveau2 :: 1 :: [ tenter ]
epistemique_niveau3 :: 1 :: [ grand ]
Total feature counts: 8

