====== Sentence Level Features ======

1. Sentence: En premier lieu , ce sont des situations urbaines qui sont à traiter .
Features :: Feature-Counts :: Feature-Lemmas
--------------------------------------------
marqueurs :: 1 :: [ traiter ]
pas_d_indication :: 1 :: [ traiter ]
marqueurs_niveau0 :: 1 :: [ traiter ]
pas_d_indication_niveau0 :: 1 :: [ traiter ]
Total feature counts: 4


====== Text Level Features ======

Features :: Feature-Counts :: Feature-Lemmas
--------------------------------------------
marqueurs :: 1 :: [ traiter ]
pas_d_indication :: 1 :: [ traiter ]
marqueurs_niveau0 :: 1 :: [ traiter ]
pas_d_indication_niveau0 :: 1 :: [ traiter ]
Total feature counts: 4

