
********** Entity Names Features **********
*******************************************

1. Sentence: Figure 14 Principaux axes routiers et ferrés dans l ' agglomération
Entity Name (Type) :: Principaux (LOC)


********** Emotions Features **********
***************************************

1. Sentence: Figure 14 Principaux axes routiers et ferrés dans l ' agglomération
No features found.


********** Modality Features **********
***************************************

1. Sentence: Figure 14 Principaux axes routiers et ferrés dans l ' agglomération
No features found.


********** Adverbiaux Temporels Features **********
********************************************************

1. Sentence: Figure 14 Principaux axes routiers et ferrés dans l ' agglomération
No features found.

