
********** Entity Names Features **********
*******************************************

1. Sentence: Et déjà le P . A . D . O . G . (Plan d ' aménagement et d ' organisation générale de la région parisienne) avait insisté sur la nécessité de " noyaux restructurateurs " dans la banlieue parisienne .
Entity Name (Type) :: Plan d ' aménagement et d ' organisation générale de la région parisienne (LOC)


********** Emotions Features **********
***************************************

1. Sentence: Et déjà le P . A . D . O . G . (Plan d ' aménagement et d ' organisation générale de la région parisienne) avait insisté sur la nécessité de " noyaux restructurateurs " dans la banlieue parisienne .
No features found.


********** Modality Features **********
***************************************

1. Sentence: Et déjà le P . A . D . O . G . (Plan d ' aménagement et d ' organisation générale de la région parisienne) avait insisté sur la nécessité de " noyaux restructurateurs " dans la banlieue parisienne .
Features :: Feature-Counts :: Feature-Lemmas
--------------------------------------------
marqueurs :: 1 :: [ nécessité ]
alethique :: 1 :: [ nécessité ]
marqueurs_niveau3 :: 1 :: [ nécessité ]
alethique_niveau3 :: 1 :: [ nécessité ]
Total feature counts: 4


********** Adverbiaux Temporels Features **********
********************************************************

1. Sentence: Et déjà le P . A . D . O . G . (Plan d ' aménagement et d ' organisation générale de la région parisienne) avait insisté sur la nécessité de " noyaux restructurateurs " dans la banlieue parisienne .
No features found.

