====== Sentence Level Features ======

1. Sentence: Les villes ont alors tourné le dos à leurs rives , désormais soumises à des logiques techniques et encombrées de lourdes infrastructures .
Features :: Feature-Counts :: Feature-Lemmas
--------------------------------------------
marqueurs :: 1 :: [ lourd ]
epistemique :: 1 :: [ lourd ]
marqueurs_niveau3 :: 1 :: [ lourd ]
epistemique_niveau3 :: 1 :: [ lourd ]
Total feature counts: 4


====== Text Level Features ======

Features :: Feature-Counts :: Feature-Lemmas
--------------------------------------------
marqueurs :: 1 :: [ lourd ]
epistemique :: 1 :: [ lourd ]
marqueurs_niveau3 :: 1 :: [ lourd ]
epistemique_niveau3 :: 1 :: [ lourd ]
Total feature counts: 4

