====== Sentence Level Features ======

1. Sentence: Quatre années de travail sur la question ont été nécessaires .
Features :: Feature-Counts :: Feature-Lemmas
--------------------------------------------
marqueurs :: 2 :: [ travail, nécessaire ]
marqueurs_niveau3 :: 2 :: [ travail, nécessaire ]
alethique :: 1 :: [ nécessaire ]
appreciatif :: 1 :: [ travail ]
alethique_niveau3 :: 1 :: [ nécessaire ]
appreciatif_niveau3 :: 1 :: [ travail ]
Total feature counts: 8


====== Text Level Features ======

Features :: Feature-Counts :: Feature-Lemmas
--------------------------------------------
marqueurs :: 2 :: [ travail, nécessaire ]
marqueurs_niveau3 :: 2 :: [ travail, nécessaire ]
alethique :: 1 :: [ nécessaire ]
appreciatif :: 1 :: [ travail ]
alethique_niveau3 :: 1 :: [ nécessaire ]
appreciatif_niveau3 :: 1 :: [ travail ]
Total feature counts: 8

