====== Sentence Level Features ======

1. Sentence: Selon que le gain a été à l ' avantage de l ' une ou de l ' autre qualité , son influence a été différente sur la croissance des villes et sur les formes urbaines .
Features :: Feature-Counts :: Feature-Lemmas
--------------------------------------------
marqueurs :: 2 :: [ selon, gain ]
appreciatif :: 1 :: [ gain ]
epistemique :: 1 :: [ selon ]
marqueurs_niveau3 :: 1 :: [ selon ]
marqueurs_niveau2 :: 1 :: [ gain ]
appreciatif_niveau2 :: 1 :: [ gain ]
epistemique_niveau3 :: 1 :: [ selon ]
Total feature counts: 8


====== Text Level Features ======

Features :: Feature-Counts :: Feature-Lemmas
--------------------------------------------
marqueurs :: 2 :: [ selon, gain ]
appreciatif :: 1 :: [ gain ]
epistemique :: 1 :: [ selon ]
marqueurs_niveau3 :: 1 :: [ selon ]
marqueurs_niveau2 :: 1 :: [ gain ]
appreciatif_niveau2 :: 1 :: [ gain ]
epistemique_niveau3 :: 1 :: [ selon ]
Total feature counts: 8

