
********** Entity Names Features **********
*******************************************

1. Sentence: L ' ébauche du projet préconise de conjuguer les trois systèmes d ' organisation du littoral charentais et des marais : les étendues d ' eaux marines et eaux douces;
No features found.


********** Emotions Features **********
***************************************

1. Sentence: L ' ébauche du projet préconise de conjuguer les trois systèmes d ' organisation du littoral charentais et des marais : les étendues d ' eaux marines et eaux douces;
No features found.


********** Modality Features **********
***************************************

1. Sentence: L ' ébauche du projet préconise de conjuguer les trois systèmes d ' organisation du littoral charentais et des marais : les étendues d ' eaux marines et eaux douces;
Features :: Feature-Counts :: Feature-Lemmas
--------------------------------------------
marqueurs :: 1 :: [ doux ]
appreciatif :: 1 :: [ doux ]
marqueurs_niveau2 :: 1 :: [ doux ]
appreciatif_niveau2 :: 1 :: [ doux ]
Total feature counts: 4


********** Adverbiaux Temporels Features **********
********************************************************

1. Sentence: L ' ébauche du projet préconise de conjuguer les trois systèmes d ' organisation du littoral charentais et des marais : les étendues d ' eaux marines et eaux douces;
No features found.

