
********** Entity Names Features **********
*******************************************

1. Sentence: J ' ai été formé en partie par Henri Malvaux , peintre et directeur de l ' école Camondo , qui m ' a ouvert au monde d ' Alvar Aalto , de Jean Prouvé , de Charles et Ray Eames et de Fernand Léger .
Entity Name (Type) :: Fernand Léger (PER)


********** Emotions Features **********
***************************************

1. Sentence: J ' ai été formé en partie par Henri Malvaux , peintre et directeur de l ' école Camondo , qui m ' a ouvert au monde d ' Alvar Aalto , de Jean Prouvé , de Charles et Ray Eames et de Fernand Léger .
No features found.


********** Modality Features **********
***************************************

1. Sentence: J ' ai été formé en partie par Henri Malvaux , peintre et directeur de l ' école Camondo , qui m ' a ouvert au monde d ' Alvar Aalto , de Jean Prouvé , de Charles et Ray Eames et de Fernand Léger .
Features :: Feature-Counts :: Feature-Lemmas
--------------------------------------------
marqueurs :: 2 :: [ école, ouvrir ]
alethique :: 1 :: [ école ]
boulique :: 1 :: [ ouvrir ]
marqueurs_niveau3 :: 1 :: [ ouvrir ]
marqueurs_niveau1 :: 1 :: [ école ]
alethique_niveau1 :: 1 :: [ école ]
boulique_niveau3 :: 1 :: [ ouvrir ]
Total feature counts: 8


********** Adverbiaux Temporels Features **********
********************************************************

1. Sentence: J ' ai été formé en partie par Henri Malvaux , peintre et directeur de l ' école Camondo , qui m ' a ouvert au monde d ' Alvar Aalto , de Jean Prouvé , de Charles et Ray Eames et de Fernand Léger .
No features found.

