
********** Entity Names Features **********
*******************************************

1. Sentence: 000 , il faut donc aller se mettre ailleurs ;
No features found.


********** Emotions Features **********
***************************************

1. Sentence: 000 , il faut donc aller se mettre ailleurs ;
No features found.


********** Modality Features **********
***************************************

1. Sentence: 000 , il faut donc aller se mettre ailleurs ;
Features :: Feature-Counts :: Feature-Lemmas
--------------------------------------------
marqueurs :: 2 :: [ falloir, aller ]
alethique :: 1 :: [ aller ]
deontique :: 1 :: [ falloir ]
marqueurs_niveau3 :: 1 :: [ falloir ]
marqueurs_niveau1 :: 1 :: [ aller ]
alethique_niveau1 :: 1 :: [ aller ]
deontique_niveau3 :: 1 :: [ falloir ]
Total feature counts: 8


********** Adverbiaux Temporels Features **********
********************************************************

1. Sentence: 000 , il faut donc aller se mettre ailleurs ;
No features found.

