====== Sentence Level Features ======

1. Sentence: Extrait d ' un entretien avec Michel Desvigne , par Gilles Davoine , Amc , no 101 , octobre 1999 .
Entity Name (Type) :: Amc (ORG)


====== Text Level Features ======

Entity Name (Entity Type)
-------------------------
Michel Desvigne (PER)
Gilles Davoine (PER)
Amc (ORG)
Total entitiy counts: 3

