
********** Entity Names Features **********
*******************************************

1. Sentence: Je songe notamment à la " cité parc " des Courtillières à Pantin édifiée par Émile Aillaud , qui est un exemple de ce qu ' on doit s ' efforcer de rénover mais aussi de préserver .
Entity Name (Type) :: Émile Aillaud (PER)


********** Emotions Features **********
***************************************

1. Sentence: Je songe notamment à la " cité parc " des Courtillières à Pantin édifiée par Émile Aillaud , qui est un exemple de ce qu ' on doit s ' efforcer de rénover mais aussi de préserver .
No features found.


********** Modality Features **********
***************************************

1. Sentence: Je songe notamment à la " cité parc " des Courtillières à Pantin édifiée par Émile Aillaud , qui est un exemple de ce qu ' on doit s ' efforcer de rénover mais aussi de préserver .
Features :: Feature-Counts :: Feature-Lemmas
--------------------------------------------
marqueurs :: 2 :: [ devoir, efforcer ]
marqueurs_niveau3 :: 2 :: [ devoir, efforcer ]
alethique :: 1 :: [ devoir ]
boulique :: 1 :: [ efforcer ]
deontique :: 1 :: [ devoir ]
epistemique :: 1 :: [ devoir ]
alethique_niveau3 :: 1 :: [ devoir ]
boulique_niveau3 :: 1 :: [ efforcer ]
deontique_niveau3 :: 1 :: [ devoir ]
epistemique_niveau3 :: 1 :: [ devoir ]
Total feature counts: 12


********** Adverbiaux Temporels Features **********
********************************************************

1. Sentence: Je songe notamment à la " cité parc " des Courtillières à Pantin édifiée par Émile Aillaud , qui est un exemple de ce qu ' on doit s ' efforcer de rénover mais aussi de préserver .
No features found.

