====== Sentence Level Features ======

1. Sentence: Tous mes amis chercheurs spécialistes de la mobilité , les architectes de l ' AIGP… tous tiraient à boulets rouges sur le Grand Paris Express .
Features :: Feature-Counts :: Feature-Lemmas
--------------------------------------------
marqueurs :: 3 :: [ ami, tirer, grand ]
appreciatif :: 1 :: [ ami ]
epistemique :: 1 :: [ grand ]
pas_d_indication :: 1 :: [ tirer ]
marqueurs_niveau3 :: 1 :: [ grand ]
marqueurs_niveau2 :: 1 :: [ ami ]
marqueurs_niveau0 :: 1 :: [ tirer ]
appreciatif_niveau2 :: 1 :: [ ami ]
epistemique_niveau3 :: 1 :: [ grand ]
pas_d_indication_niveau0 :: 1 :: [ tirer ]
Total feature counts: 12


====== Text Level Features ======

Features :: Feature-Counts :: Feature-Lemmas
--------------------------------------------
marqueurs :: 3 :: [ ami, tirer, grand ]
appreciatif :: 1 :: [ ami ]
epistemique :: 1 :: [ grand ]
pas_d_indication :: 1 :: [ tirer ]
marqueurs_niveau3 :: 1 :: [ grand ]
marqueurs_niveau2 :: 1 :: [ ami ]
marqueurs_niveau0 :: 1 :: [ tirer ]
appreciatif_niveau2 :: 1 :: [ ami ]
epistemique_niveau3 :: 1 :: [ grand ]
pas_d_indication_niveau0 :: 1 :: [ tirer ]
Total feature counts: 12

