
********** Entity Names Features **********
*******************************************

1. Sentence: (1) Standard metropolitan statistical area .
Entity Name (Type) :: (1) Standard metropolitan statistical area (LOC)


********** Emotions Features **********
***************************************

1. Sentence: (1) Standard metropolitan statistical area .
No features found.


********** Modality Features **********
***************************************

1. Sentence: (1) Standard metropolitan statistical area .
No features found.


********** Adverbiaux Temporels Features **********
********************************************************

1. Sentence: (1) Standard metropolitan statistical area .
No features found.

