
********** Entity Names Features **********
*******************************************

1. Sentence: Cela se verra mieux dans quelques années .
No features found.


********** Emotions Features **********
***************************************

1. Sentence: Cela se verra mieux dans quelques années .
No features found.


********** Modality Features **********
***************************************

1. Sentence: Cela se verra mieux dans quelques années .
Features :: Feature-Counts :: Feature-Lemmas
--------------------------------------------
marqueurs :: 1 :: [ mieux ]
appreciatif :: 1 :: [ mieux ]
axiologique :: 1 :: [ mieux ]
marqueurs_niveau2 :: 1 :: [ mieux ]
appreciatif_niveau2 :: 1 :: [ mieux ]
axiologique_niveau2 :: 1 :: [ mieux ]
Total feature counts: 6


********** Adverbiaux Temporels Features **********
********************************************************

1. Sentence: Cela se verra mieux dans quelques années .
No features found.

