====== Sentence Level Features ======

1. Sentence: Cette image est complètement déformée .
Features :: Feature-Counts :: Feature-Lemmas
--------------------------------------------
marqueurs :: 1 :: [ déformer ]
pas_d_indication :: 1 :: [ déformer ]
marqueurs_niveau0 :: 1 :: [ déformer ]
pas_d_indication_niveau0 :: 1 :: [ déformer ]
Total feature counts: 4


====== Text Level Features ======

Features :: Feature-Counts :: Feature-Lemmas
--------------------------------------------
marqueurs :: 1 :: [ déformer ]
pas_d_indication :: 1 :: [ déformer ]
marqueurs_niveau0 :: 1 :: [ déformer ]
pas_d_indication_niveau0 :: 1 :: [ déformer ]
Total feature counts: 4

