
********** Entity Names Features **********
*******************************************

1. Sentence: CONSTRUIRE UNE VISION À LA BONNE ÉCHELLE Paul Delduc  : La proposition de Pierre Veltz arrive donc à-propos .
Entity Name (Type) :: Pierre Veltz (PER)


********** Emotions Features **********
***************************************

1. Sentence: CONSTRUIRE UNE VISION À LA BONNE ÉCHELLE Paul Delduc  : La proposition de Pierre Veltz arrive donc à-propos .
No features found.


********** Modality Features **********
***************************************

1. Sentence: CONSTRUIRE UNE VISION À LA BONNE ÉCHELLE Paul Delduc  : La proposition de Pierre Veltz arrive donc à-propos .
Features :: Feature-Counts :: Feature-Lemmas
--------------------------------------------
marqueurs :: 1 :: [ arriver ]
alethique :: 1 :: [ arriver ]
marqueurs_niveau2 :: 1 :: [ arriver ]
alethique_niveau2 :: 1 :: [ arriver ]
Total feature counts: 4


********** Adverbiaux Temporels Features **********
********************************************************

1. Sentence: CONSTRUIRE UNE VISION À LA BONNE ÉCHELLE Paul Delduc  : La proposition de Pierre Veltz arrive donc à-propos .
No features found.

