
********** Entity Names Features **********
*******************************************

1. Sentence: Bouchain transformant une usine en un lieu unique en effet (impossible d ' être plus attachant dans le genre mal léché);
Entity Name (Type) :: Bouchain (LOC)


********** Emotions Features **********
***************************************

1. Sentence: Bouchain transformant une usine en un lieu unique en effet (impossible d ' être plus attachant dans le genre mal léché);
No features found.


********** Modality Features **********
***************************************

1. Sentence: Bouchain transformant une usine en un lieu unique en effet (impossible d ' être plus attachant dans le genre mal léché);
Features :: Feature-Counts :: Feature-Lemmas
--------------------------------------------
marqueurs :: 3 :: [ unique, impossible, mal ]
appreciatif :: 2 :: [ unique, mal ]
marqueurs_niveau3 :: 2 :: [ impossible, mal ]
alethique :: 1 :: [ impossible ]
axiologique :: 1 :: [ mal ]
marqueurs_niveau1 :: 1 :: [ unique ]
alethique_niveau3 :: 1 :: [ impossible ]
appreciatif_niveau3 :: 1 :: [ mal ]
appreciatif_niveau1 :: 1 :: [ unique ]
axiologique_niveau3 :: 1 :: [ mal ]
Total feature counts: 14


********** Adverbiaux Temporels Features **********
********************************************************

1. Sentence: Bouchain transformant une usine en un lieu unique en effet (impossible d ' être plus attachant dans le genre mal léché);
No features found.

