
********** Entity Names Features **********
*******************************************

1. Sentence: L ' installation du théâtre Zingaro et les logements produits ainsi à Aubervilliers sont de ceux-là .
Entity Name (Type) :: Aubervilliers (LOC)


********** Emotions Features **********
***************************************

1. Sentence: L ' installation du théâtre Zingaro et les logements produits ainsi à Aubervilliers sont de ceux-là .
No features found.


********** Modality Features **********
***************************************

1. Sentence: L ' installation du théâtre Zingaro et les logements produits ainsi à Aubervilliers sont de ceux-là .
No features found.


********** Adverbiaux Temporels Features **********
********************************************************

1. Sentence: L ' installation du théâtre Zingaro et les logements produits ainsi à Aubervilliers sont de ceux-là .
No features found.

