====== Sentence Level Features ======

1. Sentence: Nous le reprenons aujourd ' hui à Marseille où , sur le Vieux-Port , avec Norman Foster , nous avons proposé un espace public constitué d ' un dallage très solide , sans aucun dessin , aucun objet;
Features :: Feature-Counts :: Feature-Lemmas
--------------------------------------------
marqueurs :: 2 :: [ aucun, aucun ]
alethique :: 2 :: [ aucun, aucun ]
marqueurs_niveau3 :: 2 :: [ aucun, aucun ]
alethique_niveau3 :: 2 :: [ aucun, aucun ]
Total feature counts: 8


====== Text Level Features ======

Features :: Feature-Counts :: Feature-Lemmas
--------------------------------------------
marqueurs :: 2 :: [ aucun, aucun ]
alethique :: 2 :: [ aucun, aucun ]
marqueurs_niveau3 :: 2 :: [ aucun, aucun ]
alethique_niveau3 :: 2 :: [ aucun, aucun ]
Total feature counts: 8

