
********** Entity Names Features **********
*******************************************

1. Sentence: Aujourd ' hui , il serait souhaitable de créer une filiale du Club ville-aménagement pour mobiliser une nouvelle génération de chercheurs .
Entity Name (Type) :: Club ville-aménagement (ORG)


********** Emotions Features **********
***************************************

1. Sentence: Aujourd ' hui , il serait souhaitable de créer une filiale du Club ville-aménagement pour mobiliser une nouvelle génération de chercheurs .
No features found.


********** Modality Features **********
***************************************

1. Sentence: Aujourd ' hui , il serait souhaitable de créer une filiale du Club ville-aménagement pour mobiliser une nouvelle génération de chercheurs .
Features :: Feature-Counts :: Feature-Lemmas
--------------------------------------------
marqueurs :: 1 :: [ souhaitable ]
boulique :: 1 :: [ souhaitable ]
marqueurs_niveau3 :: 1 :: [ souhaitable ]
boulique_niveau3 :: 1 :: [ souhaitable ]
Total feature counts: 4


********** Adverbiaux Temporels Features **********
********************************************************

1. Sentence: Aujourd ' hui , il serait souhaitable de créer une filiale du Club ville-aménagement pour mobiliser une nouvelle génération de chercheurs .
No features found.

