====== Sentence Level Features ======

1. Sentence: Après « Réinventer Paris » la consultation « Inventons la métropole » , qui concerne 59 sites à aménager , principalement autour des gares du Grand Paris Express , joue à fond la carte du partenariat public privé .
Features :: Feature-Counts :: Feature-Lemmas
--------------------------------------------
marqueurs :: 3 :: [ inventer, grand, jouer ]
epistemique :: 2 :: [ inventer, grand ]
marqueurs_niveau2 :: 2 :: [ inventer, jouer ]
appreciatif :: 1 :: [ jouer ]
marqueurs_niveau3 :: 1 :: [ grand ]
appreciatif_niveau2 :: 1 :: [ jouer ]
epistemique_niveau3 :: 1 :: [ grand ]
epistemique_niveau2 :: 1 :: [ inventer ]
Total feature counts: 12


====== Text Level Features ======

Features :: Feature-Counts :: Feature-Lemmas
--------------------------------------------
marqueurs :: 3 :: [ inventer, grand, jouer ]
epistemique :: 2 :: [ inventer, grand ]
marqueurs_niveau2 :: 2 :: [ inventer, jouer ]
appreciatif :: 1 :: [ jouer ]
marqueurs_niveau3 :: 1 :: [ grand ]
appreciatif_niveau2 :: 1 :: [ jouer ]
epistemique_niveau3 :: 1 :: [ grand ]
epistemique_niveau2 :: 1 :: [ inventer ]
Total feature counts: 12

