
********** Entity Names Features **********
*******************************************

1. Sentence: Toutes les principales Voies existantes auront au minimum 30 mètres de largeur avec des réserves d ’ élargissement de 40 m . à 50 m . et 60 mètres .
Entity Name (Type) :: Voies (LOC)


********** Emotions Features **********
***************************************

1. Sentence: Toutes les principales Voies existantes auront au minimum 30 mètres de largeur avec des réserves d ’ élargissement de 40 m . à 50 m . et 60 mètres .
No features found.


********** Modality Features **********
***************************************

1. Sentence: Toutes les principales Voies existantes auront au minimum 30 mètres de largeur avec des réserves d ’ élargissement de 40 m . à 50 m . et 60 mètres .
No features found.


********** Adverbiaux Temporels Features **********
********************************************************

1. Sentence: Toutes les principales Voies existantes auront au minimum 30 mètres de largeur avec des réserves d ’ élargissement de 40 m . à 50 m . et 60 mètres .
No features found.

