
********** Entity Names Features **********
*******************************************

1. Sentence: Grand Prix de l ' urbanisme 2005 C ' est l ' exploit réussi par Karl Ganser , le directeur de l ' IBA , et son équipe .
Entity Name (Type) :: IBA (ORG)


********** Emotions Features **********
***************************************

1. Sentence: Grand Prix de l ' urbanisme 2005 C ' est l ' exploit réussi par Karl Ganser , le directeur de l ' IBA , et son équipe .
No features found.


********** Modality Features **********
***************************************

1. Sentence: Grand Prix de l ' urbanisme 2005 C ' est l ' exploit réussi par Karl Ganser , le directeur de l ' IBA , et son équipe .
Features :: Feature-Counts :: Feature-Lemmas
--------------------------------------------
marqueurs :: 4 :: [ grand, prix, exploit, réussir ]
appreciatif :: 2 :: [ prix, réussir ]
marqueurs_niveau3 :: 2 :: [ grand, réussir ]
axiologique :: 1 :: [ prix ]
epistemique :: 1 :: [ grand ]
pas_d_indication :: 1 :: [ exploit ]
marqueurs_niveau2 :: 1 :: [ prix ]
marqueurs_niveau0 :: 1 :: [ exploit ]
appreciatif_niveau3 :: 1 :: [ réussir ]
appreciatif_niveau2 :: 1 :: [ prix ]
axiologique_niveau2 :: 1 :: [ prix ]
epistemique_niveau3 :: 1 :: [ grand ]
pas_d_indication_niveau0 :: 1 :: [ exploit ]
Total feature counts: 18


********** Adverbiaux Temporels Features **********
********************************************************

1. Sentence: Grand Prix de l ' urbanisme 2005 C ' est l ' exploit réussi par Karl Ganser , le directeur de l ' IBA , et son équipe .
No features found.

