====== Sentence Level Features ======

1. Sentence: Sans doute avec des dispositifs autant qu ' avec du dessin , comme je l ' expérimente à Nantes avec Claire Schorter , mais également avec de l ' indéfinition et de l ' inachèvement .
Features :: Feature-Counts :: Feature-Lemmas
--------------------------------------------
marqueurs :: 1 :: [ doute ]
epistemique :: 1 :: [ doute ]
marqueurs_niveau3 :: 1 :: [ doute ]
epistemique_niveau3 :: 1 :: [ doute ]
Total feature counts: 4


====== Text Level Features ======

Features :: Feature-Counts :: Feature-Lemmas
--------------------------------------------
marqueurs :: 1 :: [ doute ]
epistemique :: 1 :: [ doute ]
marqueurs_niveau3 :: 1 :: [ doute ]
epistemique_niveau3 :: 1 :: [ doute ]
Total feature counts: 4

