
********** Entity Names Features **********
*******************************************

1. Sentence: Grand Prix de l ' urbanisme 2008 s ' est développé , installant la dépendance automobile partout , nivelant les sites et ignorant la géographie , mère de tous les arts .
Entity Name (Type) :: Grand Prix de l ' urbanisme 2008 (MISC)


********** Emotions Features **********
***************************************

1. Sentence: Grand Prix de l ' urbanisme 2008 s ' est développé , installant la dépendance automobile partout , nivelant les sites et ignorant la géographie , mère de tous les arts .
No features found.


********** Modality Features **********
***************************************

1. Sentence: Grand Prix de l ' urbanisme 2008 s ' est développé , installant la dépendance automobile partout , nivelant les sites et ignorant la géographie , mère de tous les arts .
Features :: Feature-Counts :: Feature-Lemmas
--------------------------------------------
marqueurs :: 3 :: [ grand, prix, partout ]
marqueurs_niveau2 :: 2 :: [ prix, partout ]
alethique :: 1 :: [ partout ]
appreciatif :: 1 :: [ prix ]
axiologique :: 1 :: [ prix ]
epistemique :: 1 :: [ grand ]
marqueurs_niveau3 :: 1 :: [ grand ]
alethique_niveau2 :: 1 :: [ partout ]
appreciatif_niveau2 :: 1 :: [ prix ]
axiologique_niveau2 :: 1 :: [ prix ]
epistemique_niveau3 :: 1 :: [ grand ]
Total feature counts: 14


********** Adverbiaux Temporels Features **********
********************************************************

1. Sentence: Grand Prix de l ' urbanisme 2008 s ' est développé , installant la dépendance automobile partout , nivelant les sites et ignorant la géographie , mère de tous les arts .
No features found.

