
********** Entity Names Features **********
*******************************************

1. Sentence: J ' avais connu Christian Blanc lorsqu ' il préparait son rapport sur les pôles de compétitivité (2004) .
Entity Name (Type) :: Christian Blanc (PER)


********** Emotions Features **********
***************************************

1. Sentence: J ' avais connu Christian Blanc lorsqu ' il préparait son rapport sur les pôles de compétitivité (2004) .
No features found.


********** Modality Features **********
***************************************

1. Sentence: J ' avais connu Christian Blanc lorsqu ' il préparait son rapport sur les pôles de compétitivité (2004) .
Features :: Feature-Counts :: Feature-Lemmas
--------------------------------------------
marqueurs :: 1 :: [ connaître ]
epistemique :: 1 :: [ connaître ]
marqueurs_niveau2 :: 1 :: [ connaître ]
epistemique_niveau2 :: 1 :: [ connaître ]
Total feature counts: 4


********** Adverbiaux Temporels Features **********
********************************************************

1. Sentence: J ' avais connu Christian Blanc lorsqu ' il préparait son rapport sur les pôles de compétitivité (2004) .
No features found.

