
********** Entity Names Features **********
*******************************************

1. Sentence: C ' est ni plus ni moins ce qui a été fait à partir d ' une hypothèse de travail hautement improbable , mais qui illustre bien la puissance d ' un phénomène événementiel .
Entity Name (Type) :: C (MISC)


********** Emotions Features **********
***************************************

1. Sentence: C ' est ni plus ni moins ce qui a été fait à partir d ' une hypothèse de travail hautement improbable , mais qui illustre bien la puissance d ' un phénomène événementiel .
No features found.


********** Modality Features **********
***************************************

1. Sentence: C ' est ni plus ni moins ce qui a été fait à partir d ' une hypothèse de travail hautement improbable , mais qui illustre bien la puissance d ' un phénomène événementiel .
Features :: Feature-Counts :: Feature-Lemmas
--------------------------------------------
marqueurs :: 5 :: [ partir, travail, improbable, bien, puissance ]
appreciatif :: 2 :: [ travail, bien ]
marqueurs_niveau3 :: 2 :: [ travail, bien ]
appreciatif_niveau3 :: 2 :: [ travail, bien ]
alethique :: 1 :: [ partir ]
axiologique :: 1 :: [ bien ]
epistemique :: 1 :: [ improbable ]
pas_d_indication :: 1 :: [ puissance ]
marqueurs_niveau2 :: 1 :: [ improbable ]
marqueurs_niveau1 :: 1 :: [ partir ]
marqueurs_niveau0 :: 1 :: [ puissance ]
alethique_niveau1 :: 1 :: [ partir ]
axiologique_niveau3 :: 1 :: [ bien ]
epistemique_niveau2 :: 1 :: [ improbable ]
pas_d_indication_niveau0 :: 1 :: [ puissance ]
Total feature counts: 22


********** Adverbiaux Temporels Features **********
********************************************************

1. Sentence: C ' est ni plus ni moins ce qui a été fait à partir d ' une hypothèse de travail hautement improbable , mais qui illustre bien la puissance d ' un phénomène événementiel .
No features found.

