
********** Entity Names Features **********
*******************************************

1. Sentence: Depuis lors , les inondations , la construction d ' une voie autoroutière et la vaste extension de l ' urbanisation ont séparé la ville de la rivière .
No features found.


********** Emotions Features **********
***************************************

1. Sentence: Depuis lors , les inondations , la construction d ' une voie autoroutière et la vaste extension de l ' urbanisation ont séparé la ville de la rivière .
No features found.


********** Modality Features **********
***************************************

1. Sentence: Depuis lors , les inondations , la construction d ' une voie autoroutière et la vaste extension de l ' urbanisation ont séparé la ville de la rivière .
Features :: Feature-Counts :: Feature-Lemmas
--------------------------------------------
marqueurs :: 1 :: [ inondation ]
alethique :: 1 :: [ inondation ]
appreciatif :: 1 :: [ inondation ]
marqueurs_niveau1 :: 1 :: [ inondation ]
alethique_niveau1 :: 1 :: [ inondation ]
appreciatif_niveau1 :: 1 :: [ inondation ]
Total feature counts: 6


********** Adverbiaux Temporels Features **********
********************************************************

1. Sentence: Depuis lors , les inondations , la construction d ' une voie autoroutière et la vaste extension de l ' urbanisation ont séparé la ville de la rivière .
Features :: Feature-Counts :: Feature-Texts
--------------------------------------------
adverbiaux_temporels::1::['Depuis lors']
adverbiaux_localisation_temporelle::1::['Depuis lors']
adverbiaux_pointage_non_absolu::1::['Depuis lors']
adverbiaux_loc_temp_focalisation_id::1::['Depuis lors']
adverbiaux_loc_temp_regionalisation_non_id::1::['Depuis lors']
adverbiaux_loc_temp_pointage_non_absolu::1::['Depuis lors']

