
********** Entity Names Features **********
*******************************************

1. Sentence: Nous avons eu énormément de mal à mobiliser nos tutelles , alors même que ce projet cochait toutes les bonnes cases de la transition énergétique .
No features found.


********** Emotions Features **********
***************************************

1. Sentence: Nous avons eu énormément de mal à mobiliser nos tutelles , alors même que ce projet cochait toutes les bonnes cases de la transition énergétique .
No features found.


********** Modality Features **********
***************************************

1. Sentence: Nous avons eu énormément de mal à mobiliser nos tutelles , alors même que ce projet cochait toutes les bonnes cases de la transition énergétique .
Features :: Feature-Counts :: Feature-Lemmas
--------------------------------------------
marqueurs :: 2 :: [ mal, bon ]
appreciatif :: 2 :: [ mal, bon ]
axiologique :: 2 :: [ mal, bon ]
marqueurs_niveau3 :: 2 :: [ mal, bon ]
appreciatif_niveau3 :: 2 :: [ mal, bon ]
axiologique_niveau3 :: 2 :: [ mal, bon ]
Total feature counts: 12


********** Adverbiaux Temporels Features **********
********************************************************

1. Sentence: Nous avons eu énormément de mal à mobiliser nos tutelles , alors même que ce projet cochait toutes les bonnes cases de la transition énergétique .
No features found.

