
********** Entity Names Features **********
*******************************************

1. Sentence: Très bien relié à Paris , par le R . E . R . et l ' autoroute de l ' Est , et en bonne relation avec la banlieue existante , il pourra , à côté d ' un ensemble universitaire , accueillir des établissements commerciaux ou de caractère tertiaire et des immeubles de bureaux .
Entity Name (Type) :: autoroute de l ' Est (LOC)


********** Emotions Features **********
***************************************

1. Sentence: Très bien relié à Paris , par le R . E . R . et l ' autoroute de l ' Est , et en bonne relation avec la banlieue existante , il pourra , à côté d ' un ensemble universitaire , accueillir des établissements commerciaux ou de caractère tertiaire et des immeubles de bureaux .
No features found.


********** Modality Features **********
***************************************

1. Sentence: Très bien relié à Paris , par le R . E . R . et l ' autoroute de l ' Est , et en bonne relation avec la banlieue existante , il pourra , à côté d ' un ensemble universitaire , accueillir des établissements commerciaux ou de caractère tertiaire et des immeubles de bureaux .
Features :: Feature-Counts :: Feature-Lemmas
--------------------------------------------
marqueurs :: 3 :: [ bien, bon, pouvoir ]
marqueurs_niveau3 :: 3 :: [ bien, bon, pouvoir ]
appreciatif :: 2 :: [ bien, bon ]
axiologique :: 2 :: [ bien, bon ]
appreciatif_niveau3 :: 2 :: [ bien, bon ]
axiologique_niveau3 :: 2 :: [ bien, bon ]
alethique :: 1 :: [ pouvoir ]
deontique :: 1 :: [ pouvoir ]
epistemique :: 1 :: [ pouvoir ]
alethique_niveau3 :: 1 :: [ pouvoir ]
deontique_niveau3 :: 1 :: [ pouvoir ]
epistemique_niveau3 :: 1 :: [ pouvoir ]
Total feature counts: 20


********** Adverbiaux Temporels Features **********
********************************************************

1. Sentence: Très bien relié à Paris , par le R . E . R . et l ' autoroute de l ' Est , et en bonne relation avec la banlieue existante , il pourra , à côté d ' un ensemble universitaire , accueillir des établissements commerciaux ou de caractère tertiaire et des immeubles de bureaux .
No features found.

