====== Sentence Level Features ======

1. Sentence: ils savaient qu ’ ils avaient accepté cette affaire-là et ils niaient le bruit .
Features :: Feature-Counts :: Feature-Lemmas
--------------------------------------------
marqueurs :: 1 :: [ savoir ]
epistemique :: 1 :: [ savoir ]
marqueurs_niveau3 :: 1 :: [ savoir ]
epistemique_niveau3 :: 1 :: [ savoir ]
Total feature counts: 4


====== Text Level Features ======

Features :: Feature-Counts :: Feature-Lemmas
--------------------------------------------
marqueurs :: 1 :: [ savoir ]
epistemique :: 1 :: [ savoir ]
marqueurs_niveau3 :: 1 :: [ savoir ]
epistemique_niveau3 :: 1 :: [ savoir ]
Total feature counts: 4

