====== Sentence Level Features ======

1. Sentence: Les déficits sont connus , en premier lieu les transports collectifs .
Features :: Feature-Counts :: Feature-Lemmas
--------------------------------------------
marqueurs :: 1 :: [ connaître ]
epistemique :: 1 :: [ connaître ]
marqueurs_niveau2 :: 1 :: [ connaître ]
epistemique_niveau2 :: 1 :: [ connaître ]
Total feature counts: 4


====== Text Level Features ======

Features :: Feature-Counts :: Feature-Lemmas
--------------------------------------------
marqueurs :: 1 :: [ connaître ]
epistemique :: 1 :: [ connaître ]
marqueurs_niveau2 :: 1 :: [ connaître ]
epistemique_niveau2 :: 1 :: [ connaître ]
Total feature counts: 4

