====== Sentence Level Features ======

1. Sentence: En aval de St-Germain , c ' est surtout un trafic de transit qu ' elle supporte : les installations portuaires ou les industries liées à la voie d ' eau y sont rares .
Features :: Feature-Counts :: Feature-Lemmas
--------------------------------------------
marqueurs :: 2 :: [ supporter, rare ]
epistemique :: 1 :: [ rare ]
pas_d_indication :: 1 :: [ supporter ]
marqueurs_niveau1 :: 1 :: [ rare ]
marqueurs_niveau0 :: 1 :: [ supporter ]
epistemique_niveau1 :: 1 :: [ rare ]
pas_d_indication_niveau0 :: 1 :: [ supporter ]
Total feature counts: 8


====== Text Level Features ======

Features :: Feature-Counts :: Feature-Lemmas
--------------------------------------------
marqueurs :: 2 :: [ supporter, rare ]
epistemique :: 1 :: [ rare ]
pas_d_indication :: 1 :: [ supporter ]
marqueurs_niveau1 :: 1 :: [ rare ]
marqueurs_niveau0 :: 1 :: [ supporter ]
epistemique_niveau1 :: 1 :: [ rare ]
pas_d_indication_niveau0 :: 1 :: [ supporter ]
Total feature counts: 8

