
********** Entity Names Features **********
*******************************************

1. Sentence: Ces rencontres uniques sont importantes pour l ' innovation .
Entity Name (Type) :: Ces (LOC)


********** Emotions Features **********
***************************************

1. Sentence: Ces rencontres uniques sont importantes pour l ' innovation .
No features found.


********** Modality Features **********
***************************************

1. Sentence: Ces rencontres uniques sont importantes pour l ' innovation .
Features :: Feature-Counts :: Feature-Lemmas
--------------------------------------------
marqueurs :: 2 :: [ unique, important ]
appreciatif :: 2 :: [ unique, important ]
marqueurs_niveau1 :: 2 :: [ unique, important ]
appreciatif_niveau1 :: 2 :: [ unique, important ]
axiologique :: 1 :: [ important ]
epistemique :: 1 :: [ important ]
axiologique_niveau1 :: 1 :: [ important ]
epistemique_niveau1 :: 1 :: [ important ]
Total feature counts: 12


********** Adverbiaux Temporels Features **********
********************************************************

1. Sentence: Ces rencontres uniques sont importantes pour l ' innovation .
No features found.

