====== Sentence Level Features ======

1. Sentence: Dans le travail de conception urbanistique , si l ' imagination est présente , rares sont en revanche les « inventions » qui vont au-delà de la grammaire permanente de l ' organisation , complémentaire et réciproque , des espaces publics et installations particulières .
Features :: Feature-Counts :: Feature-Lemmas
--------------------------------------------
marqueurs :: 3 :: [ travail, rare, aller ]
marqueurs_niveau1 :: 2 :: [ rare, aller ]
alethique :: 1 :: [ aller ]
appreciatif :: 1 :: [ travail ]
epistemique :: 1 :: [ rare ]
marqueurs_niveau3 :: 1 :: [ travail ]
alethique_niveau1 :: 1 :: [ aller ]
appreciatif_niveau3 :: 1 :: [ travail ]
epistemique_niveau1 :: 1 :: [ rare ]
Total feature counts: 12


====== Text Level Features ======

Features :: Feature-Counts :: Feature-Lemmas
--------------------------------------------
marqueurs :: 3 :: [ travail, rare, aller ]
marqueurs_niveau1 :: 2 :: [ rare, aller ]
alethique :: 1 :: [ aller ]
appreciatif :: 1 :: [ travail ]
epistemique :: 1 :: [ rare ]
marqueurs_niveau3 :: 1 :: [ travail ]
alethique_niveau1 :: 1 :: [ aller ]
appreciatif_niveau3 :: 1 :: [ travail ]
epistemique_niveau1 :: 1 :: [ rare ]
Total feature counts: 12

