====== Sentence Level Features ======

1. Sentence: l ’ homme des Ponts et Chaussées qui était désespéré de faire cet engin routier peu moderne est passé hardiment à 2 fois 4 voies , et a mis des échangeurs tous les kilomètres et demie , alors que dans l ’ auto-route du sud les banlieusards ne peuvent pas entrer ;
Features :: Feature-Counts :: Feature-Lemmas
--------------------------------------------
marqueurs :: 3 :: [ désespérer, moderne, pouvoir ]
epistemique :: 2 :: [ désespérer, pouvoir ]
alethique :: 1 :: [ pouvoir ]
boulique :: 1 :: [ désespérer ]
deontique :: 1 :: [ pouvoir ]
pas_d_indication :: 1 :: [ moderne ]
marqueurs_niveau3 :: 1 :: [ pouvoir ]
marqueurs_niveau2 :: 1 :: [ désespérer ]
marqueurs_niveau0 :: 1 :: [ moderne ]
alethique_niveau3 :: 1 :: [ pouvoir ]
boulique_niveau2 :: 1 :: [ désespérer ]
deontique_niveau3 :: 1 :: [ pouvoir ]
epistemique_niveau3 :: 1 :: [ pouvoir ]
epistemique_niveau2 :: 1 :: [ désespérer ]
pas_d_indication_niveau0 :: 1 :: [ moderne ]
Total feature counts: 18


====== Text Level Features ======

Features :: Feature-Counts :: Feature-Lemmas
--------------------------------------------
marqueurs :: 3 :: [ désespérer, moderne, pouvoir ]
epistemique :: 2 :: [ désespérer, pouvoir ]
alethique :: 1 :: [ pouvoir ]
boulique :: 1 :: [ désespérer ]
deontique :: 1 :: [ pouvoir ]
pas_d_indication :: 1 :: [ moderne ]
marqueurs_niveau3 :: 1 :: [ pouvoir ]
marqueurs_niveau2 :: 1 :: [ désespérer ]
marqueurs_niveau0 :: 1 :: [ moderne ]
alethique_niveau3 :: 1 :: [ pouvoir ]
boulique_niveau2 :: 1 :: [ désespérer ]
deontique_niveau3 :: 1 :: [ pouvoir ]
epistemique_niveau3 :: 1 :: [ pouvoir ]
epistemique_niveau2 :: 1 :: [ désespérer ]
pas_d_indication_niveau0 :: 1 :: [ moderne ]
Total feature counts: 18

