====== Sentence Level Features ======

1. Sentence: Difficulté constante (on la voit bien dans ces quartiers nouveaux — Bercy en est un bon exemple — qui arrêtent aussitôt le regard , et font de Le Corbusier un abstrait) , mais qui n ' est rien , mais rien , au regard du défi que posent des sites périphériques qu ' il est logique de vouloir conforter quand le projet asymptotique de la modernité n ' a pas été de les sertir , mais de les évider .
Features :: Feature-Counts :: Feature-Lemmas
--------------------------------------------
marqueurs :: 6 :: [ difficulté, bien, bon, rien, rien, vouloir ]
marqueurs_niveau3 :: 3 :: [ bien, bon, vouloir ]
alethique :: 2 :: [ rien, rien ]
appreciatif :: 2 :: [ bien, bon ]
axiologique :: 2 :: [ bien, bon ]
marqueurs_niveau2 :: 2 :: [ rien, rien ]
alethique_niveau2 :: 2 :: [ rien, rien ]
appreciatif_niveau3 :: 2 :: [ bien, bon ]
axiologique_niveau3 :: 2 :: [ bien, bon ]
boulique :: 1 :: [ vouloir ]
pas_d_indication :: 1 :: [ difficulté ]
marqueurs_niveau0 :: 1 :: [ difficulté ]
boulique_niveau3 :: 1 :: [ vouloir ]
pas_d_indication_niveau0 :: 1 :: [ difficulté ]
Total feature counts: 28


====== Text Level Features ======

Features :: Feature-Counts :: Feature-Lemmas
--------------------------------------------
marqueurs :: 6 :: [ difficulté, bien, bon, rien, rien, vouloir ]
marqueurs_niveau3 :: 3 :: [ bien, bon, vouloir ]
alethique :: 2 :: [ rien, rien ]
appreciatif :: 2 :: [ bien, bon ]
axiologique :: 2 :: [ bien, bon ]
marqueurs_niveau2 :: 2 :: [ rien, rien ]
alethique_niveau2 :: 2 :: [ rien, rien ]
appreciatif_niveau3 :: 2 :: [ bien, bon ]
axiologique_niveau3 :: 2 :: [ bien, bon ]
boulique :: 1 :: [ vouloir ]
pas_d_indication :: 1 :: [ difficulté ]
marqueurs_niveau0 :: 1 :: [ difficulté ]
boulique_niveau3 :: 1 :: [ vouloir ]
pas_d_indication_niveau0 :: 1 :: [ difficulté ]
Total feature counts: 28

