
********** Entity Names Features **********
*******************************************

1. Sentence: Je vais donc parler de mes combats pour un urbanisme opportuniste .
No features found.


********** Emotions Features **********
***************************************

1. Sentence: Je vais donc parler de mes combats pour un urbanisme opportuniste .
No features found.


********** Modality Features **********
***************************************

1. Sentence: Je vais donc parler de mes combats pour un urbanisme opportuniste .
Features :: Feature-Counts :: Feature-Lemmas
--------------------------------------------
marqueurs :: 2 :: [ aller, combat ]
alethique :: 1 :: [ aller ]
axiologique :: 1 :: [ combat ]
marqueurs_niveau2 :: 1 :: [ combat ]
marqueurs_niveau1 :: 1 :: [ aller ]
alethique_niveau1 :: 1 :: [ aller ]
axiologique_niveau2 :: 1 :: [ combat ]
Total feature counts: 8


********** Adverbiaux Temporels Features **********
********************************************************

1. Sentence: Je vais donc parler de mes combats pour un urbanisme opportuniste .
No features found.

