====== Sentence Level Features ======

1. Sentence: Si on veut lui opposer un urbanisme de projets et de tracés , il nous fallait comprendre la logique de constitution de cet urbanisme de produits .
Features :: Feature-Counts :: Feature-Lemmas
--------------------------------------------
marqueurs :: 3 :: [ vouloir, lui, falloir ]
marqueurs_niveau3 :: 3 :: [ vouloir, lui, falloir ]
alethique :: 1 :: [ lui ]
boulique :: 1 :: [ vouloir ]
deontique :: 1 :: [ falloir ]
epistemique :: 1 :: [ lui ]
alethique_niveau3 :: 1 :: [ lui ]
boulique_niveau3 :: 1 :: [ vouloir ]
deontique_niveau3 :: 1 :: [ falloir ]
epistemique_niveau3 :: 1 :: [ lui ]
Total feature counts: 14


====== Text Level Features ======

Features :: Feature-Counts :: Feature-Lemmas
--------------------------------------------
marqueurs :: 3 :: [ vouloir, lui, falloir ]
marqueurs_niveau3 :: 3 :: [ vouloir, lui, falloir ]
alethique :: 1 :: [ lui ]
boulique :: 1 :: [ vouloir ]
deontique :: 1 :: [ falloir ]
epistemique :: 1 :: [ lui ]
alethique_niveau3 :: 1 :: [ lui ]
boulique_niveau3 :: 1 :: [ vouloir ]
deontique_niveau3 :: 1 :: [ falloir ]
epistemique_niveau3 :: 1 :: [ lui ]
Total feature counts: 14

