====== Sentence Level Features ======

1. Sentence: Les siècles ont passé , les villes ont grandi; et si , aujourd ' hui , le cours d ' eau n ' a pas disparu , il se trouve enserré entre des murs de pierre , des routes et des immeubles , parfois ravalé au niveau d ' égout à ciel ouvert (1) , et ne constitue plus un élément de loisir .
Features :: Feature-Counts :: Feature-Lemmas
--------------------------------------------
marqueurs :: 2 :: [ parfois, loisir ]
alethique :: 1 :: [ parfois ]
appreciatif :: 1 :: [ loisir ]
marqueurs_niveau3 :: 1 :: [ parfois ]
marqueurs_niveau2 :: 1 :: [ loisir ]
alethique_niveau3 :: 1 :: [ parfois ]
appreciatif_niveau2 :: 1 :: [ loisir ]
Total feature counts: 8


====== Text Level Features ======

Features :: Feature-Counts :: Feature-Lemmas
--------------------------------------------
marqueurs :: 2 :: [ parfois, loisir ]
alethique :: 1 :: [ parfois ]
appreciatif :: 1 :: [ loisir ]
marqueurs_niveau3 :: 1 :: [ parfois ]
marqueurs_niveau2 :: 1 :: [ loisir ]
alethique_niveau3 :: 1 :: [ parfois ]
appreciatif_niveau2 :: 1 :: [ loisir ]
Total feature counts: 8

