====== Sentence Level Features ======

1. Sentence: LE GRAND PARIS PROGRESSE !
Entity Name (Type) :: PARIS PROGRESSE (ORG)


====== Text Level Features ======

Entity Name (Entity Type)
-------------------------
GRAND (LOC)
PARIS PROGRESSE (ORG)
Total entitiy counts: 2

