
********** Entity Names Features **********
*******************************************

1. Sentence: J ' ai toujours cru que mon travail devait servir une action que j ' avais à cœur .
No features found.


********** Emotions Features **********
***************************************

1. Sentence: J ' ai toujours cru que mon travail devait servir une action que j ' avais à cœur .
No features found.


********** Modality Features **********
***************************************

1. Sentence: J ' ai toujours cru que mon travail devait servir une action que j ' avais à cœur .
Features :: Feature-Counts :: Feature-Lemmas
--------------------------------------------
marqueurs :: 3 :: [ toujours, travail, devoir ]
marqueurs_niveau3 :: 3 :: [ toujours, travail, devoir ]
alethique :: 2 :: [ toujours, devoir ]
alethique_niveau3 :: 2 :: [ toujours, devoir ]
appreciatif :: 1 :: [ travail ]
deontique :: 1 :: [ devoir ]
epistemique :: 1 :: [ devoir ]
appreciatif_niveau3 :: 1 :: [ travail ]
deontique_niveau3 :: 1 :: [ devoir ]
epistemique_niveau3 :: 1 :: [ devoir ]
Total feature counts: 16


********** Adverbiaux Temporels Features **********
********************************************************

1. Sentence: J ' ai toujours cru que mon travail devait servir une action que j ' avais à cœur .
Features :: Feature-Counts :: Feature-Texts
--------------------------------------------
adverbiaux_temporels::1::['toujours']
adverbiaux_duratifs_iteratifs::1::['toujours']

