====== Sentence Level Features ======

1. Sentence: La situation pouvait se résumer ainsi : sur cent actifs habitant en banlieue , en moyenne 37 trouvaient à s ' employer sur place (2) , 31 venaient travailler à Paris;
Features :: Feature-Counts :: Feature-Lemmas
--------------------------------------------
marqueurs :: 3 :: [ pouvoir, venir, travailler ]
alethique :: 2 :: [ pouvoir, venir ]
marqueurs_niveau3 :: 2 :: [ pouvoir, venir ]
alethique_niveau3 :: 2 :: [ pouvoir, venir ]
appreciatif :: 1 :: [ travailler ]
deontique :: 1 :: [ pouvoir ]
epistemique :: 1 :: [ pouvoir ]
marqueurs_niveau2 :: 1 :: [ travailler ]
appreciatif_niveau2 :: 1 :: [ travailler ]
deontique_niveau3 :: 1 :: [ pouvoir ]
epistemique_niveau3 :: 1 :: [ pouvoir ]
Total feature counts: 16


====== Text Level Features ======

Features :: Feature-Counts :: Feature-Lemmas
--------------------------------------------
marqueurs :: 3 :: [ pouvoir, venir, travailler ]
alethique :: 2 :: [ pouvoir, venir ]
marqueurs_niveau3 :: 2 :: [ pouvoir, venir ]
alethique_niveau3 :: 2 :: [ pouvoir, venir ]
appreciatif :: 1 :: [ travailler ]
deontique :: 1 :: [ pouvoir ]
epistemique :: 1 :: [ pouvoir ]
marqueurs_niveau2 :: 1 :: [ travailler ]
appreciatif_niveau2 :: 1 :: [ travailler ]
deontique_niveau3 :: 1 :: [ pouvoir ]
epistemique_niveau3 :: 1 :: [ pouvoir ]
Total feature counts: 16

