====== Sentence Level Features ======

1. Sentence: Tant que des piles à combustion n ' auront pas remplacé les moteurs à essence des automobiles , cette solution n ' offrira que des possibilités limitées .
Features :: Feature-Counts :: Feature-Lemmas
--------------------------------------------
marqueurs :: 2 :: [ offrir, possibilité ]
alethique :: 1 :: [ possibilité ]
appreciatif :: 1 :: [ offrir ]
marqueurs_niveau3 :: 1 :: [ possibilité ]
marqueurs_niveau2 :: 1 :: [ offrir ]
alethique_niveau3 :: 1 :: [ possibilité ]
appreciatif_niveau2 :: 1 :: [ offrir ]
Total feature counts: 8


====== Text Level Features ======

Features :: Feature-Counts :: Feature-Lemmas
--------------------------------------------
marqueurs :: 2 :: [ offrir, possibilité ]
alethique :: 1 :: [ possibilité ]
appreciatif :: 1 :: [ offrir ]
marqueurs_niveau3 :: 1 :: [ possibilité ]
marqueurs_niveau2 :: 1 :: [ offrir ]
alethique_niveau3 :: 1 :: [ possibilité ]
appreciatif_niveau2 :: 1 :: [ offrir ]
Total feature counts: 8

