
********** Entity Names Features **********
*******************************************

1. Sentence: Il menace de disparition la démocratie .
No features found.


********** Emotions Features **********
***************************************

1. Sentence: Il menace de disparition la démocratie .
Tokens having emotion: [ menace ]
Lemmas having emotion: [ menacer ]
Categories of the emotion lemmas: [ peur ]


********** Modality Features **********
***************************************

1. Sentence: Il menace de disparition la démocratie .
Features :: Feature-Counts :: Feature-Lemmas
--------------------------------------------
marqueurs :: 1 :: [ menacer ]
appreciatif :: 1 :: [ menacer ]
axiologique :: 1 :: [ menacer ]
marqueurs_niveau2 :: 1 :: [ menacer ]
appreciatif_niveau2 :: 1 :: [ menacer ]
axiologique_niveau2 :: 1 :: [ menacer ]
Total feature counts: 6


********** Adverbiaux Temporels Features **********
********************************************************

1. Sentence: Il menace de disparition la démocratie .
No features found.

