
********** Entity Names Features **********
*******************************************

1. Sentence: Aujourd ' hui , quelles efficacités économiques génèrent les villes ?
No features found.


********** Emotions Features **********
***************************************

1. Sentence: Aujourd ' hui , quelles efficacités économiques génèrent les villes ?
No features found.


********** Modality Features **********
***************************************

1. Sentence: Aujourd ' hui , quelles efficacités économiques génèrent les villes ?
No features found.


********** Adverbiaux Temporels Features **********
********************************************************

1. Sentence: Aujourd ' hui , quelles efficacités économiques génèrent les villes ?
No features found.

