
********** Entity Names Features **********
*******************************************

1. Sentence: C ' est dans ce cadre que le grand bâtiment de La Sucrière accueille la Biennale d ' art contemporain .
Entity Name (Type) :: Biennale d ' art contemporain (ORG)


********** Emotions Features **********
***************************************

1. Sentence: C ' est dans ce cadre que le grand bâtiment de La Sucrière accueille la Biennale d ' art contemporain .
No features found.


********** Modality Features **********
***************************************

1. Sentence: C ' est dans ce cadre que le grand bâtiment de La Sucrière accueille la Biennale d ' art contemporain .
Features :: Feature-Counts :: Feature-Lemmas
--------------------------------------------
marqueurs :: 1 :: [ grand ]
epistemique :: 1 :: [ grand ]
marqueurs_niveau3 :: 1 :: [ grand ]
epistemique_niveau3 :: 1 :: [ grand ]
Total feature counts: 4


********** Adverbiaux Temporels Features **********
********************************************************

1. Sentence: C ' est dans ce cadre que le grand bâtiment de La Sucrière accueille la Biennale d ' art contemporain .
No features found.

