
********** Entity Names Features **********
*******************************************

1. Sentence: Mais l ' urbanisme doit être en mesure de mobiliser sans cesse de nouvelles spécialités scientifiques et techniques . 2 .
No features found.


********** Emotions Features **********
***************************************

1. Sentence: Mais l ' urbanisme doit être en mesure de mobiliser sans cesse de nouvelles spécialités scientifiques et techniques . 2 .
No features found.


********** Modality Features **********
***************************************

1. Sentence: Mais l ' urbanisme doit être en mesure de mobiliser sans cesse de nouvelles spécialités scientifiques et techniques . 2 .
Features :: Feature-Counts :: Feature-Lemmas
--------------------------------------------
marqueurs :: 1 :: [ devoir ]
alethique :: 1 :: [ devoir ]
deontique :: 1 :: [ devoir ]
epistemique :: 1 :: [ devoir ]
marqueurs_niveau3 :: 1 :: [ devoir ]
alethique_niveau3 :: 1 :: [ devoir ]
deontique_niveau3 :: 1 :: [ devoir ]
epistemique_niveau3 :: 1 :: [ devoir ]
Total feature counts: 8


********** Adverbiaux Temporels Features **********
********************************************************

1. Sentence: Mais l ' urbanisme doit être en mesure de mobiliser sans cesse de nouvelles spécialités scientifiques et techniques . 2 .
Features :: Feature-Counts :: Feature-Texts
--------------------------------------------
adverbiaux_temporels::1::['sans cesse']
adverbiaux_duratifs_iteratifs::1::['sans cesse']

