====== Sentence Level Features ======

1. Sentence: Et je suis volontiers considéré , par mes amis architectes , comme très paradoxal , mais je m ' y retrouve .
Features :: Feature-Counts :: Feature-Lemmas
--------------------------------------------
marqueurs :: 3 :: [ volontiers, considérer, ami ]
marqueurs_niveau3 :: 2 :: [ volontiers, considérer ]
appreciatif :: 1 :: [ ami ]
boulique :: 1 :: [ volontiers ]
epistemique :: 1 :: [ considérer ]
marqueurs_niveau2 :: 1 :: [ ami ]
appreciatif_niveau2 :: 1 :: [ ami ]
boulique_niveau3 :: 1 :: [ volontiers ]
epistemique_niveau3 :: 1 :: [ considérer ]
Total feature counts: 12


====== Text Level Features ======

Features :: Feature-Counts :: Feature-Lemmas
--------------------------------------------
marqueurs :: 3 :: [ volontiers, considérer, ami ]
marqueurs_niveau3 :: 2 :: [ volontiers, considérer ]
appreciatif :: 1 :: [ ami ]
boulique :: 1 :: [ volontiers ]
epistemique :: 1 :: [ considérer ]
marqueurs_niveau2 :: 1 :: [ ami ]
appreciatif_niveau2 :: 1 :: [ ami ]
boulique_niveau3 :: 1 :: [ volontiers ]
epistemique_niveau3 :: 1 :: [ considérer ]
Total feature counts: 12

