====== Sentence Level Features ======

1. Sentence: Les éléments de géographie artificielle , tels que les infrastructures , ont souvent une dimension superposable à des éléments de géographie naturelle .
Features :: Feature-Counts :: Feature-Lemmas
--------------------------------------------
marqueurs :: 1 :: [ souvent ]
alethique :: 1 :: [ souvent ]
marqueurs_niveau3 :: 1 :: [ souvent ]
alethique_niveau3 :: 1 :: [ souvent ]
Total feature counts: 4


====== Text Level Features ======

Features :: Feature-Counts :: Feature-Lemmas
--------------------------------------------
marqueurs :: 1 :: [ souvent ]
alethique :: 1 :: [ souvent ]
marqueurs_niveau3 :: 1 :: [ souvent ]
alethique_niveau3 :: 1 :: [ souvent ]
Total feature counts: 4

