====== Sentence Level Features ======

1. Sentence: il faut que l ' incroyable richesse de Paris et de sa région soit à la disposition de tous leurs habitants .
Features :: Feature-Counts :: Feature-Lemmas
--------------------------------------------
marqueurs :: 2 :: [ falloir, incroyable ]
appreciatif :: 1 :: [ incroyable ]
deontique :: 1 :: [ falloir ]
epistemique :: 1 :: [ incroyable ]
marqueurs_niveau3 :: 1 :: [ falloir ]
marqueurs_niveau2 :: 1 :: [ incroyable ]
appreciatif_niveau2 :: 1 :: [ incroyable ]
deontique_niveau3 :: 1 :: [ falloir ]
epistemique_niveau2 :: 1 :: [ incroyable ]
Total feature counts: 10


====== Text Level Features ======

Features :: Feature-Counts :: Feature-Lemmas
--------------------------------------------
marqueurs :: 2 :: [ falloir, incroyable ]
appreciatif :: 1 :: [ incroyable ]
deontique :: 1 :: [ falloir ]
epistemique :: 1 :: [ incroyable ]
marqueurs_niveau3 :: 1 :: [ falloir ]
marqueurs_niveau2 :: 1 :: [ incroyable ]
appreciatif_niveau2 :: 1 :: [ incroyable ]
deontique_niveau3 :: 1 :: [ falloir ]
epistemique_niveau2 :: 1 :: [ incroyable ]
Total feature counts: 10

