
********** Entity Names Features **********
*******************************************

1. Sentence: Les directives du développement durable ont affirmé hors la loi cet urbain étalé , générateur de dépenses énergétiques et d ' artificialisation des sols à grande échelle .
No features found.


********** Emotions Features **********
***************************************

1. Sentence: Les directives du développement durable ont affirmé hors la loi cet urbain étalé , générateur de dépenses énergétiques et d ' artificialisation des sols à grande échelle .
No features found.


********** Modality Features **********
***************************************

1. Sentence: Les directives du développement durable ont affirmé hors la loi cet urbain étalé , générateur de dépenses énergétiques et d ' artificialisation des sols à grande échelle .
Features :: Feature-Counts :: Feature-Lemmas
--------------------------------------------
marqueurs :: 3 :: [ affirmer, loi, grand ]
deontique :: 1 :: [ loi ]
epistemique :: 1 :: [ grand ]
pas_d_indication :: 1 :: [ affirmer ]
marqueurs_niveau3 :: 1 :: [ grand ]
marqueurs_niveau2 :: 1 :: [ loi ]
marqueurs_niveau0 :: 1 :: [ affirmer ]
deontique_niveau2 :: 1 :: [ loi ]
epistemique_niveau3 :: 1 :: [ grand ]
pas_d_indication_niveau0 :: 1 :: [ affirmer ]
Total feature counts: 12


********** Adverbiaux Temporels Features **********
********************************************************

1. Sentence: Les directives du développement durable ont affirmé hors la loi cet urbain étalé , générateur de dépenses énergétiques et d ' artificialisation des sols à grande échelle .
No features found.

