
********** Entity Names Features **********
*******************************************

1. Sentence: Ce que permet le site très accidenté sur lequel est projetée une centaine de tours 100 m) , toutes différentes mais homothétiques les unes par rapport aux autres .
No features found.


********** Emotions Features **********
***************************************

1. Sentence: Ce que permet le site très accidenté sur lequel est projetée une centaine de tours 100 m) , toutes différentes mais homothétiques les unes par rapport aux autres .
No features found.


********** Modality Features **********
***************************************

1. Sentence: Ce que permet le site très accidenté sur lequel est projetée une centaine de tours 100 m) , toutes différentes mais homothétiques les unes par rapport aux autres .
Features :: Feature-Counts :: Feature-Lemmas
--------------------------------------------
marqueurs :: 1 :: [ permettre ]
deontique :: 1 :: [ permettre ]
marqueurs_niveau3 :: 1 :: [ permettre ]
deontique_niveau3 :: 1 :: [ permettre ]
Total feature counts: 4


********** Adverbiaux Temporels Features **********
********************************************************

1. Sentence: Ce que permet le site très accidenté sur lequel est projetée une centaine de tours 100 m) , toutes différentes mais homothétiques les unes par rapport aux autres .
No features found.

