====== Sentence Level Features ======

1. Sentence: Un généreux plissement de marches en bois raccorda les deux parties aux altimétries divergentes .
Features :: Feature-Counts :: Feature-Lemmas
--------------------------------------------
marqueurs :: 1 :: [ généreux ]
appreciatif :: 1 :: [ généreux ]
axiologique :: 1 :: [ généreux ]
marqueurs_niveau3 :: 1 :: [ généreux ]
appreciatif_niveau3 :: 1 :: [ généreux ]
axiologique_niveau3 :: 1 :: [ généreux ]
Total feature counts: 6


====== Text Level Features ======

Features :: Feature-Counts :: Feature-Lemmas
--------------------------------------------
marqueurs :: 1 :: [ généreux ]
appreciatif :: 1 :: [ généreux ]
axiologique :: 1 :: [ généreux ]
marqueurs_niveau3 :: 1 :: [ généreux ]
appreciatif_niveau3 :: 1 :: [ généreux ]
axiologique_niveau3 :: 1 :: [ généreux ]
Total feature counts: 6

