====== Sentence Level Features ======

1. Sentence: La ville de Meaux pour sa part bénéficie d ' une relative autonomie : elle est en cours d ' expansion très rapide , les nouveaux quartiers vont se développer dans la boucle de la Marne à l ' est de la ville actuelle .
Features :: Feature-Counts :: Feature-Lemmas
--------------------------------------------
marqueurs :: 3 :: [ autonomie, rapide, aller ]
alethique :: 1 :: [ aller ]
epistemique :: 1 :: [ rapide ]
pas_d_indication :: 1 :: [ autonomie ]
marqueurs_niveau3 :: 1 :: [ rapide ]
marqueurs_niveau1 :: 1 :: [ aller ]
marqueurs_niveau0 :: 1 :: [ autonomie ]
alethique_niveau1 :: 1 :: [ aller ]
epistemique_niveau3 :: 1 :: [ rapide ]
pas_d_indication_niveau0 :: 1 :: [ autonomie ]
Total feature counts: 12


====== Text Level Features ======

Features :: Feature-Counts :: Feature-Lemmas
--------------------------------------------
marqueurs :: 3 :: [ autonomie, rapide, aller ]
alethique :: 1 :: [ aller ]
epistemique :: 1 :: [ rapide ]
pas_d_indication :: 1 :: [ autonomie ]
marqueurs_niveau3 :: 1 :: [ rapide ]
marqueurs_niveau1 :: 1 :: [ aller ]
marqueurs_niveau0 :: 1 :: [ autonomie ]
alethique_niveau1 :: 1 :: [ aller ]
epistemique_niveau3 :: 1 :: [ rapide ]
pas_d_indication_niveau0 :: 1 :: [ autonomie ]
Total feature counts: 12

