====== Sentence Level Features ======

1. Sentence: C ' est à ce prix que l ' on créera de nouveaux emplois , de nouvelles activités .
Features :: Feature-Counts :: Feature-Lemmas
--------------------------------------------
marqueurs :: 2 :: [ prix, emploi ]
appreciatif :: 2 :: [ prix, emploi ]
marqueurs_niveau2 :: 2 :: [ prix, emploi ]
appreciatif_niveau2 :: 2 :: [ prix, emploi ]
axiologique :: 1 :: [ prix ]
axiologique_niveau2 :: 1 :: [ prix ]
Total feature counts: 10


====== Text Level Features ======

Features :: Feature-Counts :: Feature-Lemmas
--------------------------------------------
marqueurs :: 2 :: [ prix, emploi ]
appreciatif :: 2 :: [ prix, emploi ]
marqueurs_niveau2 :: 2 :: [ prix, emploi ]
appreciatif_niveau2 :: 2 :: [ prix, emploi ]
axiologique :: 1 :: [ prix ]
axiologique_niveau2 :: 1 :: [ prix ]
Total feature counts: 10

