====== Sentence Level Features ======

1. Sentence: Les revues comme L ' Architecture d ' aujourd ' hui ou Japan Architecture me fascinaient .
Features :: Feature-Counts :: Feature-Lemmas
--------------------------------------------
marqueurs :: 1 :: [ fasciner ]
appreciatif :: 1 :: [ fasciner ]
marqueurs_niveau2 :: 1 :: [ fasciner ]
appreciatif_niveau2 :: 1 :: [ fasciner ]
Total feature counts: 4


====== Text Level Features ======

Features :: Feature-Counts :: Feature-Lemmas
--------------------------------------------
marqueurs :: 1 :: [ fasciner ]
appreciatif :: 1 :: [ fasciner ]
marqueurs_niveau2 :: 1 :: [ fasciner ]
appreciatif_niveau2 :: 1 :: [ fasciner ]
Total feature counts: 4

