
********** Entity Names Features **********
*******************************************

1. Sentence: J ' ai en effet vécu dans une famille appauvrie et on pouvait vivre avec rien .
Entity Name (Type) :: J (PER)


********** Emotions Features **********
***************************************

1. Sentence: J ' ai en effet vécu dans une famille appauvrie et on pouvait vivre avec rien .
No features found.


********** Modality Features **********
***************************************

1. Sentence: J ' ai en effet vécu dans une famille appauvrie et on pouvait vivre avec rien .
Features :: Feature-Counts :: Feature-Lemmas
--------------------------------------------
marqueurs :: 3 :: [ famille, pouvoir, rien ]
alethique :: 3 :: [ famille, pouvoir, rien ]
deontique :: 1 :: [ pouvoir ]
epistemique :: 1 :: [ pouvoir ]
marqueurs_niveau3 :: 1 :: [ pouvoir ]
marqueurs_niveau2 :: 1 :: [ rien ]
marqueurs_niveau1 :: 1 :: [ famille ]
alethique_niveau3 :: 1 :: [ pouvoir ]
alethique_niveau2 :: 1 :: [ rien ]
alethique_niveau1 :: 1 :: [ famille ]
deontique_niveau3 :: 1 :: [ pouvoir ]
epistemique_niveau3 :: 1 :: [ pouvoir ]
Total feature counts: 16


********** Adverbiaux Temporels Features **********
********************************************************

1. Sentence: J ' ai en effet vécu dans une famille appauvrie et on pouvait vivre avec rien .
No features found.

