
********** Entity Names Features **********
*******************************************

1. Sentence: Mais je pense que nous ne raterons pas complètement .
No features found.


********** Emotions Features **********
***************************************

1. Sentence: Mais je pense que nous ne raterons pas complètement .
No features found.


********** Modality Features **********
***************************************

1. Sentence: Mais je pense que nous ne raterons pas complètement .
Features :: Feature-Counts :: Feature-Lemmas
--------------------------------------------
marqueurs :: 2 :: [ penser, rater ]
appreciatif :: 1 :: [ rater ]
epistemique :: 1 :: [ penser ]
marqueurs_niveau3 :: 1 :: [ penser ]
marqueurs_niveau2 :: 1 :: [ rater ]
appreciatif_niveau2 :: 1 :: [ rater ]
epistemique_niveau3 :: 1 :: [ penser ]
Total feature counts: 8


********** Adverbiaux Temporels Features **********
********************************************************

1. Sentence: Mais je pense que nous ne raterons pas complètement .
No features found.

