
********** Entity Names Features **********
*******************************************

1. Sentence: 168 Grand Prix de l ' urbanisme 2019
Entity Name (Type) :: Grand Prix de l ' urbanisme 2019 (MISC)


********** Emotions Features **********
***************************************

1. Sentence: 168 Grand Prix de l ' urbanisme 2019
No features found.


********** Modality Features **********
***************************************

1. Sentence: 168 Grand Prix de l ' urbanisme 2019
Features :: Feature-Counts :: Feature-Lemmas
--------------------------------------------
marqueurs :: 2 :: [ grand, prix ]
appreciatif :: 1 :: [ prix ]
axiologique :: 1 :: [ prix ]
epistemique :: 1 :: [ grand ]
marqueurs_niveau3 :: 1 :: [ grand ]
marqueurs_niveau2 :: 1 :: [ prix ]
appreciatif_niveau2 :: 1 :: [ prix ]
axiologique_niveau2 :: 1 :: [ prix ]
epistemique_niveau3 :: 1 :: [ grand ]
Total feature counts: 10


********** Adverbiaux Temporels Features **********
********************************************************

1. Sentence: 168 Grand Prix de l ' urbanisme 2019
No features found.

