====== Sentence Level Features ======

1. Sentence: Certains quartiers industriels existants sont particulièrement mal placés par rapport à l ' agglomération parisienne .
Features :: Feature-Counts :: Feature-Lemmas
--------------------------------------------
marqueurs :: 2 :: [ certain, mal ]
marqueurs_niveau3 :: 2 :: [ certain, mal ]
appreciatif :: 1 :: [ mal ]
axiologique :: 1 :: [ mal ]
epistemique :: 1 :: [ certain ]
appreciatif_niveau3 :: 1 :: [ mal ]
axiologique_niveau3 :: 1 :: [ mal ]
epistemique_niveau3 :: 1 :: [ certain ]
Total feature counts: 10


====== Text Level Features ======

Features :: Feature-Counts :: Feature-Lemmas
--------------------------------------------
marqueurs :: 2 :: [ certain, mal ]
marqueurs_niveau3 :: 2 :: [ certain, mal ]
appreciatif :: 1 :: [ mal ]
axiologique :: 1 :: [ mal ]
epistemique :: 1 :: [ certain ]
appreciatif_niveau3 :: 1 :: [ mal ]
axiologique_niveau3 :: 1 :: [ mal ]
epistemique_niveau3 :: 1 :: [ certain ]
Total feature counts: 10

