====== Sentence Level Features ======

1. Sentence: ET SA " FRONTIÈRE " URBAINE (P . A . D . O . G . AOÛT 1960)
Features :: Feature-Counts :: Feature-Texts
--------------------------------------------
adverbiaux_temporels::1::['AOÛT 1960']
adverbiaux_localisation_temporelle::1::['AOÛT 1960']
adverbiaux_pointage_absolu::1::['AOÛT 1960']
adverbiaux_loc_temp_focalisation_id::1::['AOÛT 1960']
adverbiaux_loc_temp_regionalisation_id::1::['AOÛT 1960']
adverbiaux_loc_temp_pointage_absolu::1::['AOÛT 1960']


====== Text Level Features ======

Features :: Feature-Counts :: Feature-Texts
--------------------------------------------
adverbiaux_temporels::1::['AOÛT 1960']
adverbiaux_localisation_temporelle::1::['AOÛT 1960']
adverbiaux_pointage_absolu::1::['AOÛT 1960']
adverbiaux_loc_temp_focalisation_id::1::['AOÛT 1960']
adverbiaux_loc_temp_regionalisation_id::1::['AOÛT 1960']
adverbiaux_loc_temp_pointage_absolu::1::['AOÛT 1960']
Total feature counts: 6

