
********** Entity Names Features **********
*******************************************

1. Sentence: Cotraitants : Philippe Raguin , paysagiste;
Entity Name (Type) :: Philippe Raguin (PER)


********** Emotions Features **********
***************************************

1. Sentence: Cotraitants : Philippe Raguin , paysagiste;
No features found.


********** Modality Features **********
***************************************

1. Sentence: Cotraitants : Philippe Raguin , paysagiste;
No features found.


********** Adverbiaux Temporels Features **********
********************************************************

1. Sentence: Cotraitants : Philippe Raguin , paysagiste;
No features found.

