====== Sentence Level Features ======

1. Sentence: Je n ' ai jamais vu un maire d ' une ville de cette importance s ' impliquer à ce point dans un projet urbain .
Entity Name (Type) :: Je (LOC)


====== Text Level Features ======

Entity Name (Entity Type)
-------------------------
Je (LOC)
Total entitiy counts: 1

