====== Sentence Level Features ======

1. Sentence: Je n ' ai jamais vu un maire d ' une ville de cette importance s ' impliquer à ce point dans un projet urbain .
Features :: Feature-Counts :: Feature-Lemmas
--------------------------------------------
marqueurs :: 1 :: [ jamais ]
alethique :: 1 :: [ jamais ]
marqueurs_niveau3 :: 1 :: [ jamais ]
alethique_niveau3 :: 1 :: [ jamais ]
Total feature counts: 4


====== Text Level Features ======

Features :: Feature-Counts :: Feature-Lemmas
--------------------------------------------
marqueurs :: 1 :: [ jamais ]
alethique :: 1 :: [ jamais ]
marqueurs_niveau3 :: 1 :: [ jamais ]
alethique_niveau3 :: 1 :: [ jamais ]
Total feature counts: 4

