
********** Entity Names Features **********
*******************************************

1. Sentence: II déc . 1926 , art . 7) , les baies , portes , fenêtres , etc . . .
Entity Name (Type) :: II déc (MISC)


********** Emotions Features **********
***************************************

1. Sentence: II déc . 1926 , art . 7) , les baies , portes , fenêtres , etc . . .
No features found.


********** Modality Features **********
***************************************

1. Sentence: II déc . 1926 , art . 7) , les baies , portes , fenêtres , etc . . .
No features found.


********** Adverbiaux Temporels Features **********
********************************************************

1. Sentence: II déc . 1926 , art . 7) , les baies , portes , fenêtres , etc . . .
Features :: Feature-Counts :: Feature-Texts
--------------------------------------------
adverbiaux_temporels::2::['déc .', '1926 ,']
adverbiaux_localisation_temporelle::2::['déc .', '1926 ,']
adverbiaux_pointage_absolu::1::['1926 ,']
adverbiaux_pointage_non_absolu::1::['déc .']
adverbiaux_loc_temp_focalisation_id::1::['déc .']
adverbiaux_loc_temp_regionalisation_id::1::['déc .']
adverbiaux_loc_temp_pointage_absolu::1::['1926 ,']
adverbiaux_loc_temp_pointage_non_absolu::1::['déc .']

