====== Sentence Level Features ======

1. Sentence: Il semble que l ' on ait adopté , pour le « standing » et par facilité , un modèle de gestion , de clôture , de contrôle , venu d ' Amérique .
Features :: Feature-Counts :: Feature-Lemmas
--------------------------------------------
marqueurs :: 3 :: [ sembler, facilité, venir ]
epistemique :: 2 :: [ sembler, facilité ]
marqueurs_niveau3 :: 2 :: [ sembler, venir ]
alethique :: 1 :: [ venir ]
appreciatif :: 1 :: [ facilité ]
marqueurs_niveau2 :: 1 :: [ facilité ]
alethique_niveau3 :: 1 :: [ venir ]
appreciatif_niveau2 :: 1 :: [ facilité ]
epistemique_niveau3 :: 1 :: [ sembler ]
epistemique_niveau2 :: 1 :: [ facilité ]
Total feature counts: 14


====== Text Level Features ======

Features :: Feature-Counts :: Feature-Lemmas
--------------------------------------------
marqueurs :: 3 :: [ sembler, facilité, venir ]
epistemique :: 2 :: [ sembler, facilité ]
marqueurs_niveau3 :: 2 :: [ sembler, venir ]
alethique :: 1 :: [ venir ]
appreciatif :: 1 :: [ facilité ]
marqueurs_niveau2 :: 1 :: [ facilité ]
alethique_niveau3 :: 1 :: [ venir ]
appreciatif_niveau2 :: 1 :: [ facilité ]
epistemique_niveau3 :: 1 :: [ sembler ]
epistemique_niveau2 :: 1 :: [ facilité ]
Total feature counts: 14

