====== Sentence Level Features ======

1. Sentence: Ces deux paysagistes , Grands Prix de l ' urbanisme , sont mes enseignants à l ' École nationale supérieure du paysage de Versailles .
Features :: Feature-Counts :: Feature-Lemmas
--------------------------------------------
marqueurs :: 2 :: [ prix, école ]
alethique :: 1 :: [ école ]
appreciatif :: 1 :: [ prix ]
axiologique :: 1 :: [ prix ]
marqueurs_niveau2 :: 1 :: [ prix ]
marqueurs_niveau1 :: 1 :: [ école ]
alethique_niveau1 :: 1 :: [ école ]
appreciatif_niveau2 :: 1 :: [ prix ]
axiologique_niveau2 :: 1 :: [ prix ]
Total feature counts: 10


====== Text Level Features ======

Features :: Feature-Counts :: Feature-Lemmas
--------------------------------------------
marqueurs :: 2 :: [ prix, école ]
alethique :: 1 :: [ école ]
appreciatif :: 1 :: [ prix ]
axiologique :: 1 :: [ prix ]
marqueurs_niveau2 :: 1 :: [ prix ]
marqueurs_niveau1 :: 1 :: [ école ]
alethique_niveau1 :: 1 :: [ école ]
appreciatif_niveau2 :: 1 :: [ prix ]
axiologique_niveau2 :: 1 :: [ prix ]
Total feature counts: 10

