
********** Entity Names Features **********
*******************************************

1. Sentence: La diffusion des activités à partir du centre s ' est effectuée pied à pied , recherchant toujours les accès les plus commodes .
No features found.


********** Emotions Features **********
***************************************

1. Sentence: La diffusion des activités à partir du centre s ' est effectuée pied à pied , recherchant toujours les accès les plus commodes .
No features found.


********** Modality Features **********
***************************************

1. Sentence: La diffusion des activités à partir du centre s ' est effectuée pied à pied , recherchant toujours les accès les plus commodes .
Features :: Feature-Counts :: Feature-Lemmas
--------------------------------------------
marqueurs :: 2 :: [ partir, toujours ]
alethique :: 2 :: [ partir, toujours ]
marqueurs_niveau3 :: 1 :: [ toujours ]
marqueurs_niveau1 :: 1 :: [ partir ]
alethique_niveau3 :: 1 :: [ toujours ]
alethique_niveau1 :: 1 :: [ partir ]
Total feature counts: 8


********** Adverbiaux Temporels Features **********
********************************************************

1. Sentence: La diffusion des activités à partir du centre s ' est effectuée pied à pied , recherchant toujours les accès les plus commodes .
Features :: Feature-Counts :: Feature-Texts
--------------------------------------------
adverbiaux_temporels::1::['toujours']
adverbiaux_duratifs_iteratifs::1::['toujours']

