
********** Entity Names Features **********
*******************************************

1. Sentence: CHAPITRE I : 	COMMENTAIRE GÉNÉRAL DE LA CARTE AU 1/100 .
Entity Name (Type) :: AU (LOC)


********** Emotions Features **********
***************************************

1. Sentence: CHAPITRE I : 	COMMENTAIRE GÉNÉRAL DE LA CARTE AU 1/100 .
No features found.


********** Modality Features **********
***************************************

1. Sentence: CHAPITRE I : 	COMMENTAIRE GÉNÉRAL DE LA CARTE AU 1/100 .
No features found.


********** Adverbiaux Temporels Features **********
********************************************************

1. Sentence: CHAPITRE I : 	COMMENTAIRE GÉNÉRAL DE LA CARTE AU 1/100 .
No features found.

