
********** Entity Names Features **********
*******************************************

1. Sentence: Marseille m ' a également appris le travail tenace de la maîtrise d ' ouvrage sans laquelle le passage à l ' acte est difﬁcile , voire impossible .
Entity Name (Type) :: Marseille (LOC)


********** Emotions Features **********
***************************************

1. Sentence: Marseille m ' a également appris le travail tenace de la maîtrise d ' ouvrage sans laquelle le passage à l ' acte est difﬁcile , voire impossible .
No features found.


********** Modality Features **********
***************************************

1. Sentence: Marseille m ' a également appris le travail tenace de la maîtrise d ' ouvrage sans laquelle le passage à l ' acte est difﬁcile , voire impossible .
Features :: Feature-Counts :: Feature-Lemmas
--------------------------------------------
marqueurs :: 2 :: [ travail, impossible ]
marqueurs_niveau3 :: 2 :: [ travail, impossible ]
alethique :: 1 :: [ impossible ]
appreciatif :: 1 :: [ travail ]
alethique_niveau3 :: 1 :: [ impossible ]
appreciatif_niveau3 :: 1 :: [ travail ]
Total feature counts: 8


********** Adverbiaux Temporels Features **********
********************************************************

1. Sentence: Marseille m ' a également appris le travail tenace de la maîtrise d ' ouvrage sans laquelle le passage à l ' acte est difﬁcile , voire impossible .
No features found.

