
********** Entity Names Features **********
*******************************************

1. Sentence: Face au lac , la vaste place adopte un profil concave comme une plage , depuis laquelle la vue s ' étend sur le lointain .
Entity Name (Type) :: Face (LOC)


********** Emotions Features **********
***************************************

1. Sentence: Face au lac , la vaste place adopte un profil concave comme une plage , depuis laquelle la vue s ' étend sur le lointain .
No features found.


********** Modality Features **********
***************************************

1. Sentence: Face au lac , la vaste place adopte un profil concave comme une plage , depuis laquelle la vue s ' étend sur le lointain .
Features :: Feature-Counts :: Feature-Lemmas
--------------------------------------------
marqueurs :: 1 :: [ plage ]
appreciatif :: 1 :: [ plage ]
marqueurs_niveau2 :: 1 :: [ plage ]
appreciatif_niveau2 :: 1 :: [ plage ]
Total feature counts: 4


********** Adverbiaux Temporels Features **********
********************************************************

1. Sentence: Face au lac , la vaste place adopte un profil concave comme une plage , depuis laquelle la vue s ' étend sur le lointain .
No features found.

