
********** Entity Names Features **********
*******************************************

1. Sentence: L ' approche thématique permet à la fois de trouver des points de convergence entre des secteurs techniques et d ' être précis , sans préjuger de l ' ensemble .
Entity Name (Type) :: L (MISC)


********** Emotions Features **********
***************************************

1. Sentence: L ' approche thématique permet à la fois de trouver des points de convergence entre des secteurs techniques et d ' être précis , sans préjuger de l ' ensemble .
No features found.


********** Modality Features **********
***************************************

1. Sentence: L ' approche thématique permet à la fois de trouver des points de convergence entre des secteurs techniques et d ' être précis , sans préjuger de l ' ensemble .
Features :: Feature-Counts :: Feature-Lemmas
--------------------------------------------
marqueurs :: 1 :: [ permettre ]
deontique :: 1 :: [ permettre ]
marqueurs_niveau3 :: 1 :: [ permettre ]
deontique_niveau3 :: 1 :: [ permettre ]
Total feature counts: 4


********** Adverbiaux Temporels Features **********
********************************************************

1. Sentence: L ' approche thématique permet à la fois de trouver des points de convergence entre des secteurs techniques et d ' être précis , sans préjuger de l ' ensemble .
No features found.

