====== Sentence Level Features ======

1. Sentence: Je le regrette .
Features :: Feature-Counts :: Feature-Lemmas
--------------------------------------------
marqueurs :: 1 :: [ regretter ]
appreciatif :: 1 :: [ regretter ]
epistemique :: 1 :: [ regretter ]
marqueurs_niveau3 :: 1 :: [ regretter ]
appreciatif_niveau3 :: 1 :: [ regretter ]
epistemique_niveau3 :: 1 :: [ regretter ]
Total feature counts: 6


====== Text Level Features ======

Features :: Feature-Counts :: Feature-Lemmas
--------------------------------------------
marqueurs :: 1 :: [ regretter ]
appreciatif :: 1 :: [ regretter ]
epistemique :: 1 :: [ regretter ]
marqueurs_niveau3 :: 1 :: [ regretter ]
appreciatif_niveau3 :: 1 :: [ regretter ]
epistemique_niveau3 :: 1 :: [ regretter ]
Total feature counts: 6

