
********** Entity Names Features **********
*******************************************

1. Sentence: Le paradoxe est que nous n ' avons pas l ' équivalent aujourd ' hui , alors que l ' internet a multiplié considérablement les données .
No features found.


********** Emotions Features **********
***************************************

1. Sentence: Le paradoxe est que nous n ' avons pas l ' équivalent aujourd ' hui , alors que l ' internet a multiplié considérablement les données .
No features found.


********** Modality Features **********
***************************************

1. Sentence: Le paradoxe est que nous n ' avons pas l ' équivalent aujourd ' hui , alors que l ' internet a multiplié considérablement les données .
No features found.


********** Adverbiaux Temporels Features **********
********************************************************

1. Sentence: Le paradoxe est que nous n ' avons pas l ' équivalent aujourd ' hui , alors que l ' internet a multiplié considérablement les données .
No features found.

