
********** Entity Names Features **********
*******************************************

1. Sentence: Et nous assumons des commandes de toutes sortes ;
No features found.


********** Emotions Features **********
***************************************

1. Sentence: Et nous assumons des commandes de toutes sortes ;
No features found.


********** Modality Features **********
***************************************

1. Sentence: Et nous assumons des commandes de toutes sortes ;
No features found.


********** Adverbiaux Temporels Features **********
********************************************************

1. Sentence: Et nous assumons des commandes de toutes sortes ;
No features found.

