====== Sentence Level Features ======

1. Sentence: Celles-ci tout en étant fort parisianisées , auraient une vie propre , et leurs habitants n ’ auraient pas , pour la plupart , à venir à Paris tous les jours ouvrables .
Features :: Feature-Counts :: Feature-Lemmas
--------------------------------------------
marqueurs :: 2 :: [ fort, venir ]
alethique :: 1 :: [ venir ]
pas_d_indication :: 1 :: [ fort ]
marqueurs_niveau3 :: 1 :: [ venir ]
marqueurs_niveau0 :: 1 :: [ fort ]
alethique_niveau3 :: 1 :: [ venir ]
pas_d_indication_niveau0 :: 1 :: [ fort ]
Total feature counts: 8


====== Text Level Features ======

Features :: Feature-Counts :: Feature-Lemmas
--------------------------------------------
marqueurs :: 2 :: [ fort, venir ]
alethique :: 1 :: [ venir ]
pas_d_indication :: 1 :: [ fort ]
marqueurs_niveau3 :: 1 :: [ venir ]
marqueurs_niveau0 :: 1 :: [ fort ]
alethique_niveau3 :: 1 :: [ venir ]
pas_d_indication_niveau0 :: 1 :: [ fort ]
Total feature counts: 8

