
********** Entity Names Features **********
*******************************************

1. Sentence: la Fabrique de l ' industrie , think tank présidé par Louis Gallois .
Entity Name (Type) :: Louis Gallois (PER)


********** Emotions Features **********
***************************************

1. Sentence: la Fabrique de l ' industrie , think tank présidé par Louis Gallois .
No features found.


********** Modality Features **********
***************************************

1. Sentence: la Fabrique de l ' industrie , think tank présidé par Louis Gallois .
No features found.


********** Adverbiaux Temporels Features **********
********************************************************

1. Sentence: la Fabrique de l ' industrie , think tank présidé par Louis Gallois .
No features found.

