
********** Entity Names Features **********
*******************************************

1. Sentence: Elle ne peut pas offrir de cadre à un partenariat avec la région , par exemple .
No features found.


********** Emotions Features **********
***************************************

1. Sentence: Elle ne peut pas offrir de cadre à un partenariat avec la région , par exemple .
No features found.


********** Modality Features **********
***************************************

1. Sentence: Elle ne peut pas offrir de cadre à un partenariat avec la région , par exemple .
Features :: Feature-Counts :: Feature-Lemmas
--------------------------------------------
marqueurs :: 2 :: [ pouvoir, offrir ]
alethique :: 1 :: [ pouvoir ]
appreciatif :: 1 :: [ offrir ]
deontique :: 1 :: [ pouvoir ]
epistemique :: 1 :: [ pouvoir ]
marqueurs_niveau3 :: 1 :: [ pouvoir ]
marqueurs_niveau2 :: 1 :: [ offrir ]
alethique_niveau3 :: 1 :: [ pouvoir ]
appreciatif_niveau2 :: 1 :: [ offrir ]
deontique_niveau3 :: 1 :: [ pouvoir ]
epistemique_niveau3 :: 1 :: [ pouvoir ]
Total feature counts: 12


********** Adverbiaux Temporels Features **********
********************************************************

1. Sentence: Elle ne peut pas offrir de cadre à un partenariat avec la région , par exemple .
No features found.

