====== Sentence Level Features ======

1. Sentence: La toiture a été re-isolée , et elle accueille désormais les espaces de recréation , ce qui a permis de libérer au sol un espace de jeux public et ouvert à tous .
Features :: Feature-Counts :: Feature-Lemmas
--------------------------------------------
marqueurs :: 2 :: [ permettre, ouvrir ]
marqueurs_niveau3 :: 2 :: [ permettre, ouvrir ]
boulique :: 1 :: [ ouvrir ]
deontique :: 1 :: [ permettre ]
boulique_niveau3 :: 1 :: [ ouvrir ]
deontique_niveau3 :: 1 :: [ permettre ]
Total feature counts: 8


====== Text Level Features ======

Features :: Feature-Counts :: Feature-Lemmas
--------------------------------------------
marqueurs :: 2 :: [ permettre, ouvrir ]
marqueurs_niveau3 :: 2 :: [ permettre, ouvrir ]
boulique :: 1 :: [ ouvrir ]
deontique :: 1 :: [ permettre ]
boulique_niveau3 :: 1 :: [ ouvrir ]
deontique_niveau3 :: 1 :: [ permettre ]
Total feature counts: 8

