
********** Entity Names Features **********
*******************************************

1. Sentence: Je citerai , parmi beaucoup d ' autres , deux exemples illustrant bien notre démarche : — Le collège d ' Alembert à Saint-Quentin-en-Yvelines .
Entity Name (Type) :: Saint-Quentin-en-Yvelines (LOC)


********** Emotions Features **********
***************************************

1. Sentence: Je citerai , parmi beaucoup d ' autres , deux exemples illustrant bien notre démarche : — Le collège d ' Alembert à Saint-Quentin-en-Yvelines .
No features found.


********** Modality Features **********
***************************************

1. Sentence: Je citerai , parmi beaucoup d ' autres , deux exemples illustrant bien notre démarche : — Le collège d ' Alembert à Saint-Quentin-en-Yvelines .
Features :: Feature-Counts :: Feature-Lemmas
--------------------------------------------
marqueurs :: 2 :: [ beaucoup, bien ]
appreciatif :: 1 :: [ bien ]
axiologique :: 1 :: [ bien ]
epistemique :: 1 :: [ beaucoup ]
marqueurs_niveau3 :: 1 :: [ bien ]
marqueurs_niveau1 :: 1 :: [ beaucoup ]
appreciatif_niveau3 :: 1 :: [ bien ]
axiologique_niveau3 :: 1 :: [ bien ]
epistemique_niveau1 :: 1 :: [ beaucoup ]
Total feature counts: 10


********** Adverbiaux Temporels Features **********
********************************************************

1. Sentence: Je citerai , parmi beaucoup d ' autres , deux exemples illustrant bien notre démarche : — Le collège d ' Alembert à Saint-Quentin-en-Yvelines .
No features found.

