====== Sentence Level Features ======

1. Sentence: C ' est-à-dire : reprendre l ' ouverture à la lumière , au ciel et à la vue que propose l ' immeuble autonome de la théorie moderne , mais faire cela avec une densité urbaine , une mixité entre habitat , activités , commerces .
Features :: Feature-Counts :: Feature-Lemmas
--------------------------------------------
marqueurs :: 2 :: [ lumière, moderne ]
alethique :: 1 :: [ lumière ]
appreciatif :: 1 :: [ lumière ]
pas_d_indication :: 1 :: [ moderne ]
marqueurs_niveau1 :: 1 :: [ lumière ]
marqueurs_niveau0 :: 1 :: [ moderne ]
alethique_niveau1 :: 1 :: [ lumière ]
appreciatif_niveau1 :: 1 :: [ lumière ]
pas_d_indication_niveau0 :: 1 :: [ moderne ]
Total feature counts: 10


====== Text Level Features ======

Features :: Feature-Counts :: Feature-Lemmas
--------------------------------------------
marqueurs :: 2 :: [ lumière, moderne ]
alethique :: 1 :: [ lumière ]
appreciatif :: 1 :: [ lumière ]
pas_d_indication :: 1 :: [ moderne ]
marqueurs_niveau1 :: 1 :: [ lumière ]
marqueurs_niveau0 :: 1 :: [ moderne ]
alethique_niveau1 :: 1 :: [ lumière ]
appreciatif_niveau1 :: 1 :: [ lumière ]
pas_d_indication_niveau0 :: 1 :: [ moderne ]
Total feature counts: 10

