====== Sentence Level Features ======

1. Sentence: J ' ai été choqué d ' entendre quelques proviseurs , interrogés sur leur stratégie , répondre que leur problème numéro un était que trop peu de jeunes allaient dans l ' enseignement général ou ne poursuivaient pas à l ' université .
Features :: Feature-Counts :: Feature-Lemmas
--------------------------------------------
marqueurs :: 4 :: [ choquer, problème, jeune, aller ]
pas_d_indication :: 2 :: [ choquer, jeune ]
marqueurs_niveau0 :: 2 :: [ choquer, jeune ]
pas_d_indication_niveau0 :: 2 :: [ choquer, jeune ]
alethique :: 1 :: [ aller ]
appreciatif :: 1 :: [ problème ]
marqueurs_niveau2 :: 1 :: [ problème ]
marqueurs_niveau1 :: 1 :: [ aller ]
alethique_niveau1 :: 1 :: [ aller ]
appreciatif_niveau2 :: 1 :: [ problème ]
Total feature counts: 16


====== Text Level Features ======

Features :: Feature-Counts :: Feature-Lemmas
--------------------------------------------
marqueurs :: 4 :: [ choquer, problème, jeune, aller ]
pas_d_indication :: 2 :: [ choquer, jeune ]
marqueurs_niveau0 :: 2 :: [ choquer, jeune ]
pas_d_indication_niveau0 :: 2 :: [ choquer, jeune ]
alethique :: 1 :: [ aller ]
appreciatif :: 1 :: [ problème ]
marqueurs_niveau2 :: 1 :: [ problème ]
marqueurs_niveau1 :: 1 :: [ aller ]
alethique_niveau1 :: 1 :: [ aller ]
appreciatif_niveau2 :: 1 :: [ problème ]
Total feature counts: 16

