
********** Entity Names Features **********
*******************************************

1. Sentence: Ces thèmes étaient investigués à travers une série de projets qui identifiaient des traditions de projet d ' urbanisme et d ' architecture .
No features found.


********** Emotions Features **********
***************************************

1. Sentence: Ces thèmes étaient investigués à travers une série de projets qui identifiaient des traditions de projet d ' urbanisme et d ' architecture .
No features found.


********** Modality Features **********
***************************************

1. Sentence: Ces thèmes étaient investigués à travers une série de projets qui identifiaient des traditions de projet d ' urbanisme et d ' architecture .
No features found.


********** Adverbiaux Temporels Features **********
********************************************************

1. Sentence: Ces thèmes étaient investigués à travers une série de projets qui identifiaient des traditions de projet d ' urbanisme et d ' architecture .
No features found.

