
********** Entity Names Features **********
*******************************************

1. Sentence: C ' est rendre service au capitalisme luimême que de développer ces régulations pour lui éviter des crises permanentes .
Entity Name (Type) :: C (MISC)


********** Emotions Features **********
***************************************

1. Sentence: C ' est rendre service au capitalisme luimême que de développer ces régulations pour lui éviter des crises permanentes .
No features found.


********** Modality Features **********
***************************************

1. Sentence: C ' est rendre service au capitalisme luimême que de développer ces régulations pour lui éviter des crises permanentes .
Features :: Feature-Counts :: Feature-Lemmas
--------------------------------------------
marqueurs :: 2 :: [ lui, crise ]
epistemique :: 2 :: [ lui, crise ]
alethique :: 1 :: [ lui ]
appreciatif :: 1 :: [ crise ]
marqueurs_niveau3 :: 1 :: [ lui ]
marqueurs_niveau2 :: 1 :: [ crise ]
alethique_niveau3 :: 1 :: [ lui ]
appreciatif_niveau2 :: 1 :: [ crise ]
epistemique_niveau3 :: 1 :: [ lui ]
epistemique_niveau2 :: 1 :: [ crise ]
Total feature counts: 12


********** Adverbiaux Temporels Features **********
********************************************************

1. Sentence: C ' est rendre service au capitalisme luimême que de développer ces régulations pour lui éviter des crises permanentes .
No features found.

