
********** Entity Names Features **********
*******************************************

1. Sentence: Le maire a donc le dernier mot !
No features found.


********** Emotions Features **********
***************************************

1. Sentence: Le maire a donc le dernier mot !
No features found.


********** Modality Features **********
***************************************

1. Sentence: Le maire a donc le dernier mot !
No features found.


********** Adverbiaux Temporels Features **********
********************************************************

1. Sentence: Le maire a donc le dernier mot !
No features found.

