====== Sentence Level Features ======

1. Sentence: Or un changement essentiel , à l ' échelle planétaire , est la montée en puissance des grands campus comme foyers non seulement de la science , mais de l ' innovation .
Features :: Feature-Counts :: Feature-Lemmas
--------------------------------------------
marqueurs :: 2 :: [ puissance, grand ]
epistemique :: 1 :: [ grand ]
pas_d_indication :: 1 :: [ puissance ]
marqueurs_niveau3 :: 1 :: [ grand ]
marqueurs_niveau0 :: 1 :: [ puissance ]
epistemique_niveau3 :: 1 :: [ grand ]
pas_d_indication_niveau0 :: 1 :: [ puissance ]
Total feature counts: 8


====== Text Level Features ======

Features :: Feature-Counts :: Feature-Lemmas
--------------------------------------------
marqueurs :: 2 :: [ puissance, grand ]
epistemique :: 1 :: [ grand ]
pas_d_indication :: 1 :: [ puissance ]
marqueurs_niveau3 :: 1 :: [ grand ]
marqueurs_niveau0 :: 1 :: [ puissance ]
epistemique_niveau3 :: 1 :: [ grand ]
pas_d_indication_niveau0 :: 1 :: [ puissance ]
Total feature counts: 8

