====== Sentence Level Features ======

1. Sentence: La consommation de terres agricoles par l ' urbanisation , et plus généralement le destin de l ' agriculture , constituent désormais un sujet central 11 .
Features :: Feature-Counts :: Feature-Lemmas
--------------------------------------------
marqueurs :: 1 :: [ généralement ]
alethique :: 1 :: [ généralement ]
marqueurs_niveau3 :: 1 :: [ généralement ]
alethique_niveau3 :: 1 :: [ généralement ]
Total feature counts: 4


====== Text Level Features ======

Features :: Feature-Counts :: Feature-Lemmas
--------------------------------------------
marqueurs :: 1 :: [ généralement ]
alethique :: 1 :: [ généralement ]
marqueurs_niveau3 :: 1 :: [ généralement ]
alethique_niveau3 :: 1 :: [ généralement ]
Total feature counts: 4

