====== Sentence Level Features ======

1. Sentence: L ' empilement de compétences et de responsabilités n ' aide pas à clarifier les choses .
Features :: Feature-Counts :: Feature-Lemmas
--------------------------------------------
marqueurs :: 1 :: [ responsabilité ]
deontique :: 1 :: [ responsabilité ]
marqueurs_niveau2 :: 1 :: [ responsabilité ]
deontique_niveau2 :: 1 :: [ responsabilité ]
Total feature counts: 4


====== Text Level Features ======

Features :: Feature-Counts :: Feature-Lemmas
--------------------------------------------
marqueurs :: 1 :: [ responsabilité ]
deontique :: 1 :: [ responsabilité ]
marqueurs_niveau2 :: 1 :: [ responsabilité ]
deontique_niveau2 :: 1 :: [ responsabilité ]
Total feature counts: 4

