
********** Entity Names Features **********
*******************************************

1. Sentence: E . R . citée plus haut et l ' autoroute de l ' Est .
Entity Name (Type) :: autoroute de l ' Est (LOC)


********** Emotions Features **********
***************************************

1. Sentence: E . R . citée plus haut et l ' autoroute de l ' Est .
No features found.


********** Modality Features **********
***************************************

1. Sentence: E . R . citée plus haut et l ' autoroute de l ' Est .
Features :: Feature-Counts :: Feature-Lemmas
--------------------------------------------
marqueurs :: 1 :: [ haut ]
pas_d_indication :: 1 :: [ haut ]
marqueurs_niveau0 :: 1 :: [ haut ]
pas_d_indication_niveau0 :: 1 :: [ haut ]
Total feature counts: 4


********** Adverbiaux Temporels Features **********
********************************************************

1. Sentence: E . R . citée plus haut et l ' autoroute de l ' Est .
No features found.

