====== Sentence Level Features ======

1. Sentence: Lors du chantier du Lieu unique , les clauses d ' insertion dans les marchés publics furent ainsi rédigées  : toute personne mandataire d ' un marché public doit intégrer une part d ' insertion professionnelle en fonction du montant de travaux et par corps d ' état .
Features :: Feature-Counts :: Feature-Lemmas
--------------------------------------------
marqueurs :: 4 :: [ unique, personne, devoir, travail ]
alethique :: 2 :: [ personne, devoir ]
appreciatif :: 2 :: [ unique, travail ]
marqueurs_niveau3 :: 2 :: [ devoir, travail ]
deontique :: 1 :: [ devoir ]
epistemique :: 1 :: [ devoir ]
marqueurs_niveau2 :: 1 :: [ personne ]
marqueurs_niveau1 :: 1 :: [ unique ]
alethique_niveau3 :: 1 :: [ devoir ]
alethique_niveau2 :: 1 :: [ personne ]
appreciatif_niveau3 :: 1 :: [ travail ]
appreciatif_niveau1 :: 1 :: [ unique ]
deontique_niveau3 :: 1 :: [ devoir ]
epistemique_niveau3 :: 1 :: [ devoir ]
Total feature counts: 20


====== Text Level Features ======

Features :: Feature-Counts :: Feature-Lemmas
--------------------------------------------
marqueurs :: 4 :: [ unique, personne, devoir, travail ]
alethique :: 2 :: [ personne, devoir ]
appreciatif :: 2 :: [ unique, travail ]
marqueurs_niveau3 :: 2 :: [ devoir, travail ]
deontique :: 1 :: [ devoir ]
epistemique :: 1 :: [ devoir ]
marqueurs_niveau2 :: 1 :: [ personne ]
marqueurs_niveau1 :: 1 :: [ unique ]
alethique_niveau3 :: 1 :: [ devoir ]
alethique_niveau2 :: 1 :: [ personne ]
appreciatif_niveau3 :: 1 :: [ travail ]
appreciatif_niveau1 :: 1 :: [ unique ]
deontique_niveau3 :: 1 :: [ devoir ]
epistemique_niveau3 :: 1 :: [ devoir ]
Total feature counts: 20

