
********** Entity Names Features **********
*******************************************

1. Sentence: Et qu ' elle aurait des formes immuables .
No features found.


********** Emotions Features **********
***************************************

1. Sentence: Et qu ' elle aurait des formes immuables .
No features found.


********** Modality Features **********
***************************************

1. Sentence: Et qu ' elle aurait des formes immuables .
No features found.


********** Adverbiaux Temporels Features **********
********************************************************

1. Sentence: Et qu ' elle aurait des formes immuables .
No features found.

