
********** Entity Names Features **********
*******************************************

1. Sentence: Et avec tout cela ,  il y a le réemploi comme une  ressource créative des arbres condamnés .
No features found.


********** Emotions Features **********
***************************************

1. Sentence: Et avec tout cela ,  il y a le réemploi comme une  ressource créative des arbres condamnés .
No features found.


********** Modality Features **********
***************************************

1. Sentence: Et avec tout cela ,  il y a le réemploi comme une  ressource créative des arbres condamnés .
Features :: Feature-Counts :: Feature-Lemmas
--------------------------------------------
marqueurs :: 1 :: [ condamner ]
axiologique :: 1 :: [ condamner ]
marqueurs_niveau3 :: 1 :: [ condamner ]
axiologique_niveau3 :: 1 :: [ condamner ]
Total feature counts: 4


********** Adverbiaux Temporels Features **********
********************************************************

1. Sentence: Et avec tout cela ,  il y a le réemploi comme une  ressource créative des arbres condamnés .
No features found.

