====== Sentence Level Features ======

1. Sentence: Les crispations politiques et sociales favorisent aujourd ' hui l ' espacement et les mises à distance entre voisins .
Features :: Feature-Counts :: Feature-Lemmas
--------------------------------------------
marqueurs :: 1 :: [ favoriser ]
appreciatif :: 1 :: [ favoriser ]
marqueurs_niveau1 :: 1 :: [ favoriser ]
appreciatif_niveau1 :: 1 :: [ favoriser ]
Total feature counts: 4


====== Text Level Features ======

Features :: Feature-Counts :: Feature-Lemmas
--------------------------------------------
marqueurs :: 1 :: [ favoriser ]
appreciatif :: 1 :: [ favoriser ]
marqueurs_niveau1 :: 1 :: [ favoriser ]
appreciatif_niveau1 :: 1 :: [ favoriser ]
Total feature counts: 4

