
********** Entity Names Features **********
*******************************************

1. Sentence: Et j ' étais , de mon côté , confortée dans la pertinence de mon regard de paysagiste pour y parvenir .
No features found.


********** Emotions Features **********
***************************************

1. Sentence: Et j ' étais , de mon côté , confortée dans la pertinence de mon regard de paysagiste pour y parvenir .
No features found.


********** Modality Features **********
***************************************

1. Sentence: Et j ' étais , de mon côté , confortée dans la pertinence de mon regard de paysagiste pour y parvenir .
No features found.


********** Adverbiaux Temporels Features **********
********************************************************

1. Sentence: Et j ' étais , de mon côté , confortée dans la pertinence de mon regard de paysagiste pour y parvenir .
No features found.

