
********** Entity Names Features **********
*******************************************

1. Sentence: Comment créer les conditions pour la ville durable ?
No features found.


********** Emotions Features **********
***************************************

1. Sentence: Comment créer les conditions pour la ville durable ?
No features found.


********** Modality Features **********
***************************************

1. Sentence: Comment créer les conditions pour la ville durable ?
No features found.


********** Adverbiaux Temporels Features **********
********************************************************

1. Sentence: Comment créer les conditions pour la ville durable ?
No features found.

