====== Sentence Level Features ======

1. Sentence: Les années s ’ écoulaient , et la préparation de l ’ exposition permanente du Pavillon de l ’ Arsenal («Paris , la ville et ses projets» , 1995) me permit de le mesurer : la ville se réinventait .
Features :: Feature-Counts :: Feature-Lemmas
--------------------------------------------
marqueurs :: 1 :: [ permettre ]
deontique :: 1 :: [ permettre ]
marqueurs_niveau3 :: 1 :: [ permettre ]
deontique_niveau3 :: 1 :: [ permettre ]
Total feature counts: 4


====== Text Level Features ======

Features :: Feature-Counts :: Feature-Lemmas
--------------------------------------------
marqueurs :: 1 :: [ permettre ]
deontique :: 1 :: [ permettre ]
marqueurs_niveau3 :: 1 :: [ permettre ]
deontique_niveau3 :: 1 :: [ permettre ]
Total feature counts: 4

