====== Sentence Level Features ======

1. Sentence: Modifier cet état de choses prendra du temps .
Entity Name (Type) :: Modifier (LOC)


====== Text Level Features ======

Entity Name (Entity Type)
-------------------------
Modifier (LOC)
Total entitiy counts: 1

