
********** Entity Names Features **********
*******************************************

1. Sentence: Maître d ' ouvrage : Établissement public Paris-Saclay Paysagistes : M . Desvigne , S . Mourthé , M .
Entity Name (Type) :: Mourthé (PER)


********** Emotions Features **********
***************************************

1. Sentence: Maître d ' ouvrage : Établissement public Paris-Saclay Paysagistes : M . Desvigne , S . Mourthé , M .
No features found.


********** Modality Features **********
***************************************

1. Sentence: Maître d ' ouvrage : Établissement public Paris-Saclay Paysagistes : M . Desvigne , S . Mourthé , M .
No features found.


********** Adverbiaux Temporels Features **********
********************************************************

1. Sentence: Maître d ' ouvrage : Établissement public Paris-Saclay Paysagistes : M . Desvigne , S . Mourthé , M .
No features found.

