====== Sentence Level Features ======

1. Sentence: L ' espace public est un rouleau compresseur d ' égalité et de liberté en même temps .
Features :: Feature-Counts :: Feature-Lemmas
--------------------------------------------
marqueurs :: 1 :: [ liberté ]
appreciatif :: 1 :: [ liberté ]
marqueurs_niveau1 :: 1 :: [ liberté ]
appreciatif_niveau1 :: 1 :: [ liberté ]
Total feature counts: 4


====== Text Level Features ======

Features :: Feature-Counts :: Feature-Lemmas
--------------------------------------------
marqueurs :: 1 :: [ liberté ]
appreciatif :: 1 :: [ liberté ]
marqueurs_niveau1 :: 1 :: [ liberté ]
appreciatif_niveau1 :: 1 :: [ liberté ]
Total feature counts: 4

