
********** Entity Names Features **********
*******************************************

1. Sentence: Quelques mots maintenant sur les obstacles externes .
No features found.


********** Emotions Features **********
***************************************

1. Sentence: Quelques mots maintenant sur les obstacles externes .
No features found.


********** Modality Features **********
***************************************

1. Sentence: Quelques mots maintenant sur les obstacles externes .
No features found.


********** Adverbiaux Temporels Features **********
********************************************************

1. Sentence: Quelques mots maintenant sur les obstacles externes .
Features :: Feature-Counts :: Feature-Texts
--------------------------------------------
adverbiaux_temporels::1::['maintenant']
adverbiaux_localisation_temporelle::1::['maintenant']
adverbiaux_pointage_non_absolu::1::['maintenant']
adverbiaux_loc_temp_focalisation_id::1::['maintenant']
adverbiaux_loc_temp_regionalisation_id::1::['maintenant']
adverbiaux_loc_temp_pointage_non_absolu::1::['maintenant']

