
********** Entity Names Features **********
*******************************************

1. Sentence: Ce fut l ' un de mes seuls points de désaccord avec François Ascher .
Entity Name (Type) :: François Ascher (PER)


********** Emotions Features **********
***************************************

1. Sentence: Ce fut l ' un de mes seuls points de désaccord avec François Ascher .
No features found.


********** Modality Features **********
***************************************

1. Sentence: Ce fut l ' un de mes seuls points de désaccord avec François Ascher .
Features :: Feature-Counts :: Feature-Lemmas
--------------------------------------------
marqueurs :: 1 :: [ désaccord ]
alethique :: 1 :: [ désaccord ]
appreciatif :: 1 :: [ désaccord ]
axiologique :: 1 :: [ désaccord ]
marqueurs_niveau1 :: 1 :: [ désaccord ]
alethique_niveau1 :: 1 :: [ désaccord ]
appreciatif_niveau1 :: 1 :: [ désaccord ]
axiologique_niveau1 :: 1 :: [ désaccord ]
Total feature counts: 8


********** Adverbiaux Temporels Features **********
********************************************************

1. Sentence: Ce fut l ' un de mes seuls points de désaccord avec François Ascher .
No features found.

