
********** Entity Names Features **********
*******************************************

1. Sentence: ce doublement de l ’ espace vous le voyez déjà se réaliser à l ’ heure actuelle .
No features found.


********** Emotions Features **********
***************************************

1. Sentence: ce doublement de l ’ espace vous le voyez déjà se réaliser à l ’ heure actuelle .
No features found.


********** Modality Features **********
***************************************

1. Sentence: ce doublement de l ’ espace vous le voyez déjà se réaliser à l ’ heure actuelle .
Features :: Feature-Counts :: Feature-Lemmas
--------------------------------------------
marqueurs :: 1 :: [ réaliser ]
alethique :: 1 :: [ réaliser ]
marqueurs_niveau1 :: 1 :: [ réaliser ]
alethique_niveau1 :: 1 :: [ réaliser ]
Total feature counts: 4


********** Adverbiaux Temporels Features **********
********************************************************

1. Sentence: ce doublement de l ’ espace vous le voyez déjà se réaliser à l ’ heure actuelle .
Features :: Feature-Counts :: Feature-Texts
--------------------------------------------
adverbiaux_temporels::2::['à l ’ heure actuelle', 'à l ’ heure']
adverbiaux_localisation_temporelle::2::['à l ’ heure actuelle', 'à l ’ heure']
adverbiaux_pointage_non_absolu::3::['à l ’ heure actuelle', 'à l ’ heure', 'à l ’ heure']
adverbiaux_loc_temp_focalisation_id::1::['à l ’ heure actuelle']
adverbiaux_loc_temp_regionalisation_id::1::['à l ’ heure actuelle']
adverbiaux_loc_temp_pointage_non_absolu::2::['à l ’ heure actuelle', 'à l ’ heure']
adverbiaux_dur_iter_relatif::1::['à l ’ heure']

