
********** Entity Names Features **********
*******************************************

1. Sentence: ce fut celui de Paris tout au long des siècles .
Entity Name (Type) :: Paris (LOC)


********** Emotions Features **********
***************************************

1. Sentence: ce fut celui de Paris tout au long des siècles .
No features found.


********** Modality Features **********
***************************************

1. Sentence: ce fut celui de Paris tout au long des siècles .
Features :: Feature-Counts :: Feature-Lemmas
--------------------------------------------
marqueurs :: 1 :: [ long ]
epistemique :: 1 :: [ long ]
marqueurs_niveau2 :: 1 :: [ long ]
epistemique_niveau2 :: 1 :: [ long ]
Total feature counts: 4


********** Adverbiaux Temporels Features **********
********************************************************

1. Sentence: ce fut celui de Paris tout au long des siècles .
Features :: Feature-Counts :: Feature-Texts
--------------------------------------------
adverbiaux_temporels::1::['tout au long des siècles']
adverbiaux_duratifs_iteratifs::1::['tout au long des siècles']
adverbiaux_pointage_non_absolu::1::['tout au long des siècles']
adverbiaux_loc_temp_focalisation_id::1::['tout au long des siècles']
adverbiaux_loc_temp_regionalisation_id::1::['tout au long des siècles']
adverbiaux_dur_iter_anaphorique::1::['tout au long des siècles']

