
********** Entity Names Features **********
*******************************************

1. Sentence: Mon « œuvre » est plutôt un parcours entre des opportunités , des sentiments , des situations urbaines .
No features found.


********** Emotions Features **********
***************************************

1. Sentence: Mon « œuvre » est plutôt un parcours entre des opportunités , des sentiments , des situations urbaines .
Tokens having emotion: [ sentiments ]
Lemmas having emotion: [ sentiment ]
Categories of the emotion lemmas: [ non_specifiee ]


********** Modality Features **********
***************************************

1. Sentence: Mon « œuvre » est plutôt un parcours entre des opportunités , des sentiments , des situations urbaines .
No features found.


********** Adverbiaux Temporels Features **********
********************************************************

1. Sentence: Mon « œuvre » est plutôt un parcours entre des opportunités , des sentiments , des situations urbaines .
No features found.

