
********** Entity Names Features **********
*******************************************

1. Sentence: TABLEAU 7
Entity Name (Type) :: TABLEAU (LOC)


********** Emotions Features **********
***************************************

1. Sentence: TABLEAU 7
No features found.


********** Modality Features **********
***************************************

1. Sentence: TABLEAU 7
No features found.


********** Adverbiaux Temporels Features **********
********************************************************

1. Sentence: TABLEAU 7
No features found.

