
********** Entity Names Features **********
*******************************************

1. Sentence: Toutefois , une accumulation d ' équipements résultant de décisions isolées ne suffirait pas;
No features found.


********** Emotions Features **********
***************************************

1. Sentence: Toutefois , une accumulation d ' équipements résultant de décisions isolées ne suffirait pas;
Tokens having emotion: [ isolées ]
Lemmas having emotion: [ isoler ]
Categories of the emotion lemmas: [ tristesse ]


********** Modality Features **********
***************************************

1. Sentence: Toutefois , une accumulation d ' équipements résultant de décisions isolées ne suffirait pas;
Features :: Feature-Counts :: Feature-Lemmas
--------------------------------------------
marqueurs :: 2 :: [ décision, suffire ]
boulique :: 1 :: [ décision ]
epistemique :: 1 :: [ décision ]
pas_d_indication :: 1 :: [ suffire ]
marqueurs_niveau2 :: 1 :: [ décision ]
marqueurs_niveau0 :: 1 :: [ suffire ]
boulique_niveau2 :: 1 :: [ décision ]
epistemique_niveau2 :: 1 :: [ décision ]
pas_d_indication_niveau0 :: 1 :: [ suffire ]
Total feature counts: 10


********** Adverbiaux Temporels Features **********
********************************************************

1. Sentence: Toutefois , une accumulation d ' équipements résultant de décisions isolées ne suffirait pas;
No features found.

