====== Sentence Level Features ======

1. Sentence: (2) Aux temps " héroïques " de la cité : un dieu , une muraille et la première division du travail (cf .
Features :: Feature-Counts :: Feature-Lemmas
--------------------------------------------
marqueurs :: 2 :: [ dieu, travail ]
marqueurs_niveau3 :: 2 :: [ dieu, travail ]
appreciatif :: 1 :: [ travail ]
epistemique :: 1 :: [ dieu ]
appreciatif_niveau3 :: 1 :: [ travail ]
epistemique_niveau3 :: 1 :: [ dieu ]
Total feature counts: 8


====== Text Level Features ======

Features :: Feature-Counts :: Feature-Lemmas
--------------------------------------------
marqueurs :: 2 :: [ dieu, travail ]
marqueurs_niveau3 :: 2 :: [ dieu, travail ]
appreciatif :: 1 :: [ travail ]
epistemique :: 1 :: [ dieu ]
appreciatif_niveau3 :: 1 :: [ travail ]
epistemique_niveau3 :: 1 :: [ dieu ]
Total feature counts: 8

