
********** Entity Names Features **********
*******************************************

1. Sentence: Il s ' agissait de partir du lieu , de commencer par le caractériser ,  l ' identifier , le comprendre .
No features found.


********** Emotions Features **********
***************************************

1. Sentence: Il s ' agissait de partir du lieu , de commencer par le caractériser ,  l ' identifier , le comprendre .
No features found.


********** Modality Features **********
***************************************

1. Sentence: Il s ' agissait de partir du lieu , de commencer par le caractériser ,  l ' identifier , le comprendre .
Features :: Feature-Counts :: Feature-Lemmas
--------------------------------------------
marqueurs :: 1 :: [ partir ]
alethique :: 1 :: [ partir ]
marqueurs_niveau1 :: 1 :: [ partir ]
alethique_niveau1 :: 1 :: [ partir ]
Total feature counts: 4


********** Adverbiaux Temporels Features **********
********************************************************

1. Sentence: Il s ' agissait de partir du lieu , de commencer par le caractériser ,  l ' identifier , le comprendre .
No features found.

