====== Sentence Level Features ======

1. Sentence: Pour cela , à l ' atelier , nous avons testé un grand nombre des programmes variés qui avaient été demandés à l ' aménageur : écoles de haut niveau , laboratoires , habitat…
Features :: Feature-Counts :: Feature-Lemmas
--------------------------------------------
marqueurs :: 4 :: [ grand, demander, école, haut ]
marqueurs_niveau3 :: 2 :: [ grand, demander ]
alethique :: 1 :: [ école ]
boulique :: 1 :: [ demander ]
epistemique :: 1 :: [ grand ]
pas_d_indication :: 1 :: [ haut ]
marqueurs_niveau1 :: 1 :: [ école ]
marqueurs_niveau0 :: 1 :: [ haut ]
alethique_niveau1 :: 1 :: [ école ]
boulique_niveau3 :: 1 :: [ demander ]
epistemique_niveau3 :: 1 :: [ grand ]
pas_d_indication_niveau0 :: 1 :: [ haut ]
Total feature counts: 16


====== Text Level Features ======

Features :: Feature-Counts :: Feature-Lemmas
--------------------------------------------
marqueurs :: 4 :: [ grand, demander, école, haut ]
marqueurs_niveau3 :: 2 :: [ grand, demander ]
alethique :: 1 :: [ école ]
boulique :: 1 :: [ demander ]
epistemique :: 1 :: [ grand ]
pas_d_indication :: 1 :: [ haut ]
marqueurs_niveau1 :: 1 :: [ école ]
marqueurs_niveau0 :: 1 :: [ haut ]
alethique_niveau1 :: 1 :: [ école ]
boulique_niveau3 :: 1 :: [ demander ]
epistemique_niveau3 :: 1 :: [ grand ]
pas_d_indication_niveau0 :: 1 :: [ haut ]
Total feature counts: 16

