
********** Entity Names Features **********
*******************************************

1. Sentence: Voilà donc pour le prétexte .
No features found.


********** Emotions Features **********
***************************************

1. Sentence: Voilà donc pour le prétexte .
No features found.


********** Modality Features **********
***************************************

1. Sentence: Voilà donc pour le prétexte .
No features found.


********** Adverbiaux Temporels Features **********
********************************************************

1. Sentence: Voilà donc pour le prétexte .
No features found.

