
********** Entity Names Features **********
*******************************************

1. Sentence: Il suffit pour ceux qui ont survolé en hélicoptère ou en avion , de voir ce prodigieux étalement;
No features found.


********** Emotions Features **********
***************************************

1. Sentence: Il suffit pour ceux qui ont survolé en hélicoptère ou en avion , de voir ce prodigieux étalement;
No features found.


********** Modality Features **********
***************************************

1. Sentence: Il suffit pour ceux qui ont survolé en hélicoptère ou en avion , de voir ce prodigieux étalement;
Features :: Feature-Counts :: Feature-Lemmas
--------------------------------------------
marqueurs :: 1 :: [ suffire ]
pas_d_indication :: 1 :: [ suffire ]
marqueurs_niveau0 :: 1 :: [ suffire ]
pas_d_indication_niveau0 :: 1 :: [ suffire ]
Total feature counts: 4


********** Adverbiaux Temporels Features **********
********************************************************

1. Sentence: Il suffit pour ceux qui ont survolé en hélicoptère ou en avion , de voir ce prodigieux étalement;
No features found.

