====== Sentence Level Features ======

1. Sentence: avec Éric Berlin (cabinet Empreinte associé à Gilles Clément) nous entreprenons une deuxième tranche d ' aménagement du parc Matisse : accroissement des plantations , création de cheminements vers le boulevard Carnot et le Vieux Lille .
Features :: Feature-Counts :: Feature-Lemmas
--------------------------------------------
marqueurs :: 1 :: [ vieux ]
pas_d_indication :: 1 :: [ vieux ]
marqueurs_niveau0 :: 1 :: [ vieux ]
pas_d_indication_niveau0 :: 1 :: [ vieux ]
Total feature counts: 4


====== Text Level Features ======

Features :: Feature-Counts :: Feature-Lemmas
--------------------------------------------
marqueurs :: 1 :: [ vieux ]
pas_d_indication :: 1 :: [ vieux ]
marqueurs_niveau0 :: 1 :: [ vieux ]
pas_d_indication_niveau0 :: 1 :: [ vieux ]
Total feature counts: 4

