
********** Entity Names Features **********
*******************************************

1. Sentence: On ne peut appréhender , ni représenter , la complexité morphologique d ' un site dans un premier élan .
No features found.


********** Emotions Features **********
***************************************

1. Sentence: On ne peut appréhender , ni représenter , la complexité morphologique d ' un site dans un premier élan .
Tokens having emotion: [ appréhender ]
Lemmas having emotion: [ appréhender ]
Categories of the emotion lemmas: [ peur ]


********** Modality Features **********
***************************************

1. Sentence: On ne peut appréhender , ni représenter , la complexité morphologique d ' un site dans un premier élan .
Features :: Feature-Counts :: Feature-Lemmas
--------------------------------------------
marqueurs :: 1 :: [ pouvoir ]
alethique :: 1 :: [ pouvoir ]
deontique :: 1 :: [ pouvoir ]
epistemique :: 1 :: [ pouvoir ]
marqueurs_niveau3 :: 1 :: [ pouvoir ]
alethique_niveau3 :: 1 :: [ pouvoir ]
deontique_niveau3 :: 1 :: [ pouvoir ]
epistemique_niveau3 :: 1 :: [ pouvoir ]
Total feature counts: 8


********** Adverbiaux Temporels Features **********
********************************************************

1. Sentence: On ne peut appréhender , ni représenter , la complexité morphologique d ' un site dans un premier élan .
No features found.

