
********** Entity Names Features **********
*******************************************

1. Sentence: J ’ insiste aussi sur ce point pratique , car il est très important dans la vie administratives ;
Entity Name (Type) :: J (PER)


********** Emotions Features **********
***************************************

1. Sentence: J ’ insiste aussi sur ce point pratique , car il est très important dans la vie administratives ;
No features found.


********** Modality Features **********
***************************************

1. Sentence: J ’ insiste aussi sur ce point pratique , car il est très important dans la vie administratives ;
Features :: Feature-Counts :: Feature-Lemmas
--------------------------------------------
marqueurs :: 1 :: [ important ]
appreciatif :: 1 :: [ important ]
axiologique :: 1 :: [ important ]
epistemique :: 1 :: [ important ]
marqueurs_niveau1 :: 1 :: [ important ]
appreciatif_niveau1 :: 1 :: [ important ]
axiologique_niveau1 :: 1 :: [ important ]
epistemique_niveau1 :: 1 :: [ important ]
Total feature counts: 8


********** Adverbiaux Temporels Features **********
********************************************************

1. Sentence: J ’ insiste aussi sur ce point pratique , car il est très important dans la vie administratives ;
No features found.

