
********** Entity Names Features **********
*******************************************

1. Sentence: Encore faudra-t-il que les principales infrastructures , particulièrement celle des transports , soient mises en place dès la naissance des villes nouvelles .
Entity Name (Type) :: Encore (LOC)


********** Emotions Features **********
***************************************

1. Sentence: Encore faudra-t-il que les principales infrastructures , particulièrement celle des transports , soient mises en place dès la naissance des villes nouvelles .
No features found.


********** Modality Features **********
***************************************

1. Sentence: Encore faudra-t-il que les principales infrastructures , particulièrement celle des transports , soient mises en place dès la naissance des villes nouvelles .
Features :: Feature-Counts :: Feature-Lemmas
--------------------------------------------
marqueurs :: 1 :: [ falloir ]
deontique :: 1 :: [ falloir ]
marqueurs_niveau3 :: 1 :: [ falloir ]
deontique_niveau3 :: 1 :: [ falloir ]
Total feature counts: 4


********** Adverbiaux Temporels Features **********
********************************************************

1. Sentence: Encore faudra-t-il que les principales infrastructures , particulièrement celle des transports , soient mises en place dès la naissance des villes nouvelles .
Features :: Feature-Counts :: Feature-Texts
--------------------------------------------
adverbiaux_temporels::1::['Encore']
adverbiaux_duratifs_iteratifs::1::['Encore']
adverbiaux_pointage_non_absolu::1::['Encore']
adverbiaux_dur_iter_relatif::1::['Encore']

