
********** Entity Names Features **********
*******************************************

1. Sentence: Il faut donc continuer sans faiblesse de dénoncer les «environnements sécurisés» .
No features found.


********** Emotions Features **********
***************************************

1. Sentence: Il faut donc continuer sans faiblesse de dénoncer les «environnements sécurisés» .
No features found.


********** Modality Features **********
***************************************

1. Sentence: Il faut donc continuer sans faiblesse de dénoncer les «environnements sécurisés» .
Features :: Feature-Counts :: Feature-Lemmas
--------------------------------------------
marqueurs :: 3 :: [ falloir, faiblesse, dénoncer ]
axiologique :: 2 :: [ faiblesse, dénoncer ]
appreciatif :: 1 :: [ faiblesse ]
deontique :: 1 :: [ falloir ]
marqueurs_niveau3 :: 1 :: [ falloir ]
marqueurs_niveau2 :: 1 :: [ faiblesse ]
marqueurs_niveau1 :: 1 :: [ dénoncer ]
appreciatif_niveau2 :: 1 :: [ faiblesse ]
axiologique_niveau2 :: 1 :: [ faiblesse ]
axiologique_niveau1 :: 1 :: [ dénoncer ]
deontique_niveau3 :: 1 :: [ falloir ]
Total feature counts: 14


********** Adverbiaux Temporels Features **********
********************************************************

1. Sentence: Il faut donc continuer sans faiblesse de dénoncer les «environnements sécurisés» .
No features found.

