====== Sentence Level Features ======

1. Sentence: Voilà pourquoi je suis pour un nouvel îlot , pour la rue , pour une ville ouverte au jeu du temps .
Features :: Feature-Counts :: Feature-Lemmas
--------------------------------------------
marqueurs :: 1 :: [ ouvrir ]
boulique :: 1 :: [ ouvrir ]
marqueurs_niveau3 :: 1 :: [ ouvrir ]
boulique_niveau3 :: 1 :: [ ouvrir ]
Total feature counts: 4


====== Text Level Features ======

Features :: Feature-Counts :: Feature-Lemmas
--------------------------------------------
marqueurs :: 1 :: [ ouvrir ]
boulique :: 1 :: [ ouvrir ]
marqueurs_niveau3 :: 1 :: [ ouvrir ]
boulique_niveau3 :: 1 :: [ ouvrir ]
Total feature counts: 4

