
********** Entity Names Features **********
*******************************************

1. Sentence: Deux seulement des grands projets parisiens étaient engagés (le Musée des Sciences de la Villette et le Musée d ' Orsay) .
Entity Name (Type) :: Musée d ' Orsay (LOC)


********** Emotions Features **********
***************************************

1. Sentence: Deux seulement des grands projets parisiens étaient engagés (le Musée des Sciences de la Villette et le Musée d ' Orsay) .
No features found.


********** Modality Features **********
***************************************

1. Sentence: Deux seulement des grands projets parisiens étaient engagés (le Musée des Sciences de la Villette et le Musée d ' Orsay) .
Features :: Feature-Counts :: Feature-Lemmas
--------------------------------------------
marqueurs :: 1 :: [ grand ]
epistemique :: 1 :: [ grand ]
marqueurs_niveau3 :: 1 :: [ grand ]
epistemique_niveau3 :: 1 :: [ grand ]
Total feature counts: 4


********** Adverbiaux Temporels Features **********
********************************************************

1. Sentence: Deux seulement des grands projets parisiens étaient engagés (le Musée des Sciences de la Villette et le Musée d ' Orsay) .
No features found.

