====== Sentence Level Features ======

1. Sentence: À Tolbiac s ' est constitué de manière un peu marginale un atelier qui , sans oublier les fondements architecturaux , s ' est mis en quête d ' une certaine interpellation de la discipline .
Features :: Feature-Counts :: Feature-Lemmas
--------------------------------------------
marqueurs :: 2 :: [ oublier, certain ]
epistemique :: 1 :: [ certain ]
pas_d_indication :: 1 :: [ oublier ]
marqueurs_niveau3 :: 1 :: [ certain ]
marqueurs_niveau0 :: 1 :: [ oublier ]
epistemique_niveau3 :: 1 :: [ certain ]
pas_d_indication_niveau0 :: 1 :: [ oublier ]
Total feature counts: 8


====== Text Level Features ======

Features :: Feature-Counts :: Feature-Lemmas
--------------------------------------------
marqueurs :: 2 :: [ oublier, certain ]
epistemique :: 1 :: [ certain ]
pas_d_indication :: 1 :: [ oublier ]
marqueurs_niveau3 :: 1 :: [ certain ]
marqueurs_niveau0 :: 1 :: [ oublier ]
epistemique_niveau3 :: 1 :: [ certain ]
pas_d_indication_niveau0 :: 1 :: [ oublier ]
Total feature counts: 8

