
********** Entity Names Features **********
*******************************************

1. Sentence: Il s ' agit d ' accueillir exceptionnellement en un seul lieu des représentants venant de tout le pays , la fonction hôtelière devenant quasi institutionnelle .
No features found.


********** Emotions Features **********
***************************************

1. Sentence: Il s ' agit d ' accueillir exceptionnellement en un seul lieu des représentants venant de tout le pays , la fonction hôtelière devenant quasi institutionnelle .
No features found.


********** Modality Features **********
***************************************

1. Sentence: Il s ' agit d ' accueillir exceptionnellement en un seul lieu des représentants venant de tout le pays , la fonction hôtelière devenant quasi institutionnelle .
Features :: Feature-Counts :: Feature-Lemmas
--------------------------------------------
marqueurs :: 1 :: [ venir ]
alethique :: 1 :: [ venir ]
marqueurs_niveau3 :: 1 :: [ venir ]
alethique_niveau3 :: 1 :: [ venir ]
Total feature counts: 4


********** Adverbiaux Temporels Features **********
********************************************************

1. Sentence: Il s ' agit d ' accueillir exceptionnellement en un seul lieu des représentants venant de tout le pays , la fonction hôtelière devenant quasi institutionnelle .
No features found.

