
********** Entity Names Features **********
*******************************************

1. Sentence: Le livre explore les implications pour la France du grand paradoxe entre montée du global et retour du local .
Entity Name (Type) :: la France (LOC)


********** Emotions Features **********
***************************************

1. Sentence: Le livre explore les implications pour la France du grand paradoxe entre montée du global et retour du local .
No features found.


********** Modality Features **********
***************************************

1. Sentence: Le livre explore les implications pour la France du grand paradoxe entre montée du global et retour du local .
Features :: Feature-Counts :: Feature-Lemmas
--------------------------------------------
marqueurs :: 1 :: [ grand ]
epistemique :: 1 :: [ grand ]
marqueurs_niveau3 :: 1 :: [ grand ]
epistemique_niveau3 :: 1 :: [ grand ]
Total feature counts: 4


********** Adverbiaux Temporels Features **********
********************************************************

1. Sentence: Le livre explore les implications pour la France du grand paradoxe entre montée du global et retour du local .
No features found.

