====== Sentence Level Features ======

1. Sentence: En somme , comment ,  l ' espace urbain , à Bruxelles particulièrement limité par une vision institutionnelle et politique , pourrait mieux fonctionner pour tous . de la Senne et de la Dyle .
Features :: Feature-Counts :: Feature-Lemmas
--------------------------------------------
marqueurs :: 2 :: [ pouvoir, mieux ]
alethique :: 1 :: [ pouvoir ]
appreciatif :: 1 :: [ mieux ]
axiologique :: 1 :: [ mieux ]
deontique :: 1 :: [ pouvoir ]
epistemique :: 1 :: [ pouvoir ]
marqueurs_niveau3 :: 1 :: [ pouvoir ]
marqueurs_niveau2 :: 1 :: [ mieux ]
alethique_niveau3 :: 1 :: [ pouvoir ]
appreciatif_niveau2 :: 1 :: [ mieux ]
axiologique_niveau2 :: 1 :: [ mieux ]
deontique_niveau3 :: 1 :: [ pouvoir ]
epistemique_niveau3 :: 1 :: [ pouvoir ]
Total feature counts: 14


====== Text Level Features ======

Features :: Feature-Counts :: Feature-Lemmas
--------------------------------------------
marqueurs :: 2 :: [ pouvoir, mieux ]
alethique :: 1 :: [ pouvoir ]
appreciatif :: 1 :: [ mieux ]
axiologique :: 1 :: [ mieux ]
deontique :: 1 :: [ pouvoir ]
epistemique :: 1 :: [ pouvoir ]
marqueurs_niveau3 :: 1 :: [ pouvoir ]
marqueurs_niveau2 :: 1 :: [ mieux ]
alethique_niveau3 :: 1 :: [ pouvoir ]
appreciatif_niveau2 :: 1 :: [ mieux ]
axiologique_niveau2 :: 1 :: [ mieux ]
deontique_niveau3 :: 1 :: [ pouvoir ]
epistemique_niveau3 :: 1 :: [ pouvoir ]
Total feature counts: 14

