
********** Entity Names Features **********
*******************************************

1. Sentence: C ' est en ce sens - et non plus dans celui d ' une spécialisation unique - qu ' on parle en France de ville universitaire ou de ville de facultés .
Entity Name (Type) :: France (LOC)


********** Emotions Features **********
***************************************

1. Sentence: C ' est en ce sens - et non plus dans celui d ' une spécialisation unique - qu ' on parle en France de ville universitaire ou de ville de facultés .
No features found.


********** Modality Features **********
***************************************

1. Sentence: C ' est en ce sens - et non plus dans celui d ' une spécialisation unique - qu ' on parle en France de ville universitaire ou de ville de facultés .
Features :: Feature-Counts :: Feature-Lemmas
--------------------------------------------
marqueurs :: 1 :: [ unique ]
appreciatif :: 1 :: [ unique ]
marqueurs_niveau1 :: 1 :: [ unique ]
appreciatif_niveau1 :: 1 :: [ unique ]
Total feature counts: 4


********** Adverbiaux Temporels Features **********
********************************************************

1. Sentence: C ' est en ce sens - et non plus dans celui d ' une spécialisation unique - qu ' on parle en France de ville universitaire ou de ville de facultés .
No features found.

