====== Sentence Level Features ======

1. Sentence: Le problème du Grand Paris va au-delà .
Features :: Feature-Counts :: Feature-Lemmas
--------------------------------------------
marqueurs :: 3 :: [ problème, grand, aller ]
alethique :: 1 :: [ aller ]
appreciatif :: 1 :: [ problème ]
epistemique :: 1 :: [ grand ]
marqueurs_niveau3 :: 1 :: [ grand ]
marqueurs_niveau2 :: 1 :: [ problème ]
marqueurs_niveau1 :: 1 :: [ aller ]
alethique_niveau1 :: 1 :: [ aller ]
appreciatif_niveau2 :: 1 :: [ problème ]
epistemique_niveau3 :: 1 :: [ grand ]
Total feature counts: 12


====== Text Level Features ======

Features :: Feature-Counts :: Feature-Lemmas
--------------------------------------------
marqueurs :: 3 :: [ problème, grand, aller ]
alethique :: 1 :: [ aller ]
appreciatif :: 1 :: [ problème ]
epistemique :: 1 :: [ grand ]
marqueurs_niveau3 :: 1 :: [ grand ]
marqueurs_niveau2 :: 1 :: [ problème ]
marqueurs_niveau1 :: 1 :: [ aller ]
alethique_niveau1 :: 1 :: [ aller ]
appreciatif_niveau2 :: 1 :: [ problème ]
epistemique_niveau3 :: 1 :: [ grand ]
Total feature counts: 12

