====== Sentence Level Features ======

1. Sentence: - la spéculation sur le prix des terrains , particulièrement sur les terrains situés à l ' extérieur de ce périmètre , mais assez proches et relativement bien desservis .
Features :: Feature-Counts :: Feature-Lemmas
--------------------------------------------
marqueurs :: 2 :: [ prix, bien ]
appreciatif :: 2 :: [ prix, bien ]
axiologique :: 2 :: [ prix, bien ]
marqueurs_niveau3 :: 1 :: [ bien ]
marqueurs_niveau2 :: 1 :: [ prix ]
appreciatif_niveau3 :: 1 :: [ bien ]
appreciatif_niveau2 :: 1 :: [ prix ]
axiologique_niveau3 :: 1 :: [ bien ]
axiologique_niveau2 :: 1 :: [ prix ]
Total feature counts: 12


====== Text Level Features ======

Features :: Feature-Counts :: Feature-Lemmas
--------------------------------------------
marqueurs :: 2 :: [ prix, bien ]
appreciatif :: 2 :: [ prix, bien ]
axiologique :: 2 :: [ prix, bien ]
marqueurs_niveau3 :: 1 :: [ bien ]
marqueurs_niveau2 :: 1 :: [ prix ]
appreciatif_niveau3 :: 1 :: [ bien ]
appreciatif_niveau2 :: 1 :: [ prix ]
axiologique_niveau3 :: 1 :: [ bien ]
axiologique_niveau2 :: 1 :: [ prix ]
Total feature counts: 12

