====== Sentence Level Features ======

1. Sentence: Mais ces statistiques ne distinguent pas les ruptures de charge sur un même réseau .
Features :: Feature-Counts :: Feature-Lemmas
--------------------------------------------
marqueurs :: 1 :: [ rupture ]
pas_d_indication :: 1 :: [ rupture ]
marqueurs_niveau0 :: 1 :: [ rupture ]
pas_d_indication_niveau0 :: 1 :: [ rupture ]
Total feature counts: 4


====== Text Level Features ======

Features :: Feature-Counts :: Feature-Lemmas
--------------------------------------------
marqueurs :: 1 :: [ rupture ]
pas_d_indication :: 1 :: [ rupture ]
marqueurs_niveau0 :: 1 :: [ rupture ]
pas_d_indication_niveau0 :: 1 :: [ rupture ]
Total feature counts: 4

