
********** Entity Names Features **********
*******************************************

1. Sentence: Ces CUU seraient financés en partie par les contrats liés à chaque projet opérationnel .
Entity Name (Type) :: CUU (LOC)


********** Emotions Features **********
***************************************

1. Sentence: Ces CUU seraient financés en partie par les contrats liés à chaque projet opérationnel .
No features found.


********** Modality Features **********
***************************************

1. Sentence: Ces CUU seraient financés en partie par les contrats liés à chaque projet opérationnel .
No features found.


********** Adverbiaux Temporels Features **********
********************************************************

1. Sentence: Ces CUU seraient financés en partie par les contrats liés à chaque projet opérationnel .
No features found.

