====== Sentence Level Features ======

1. Sentence: - autoroute de l ' Ouest vers Trappes .
Entity Name (Type) :: Trappes (LOC)


====== Text Level Features ======

Entity Name (Entity Type)
-------------------------
autoroute de l ' Ouest (LOC)
Trappes (LOC)
Total entitiy counts: 2

