====== Sentence Level Features ======

1. Sentence: La volonté politique est la condition première de tout projet urbain d ' enver gure .
Features :: Feature-Counts :: Feature-Lemmas
--------------------------------------------
marqueurs :: 1 :: [ volonté ]
boulique :: 1 :: [ volonté ]
marqueurs_niveau3 :: 1 :: [ volonté ]
boulique_niveau3 :: 1 :: [ volonté ]
Total feature counts: 4


====== Text Level Features ======

Features :: Feature-Counts :: Feature-Lemmas
--------------------------------------------
marqueurs :: 1 :: [ volonté ]
boulique :: 1 :: [ volonté ]
marqueurs_niveau3 :: 1 :: [ volonté ]
boulique_niveau3 :: 1 :: [ volonté ]
Total feature counts: 4

