
********** Entity Names Features **********
*******************************************

2. Sentence: Non .
No features found.


********** Emotions Features **********
***************************************

2. Sentence: Non .
No features found.


********** Modality Features **********
***************************************

2. Sentence: Non .
No features found.


********** Adverbiaux Temporels Features **********
********************************************************

2. Sentence: Non .
No features found.

