====== Sentence Level Features ======

1. Sentence: Le problème du bassin versant de la Durance est alors posé , dans toute son épaisseur .
Features :: Feature-Counts :: Feature-Lemmas
--------------------------------------------
marqueurs :: 1 :: [ problème ]
appreciatif :: 1 :: [ problème ]
marqueurs_niveau2 :: 1 :: [ problème ]
appreciatif_niveau2 :: 1 :: [ problème ]
Total feature counts: 4


====== Text Level Features ======

Features :: Feature-Counts :: Feature-Lemmas
--------------------------------------------
marqueurs :: 1 :: [ problème ]
appreciatif :: 1 :: [ problème ]
marqueurs_niveau2 :: 1 :: [ problème ]
appreciatif_niveau2 :: 1 :: [ problème ]
Total feature counts: 4

