====== Sentence Level Features ======

1. Sentence: Le terme de satellite évoque également parfois l ' implantation systématique de villes disposées comme des points en couronne autour d ' une ville centre .
Features :: Feature-Counts :: Feature-Lemmas
--------------------------------------------
marqueurs :: 1 :: [ parfois ]
alethique :: 1 :: [ parfois ]
marqueurs_niveau3 :: 1 :: [ parfois ]
alethique_niveau3 :: 1 :: [ parfois ]
Total feature counts: 4


====== Text Level Features ======

Features :: Feature-Counts :: Feature-Lemmas
--------------------------------------------
marqueurs :: 1 :: [ parfois ]
alethique :: 1 :: [ parfois ]
marqueurs_niveau3 :: 1 :: [ parfois ]
alethique_niveau3 :: 1 :: [ parfois ]
Total feature counts: 4

