====== Sentence Level Features ======

1. Sentence: Il s ' agit alors d ' expérimenter de nouvelles coexistences — d ' objets , de pratiques et d ' économies — et cela implique une refonte des modes de production de l ' espace , à partir de l ' espace agricole .
Features :: Feature-Counts :: Feature-Lemmas
--------------------------------------------
marqueurs :: 1 :: [ partir ]
alethique :: 1 :: [ partir ]
marqueurs_niveau1 :: 1 :: [ partir ]
alethique_niveau1 :: 1 :: [ partir ]
Total feature counts: 4


====== Text Level Features ======

Features :: Feature-Counts :: Feature-Lemmas
--------------------------------------------
marqueurs :: 1 :: [ partir ]
alethique :: 1 :: [ partir ]
marqueurs_niveau1 :: 1 :: [ partir ]
alethique_niveau1 :: 1 :: [ partir ]
Total feature counts: 4

