
********** Entity Names Features **********
*******************************************

1. Sentence: À cette fin , nous avions nommé l ' atelier où nous enseignions , Alexandre Chemetoff , François Leclercq et moi ,  l ' atelier B : B comme boulevard , B comme banlieue , B comme catégorie B , qui est définitivement , en ce qui me concerne , celle dans laquelle je boxe .
Entity Name (Type) :: catégorie B (LOC)


********** Emotions Features **********
***************************************

1. Sentence: À cette fin , nous avions nommé l ' atelier où nous enseignions , Alexandre Chemetoff , François Leclercq et moi ,  l ' atelier B : B comme boulevard , B comme banlieue , B comme catégorie B , qui est définitivement , en ce qui me concerne , celle dans laquelle je boxe .
No features found.


********** Modality Features **********
***************************************

1. Sentence: À cette fin , nous avions nommé l ' atelier où nous enseignions , Alexandre Chemetoff , François Leclercq et moi ,  l ' atelier B : B comme boulevard , B comme banlieue , B comme catégorie B , qui est définitivement , en ce qui me concerne , celle dans laquelle je boxe .
Features :: Feature-Counts :: Feature-Lemmas
--------------------------------------------
marqueurs :: 1 :: [ lui ]
alethique :: 1 :: [ lui ]
epistemique :: 1 :: [ lui ]
marqueurs_niveau3 :: 1 :: [ lui ]
alethique_niveau3 :: 1 :: [ lui ]
epistemique_niveau3 :: 1 :: [ lui ]
Total feature counts: 6


********** Adverbiaux Temporels Features **********
********************************************************

1. Sentence: À cette fin , nous avions nommé l ' atelier où nous enseignions , Alexandre Chemetoff , François Leclercq et moi ,  l ' atelier B : B comme boulevard , B comme banlieue , B comme catégorie B , qui est définitivement , en ce qui me concerne , celle dans laquelle je boxe .
No features found.

