====== Sentence Level Features ======

1. Sentence: Ce qui interroge sur ce qui peut être réalisé face à un parc ?
Features :: Feature-Counts :: Feature-Lemmas
--------------------------------------------
marqueurs :: 2 :: [ pouvoir, réaliser ]
alethique :: 2 :: [ pouvoir, réaliser ]
deontique :: 1 :: [ pouvoir ]
epistemique :: 1 :: [ pouvoir ]
marqueurs_niveau3 :: 1 :: [ pouvoir ]
marqueurs_niveau1 :: 1 :: [ réaliser ]
alethique_niveau3 :: 1 :: [ pouvoir ]
alethique_niveau1 :: 1 :: [ réaliser ]
deontique_niveau3 :: 1 :: [ pouvoir ]
epistemique_niveau3 :: 1 :: [ pouvoir ]
Total feature counts: 12


====== Text Level Features ======

Features :: Feature-Counts :: Feature-Lemmas
--------------------------------------------
marqueurs :: 2 :: [ pouvoir, réaliser ]
alethique :: 2 :: [ pouvoir, réaliser ]
deontique :: 1 :: [ pouvoir ]
epistemique :: 1 :: [ pouvoir ]
marqueurs_niveau3 :: 1 :: [ pouvoir ]
marqueurs_niveau1 :: 1 :: [ réaliser ]
alethique_niveau3 :: 1 :: [ pouvoir ]
alethique_niveau1 :: 1 :: [ réaliser ]
deontique_niveau3 :: 1 :: [ pouvoir ]
epistemique_niveau3 :: 1 :: [ pouvoir ]
Total feature counts: 12

