
********** Entity Names Features **********
*******************************************

1. Sentence: Atelier Gangnet .
Entity Name (Type) :: Atelier Gangnet (LOC)


********** Emotions Features **********
***************************************

1. Sentence: Atelier Gangnet .
No features found.


********** Modality Features **********
***************************************

1. Sentence: Atelier Gangnet .
No features found.


********** Adverbiaux Temporels Features **********
********************************************************

1. Sentence: Atelier Gangnet .
No features found.

