
********** Entity Names Features **********
*******************************************

1. Sentence: Mais de quels réseaux et de quels moyens de transport ?
No features found.


********** Emotions Features **********
***************************************

1. Sentence: Mais de quels réseaux et de quels moyens de transport ?
No features found.


********** Modality Features **********
***************************************

1. Sentence: Mais de quels réseaux et de quels moyens de transport ?
No features found.


********** Adverbiaux Temporels Features **********
********************************************************

1. Sentence: Mais de quels réseaux et de quels moyens de transport ?
No features found.

