====== Sentence Level Features ======

1. Sentence: L ' autre tendance est de faire confiance à une vision sensible et synthétique (un récit génial , porté par un concepteur et / ou un élu visionnaire) .
Features :: Feature-Counts :: Feature-Lemmas
--------------------------------------------
marqueurs :: 4 :: [ confiance, sensible, génial, élu ]
pas_d_indication :: 2 :: [ sensible, élu ]
marqueurs_niveau2 :: 2 :: [ confiance, génial ]
marqueurs_niveau0 :: 2 :: [ sensible, élu ]
pas_d_indication_niveau0 :: 2 :: [ sensible, élu ]
appreciatif :: 1 :: [ génial ]
axiologique :: 1 :: [ génial ]
epistemique :: 1 :: [ confiance ]
appreciatif_niveau2 :: 1 :: [ génial ]
axiologique_niveau2 :: 1 :: [ génial ]
epistemique_niveau2 :: 1 :: [ confiance ]
Total feature counts: 18


====== Text Level Features ======

Features :: Feature-Counts :: Feature-Lemmas
--------------------------------------------
marqueurs :: 4 :: [ confiance, sensible, génial, élu ]
pas_d_indication :: 2 :: [ sensible, élu ]
marqueurs_niveau2 :: 2 :: [ confiance, génial ]
marqueurs_niveau0 :: 2 :: [ sensible, élu ]
pas_d_indication_niveau0 :: 2 :: [ sensible, élu ]
appreciatif :: 1 :: [ génial ]
axiologique :: 1 :: [ génial ]
epistemique :: 1 :: [ confiance ]
appreciatif_niveau2 :: 1 :: [ génial ]
axiologique_niveau2 :: 1 :: [ génial ]
epistemique_niveau2 :: 1 :: [ confiance ]
Total feature counts: 18

