====== Sentence Level Features ======

1. Sentence: L ' étendue des travaux , la situation économique de la ville obligeaient à concevoir simple et pas cher .
Features :: Feature-Counts :: Feature-Lemmas
--------------------------------------------
marqueurs :: 3 :: [ travail, obliger, cher ]
marqueurs_niveau3 :: 2 :: [ travail, obliger ]
appreciatif :: 1 :: [ travail ]
deontique :: 1 :: [ obliger ]
pas_d_indication :: 1 :: [ cher ]
marqueurs_niveau0 :: 1 :: [ cher ]
appreciatif_niveau3 :: 1 :: [ travail ]
deontique_niveau3 :: 1 :: [ obliger ]
pas_d_indication_niveau0 :: 1 :: [ cher ]
Total feature counts: 12


====== Text Level Features ======

Features :: Feature-Counts :: Feature-Lemmas
--------------------------------------------
marqueurs :: 3 :: [ travail, obliger, cher ]
marqueurs_niveau3 :: 2 :: [ travail, obliger ]
appreciatif :: 1 :: [ travail ]
deontique :: 1 :: [ obliger ]
pas_d_indication :: 1 :: [ cher ]
marqueurs_niveau0 :: 1 :: [ cher ]
appreciatif_niveau3 :: 1 :: [ travail ]
deontique_niveau3 :: 1 :: [ obliger ]
pas_d_indication_niveau0 :: 1 :: [ cher ]
Total feature counts: 12

