====== Sentence Level Features ======

1. Sentence: Quelle que soit la posture adoptée , agents du laisser-faire ou politiques volontaires de projets , la notion de modèle s ' avère utile pour mobiliser les acteurs vers une plus grande lisibilité des grands territoires .
Features :: Feature-Counts :: Feature-Lemmas
--------------------------------------------
marqueurs :: 3 :: [ utile, grand, grand ]
marqueurs_niveau3 :: 3 :: [ utile, grand, grand ]
epistemique :: 2 :: [ grand, grand ]
epistemique_niveau3 :: 2 :: [ grand, grand ]
appreciatif :: 1 :: [ utile ]
appreciatif_niveau3 :: 1 :: [ utile ]
Total feature counts: 12


====== Text Level Features ======

Features :: Feature-Counts :: Feature-Lemmas
--------------------------------------------
marqueurs :: 3 :: [ utile, grand, grand ]
marqueurs_niveau3 :: 3 :: [ utile, grand, grand ]
epistemique :: 2 :: [ grand, grand ]
epistemique_niveau3 :: 2 :: [ grand, grand ]
appreciatif :: 1 :: [ utile ]
appreciatif_niveau3 :: 1 :: [ utile ]
Total feature counts: 12

