
********** Entity Names Features **********
*******************************************

1. Sentence: Mobiles et immobiles , les nouvelles inégalités
Entity Name (Type) :: Mobiles (MISC)


********** Emotions Features **********
***************************************

1. Sentence: Mobiles et immobiles , les nouvelles inégalités
No features found.


********** Modality Features **********
***************************************

1. Sentence: Mobiles et immobiles , les nouvelles inégalités
Features :: Feature-Counts :: Feature-Lemmas
--------------------------------------------
marqueurs :: 2 :: [ immobile, inégalité ]
pas_d_indication :: 2 :: [ immobile, inégalité ]
marqueurs_niveau0 :: 2 :: [ immobile, inégalité ]
pas_d_indication_niveau0 :: 2 :: [ immobile, inégalité ]
Total feature counts: 8


********** Adverbiaux Temporels Features **********
********************************************************

1. Sentence: Mobiles et immobiles , les nouvelles inégalités
No features found.

