
********** Entity Names Features **********
*******************************************

1. Sentence: dès qu ’ on fait des textes de ce genre ils mettent généralement à naître un temps infini , et encore plus à s ’ asseoir dans la réalité .
No features found.


********** Emotions Features **********
***************************************

1. Sentence: dès qu ’ on fait des textes de ce genre ils mettent généralement à naître un temps infini , et encore plus à s ’ asseoir dans la réalité .
No features found.


********** Modality Features **********
***************************************

1. Sentence: dès qu ’ on fait des textes de ce genre ils mettent généralement à naître un temps infini , et encore plus à s ’ asseoir dans la réalité .
Features :: Feature-Counts :: Feature-Lemmas
--------------------------------------------
marqueurs :: 2 :: [ généralement, réalité ]
alethique :: 2 :: [ généralement, réalité ]
marqueurs_niveau3 :: 1 :: [ généralement ]
marqueurs_niveau1 :: 1 :: [ réalité ]
alethique_niveau3 :: 1 :: [ généralement ]
alethique_niveau1 :: 1 :: [ réalité ]
Total feature counts: 8


********** Adverbiaux Temporels Features **********
********************************************************

1. Sentence: dès qu ’ on fait des textes de ce genre ils mettent généralement à naître un temps infini , et encore plus à s ’ asseoir dans la réalité .
Features :: Feature-Counts :: Feature-Texts
--------------------------------------------
adverbiaux_temporels::2::['généralement', 'encore']
adverbiaux_purement_iteratifs::1::['généralement']
adverbiaux_duratifs_iteratifs::1::['encore']
adverbiaux_pointage_non_absolu::1::['encore']
adverbiaux_iterateur_frequentiel::1::['généralement']
adverbiaux_dur_iter_relatif::1::['encore']

