
********** Entity Names Features **********
*******************************************

1. Sentence: Quelle démarche devraient adopter les élus du bassin minier pour développer une industrie attachée à leur territoire ?
Entity Name (Type) :: Quelle (LOC)


********** Emotions Features **********
***************************************

1. Sentence: Quelle démarche devraient adopter les élus du bassin minier pour développer une industrie attachée à leur territoire ?
No features found.


********** Modality Features **********
***************************************

1. Sentence: Quelle démarche devraient adopter les élus du bassin minier pour développer une industrie attachée à leur territoire ?
Features :: Feature-Counts :: Feature-Lemmas
--------------------------------------------
marqueurs :: 2 :: [ devoir, élu ]
alethique :: 1 :: [ devoir ]
deontique :: 1 :: [ devoir ]
epistemique :: 1 :: [ devoir ]
pas_d_indication :: 1 :: [ élu ]
marqueurs_niveau3 :: 1 :: [ devoir ]
marqueurs_niveau0 :: 1 :: [ élu ]
alethique_niveau3 :: 1 :: [ devoir ]
deontique_niveau3 :: 1 :: [ devoir ]
epistemique_niveau3 :: 1 :: [ devoir ]
pas_d_indication_niveau0 :: 1 :: [ élu ]
Total feature counts: 12


********** Adverbiaux Temporels Features **********
********************************************************

1. Sentence: Quelle démarche devraient adopter les élus du bassin minier pour développer une industrie attachée à leur territoire ?
No features found.

