====== Sentence Level Features ======

1. Sentence: Nous sommes entièrement d ’ accord sur le principe , mais il faut pouvoir le réaliser .
Features :: Feature-Counts :: Feature-Lemmas
--------------------------------------------
marqueurs :: 3 :: [ falloir, pouvoir, réaliser ]
alethique :: 2 :: [ pouvoir, réaliser ]
deontique :: 2 :: [ falloir, pouvoir ]
marqueurs_niveau3 :: 2 :: [ falloir, pouvoir ]
deontique_niveau3 :: 2 :: [ falloir, pouvoir ]
epistemique :: 1 :: [ pouvoir ]
marqueurs_niveau1 :: 1 :: [ réaliser ]
alethique_niveau3 :: 1 :: [ pouvoir ]
alethique_niveau1 :: 1 :: [ réaliser ]
epistemique_niveau3 :: 1 :: [ pouvoir ]
Total feature counts: 16


====== Text Level Features ======

Features :: Feature-Counts :: Feature-Lemmas
--------------------------------------------
marqueurs :: 3 :: [ falloir, pouvoir, réaliser ]
alethique :: 2 :: [ pouvoir, réaliser ]
deontique :: 2 :: [ falloir, pouvoir ]
marqueurs_niveau3 :: 2 :: [ falloir, pouvoir ]
deontique_niveau3 :: 2 :: [ falloir, pouvoir ]
epistemique :: 1 :: [ pouvoir ]
marqueurs_niveau1 :: 1 :: [ réaliser ]
alethique_niveau3 :: 1 :: [ pouvoir ]
alethique_niveau1 :: 1 :: [ réaliser ]
epistemique_niveau3 :: 1 :: [ pouvoir ]
Total feature counts: 16

