====== Sentence Level Features ======

1. Sentence: Nul besoin d ' un document de 500 pages pour exprimer cette vision politique , mais de quelques énoncés qui permettent d ' imaginer le futur du territoire et dessinent le cadre de l ' action à entreprendre , à différentes échelles .
Features :: Feature-Counts :: Feature-Lemmas
--------------------------------------------
marqueurs :: 4 :: [ nul, besoin, permettre, imaginer ]
marqueurs_niveau3 :: 3 :: [ besoin, permettre, imaginer ]
alethique :: 1 :: [ besoin ]
appreciatif :: 1 :: [ nul ]
axiologique :: 1 :: [ nul ]
boulique :: 1 :: [ besoin ]
deontique :: 1 :: [ permettre ]
epistemique :: 1 :: [ imaginer ]
marqueurs_niveau2 :: 1 :: [ nul ]
alethique_niveau3 :: 1 :: [ besoin ]
appreciatif_niveau2 :: 1 :: [ nul ]
axiologique_niveau2 :: 1 :: [ nul ]
boulique_niveau3 :: 1 :: [ besoin ]
deontique_niveau3 :: 1 :: [ permettre ]
epistemique_niveau3 :: 1 :: [ imaginer ]
Total feature counts: 20


====== Text Level Features ======

Features :: Feature-Counts :: Feature-Lemmas
--------------------------------------------
marqueurs :: 4 :: [ nul, besoin, permettre, imaginer ]
marqueurs_niveau3 :: 3 :: [ besoin, permettre, imaginer ]
alethique :: 1 :: [ besoin ]
appreciatif :: 1 :: [ nul ]
axiologique :: 1 :: [ nul ]
boulique :: 1 :: [ besoin ]
deontique :: 1 :: [ permettre ]
epistemique :: 1 :: [ imaginer ]
marqueurs_niveau2 :: 1 :: [ nul ]
alethique_niveau3 :: 1 :: [ besoin ]
appreciatif_niveau2 :: 1 :: [ nul ]
axiologique_niveau2 :: 1 :: [ nul ]
boulique_niveau3 :: 1 :: [ besoin ]
deontique_niveau3 :: 1 :: [ permettre ]
epistemique_niveau3 :: 1 :: [ imaginer ]
Total feature counts: 20

