
********** Entity Names Features **********
*******************************************

1. Sentence: Là aussi , un projet de loi est en préparation pour essayer de passer outre au stade de ce schéma directeur lui-même .
No features found.


********** Emotions Features **********
***************************************

1. Sentence: Là aussi , un projet de loi est en préparation pour essayer de passer outre au stade de ce schéma directeur lui-même .
No features found.


********** Modality Features **********
***************************************

1. Sentence: Là aussi , un projet de loi est en préparation pour essayer de passer outre au stade de ce schéma directeur lui-même .
Features :: Feature-Counts :: Feature-Lemmas
--------------------------------------------
marqueurs :: 2 :: [ loi, essayer ]
boulique :: 1 :: [ essayer ]
deontique :: 1 :: [ loi ]
epistemique :: 1 :: [ essayer ]
marqueurs_niveau3 :: 1 :: [ essayer ]
marqueurs_niveau2 :: 1 :: [ loi ]
boulique_niveau3 :: 1 :: [ essayer ]
deontique_niveau2 :: 1 :: [ loi ]
epistemique_niveau3 :: 1 :: [ essayer ]
Total feature counts: 10


********** Adverbiaux Temporels Features **********
********************************************************

1. Sentence: Là aussi , un projet de loi est en préparation pour essayer de passer outre au stade de ce schéma directeur lui-même .
No features found.

