
********** Entity Names Features **********
*******************************************

1. Sentence: Trop simple ?
No features found.


********** Emotions Features **********
***************************************

1. Sentence: Trop simple ?
No features found.


********** Modality Features **********
***************************************

1. Sentence: Trop simple ?
No features found.


********** Adverbiaux Temporels Features **********
********************************************************

1. Sentence: Trop simple ?
No features found.

