====== Sentence Level Features ======

1. Sentence: C ' est là un phénomène urbain très général , plutôt que la conséquence d ' une concentration exagérée (2) .
Entity Name (Type) :: C (LOC)


====== Text Level Features ======

Entity Name (Entity Type)
-------------------------
C (LOC)
Total entitiy counts: 1

