====== Sentence Level Features ======

1. Sentence: J ' anime également depuis 2002 les conférences — intitulées « 5 à 7 » — du club , où un invité interpelle les aménageurs sur des questions sociétales .
Entity Name (Type) :: J ' (ORG)


====== Text Level Features ======

Entity Name (Entity Type)
-------------------------
J ' (ORG)
Total entitiy counts: 1

