====== Sentence Level Features ======

1. Sentence: Les accès des riverains seront encore contrôlés;
Features :: Feature-Counts :: Feature-Lemmas
--------------------------------------------
marqueurs :: 1 :: [ contrôler ]
deontique :: 1 :: [ contrôler ]
marqueurs_niveau1 :: 1 :: [ contrôler ]
deontique_niveau1 :: 1 :: [ contrôler ]
Total feature counts: 4


====== Text Level Features ======

Features :: Feature-Counts :: Feature-Lemmas
--------------------------------------------
marqueurs :: 1 :: [ contrôler ]
deontique :: 1 :: [ contrôler ]
marqueurs_niveau1 :: 1 :: [ contrôler ]
deontique_niveau1 :: 1 :: [ contrôler ]
Total feature counts: 4

