====== Sentence Level Features ======

1. Sentence: C ' est un grave échec pour moi .
Entity Name (Type) :: C (MISC)


====== Text Level Features ======

Entity Name (Entity Type)
-------------------------
C (MISC)
Total entitiy counts: 1

