====== Sentence Level Features ======

1. Sentence: C ' est un grave échec pour moi .
Features :: Feature-Counts :: Feature-Lemmas
--------------------------------------------
marqueurs :: 3 :: [ grave, échec, lui ]
appreciatif :: 2 :: [ grave, échec ]
marqueurs_niveau2 :: 2 :: [ grave, échec ]
appreciatif_niveau2 :: 2 :: [ grave, échec ]
alethique :: 1 :: [ lui ]
axiologique :: 1 :: [ grave ]
epistemique :: 1 :: [ lui ]
marqueurs_niveau3 :: 1 :: [ lui ]
alethique_niveau3 :: 1 :: [ lui ]
axiologique_niveau2 :: 1 :: [ grave ]
epistemique_niveau3 :: 1 :: [ lui ]
Total feature counts: 16


====== Text Level Features ======

Features :: Feature-Counts :: Feature-Lemmas
--------------------------------------------
marqueurs :: 3 :: [ grave, échec, lui ]
appreciatif :: 2 :: [ grave, échec ]
marqueurs_niveau2 :: 2 :: [ grave, échec ]
appreciatif_niveau2 :: 2 :: [ grave, échec ]
alethique :: 1 :: [ lui ]
axiologique :: 1 :: [ grave ]
epistemique :: 1 :: [ lui ]
marqueurs_niveau3 :: 1 :: [ lui ]
alethique_niveau3 :: 1 :: [ lui ]
axiologique_niveau2 :: 1 :: [ grave ]
epistemique_niveau3 :: 1 :: [ lui ]
Total feature counts: 16

