
********** Entity Names Features **********
*******************************************

1. Sentence: J ' avais alors une vision très manichéenne : d ' un côté Le Corbusier dont j ' avais visité tout ce que j ' avais pu , de l ' autre le Classicisme et l ' Académisme .
Entity Name (Type) :: Académisme (MISC)


********** Emotions Features **********
***************************************

1. Sentence: J ' avais alors une vision très manichéenne : d ' un côté Le Corbusier dont j ' avais visité tout ce que j ' avais pu , de l ' autre le Classicisme et l ' Académisme .
No features found.


********** Modality Features **********
***************************************

1. Sentence: J ' avais alors une vision très manichéenne : d ' un côté Le Corbusier dont j ' avais visité tout ce que j ' avais pu , de l ' autre le Classicisme et l ' Académisme .
Features :: Feature-Counts :: Feature-Lemmas
--------------------------------------------
marqueurs :: 1 :: [ pouvoir ]
alethique :: 1 :: [ pouvoir ]
deontique :: 1 :: [ pouvoir ]
epistemique :: 1 :: [ pouvoir ]
marqueurs_niveau3 :: 1 :: [ pouvoir ]
alethique_niveau3 :: 1 :: [ pouvoir ]
deontique_niveau3 :: 1 :: [ pouvoir ]
epistemique_niveau3 :: 1 :: [ pouvoir ]
Total feature counts: 8


********** Adverbiaux Temporels Features **********
********************************************************

1. Sentence: J ' avais alors une vision très manichéenne : d ' un côté Le Corbusier dont j ' avais visité tout ce que j ' avais pu , de l ' autre le Classicisme et l ' Académisme .
No features found.

