
********** Entity Names Features **********
*******************************************

1. Sentence: En restant bien sûr dans des ensembles très aérés , avec beaucoup de parcs , d ' espaces publics confortables .
No features found.


********** Emotions Features **********
***************************************

1. Sentence: En restant bien sûr dans des ensembles très aérés , avec beaucoup de parcs , d ' espaces publics confortables .
No features found.


********** Modality Features **********
***************************************

1. Sentence: En restant bien sûr dans des ensembles très aérés , avec beaucoup de parcs , d ' espaces publics confortables .
Features :: Feature-Counts :: Feature-Lemmas
--------------------------------------------
marqueurs :: 3 :: [ bien, sûr, beaucoup ]
epistemique :: 2 :: [ sûr, beaucoup ]
appreciatif :: 1 :: [ bien ]
axiologique :: 1 :: [ bien ]
marqueurs_niveau3 :: 1 :: [ bien ]
marqueurs_niveau2 :: 1 :: [ sûr ]
marqueurs_niveau1 :: 1 :: [ beaucoup ]
appreciatif_niveau3 :: 1 :: [ bien ]
axiologique_niveau3 :: 1 :: [ bien ]
epistemique_niveau2 :: 1 :: [ sûr ]
epistemique_niveau1 :: 1 :: [ beaucoup ]
Total feature counts: 14


********** Adverbiaux Temporels Features **********
********************************************************

1. Sentence: En restant bien sûr dans des ensembles très aérés , avec beaucoup de parcs , d ' espaces publics confortables .
No features found.

