
********** Entity Names Features **********
*******************************************

1. Sentence: L ' histoire explique aussi l ' évolution du centre des activités tertiaires : la présence à Paris du gouvernement , la centralisation du pouvoir lui ont donné son importance;
Entity Name (Type) :: Paris (LOC)


********** Emotions Features **********
***************************************

1. Sentence: L ' histoire explique aussi l ' évolution du centre des activités tertiaires : la présence à Paris du gouvernement , la centralisation du pouvoir lui ont donné son importance;
No features found.


********** Modality Features **********
***************************************

1. Sentence: L ' histoire explique aussi l ' évolution du centre des activités tertiaires : la présence à Paris du gouvernement , la centralisation du pouvoir lui ont donné son importance;
Features :: Feature-Counts :: Feature-Lemmas
--------------------------------------------
marqueurs :: 2 :: [ pouvoir, lui ]
alethique :: 2 :: [ pouvoir, lui ]
epistemique :: 2 :: [ pouvoir, lui ]
marqueurs_niveau3 :: 2 :: [ pouvoir, lui ]
alethique_niveau3 :: 2 :: [ pouvoir, lui ]
epistemique_niveau3 :: 2 :: [ pouvoir, lui ]
deontique :: 1 :: [ pouvoir ]
deontique_niveau3 :: 1 :: [ pouvoir ]
Total feature counts: 14


********** Adverbiaux Temporels Features **********
********************************************************

1. Sentence: L ' histoire explique aussi l ' évolution du centre des activités tertiaires : la présence à Paris du gouvernement , la centralisation du pouvoir lui ont donné son importance;
No features found.

