====== Sentence Level Features ======

1. Sentence: Troisième constat :  l ' expérience du paysage est désormais indissociable de la mobilité .
Features :: Feature-Counts :: Feature-Texts
--------------------------------------------
adverbiaux_temporels::1::['désormais']
adverbiaux_duratifs_iteratifs::1::['désormais']


====== Text Level Features ======

Features :: Feature-Counts :: Feature-Texts
--------------------------------------------
adverbiaux_temporels::1::['désormais']
adverbiaux_duratifs_iteratifs::1::['désormais']
Total feature counts: 2

