====== Sentence Level Features ======

1. Sentence: je m ’ efforcerai de le faire selon la tradition de cette Maison aussi véridique que possible .
Features :: Feature-Counts :: Feature-Lemmas
--------------------------------------------
marqueurs :: 4 :: [ efforcer, selon, véridique, possible ]
marqueurs_niveau3 :: 3 :: [ efforcer, selon, possible ]
alethique :: 2 :: [ véridique, possible ]
boulique :: 1 :: [ efforcer ]
epistemique :: 1 :: [ selon ]
marqueurs_niveau1 :: 1 :: [ véridique ]
alethique_niveau3 :: 1 :: [ possible ]
alethique_niveau1 :: 1 :: [ véridique ]
boulique_niveau3 :: 1 :: [ efforcer ]
epistemique_niveau3 :: 1 :: [ selon ]
Total feature counts: 16


====== Text Level Features ======

Features :: Feature-Counts :: Feature-Lemmas
--------------------------------------------
marqueurs :: 4 :: [ efforcer, selon, véridique, possible ]
marqueurs_niveau3 :: 3 :: [ efforcer, selon, possible ]
alethique :: 2 :: [ véridique, possible ]
boulique :: 1 :: [ efforcer ]
epistemique :: 1 :: [ selon ]
marqueurs_niveau1 :: 1 :: [ véridique ]
alethique_niveau3 :: 1 :: [ possible ]
alethique_niveau1 :: 1 :: [ véridique ]
boulique_niveau3 :: 1 :: [ efforcer ]
epistemique_niveau3 :: 1 :: [ selon ]
Total feature counts: 16

