
********** Entity Names Features **********
*******************************************

1. Sentence: TOTAL du secteur tertiaire			2142 , 8	54 , 3	%
Entity Name (Type) :: TOTAL (LOC)


********** Emotions Features **********
***************************************

1. Sentence: TOTAL du secteur tertiaire			2142 , 8	54 , 3	%
No features found.


********** Modality Features **********
***************************************

1. Sentence: TOTAL du secteur tertiaire			2142 , 8	54 , 3	%
No features found.


********** Adverbiaux Temporels Features **********
********************************************************

1. Sentence: TOTAL du secteur tertiaire			2142 , 8	54 , 3	%
No features found.

