
********** Entity Names Features **********
*******************************************

2. Sentence: Elles commencent à l ' École des Arts Décoratifs , dont je retiens deux apprentissages déterminants : la pratique et le goût du dessin , la pratique et le goût du « projet » .
Entity Name (Type) :: École des Arts Décoratifs (ORG)


********** Emotions Features **********
***************************************

2. Sentence: Elles commencent à l ' École des Arts Décoratifs , dont je retiens deux apprentissages déterminants : la pratique et le goût du dessin , la pratique et le goût du « projet » .
No features found.


********** Modality Features **********
***************************************

2. Sentence: Elles commencent à l ' École des Arts Décoratifs , dont je retiens deux apprentissages déterminants : la pratique et le goût du dessin , la pratique et le goût du « projet » .
Features :: Feature-Counts :: Feature-Lemmas
--------------------------------------------
marqueurs :: 1 :: [ école ]
alethique :: 1 :: [ école ]
marqueurs_niveau1 :: 1 :: [ école ]
alethique_niveau1 :: 1 :: [ école ]
Total feature counts: 4


********** Adverbiaux Temporels Features **********
********************************************************

2. Sentence: Elles commencent à l ' École des Arts Décoratifs , dont je retiens deux apprentissages déterminants : la pratique et le goût du dessin , la pratique et le goût du « projet » .
No features found.

