
********** Entity Names Features **********
*******************************************

1. Sentence: C ' est pratiquement sur le R .
Entity Name (Type) :: R (LOC)


********** Emotions Features **********
***************************************

1. Sentence: C ' est pratiquement sur le R .
No features found.


********** Modality Features **********
***************************************

1. Sentence: C ' est pratiquement sur le R .
No features found.


********** Adverbiaux Temporels Features **********
********************************************************

1. Sentence: C ' est pratiquement sur le R .
No features found.

