====== Sentence Level Features ======

1. Sentence: Dans un projet comme celui-ci , les choix architecturaux sont cruciaux .
Features :: Feature-Counts :: Feature-Lemmas
--------------------------------------------
marqueurs :: 1 :: [ choix ]
boulique :: 1 :: [ choix ]
marqueurs_niveau2 :: 1 :: [ choix ]
boulique_niveau2 :: 1 :: [ choix ]
Total feature counts: 4


====== Text Level Features ======

Features :: Feature-Counts :: Feature-Lemmas
--------------------------------------------
marqueurs :: 1 :: [ choix ]
boulique :: 1 :: [ choix ]
marqueurs_niveau2 :: 1 :: [ choix ]
boulique_niveau2 :: 1 :: [ choix ]
Total feature counts: 4

