====== Sentence Level Features ======

1. Sentence: Aujourd ' hui , plus d ' un tiers des Parisiens intra-muros travaillent en banlieue .
Features :: Feature-Counts :: Feature-Lemmas
--------------------------------------------
marqueurs :: 1 :: [ travailler ]
appreciatif :: 1 :: [ travailler ]
marqueurs_niveau2 :: 1 :: [ travailler ]
appreciatif_niveau2 :: 1 :: [ travailler ]
Total feature counts: 4


====== Text Level Features ======

Features :: Feature-Counts :: Feature-Lemmas
--------------------------------------------
marqueurs :: 1 :: [ travailler ]
appreciatif :: 1 :: [ travailler ]
marqueurs_niveau2 :: 1 :: [ travailler ]
appreciatif_niveau2 :: 1 :: [ travailler ]
Total feature counts: 4

