====== Sentence Level Features ======

1. Sentence: Parfois je vais vers la proposition urbaine .
Features :: Feature-Counts :: Feature-Texts
--------------------------------------------
adverbiaux_temporels::1::['Parfois']
adverbiaux_purement_iteratifs::1::['Parfois']
adverbiaux_iterateur_frequentiel::1::['Parfois']


====== Text Level Features ======

Features :: Feature-Counts :: Feature-Texts
--------------------------------------------
adverbiaux_temporels::1::['Parfois']
adverbiaux_purement_iteratifs::1::['Parfois']
adverbiaux_iterateur_frequentiel::1::['Parfois']
Total feature counts: 3

