====== Sentence Level Features ======

1. Sentence: Il n ' y a là aucun minimalisme de principe .
Features :: Feature-Counts :: Feature-Lemmas
--------------------------------------------
marqueurs :: 1 :: [ aucun ]
alethique :: 1 :: [ aucun ]
marqueurs_niveau3 :: 1 :: [ aucun ]
alethique_niveau3 :: 1 :: [ aucun ]
Total feature counts: 4


====== Text Level Features ======

Features :: Feature-Counts :: Feature-Lemmas
--------------------------------------------
marqueurs :: 1 :: [ aucun ]
alethique :: 1 :: [ aucun ]
marqueurs_niveau3 :: 1 :: [ aucun ]
alethique_niveau3 :: 1 :: [ aucun ]
Total feature counts: 4

