====== Sentence Level Features ======

1. Sentence: Bruno Fortier Les écrits Un atlas de Paris Il peut sembler paradoxal d ' aller chercher un paysage dans ce qu ' il a de plus secret .
Features :: Feature-Counts :: Feature-Lemmas
--------------------------------------------
marqueurs :: 4 :: [ pouvoir, sembler, aller, chercher ]
marqueurs_niveau3 :: 3 :: [ pouvoir, sembler, chercher ]
alethique :: 2 :: [ pouvoir, aller ]
epistemique :: 2 :: [ pouvoir, sembler ]
epistemique_niveau3 :: 2 :: [ pouvoir, sembler ]
boulique :: 1 :: [ chercher ]
deontique :: 1 :: [ pouvoir ]
marqueurs_niveau1 :: 1 :: [ aller ]
alethique_niveau3 :: 1 :: [ pouvoir ]
alethique_niveau1 :: 1 :: [ aller ]
boulique_niveau3 :: 1 :: [ chercher ]
deontique_niveau3 :: 1 :: [ pouvoir ]
Total feature counts: 20


====== Text Level Features ======

Features :: Feature-Counts :: Feature-Lemmas
--------------------------------------------
marqueurs :: 4 :: [ pouvoir, sembler, aller, chercher ]
marqueurs_niveau3 :: 3 :: [ pouvoir, sembler, chercher ]
alethique :: 2 :: [ pouvoir, aller ]
epistemique :: 2 :: [ pouvoir, sembler ]
epistemique_niveau3 :: 2 :: [ pouvoir, sembler ]
boulique :: 1 :: [ chercher ]
deontique :: 1 :: [ pouvoir ]
marqueurs_niveau1 :: 1 :: [ aller ]
alethique_niveau3 :: 1 :: [ pouvoir ]
alethique_niveau1 :: 1 :: [ aller ]
boulique_niveau3 :: 1 :: [ chercher ]
deontique_niveau3 :: 1 :: [ pouvoir ]
Total feature counts: 20

