
********** Entity Names Features **********
*******************************************

1. Sentence: En 1963 , les statistiques de transport faisaient apparaître les chiffres suivants :
No features found.


********** Emotions Features **********
***************************************

1. Sentence: En 1963 , les statistiques de transport faisaient apparaître les chiffres suivants :
No features found.


********** Modality Features **********
***************************************

1. Sentence: En 1963 , les statistiques de transport faisaient apparaître les chiffres suivants :
No features found.


********** Adverbiaux Temporels Features **********
********************************************************

1. Sentence: En 1963 , les statistiques de transport faisaient apparaître les chiffres suivants :
Features :: Feature-Counts :: Feature-Texts
--------------------------------------------
adverbiaux_temporels::1::['En 1963']
adverbiaux_localisation_temporelle::1::['En 1963']
adverbiaux_pointage_absolu::1::['En 1963']
adverbiaux_pointage_non_absolu::1::['En 1963']
adverbiaux_loc_temp_focalisation_id::1::['En 1963']
adverbiaux_loc_temp_regionalisation_id::1::['En 1963']
adverbiaux_loc_temp_pointage_non_absolu::1::['En 1963']
adverbiaux_dur_iter_absolu::1::['En 1963']

