
********** Entity Names Features **********
*******************************************

1. Sentence: CONCLUSION GÉNÉRALE
Entity Name (Type) :: CONCLUSION GÉNÉRALE (ORG)


********** Emotions Features **********
***************************************

1. Sentence: CONCLUSION GÉNÉRALE
No features found.


********** Modality Features **********
***************************************

1. Sentence: CONCLUSION GÉNÉRALE
No features found.


********** Adverbiaux Temporels Features **********
********************************************************

1. Sentence: CONCLUSION GÉNÉRALE
No features found.

