
********** Entity Names Features **********
*******************************************

1. Sentence: Le programme des servitudes de chaque plan communal prévoit la division des parties agglomérées en deux ou trois divisions selon les cas .
No features found.


********** Emotions Features **********
***************************************

1. Sentence: Le programme des servitudes de chaque plan communal prévoit la division des parties agglomérées en deux ou trois divisions selon les cas .
No features found.


********** Modality Features **********
***************************************

1. Sentence: Le programme des servitudes de chaque plan communal prévoit la division des parties agglomérées en deux ou trois divisions selon les cas .
Features :: Feature-Counts :: Feature-Lemmas
--------------------------------------------
marqueurs :: 1 :: [ selon ]
epistemique :: 1 :: [ selon ]
marqueurs_niveau3 :: 1 :: [ selon ]
epistemique_niveau3 :: 1 :: [ selon ]
Total feature counts: 4


********** Adverbiaux Temporels Features **********
********************************************************

1. Sentence: Le programme des servitudes de chaque plan communal prévoit la division des parties agglomérées en deux ou trois divisions selon les cas .
No features found.

