====== Sentence Level Features ======

1. Sentence: »
No features found.

2. Sentence: Cette stratégie n ' a pas empêché les départs .
Features :: Feature-Counts :: Feature-Lemmas
--------------------------------------------
marqueurs :: 1 :: [ empêcher ]
pas_d_indication :: 1 :: [ empêcher ]
marqueurs_niveau0 :: 1 :: [ empêcher ]
pas_d_indication_niveau0 :: 1 :: [ empêcher ]
Total feature counts: 4


====== Text Level Features ======

Features :: Feature-Counts :: Feature-Lemmas
--------------------------------------------
marqueurs :: 1 :: [ empêcher ]
pas_d_indication :: 1 :: [ empêcher ]
marqueurs_niveau0 :: 1 :: [ empêcher ]
pas_d_indication_niveau0 :: 1 :: [ empêcher ]
Total feature counts: 4

