====== Sentence Level Features ======

1. Sentence: Et le projet est entré en phase opérationnelle en 2000 .
Features :: Feature-Counts :: Feature-Texts
--------------------------------------------
adverbiaux_temporels::1::['en 2000']
adverbiaux_localisation_temporelle::1::['en 2000']
adverbiaux_pointage_absolu::1::['en 2000']
adverbiaux_pointage_non_absolu::1::['en 2000']
adverbiaux_loc_temp_focalisation_id::1::['en 2000']
adverbiaux_loc_temp_regionalisation_id::1::['en 2000']
adverbiaux_loc_temp_pointage_non_absolu::1::['en 2000']
adverbiaux_dur_iter_absolu::1::['en 2000']


====== Text Level Features ======

Features :: Feature-Counts :: Feature-Texts
--------------------------------------------
adverbiaux_temporels::1::['en 2000']
adverbiaux_localisation_temporelle::1::['en 2000']
adverbiaux_pointage_absolu::1::['en 2000']
adverbiaux_pointage_non_absolu::1::['en 2000']
adverbiaux_loc_temp_focalisation_id::1::['en 2000']
adverbiaux_loc_temp_regionalisation_id::1::['en 2000']
adverbiaux_loc_temp_pointage_non_absolu::1::['en 2000']
adverbiaux_dur_iter_absolu::1::['en 2000']
Total feature counts: 8

