====== Sentence Level Features ======

1. Sentence: Après la décision négative du maire , François Grether propose d ' instaurer une silhouette inclinée , haute près de l ' avenue sur le fer et basse en bord de Seine .
Features :: Feature-Counts :: Feature-Lemmas
--------------------------------------------
marqueurs :: 3 :: [ décision, négatif, haut ]
pas_d_indication :: 2 :: [ négatif, haut ]
marqueurs_niveau0 :: 2 :: [ négatif, haut ]
pas_d_indication_niveau0 :: 2 :: [ négatif, haut ]
boulique :: 1 :: [ décision ]
epistemique :: 1 :: [ décision ]
marqueurs_niveau2 :: 1 :: [ décision ]
boulique_niveau2 :: 1 :: [ décision ]
epistemique_niveau2 :: 1 :: [ décision ]
Total feature counts: 14


====== Text Level Features ======

Features :: Feature-Counts :: Feature-Lemmas
--------------------------------------------
marqueurs :: 3 :: [ décision, négatif, haut ]
pas_d_indication :: 2 :: [ négatif, haut ]
marqueurs_niveau0 :: 2 :: [ négatif, haut ]
pas_d_indication_niveau0 :: 2 :: [ négatif, haut ]
boulique :: 1 :: [ décision ]
epistemique :: 1 :: [ décision ]
marqueurs_niveau2 :: 1 :: [ décision ]
boulique_niveau2 :: 1 :: [ décision ]
epistemique_niveau2 :: 1 :: [ décision ]
Total feature counts: 14

