====== Sentence Level Features ======

1. Sentence: Mes interventions ont toujours été que chaque cas est un cas unique .
Entity Name (Type) :: Mes (LOC)


====== Text Level Features ======

Entity Name (Entity Type)
-------------------------
Mes (LOC)
Total entitiy counts: 1

