====== Sentence Level Features ======

1. Sentence: Je découvre le travail de Yann Kersalé dont l ' œuvre lumineuse sur la base sous-marine a modiﬁé l ' image et la vie de Saint-Nazaire .
Features :: Feature-Counts :: Feature-Lemmas
--------------------------------------------
marqueurs :: 3 :: [ découvrir, travail, lumineux ]
pas_d_indication :: 2 :: [ découvrir, lumineux ]
marqueurs_niveau0 :: 2 :: [ découvrir, lumineux ]
pas_d_indication_niveau0 :: 2 :: [ découvrir, lumineux ]
appreciatif :: 1 :: [ travail ]
marqueurs_niveau3 :: 1 :: [ travail ]
appreciatif_niveau3 :: 1 :: [ travail ]
Total feature counts: 12


====== Text Level Features ======

Features :: Feature-Counts :: Feature-Lemmas
--------------------------------------------
marqueurs :: 3 :: [ découvrir, travail, lumineux ]
pas_d_indication :: 2 :: [ découvrir, lumineux ]
marqueurs_niveau0 :: 2 :: [ découvrir, lumineux ]
pas_d_indication_niveau0 :: 2 :: [ découvrir, lumineux ]
appreciatif :: 1 :: [ travail ]
marqueurs_niveau3 :: 1 :: [ travail ]
appreciatif_niveau3 :: 1 :: [ travail ]
Total feature counts: 12

