
********** Entity Names Features **********
*******************************************

1. Sentence: III - LES MOYENS DE TRANSPORT ET LES OPTIONS DU SCHÉMA DIRECTEUR
Entity Name (Type) :: SCHÉMA DIRECTEUR (ORG)


********** Emotions Features **********
***************************************

1. Sentence: III - LES MOYENS DE TRANSPORT ET LES OPTIONS DU SCHÉMA DIRECTEUR
No features found.


********** Modality Features **********
***************************************

1. Sentence: III - LES MOYENS DE TRANSPORT ET LES OPTIONS DU SCHÉMA DIRECTEUR
No features found.


********** Adverbiaux Temporels Features **********
********************************************************

1. Sentence: III - LES MOYENS DE TRANSPORT ET LES OPTIONS DU SCHÉMA DIRECTEUR
No features found.

