====== Sentence Level Features ======

1. Sentence: Les deux valeurs sont exploitées avec un sentiment durable ou événementiel comme l ' a montré l ' Expo 2002 .
Features :: Feature-Counts :: Feature-Lemmas
--------------------------------------------
marqueurs :: 1 :: [ exploiter ]
appreciatif :: 1 :: [ exploiter ]
axiologique :: 1 :: [ exploiter ]
marqueurs_niveau1 :: 1 :: [ exploiter ]
appreciatif_niveau1 :: 1 :: [ exploiter ]
axiologique_niveau1 :: 1 :: [ exploiter ]
Total feature counts: 6


====== Text Level Features ======

Features :: Feature-Counts :: Feature-Lemmas
--------------------------------------------
marqueurs :: 1 :: [ exploiter ]
appreciatif :: 1 :: [ exploiter ]
axiologique :: 1 :: [ exploiter ]
marqueurs_niveau1 :: 1 :: [ exploiter ]
appreciatif_niveau1 :: 1 :: [ exploiter ]
axiologique_niveau1 :: 1 :: [ exploiter ]
Total feature counts: 6

