====== Sentence Level Features ======

1. Sentence: a) Le Nord et la vallée de l ' Oise
Entity Name (Type) :: Oise (LOC)


====== Text Level Features ======

Entity Name (Entity Type)
-------------------------
Nord (LOC)
Oise (LOC)
Total entitiy counts: 2

