====== Sentence Level Features ======

1. Sentence: La rénovation des vieux quartiers denses contribue d ' ailleurs à ce desserrement : la ville de Paris a perdu 100 .
Features :: Feature-Counts :: Feature-Lemmas
--------------------------------------------
marqueurs :: 2 :: [ vieux, perdre ]
appreciatif :: 1 :: [ perdre ]
pas_d_indication :: 1 :: [ vieux ]
marqueurs_niveau2 :: 1 :: [ perdre ]
marqueurs_niveau0 :: 1 :: [ vieux ]
appreciatif_niveau2 :: 1 :: [ perdre ]
pas_d_indication_niveau0 :: 1 :: [ vieux ]
Total feature counts: 8


====== Text Level Features ======

Features :: Feature-Counts :: Feature-Lemmas
--------------------------------------------
marqueurs :: 2 :: [ vieux, perdre ]
appreciatif :: 1 :: [ perdre ]
pas_d_indication :: 1 :: [ vieux ]
marqueurs_niveau2 :: 1 :: [ perdre ]
marqueurs_niveau0 :: 1 :: [ vieux ]
appreciatif_niveau2 :: 1 :: [ perdre ]
pas_d_indication_niveau0 :: 1 :: [ vieux ]
Total feature counts: 8

