====== Sentence Level Features ======

1. Sentence: Quand , en 1982-1983 , nous avons entrepris à l ' Apur le planprogramme de l ' est parisien — document de référence pour une vaste série d ' aménagements urbains dans sept arrondissements — , nous n ' avions ni méthode ni périmètre .
Features :: Feature-Counts :: Feature-Texts
--------------------------------------------
adverbiaux_temporels::2::['en 1982_1983', 'en 1982']
adverbiaux_localisation_temporelle::2::['en 1982_1983', 'en 1982']
adverbiaux_pointage_absolu::2::['en 1982_1983', 'en 1982']
adverbiaux_pointage_non_absolu::1::['en 1982']
adverbiaux_loc_temp_pointage_absolu::1::['en 1982_1983']
adverbiaux_loc_temp_pointage_non_absolu::1::['en 1982']
adverbiaux_dur_iter_absolu::1::['en 1982']


====== Text Level Features ======

Features :: Feature-Counts :: Feature-Texts
--------------------------------------------
adverbiaux_temporels::2::['en 1982_1983', 'en 1982']
adverbiaux_localisation_temporelle::2::['en 1982_1983', 'en 1982']
adverbiaux_pointage_absolu::2::['en 1982_1983', 'en 1982']
adverbiaux_pointage_non_absolu::1::['en 1982']
adverbiaux_loc_temp_pointage_absolu::1::['en 1982_1983']
adverbiaux_loc_temp_pointage_non_absolu::1::['en 1982']
adverbiaux_dur_iter_absolu::1::['en 1982']
Total feature counts: 10

