
********** Entity Names Features **********
*******************************************

1. Sentence: Comment proposer un projet qui ait du sens ?
No features found.


********** Emotions Features **********
***************************************

1. Sentence: Comment proposer un projet qui ait du sens ?
No features found.


********** Modality Features **********
***************************************

1. Sentence: Comment proposer un projet qui ait du sens ?
No features found.


********** Adverbiaux Temporels Features **********
********************************************************

1. Sentence: Comment proposer un projet qui ait du sens ?
No features found.

