====== Sentence Level Features ======

1. Sentence: Un des atouts du bassin minier est le très faible coût de l ' immobilier , comme dans toutes les régions en crise .
Features :: Feature-Counts :: Feature-Lemmas
--------------------------------------------
marqueurs :: 1 :: [ crise ]
appreciatif :: 1 :: [ crise ]
epistemique :: 1 :: [ crise ]
marqueurs_niveau2 :: 1 :: [ crise ]
appreciatif_niveau2 :: 1 :: [ crise ]
epistemique_niveau2 :: 1 :: [ crise ]
Total feature counts: 6


====== Text Level Features ======

Features :: Feature-Counts :: Feature-Lemmas
--------------------------------------------
marqueurs :: 1 :: [ crise ]
appreciatif :: 1 :: [ crise ]
epistemique :: 1 :: [ crise ]
marqueurs_niveau2 :: 1 :: [ crise ]
appreciatif_niveau2 :: 1 :: [ crise ]
epistemique_niveau2 :: 1 :: [ crise ]
Total feature counts: 6

