====== Sentence Level Features ======

1. Sentence: Une bataille éclair : le lancement des «grands projets du Président» De 1982 à 1986 , j ' ai vécu avec Yves Dauge une aventure hors normes .
Features :: Feature-Counts :: Feature-Texts
--------------------------------------------
adverbiaux_temporels::2::['De 1982 à 1986 ,', 'De 1982 à 1986']
adverbiaux_localisation_temporelle::1::['De 1982 à 1986 ,']
adverbiaux_duratifs_iteratifs::1::['De 1982 à 1986']
adverbiaux_pointage_absolu::2::['De 1982 à 1986 ,', 'De 1982 à 1986']
adverbiaux_loc_temp_pointage_absolu::1::['De 1982 à 1986 ,']
adverbiaux_dur_iter_absolu::1::['De 1982 à 1986']


====== Text Level Features ======

Features :: Feature-Counts :: Feature-Texts
--------------------------------------------
adverbiaux_temporels::2::['De 1982 à 1986 ,', 'De 1982 à 1986']
adverbiaux_localisation_temporelle::1::['De 1982 à 1986 ,']
adverbiaux_duratifs_iteratifs::1::['De 1982 à 1986']
adverbiaux_pointage_absolu::2::['De 1982 à 1986 ,', 'De 1982 à 1986']
adverbiaux_loc_temp_pointage_absolu::1::['De 1982 à 1986 ,']
adverbiaux_dur_iter_absolu::1::['De 1982 à 1986']
Total feature counts: 8

