
********** Entity Names Features **********
*******************************************

1. Sentence: Bien sûr , en Suisse la surformalisation est peut-être moins nécessaire , elle préexiste dans le paysage lui-même .
Entity Name (Type) :: Suisse (LOC)


********** Emotions Features **********
***************************************

1. Sentence: Bien sûr , en Suisse la surformalisation est peut-être moins nécessaire , elle préexiste dans le paysage lui-même .
No features found.


********** Modality Features **********
***************************************

1. Sentence: Bien sûr , en Suisse la surformalisation est peut-être moins nécessaire , elle préexiste dans le paysage lui-même .
Features :: Feature-Counts :: Feature-Lemmas
--------------------------------------------
marqueurs :: 4 :: [ bien, sûr, peut-être, nécessaire ]
marqueurs_niveau3 :: 3 :: [ bien, peut-être, nécessaire ]
epistemique :: 2 :: [ sûr, peut-être ]
alethique :: 1 :: [ nécessaire ]
appreciatif :: 1 :: [ bien ]
axiologique :: 1 :: [ bien ]
marqueurs_niveau2 :: 1 :: [ sûr ]
alethique_niveau3 :: 1 :: [ nécessaire ]
appreciatif_niveau3 :: 1 :: [ bien ]
axiologique_niveau3 :: 1 :: [ bien ]
epistemique_niveau3 :: 1 :: [ peut-être ]
epistemique_niveau2 :: 1 :: [ sûr ]
Total feature counts: 18


********** Adverbiaux Temporels Features **********
********************************************************

1. Sentence: Bien sûr , en Suisse la surformalisation est peut-être moins nécessaire , elle préexiste dans le paysage lui-même .
No features found.

