====== Sentence Level Features ======

1. Sentence: Il faudrait d ' ailleurs un nombreux personnel pour donner à ces convois une capacité équivalente à celle d ' une ligne ferroviaire .
Features :: Feature-Counts :: Feature-Lemmas
--------------------------------------------
marqueurs :: 1 :: [ falloir ]
deontique :: 1 :: [ falloir ]
marqueurs_niveau3 :: 1 :: [ falloir ]
deontique_niveau3 :: 1 :: [ falloir ]
Total feature counts: 4


====== Text Level Features ======

Features :: Feature-Counts :: Feature-Lemmas
--------------------------------------------
marqueurs :: 1 :: [ falloir ]
deontique :: 1 :: [ falloir ]
marqueurs_niveau3 :: 1 :: [ falloir ]
deontique_niveau3 :: 1 :: [ falloir ]
Total feature counts: 4

