====== Sentence Level Features ======

1. Sentence: EURALENS  : IMPULSER UNE DYNAMIQUE Gilles Huchette  : L ' association Euralens a été créée en 2009 au moment de l ' implantation de l ' antenne du Louvre à Lens .
Features :: Feature-Counts :: Feature-Texts
--------------------------------------------
adverbiaux_temporels::1::['en 2009']
adverbiaux_localisation_temporelle::1::['en 2009']
adverbiaux_pointage_absolu::1::['en 2009']
adverbiaux_pointage_non_absolu::1::['en 2009']
adverbiaux_loc_temp_focalisation_id::1::['en 2009']
adverbiaux_loc_temp_regionalisation_id::1::['en 2009']
adverbiaux_loc_temp_pointage_non_absolu::1::['en 2009']
adverbiaux_dur_iter_absolu::1::['en 2009']


====== Text Level Features ======

Features :: Feature-Counts :: Feature-Texts
--------------------------------------------
adverbiaux_temporels::1::['en 2009']
adverbiaux_localisation_temporelle::1::['en 2009']
adverbiaux_pointage_absolu::1::['en 2009']
adverbiaux_pointage_non_absolu::1::['en 2009']
adverbiaux_loc_temp_focalisation_id::1::['en 2009']
adverbiaux_loc_temp_regionalisation_id::1::['en 2009']
adverbiaux_loc_temp_pointage_non_absolu::1::['en 2009']
adverbiaux_dur_iter_absolu::1::['en 2009']
Total feature counts: 8

