====== Sentence Level Features ======

1. Sentence: Pour autant , cela ne signifie pas que l ' intercommunalité serait dépassée , ni que vouloir l ' imposer face à la commune serait un débat d ' arrière-garde compte tenu de l ' évolution «métapolitaine» 5 , qui va bien au-delà de son périmètre .
Features :: Feature-Counts :: Feature-Lemmas
--------------------------------------------
marqueurs :: 4 :: [ vouloir, imposer, aller, bien ]
marqueurs_niveau3 :: 2 :: [ vouloir, bien ]
alethique :: 1 :: [ aller ]
appreciatif :: 1 :: [ bien ]
axiologique :: 1 :: [ bien ]
boulique :: 1 :: [ vouloir ]
deontique :: 1 :: [ imposer ]
marqueurs_niveau2 :: 1 :: [ imposer ]
marqueurs_niveau1 :: 1 :: [ aller ]
alethique_niveau1 :: 1 :: [ aller ]
appreciatif_niveau3 :: 1 :: [ bien ]
axiologique_niveau3 :: 1 :: [ bien ]
boulique_niveau3 :: 1 :: [ vouloir ]
deontique_niveau2 :: 1 :: [ imposer ]
Total feature counts: 18


====== Text Level Features ======

Features :: Feature-Counts :: Feature-Lemmas
--------------------------------------------
marqueurs :: 4 :: [ vouloir, imposer, aller, bien ]
marqueurs_niveau3 :: 2 :: [ vouloir, bien ]
alethique :: 1 :: [ aller ]
appreciatif :: 1 :: [ bien ]
axiologique :: 1 :: [ bien ]
boulique :: 1 :: [ vouloir ]
deontique :: 1 :: [ imposer ]
marqueurs_niveau2 :: 1 :: [ imposer ]
marqueurs_niveau1 :: 1 :: [ aller ]
alethique_niveau1 :: 1 :: [ aller ]
appreciatif_niveau3 :: 1 :: [ bien ]
axiologique_niveau3 :: 1 :: [ bien ]
boulique_niveau3 :: 1 :: [ vouloir ]
deontique_niveau2 :: 1 :: [ imposer ]
Total feature counts: 18

