
********** Entity Names Features **********
*******************************************

1. Sentence: il y perdra tout l ’ argent qu ’ il voudra .
No features found.


********** Emotions Features **********
***************************************

1. Sentence: il y perdra tout l ’ argent qu ’ il voudra .
No features found.


********** Modality Features **********
***************************************

1. Sentence: il y perdra tout l ’ argent qu ’ il voudra .
Features :: Feature-Counts :: Feature-Lemmas
--------------------------------------------
marqueurs :: 1 :: [ perdre ]
appreciatif :: 1 :: [ perdre ]
marqueurs_niveau2 :: 1 :: [ perdre ]
appreciatif_niveau2 :: 1 :: [ perdre ]
Total feature counts: 4


********** Adverbiaux Temporels Features **********
********************************************************

1. Sentence: il y perdra tout l ’ argent qu ’ il voudra .
No features found.

