
********** Entity Names Features **********
*******************************************

1. Sentence: Les perspectives ouvertes par le schéma directeur devraient remédier à cet obstacle et faciliter à la Ville de Paris la reconquête d ' une partie de son sol .
Entity Name (Type) :: Ville de Paris (LOC)


********** Emotions Features **********
***************************************

1. Sentence: Les perspectives ouvertes par le schéma directeur devraient remédier à cet obstacle et faciliter à la Ville de Paris la reconquête d ' une partie de son sol .
No features found.


********** Modality Features **********
***************************************

1. Sentence: Les perspectives ouvertes par le schéma directeur devraient remédier à cet obstacle et faciliter à la Ville de Paris la reconquête d ' une partie de son sol .
Features :: Feature-Counts :: Feature-Lemmas
--------------------------------------------
marqueurs :: 2 :: [ ouvrir, devoir ]
marqueurs_niveau3 :: 2 :: [ ouvrir, devoir ]
alethique :: 1 :: [ devoir ]
boulique :: 1 :: [ ouvrir ]
deontique :: 1 :: [ devoir ]
epistemique :: 1 :: [ devoir ]
alethique_niveau3 :: 1 :: [ devoir ]
boulique_niveau3 :: 1 :: [ ouvrir ]
deontique_niveau3 :: 1 :: [ devoir ]
epistemique_niveau3 :: 1 :: [ devoir ]
Total feature counts: 12


********** Adverbiaux Temporels Features **********
********************************************************

1. Sentence: Les perspectives ouvertes par le schéma directeur devraient remédier à cet obstacle et faciliter à la Ville de Paris la reconquête d ' une partie de son sol .
No features found.

