
********** Entity Names Features **********
*******************************************

1. Sentence: L ' agglomération s ' étend en doigts de gant le long des grands axes
No features found.


********** Emotions Features **********
***************************************

1. Sentence: L ' agglomération s ' étend en doigts de gant le long des grands axes
No features found.


********** Modality Features **********
***************************************

1. Sentence: L ' agglomération s ' étend en doigts de gant le long des grands axes
Features :: Feature-Counts :: Feature-Lemmas
--------------------------------------------
marqueurs :: 2 :: [ long, grand ]
epistemique :: 2 :: [ long, grand ]
marqueurs_niveau3 :: 1 :: [ grand ]
marqueurs_niveau2 :: 1 :: [ long ]
epistemique_niveau3 :: 1 :: [ grand ]
epistemique_niveau2 :: 1 :: [ long ]
Total feature counts: 8


********** Adverbiaux Temporels Features **********
********************************************************

1. Sentence: L ' agglomération s ' étend en doigts de gant le long des grands axes
No features found.

