====== Sentence Level Features ======

1. Sentence: E . R . , sera nécessaire lorsque la " ville nouvelle " de Pontoise - Cergy aura atteint un niveau de développement important .
Features :: Feature-Counts :: Feature-Lemmas
--------------------------------------------
marqueurs :: 2 :: [ nécessaire, important ]
alethique :: 1 :: [ nécessaire ]
appreciatif :: 1 :: [ important ]
axiologique :: 1 :: [ important ]
epistemique :: 1 :: [ important ]
marqueurs_niveau3 :: 1 :: [ nécessaire ]
marqueurs_niveau1 :: 1 :: [ important ]
alethique_niveau3 :: 1 :: [ nécessaire ]
appreciatif_niveau1 :: 1 :: [ important ]
axiologique_niveau1 :: 1 :: [ important ]
epistemique_niveau1 :: 1 :: [ important ]
Total feature counts: 12


====== Text Level Features ======

Features :: Feature-Counts :: Feature-Lemmas
--------------------------------------------
marqueurs :: 2 :: [ nécessaire, important ]
alethique :: 1 :: [ nécessaire ]
appreciatif :: 1 :: [ important ]
axiologique :: 1 :: [ important ]
epistemique :: 1 :: [ important ]
marqueurs_niveau3 :: 1 :: [ nécessaire ]
marqueurs_niveau1 :: 1 :: [ important ]
alethique_niveau3 :: 1 :: [ nécessaire ]
appreciatif_niveau1 :: 1 :: [ important ]
axiologique_niveau1 :: 1 :: [ important ]
epistemique_niveau1 :: 1 :: [ important ]
Total feature counts: 12

