====== Sentence Level Features ======

1. Sentence: Il était jouissif de participer à la grande aventure de l ' État pour conduire ses politiques urbaines , tout en ayant la possibilité de choisir son parcours ;
Features :: Feature-Counts :: Feature-Lemmas
--------------------------------------------
marqueurs :: 4 :: [ grand, aventure, possibilité, choisir ]
marqueurs_niveau3 :: 2 :: [ grand, possibilité ]
alethique :: 1 :: [ possibilité ]
boulique :: 1 :: [ choisir ]
epistemique :: 1 :: [ grand ]
pas_d_indication :: 1 :: [ aventure ]
marqueurs_niveau2 :: 1 :: [ choisir ]
marqueurs_niveau0 :: 1 :: [ aventure ]
alethique_niveau3 :: 1 :: [ possibilité ]
boulique_niveau2 :: 1 :: [ choisir ]
epistemique_niveau3 :: 1 :: [ grand ]
pas_d_indication_niveau0 :: 1 :: [ aventure ]
Total feature counts: 16


====== Text Level Features ======

Features :: Feature-Counts :: Feature-Lemmas
--------------------------------------------
marqueurs :: 4 :: [ grand, aventure, possibilité, choisir ]
marqueurs_niveau3 :: 2 :: [ grand, possibilité ]
alethique :: 1 :: [ possibilité ]
boulique :: 1 :: [ choisir ]
epistemique :: 1 :: [ grand ]
pas_d_indication :: 1 :: [ aventure ]
marqueurs_niveau2 :: 1 :: [ choisir ]
marqueurs_niveau0 :: 1 :: [ aventure ]
alethique_niveau3 :: 1 :: [ possibilité ]
boulique_niveau2 :: 1 :: [ choisir ]
epistemique_niveau3 :: 1 :: [ grand ]
pas_d_indication_niveau0 :: 1 :: [ aventure ]
Total feature counts: 16

