====== Sentence Level Features ======

1. Sentence: mais la situation est néanmoins déjà critique dans la banlieue-sud où le rythme des constructions s ’ est , au cours des plus récentes années , accéléré à une cadence extrêmement rapide , si bien que les terrains disponibles sont rares et atteignent des prix extrêmement élevés .
Features :: Feature-Counts :: Feature-Lemmas
--------------------------------------------
marqueurs :: 4 :: [ rapide, bien, rare, prix ]
appreciatif :: 2 :: [ bien, prix ]
axiologique :: 2 :: [ bien, prix ]
epistemique :: 2 :: [ rapide, rare ]
marqueurs_niveau3 :: 2 :: [ rapide, bien ]
marqueurs_niveau2 :: 1 :: [ prix ]
marqueurs_niveau1 :: 1 :: [ rare ]
appreciatif_niveau3 :: 1 :: [ bien ]
appreciatif_niveau2 :: 1 :: [ prix ]
axiologique_niveau3 :: 1 :: [ bien ]
axiologique_niveau2 :: 1 :: [ prix ]
epistemique_niveau3 :: 1 :: [ rapide ]
epistemique_niveau1 :: 1 :: [ rare ]
Total feature counts: 20


====== Text Level Features ======

Features :: Feature-Counts :: Feature-Lemmas
--------------------------------------------
marqueurs :: 4 :: [ rapide, bien, rare, prix ]
appreciatif :: 2 :: [ bien, prix ]
axiologique :: 2 :: [ bien, prix ]
epistemique :: 2 :: [ rapide, rare ]
marqueurs_niveau3 :: 2 :: [ rapide, bien ]
marqueurs_niveau2 :: 1 :: [ prix ]
marqueurs_niveau1 :: 1 :: [ rare ]
appreciatif_niveau3 :: 1 :: [ bien ]
appreciatif_niveau2 :: 1 :: [ prix ]
axiologique_niveau3 :: 1 :: [ bien ]
axiologique_niveau2 :: 1 :: [ prix ]
epistemique_niveau3 :: 1 :: [ rapide ]
epistemique_niveau1 :: 1 :: [ rare ]
Total feature counts: 20

