====== Sentence Level Features ======

1. Sentence: Je me suis alors retrouvée à gérer une équipe de jeunes architectes enthousiastes sans même savoir alors ce qu ' était un plan territorial .
Features :: Feature-Counts :: Feature-Lemmas
--------------------------------------------
marqueurs :: 3 :: [ jeune, enthousiaste, savoir ]
appreciatif :: 1 :: [ enthousiaste ]
epistemique :: 1 :: [ savoir ]
pas_d_indication :: 1 :: [ jeune ]
marqueurs_niveau3 :: 1 :: [ savoir ]
marqueurs_niveau2 :: 1 :: [ enthousiaste ]
marqueurs_niveau0 :: 1 :: [ jeune ]
appreciatif_niveau2 :: 1 :: [ enthousiaste ]
epistemique_niveau3 :: 1 :: [ savoir ]
pas_d_indication_niveau0 :: 1 :: [ jeune ]
Total feature counts: 12


====== Text Level Features ======

Features :: Feature-Counts :: Feature-Lemmas
--------------------------------------------
marqueurs :: 3 :: [ jeune, enthousiaste, savoir ]
appreciatif :: 1 :: [ enthousiaste ]
epistemique :: 1 :: [ savoir ]
pas_d_indication :: 1 :: [ jeune ]
marqueurs_niveau3 :: 1 :: [ savoir ]
marqueurs_niveau2 :: 1 :: [ enthousiaste ]
marqueurs_niveau0 :: 1 :: [ jeune ]
appreciatif_niveau2 :: 1 :: [ enthousiaste ]
epistemique_niveau3 :: 1 :: [ savoir ]
pas_d_indication_niveau0 :: 1 :: [ jeune ]
Total feature counts: 12

