
********** Entity Names Features **********
*******************************************

1. Sentence: SAEM Val de Seine Aménagement , 2002-2008 .
Entity Name (Type) :: SAEM Val de Seine Aménagement (ORG)


********** Emotions Features **********
***************************************

1. Sentence: SAEM Val de Seine Aménagement , 2002-2008 .
No features found.


********** Modality Features **********
***************************************

1. Sentence: SAEM Val de Seine Aménagement , 2002-2008 .
No features found.


********** Adverbiaux Temporels Features **********
********************************************************

1. Sentence: SAEM Val de Seine Aménagement , 2002-2008 .
Features :: Feature-Counts :: Feature-Texts
--------------------------------------------
adverbiaux_temporels::1::['2002_2008']
adverbiaux_localisation_temporelle::1::['2002_2008']
adverbiaux_pointage_absolu::1::['2002_2008']
adverbiaux_loc_temp_focalisation_id::1::['2002_2008']
adverbiaux_loc_temp_regionalisation_id::1::['2002_2008']
adverbiaux_loc_temp_pointage_absolu::1::['2002_2008']

