====== Sentence Level Features ======

1. Sentence: J ' ai besoin de me raccrocher à quelque chose qui est de l ' ordre de la modification des conditions de vie .
Features :: Feature-Counts :: Feature-Lemmas
--------------------------------------------
marqueurs :: 2 :: [ besoin, ordre ]
alethique :: 1 :: [ besoin ]
boulique :: 1 :: [ besoin ]
deontique :: 1 :: [ ordre ]
marqueurs_niveau3 :: 1 :: [ besoin ]
marqueurs_niveau2 :: 1 :: [ ordre ]
alethique_niveau3 :: 1 :: [ besoin ]
boulique_niveau3 :: 1 :: [ besoin ]
deontique_niveau2 :: 1 :: [ ordre ]
Total feature counts: 10


====== Text Level Features ======

Features :: Feature-Counts :: Feature-Lemmas
--------------------------------------------
marqueurs :: 2 :: [ besoin, ordre ]
alethique :: 1 :: [ besoin ]
boulique :: 1 :: [ besoin ]
deontique :: 1 :: [ ordre ]
marqueurs_niveau3 :: 1 :: [ besoin ]
marqueurs_niveau2 :: 1 :: [ ordre ]
alethique_niveau3 :: 1 :: [ besoin ]
boulique_niveau3 :: 1 :: [ besoin ]
deontique_niveau2 :: 1 :: [ ordre ]
Total feature counts: 10

