====== Sentence Level Features ======

1. Sentence: J ' aime l ' idée qu ' un projet urbain s ' impose de fait .
Features :: Feature-Counts :: Feature-Lemmas
--------------------------------------------
marqueurs :: 2 :: [ aimer, imposer ]
appreciatif :: 1 :: [ aimer ]
deontique :: 1 :: [ imposer ]
marqueurs_niveau3 :: 1 :: [ aimer ]
marqueurs_niveau2 :: 1 :: [ imposer ]
appreciatif_niveau3 :: 1 :: [ aimer ]
deontique_niveau2 :: 1 :: [ imposer ]
Total feature counts: 8


====== Text Level Features ======

Features :: Feature-Counts :: Feature-Lemmas
--------------------------------------------
marqueurs :: 2 :: [ aimer, imposer ]
appreciatif :: 1 :: [ aimer ]
deontique :: 1 :: [ imposer ]
marqueurs_niveau3 :: 1 :: [ aimer ]
marqueurs_niveau2 :: 1 :: [ imposer ]
appreciatif_niveau3 :: 1 :: [ aimer ]
deontique_niveau2 :: 1 :: [ imposer ]
Total feature counts: 8

