====== Sentence Level Features ======

1. Sentence: Ni pôle d ' affaires ni quartier résidentiel , ici s ' entrecroise tout ce qui fait l ' attrait et la puissance de la ville .
Features :: Feature-Counts :: Feature-Lemmas
--------------------------------------------
marqueurs :: 1 :: [ puissance ]
pas_d_indication :: 1 :: [ puissance ]
marqueurs_niveau0 :: 1 :: [ puissance ]
pas_d_indication_niveau0 :: 1 :: [ puissance ]
Total feature counts: 4


====== Text Level Features ======

Features :: Feature-Counts :: Feature-Lemmas
--------------------------------------------
marqueurs :: 1 :: [ puissance ]
pas_d_indication :: 1 :: [ puissance ]
marqueurs_niveau0 :: 1 :: [ puissance ]
pas_d_indication_niveau0 :: 1 :: [ puissance ]
Total feature counts: 4

