====== Sentence Level Features ======

1. Sentence: La nomenclature utilisée (S . E . E . F . ) est celle de la comptabilité nationale .
Entity Name (Type) :: F (LOC)


====== Text Level Features ======

Entity Name (Entity Type)
-------------------------
F (LOC)
Total entitiy counts: 1

