Marqueur	Cat_modale	Source	Methode_acq	Marqueur_ref	Positionnement	Niveau_enrichissement
abandonner	boulique;épistémique	Menel	définition	renoncer	extrinsèque	1
abattoir	pas d'indication	Menel	intuition	INTUITION	pas d'indication	3
abattu	pas d'indication	Menel	intuition	INTUITION	pas d'indication	3
abîmer	appréciatif;axiologique	Menel	arbre	INTUITION	pas d'indication	2
abondance	appréciatif	Menel	définition	INTUITION	intrinsèque	1
accident	appréciatif	Menel	arbre	INTUITION	pas d'indication	2
acclamer	appréciatif;axiologique	Menel	arbre	INTUITION	pas d'indication	2
accuser	axiologique	Menel	définition	INTUITION	intrinsèque;sublexical	1
acharner	boulique	Gosselin	lecture	N/A	extrinsèque	0
addictif	appréciatif	Menel	arbre	INTUITION	pas d'indication	2
admirable	appréciatif	Gosselin	lecture	N/A	intrinsèque	0
admiratif	appréciatif	Menel	dérivation	admirable	intrinsèque	1
admirer	appréciatif	Gosselin	lecture	N/A	extrinsèque	0
adorer	appréciatif	Menel	synonymie	aimer	extrinsèque	1
affirmer	pas d'indication	Menel	intuition	INTUITION	pas d'indication	3
affoler	pas d'indication	Menel	intuition	INTUITION	pas d'indication	3
affrontement	axiologique	Menel	synonymie	guerre	inférence	1
affronter	axiologique	Menel	arbre	INTUITION	pas d'indication	2
agaçant	appréciatif;axiologique;épistémique	Menel	arbre	INTUITION	pas d'indication	2
agacer	pas d'indication	Menel	intuition	INTUITION	pas d'indication	3
agréable	appréciatif	Gosselin	lecture	N/A	intrinsèque	0
agresser	pas d'indication	Menel	intuition	INTUITION	pas d'indication	3
agressif	pas d'indication	Menel	intuition	INTUITION	pas d'indication	3
aïe	appréciatif	Menel	définition	ouf;chouette;hélas;souffrance	intrinsèque	1
aimer	appréciatif	Gosselin	lecture	N/A	extrinsèque	0
aise	appréciatif	Menel	définition	agréable	intrinsèque;sublexical	1
alarmant	pas d'indication	Menel	intuition	INTUITION	pas d'indication	3
alcool	appréciatif	Gosselin	lecture	N/A	inférence	0
alerte	pas d'indication	Menel	intuition	INTUITION	pas d'indication	3
alerter	pas d'indication	Menel	intuition	INTUITION	pas d'indication	3
aller	aléthique	Menel	arbre	INTUITION	pas d'indication	2
améliorer	appréciatif;axiologique	Menel	dérivation	bon;bien	extrinsèque	1
amende	pas d'indication	Menel	intuition	INTUITION	pas d'indication	3
ami	appréciatif	Menel	dérivation	aimer	intrinsèque;sublexical	1
amour	appréciatif	Menel	dérivation	aimer	intrinsèque	1
amusant	appréciatif	Menel	dérivation	amuser	intrinsèque	1
amuser	appréciatif	Gosselin	lecture	N/A	intrinsèque	0
anéantir	pas d'indication	Menel	intuition	INTUITION	pas d'indication	3
ânerie	pas d'indication	Menel	intuition	INTUITION	pas d'indication	3
angoissant	pas d'indication	Menel	intuition	INTUITION	pas d'indication	3
angoisser	pas d'indication	Menel	intuition	INTUITION	pas d'indication	3
applaudir	appréciatif;axiologique	Menel	arbre	INTUITION	pas d'indication	2
apprécier	appréciatif	Gosselin	lecture	N/A	extrinsèque	0
approuver	axiologique;déontique	Gosselin	lecture	N/A	extrinsèque	0
arme	axiologique	Menel	champ lexical	guerre	inférence	1
arriver	aléthique	Menel	synonymie	venir	intrinsèque	1
asile	appréciatif	Menel	arbre	INTUITION	pas d'indication	2
assassin	aléthique;axiologique	Gosselin	lecture	N/A	intrinsèque	0
assassinat	aléthique;axiologique	Menel	dérivation	assassin	intrinsèque	1
assassiner	aléthique;axiologique	Menel	dérivation	assassin	intrinsèque	1
attaquer	pas d'indication	Menel	intuition	INTUITION	pas d'indication	3
attentat	pas d'indication	Menel	intuition	INTUITION	pas d'indication	3
attristant	appréciatif	Aline	champ lexical	souffrance	intrinsèque	1
attristé	appréciatif	Aline	champ lexical	souffrance	intrinsèque	1
aucun	aléthique	Gosselin	lecture	N/A	extrinsèque	0
auguste	axiologique	Gosselin	lecture	N/A	intrinsèque	0
autonomie	pas d'indication	Menel	intuition	INTUITION	pas d'indication	3
autorité	pas d'indication	Menel	intuition	INTUITION	pas d'indication	3
avare	axiologique	Gosselin	lecture	N/A	intrinsèque	0
aventure	pas d'indication	Menel	intuition	INTUITION	pas d'indication	3
aversion	boulique	Gosselin	lecture	N/A	intrinsèque	0
avertir	pas d'indication	Menel	intuition	INTUITION	pas d'indication	3
avouer	pas d'indication	Menel	intuition	INTUITION	pas d'indication	3
bagarre	axiologique	Menel	champ lexical	guerre	inférence	1
baguettes	aléthique;appréciatif	Menel	arbre	INTUITION	pas d'indication	2
baignade	appréciatif	Gosselin	lecture	N/A	inférence	0
banal	appréciatif;épistémique	Menel	arbre	INTUITION	pas d'indication	2
banane	aléthique;appréciatif	Menel	arbre	INTUITION	pas d'indication	2
bataille	axiologique	Menel	champ lexical	guerre	inférence	1
battre	pas d'indication	Menel	intuition	INTUITION	pas d'indication	3
bavure	pas d'indication	Menel	intuition	INTUITION	pas d'indication	3
beau	appréciatif	Gosselin	lecture	N/A	intrinsèque	0
beaucoup	épistémique	Menel	arbre	INTUITION	pas d'indication	2
besoin	aléthique;boulique	Gosselin	lecture	N/A	extrinsèque	0
bête	pas d'indication	Menel	intuition	INTUITION	pas d'indication	3
bêtise	pas d'indication	Menel	intuition	INTUITION	pas d'indication	3
beurk	appréciatif	Menel	champ lexical	aversion	intrinsèque	1
bien	appréciatif;axiologique	Gosselin	lecture	N/A	extrinsèque	0
bien-être	appréciatif	Menel	définition	satisfait	intrinsèque	1
bisou	pas d'indication	Menel	intuition	INTUITION	pas d'indication	3
bizarre	appréciatif;épistémique	Menel	arbre	INTUITION	pas d'indication	2
blague	appréciatif	Menel	arbre	INTUITION	pas d'indication	2
blâmable	axiologique	Gosselin	lecture	N/A	intrinsèque	0
blanc	aléthique	Gosselin	lecture	N/A	intrinsèque	0
blesser	appréciatif	Menel	champ lexical	souffrance	intrinsèque	1
bolos	pas d'indication	Menel	intuition	INTUITION	pas d'indication	3
bombardement	axiologique	Menel	champ lexical	guerre	inférence	1
bombarder	axiologique	Menel	champ lexical	guerre	inférence	1
bombe	pas d'indication	Menel	intuition	INTUITION	pas d'indication	3
bon	appréciatif;axiologique	Gosselin	lecture	N/A	intrinsèque	0
bonbon	appréciatif	Menel	champ lexical	frites	inférence	1
bonheur	appréciatif	Gosselin	lecture	N/A	intrinsèque	0
bosquet	épistémique	Gosselin	lecture	N/A	intrinsèque	0
boycotter	déontique	Menel	définition	interdire	extrinsèque	1
braconnage	pas d'indication	Menel	intuition	INTUITION	pas d'indication	3
bravo	appréciatif	Menel	définition	féliciter	extrinsèque	1
brillant	aléthique;appréciatif	Menel	arbre	INTUITION	pas d'indication	2
brioche	appréciatif	Gosselin	lecture	N/A	inférence	0
brûlé	appréciatif	Menel	arbre	INTUITION	pas d'indication	2
brûler	appréciatif;axiologique	Menel	arbre	INTUITION	pas d'indication	2
brunâtre	pas d'indication	Menel	intuition	INTUITION	pas d'indication	3
brusquement	appréciatif;axiologique;épistémique	Menel	arbre	INTUITION	pas d'indication	2
brutal	pas d'indication	Menel	intuition	INTUITION	pas d'indication	3
brute	pas d'indication	Menel	intuition	INTUITION	pas d'indication	3
buffet	pas d'indication	Menel	intuition	INTUITION	pas d'indication	3
cacher	pas d'indication	Menel	intuition	INTUITION	pas d'indication	3
cadeau	appréciatif	Gosselin	lecture	N/A	intrinsèque	0
calamiteux	appréciatif	Gosselin	lecture	N/A	intrinsèque	0
camarade	appréciatif	Menel	arbre	INTUITION	pas d'indication	2
carnaval	appréciatif	Menel	champ lexical	fête	inférence	1
casser	appréciatif;axiologique	Menel	arbre	INTUITION	pas d'indication	2
catastrophique	appréciatif	Menel	synonymie	calamiteux	intrinsèque	1
cauchemar	appréciatif	Menel	définition	INTUITION	intrinsèque	1
céder	boulique;épistémique	Menel	synonymie	résigner	extrinsèque	1
célébrer	appréciatif	Menel	champ lexical	fête	intrinsèque	1
censé	épistémique	Gosselin	lecture	N/A	extrinsèque	0
cérémonie	aléthique;appréciatif	Menel	arbre	INTUITION	pas d'indication	2
certain	épistémique	Gosselin	lecture	N/A	extrinsèque	0
certainement	épistémique	Gosselin	lecture	N/A	extrinsèque	0
certains	aléthique	Gosselin	lecture	N/A	extrinsèque	0
certitude	épistémique	Gosselin	lecture	N/A	intrinsèque	0
chagrin	appréciatif	Menel	champ lexical	souffrance	intrinsèque	1
champagne	appréciatif	Menel	champ lexical	fête	inférence	1
champion	pas d'indication	Menel	intuition	INTUITION	pas d'indication	3
chance	appréciatif	Gosselin	lecture	N/A	extrinsèque	0
chanceux	appréciatif	Menel	dérivation	chance	intrinsèque	1
charmer	appréciatif	Menel	arbre	INTUITION	pas d'indication	2
chasse	appréciatif;axiologique	Menel	arbre	INTUITION	pas d'indication	2
chasser	boulique	Menel	arbre	INTUITION	pas d'indication	2
château	appréciatif;épistémique	Gosselin	lecture	N/A	intrinsèque	0
cher	pas d'indication	Menel	intuition	INTUITION	pas d'indication	3
chercher	boulique	Gosselin	lecture	N/A	extrinsèque	0
chic	appréciatif;axiologique	Menel	synonymie	bon	intrinsèque	1
chien	aléthique	Gosselin	lecture	N/A	intrinsèque	0
chimiquement	aléthique	Gosselin	lecture	N/A	extrinsèque	0
chocolat	appréciatif	Menel	champ lexical	frites	inférence	1
choisir	boulique	Menel	synonymie	décider	extrinsèque	1
choix	boulique	Menel	champ lexical	décider	intrinsèque	1
choléra	pas d'indication	Menel	intuition	INTUITION	pas d'indication	3
chômage	appréciatif	Menel	champ lexical	travail	inférence	1
choquant	appréciatif;épistémique	Menel	arbre	INTUITION	pas d'indication	2
choquer	pas d'indication	Menel	intuition	INTUITION	pas d'indication	3
chouchouter	pas d'indication	Menel	intuition	INTUITION	pas d'indication	3
chouette	appréciatif	Gosselin	lecture	N/A	extrinsèque	0
chouiner	pas d'indication	Menel	intuition	INTUITION	pas d'indication	3
cigarette	pas d'indication	Menel	intuition	INTUITION	pas d'indication	3
cinéma	aléthique;appréciatif	Menel	arbre	INTUITION	pas d'indication	2
claquer	appréciatif;axiologique	Menel	arbre	INTUITION	pas d'indication	2
colère	appréciatif;axiologique	Menel	arbre	INTUITION	pas d'indication	2
colérique	pas d'indication	Menel	intuition	INTUITION	pas d'indication	3
collaboration	axiologique	Gosselin	lecture	N/A	inférence	0
colonisation	axiologique	Menel	champ lexical	guerre	inférence	1
combat	axiologique	Menel	champ lexical	guerre	inférence	1
comique	pas d'indication	Menel	intuition	INTUITION	pas d'indication	3
commander	déontique	Gosselin	lecture	N/A	extrinsèque	0
condamner	axiologique	Gosselin	lecture	N/A	extrinsèque	0
confiance	épistémique	Menel	définition	croyance	intrinsèque	1
conflit	axiologique	Menel	champ lexical	guerre	inférence	1
connaître	épistémique	Menel	synonymie	savoir	extrinsèque	1
connu	épistémique	Menel	champ lexical	savoir	intrinsèque	1
considérer	épistémique	Gosselin	lecture	N/A	extrinsèque	0
consigne	déontique	Gosselin	lecture	N/A	intrinsèque	0
consterné	appréciatif	Menel	arbre	INTUITION	pas d'indication	2
content	appréciatif	Menel	synonymie	heureux	intrinsèque	1
contester	boulique;épistémique	Menel	définition	doute	extrinsèque	1
contrarier	pas d'indication	Menel	intuition	INTUITION	pas d'indication	3
contrecœur	boulique	Menel	définition	désir	intrinsèque	1
contrôler	déontique	Menel	arbre	INTUITION	pas d'indication	2
convivial	pas d'indication	Menel	intuition	INTUITION	pas d'indication	3
convoquer	déontique	Menel	définition	impérativement	intrinsèque;sublexical	1
cool	appréciatif	Menel	synonymie	chouette	intrinsèque	1
coqueluche	pas d'indication	Menel	intuition	INTUITION	pas d'indication	3
coronavirus	pas d'indication	Menel	intuition	INTUITION	pas d'indication	3
corrompre	axiologique	Menel	champ lexical	crime	intrinsèque	1
corruption	axiologique	Menel	champ lexical	crime	intrinsèque	1
corvée	pas d'indication	Menel	intuition	INTUITION	pas d'indication	3
coupable	axiologique	Gosselin	lecture	N/A	intrinsèque	0
courage	appréciatif;axiologique	Gosselin	lecture	N/A	intrinsèque	0
courageux	appréciatif;axiologique	Gosselin	lecture	N/A	intrinsèque	0
couteau	aléthique;appréciatif;axiologique	Menel	arbre	INTUITION	pas d'indication	2
Covid-19	pas d'indication	Menel	intuition	INTUITION	pas d'indication	3
crachat	appréciatif	Menel	arbre	INTUITION	pas d'indication	2
craindre	appréciatif;épistémique	Gosselin	lecture	N/A	extrinsèque	0
crainte	appréciatif;épistémique	Menel	dérivation	craindre	extrinsèque	1
craintif	appréciatif;épistémique	Menel	dérivation	craindre	extrinsèque	1
craquant	pas d'indication	Menel	intuition	INTUITION	pas d'indication	3
crash	pas d'indication	Menel	intuition	INTUITION	pas d'indication	3
crime	axiologique	Gosselin	lecture	N/A	intrinsèque	0
criminel	axiologique	Menel	dérivation	crime	intrinsèque	1
crise	appréciatif;épistémique	Menel	définition	craindre;espérer	intrinsèque;sublexical	1
critiquer	axiologique	Menel	synonymie	désapprouver	extrinsèque	1
croire	épistémique	Gosselin	lecture	N/A	extrinsèque	0
croisière	pas d'indication	Menel	intuition	INTUITION	pas d'indication	3
croissant	appréciatif	Menel	champ lexical	frites	inférence	1
crotte	appréciatif	Gosselin	lecture	N/A	extrinsèque	0
croustillant	appréciatif;épistémique	Menel	arbre	INTUITION	pas d'indication	2
croyance	épistémique	Gosselin	lecture	N/A	intrinsèque	0
culot	axiologique	Gosselin	lecture	N/A	intrinsèque	0
culpabiliser	axiologique	Menel	dérivation	coupable	intrinsèque	1
curieux	boulique;épistémique	Menel	définition	envie;savoir	intrinsèque;sublexical	1
cyanure	pas d'indication	Menel	intuition	INTUITION	pas d'indication	3
cyberharcèlement	pas d'indication	Menel	intuition	INTUITION	pas d'indication	3
cyclone	pas d'indication	Menel	intuition	INTUITION	pas d'indication	3
danger	appréciatif	Menel	définition	INTUITION	intrinsèque	1
dangereux	appréciatif	Menel	définition	INTUITION	intrinsèque	1
danser	pas d'indication	Menel	intuition	INTUITION	pas d'indication	3
débile	appréciatif	Menel	définition	INTUITION	intrinsèque	1
déception	pas d'indication	Menel	intuition	INTUITION	pas d'indication	3
décès	appréciatif	Menel	champ lexical	souffrance	inférence	1
décevoir	appréciatif	Gosselin	lecture	N/A	extrinsèque	0
décidément	pas d'indication	Menel	intuition	INTUITION	pas d'indication	3
décider	boulique;épistémique	Gosselin	lecture	N/A	extrinsèque	0
décision	boulique;épistémique	Menel	dérivation	décider	intrinsèque	1
déclarer	boulique	Aline	synonymie	dire	inférence	1
décontenancer	pas d'indication	Menel	intuition	INTUITION	pas d'indication	3
décourager	appréciatif;axiologique	Menel	dérivation	courage	intrinsèque	1
découvrir	pas d'indication	Menel	intuition	INTUITION	pas d'indication	3
défaillance	pas d'indication	Menel	intuition	INTUITION	pas d'indication	3
défaite	appréciatif	Menel	champ lexical	échouer	extrinsèque	1
défendre	axiologique	Menel	arbre	INTUITION	pas d'indication	2
défigurer	appréciatif;axiologique	Menel	arbre	INTUITION	pas d'indication	2
déforestation	pas d'indication	Menel	intuition	INTUITION	pas d'indication	3
déformer	pas d'indication	Menel	intuition	INTUITION	pas d'indication	3
dégât	appréciatif	Menel	synonymie	dommage	intrinsèque	1
dégoût	appréciatif	Aline	définition	aversion	intrinsèque	1
dégoûtant	appréciatif	Aline	définition	aversion	intrinsèque	1
dégoûter	appréciatif	Menel	définition	aversion	intrinsèque	1
dégradant	axiologique	Menel	définition	INTUITION	intrinsèque;sublexical	1
déguster	appréciatif	Menel	définition	apprécier	intrinsèque;sublexical	1
délibérément	boulique;épistémique	Gosselin	lecture	N/A	extrinsèque	0
délice	appréciatif	Menel	synonymie	plaisir	intrinsèque	1
délicieux	appréciatif	Gosselin	lecture	N/A	intrinsèque	0
déloyal	axiologique	Menel	synonymie	immoral	intrinsèque	1
demander	boulique	Gosselin	lecture	N/A	extrinsèque	0
demande	boulique	Menel	dérivation	demander	extrinsèque	1
dément	pas d'indication	Menel	intuition	INTUITION	pas d'indication	3
démission	boulique	Menel	définition	renoncer	intrinsèque;sublexical	1
démoralisé	appréciatif	Menel	arbre	INTUITION	pas d'indication	2
dénoncer	axiologique	Menel	arbre	INTUITION	pas d'indication	2
dépêcher	pas d'indication	Menel	intuition	INTUITION	pas d'indication	3
dépendant	appréciatif	Menel	arbre	INTUITION	pas d'indication	2
dépensier	axiologique	Gosselin	lecture	N/A	intrinsèque	0
déplorer	appréciatif	Gosselin	lecture	N/A	extrinsèque	0
déporter	axiologique;déontique	Menel	arbre	INTUITION	pas d'indication	2
dépressif	appréciatif	Menel	champ lexical	souffrance	intrinsèque	1
déprime	appréciatif	Menel	champ lexical	souffrance	intrinsèque	1
déprimer	appréciatif	Menel	champ lexical	souffrance	intrinsèque	1
déranger	appréciatif	Menel	arbre	INTUITION	pas d'indication	2
désaccord	aléthique;appréciatif;axiologique	Menel	arbre	INTUITION	pas d'indication	2
désagréable	appréciatif	Gosselin	lecture	N/A	intrinsèque	0
désapprouver	axiologique	Gosselin	lecture	N/A	extrinsèque	0
désastre	appréciatif	Menel	champ lexical	calamiteux	intrinsèque	1
désastreux	appréciatif	Menel	synonymie	calamiteux	intrinsèque	1
désavantagé	appréciatif;axiologique	Menel	arbre	INTUITION	pas d'indication	2
désespérément	boulique;épistémique	Menel	dérivation	espérer	intrinsèque	1
désespérer	boulique;épistémique	Menel	dérivation	espérer	extrinsèque	1
déshonorant	axiologique	Menel	synonymie	honteux	intrinsèque	1
désir	boulique	Gosselin	lecture	N/A	intrinsèque	0
désirer	boulique	Gosselin	lecture	N/A	intrinsèque	0
désolé	appréciatif	Menel	arbre	INTUITION	pas d'indication	2
détente	pas d'indication	Menel	intuition	INTUITION	pas d'indication	3
détester	appréciatif	Gosselin	lecture	N/A	extrinsèque	0
détresse	appréciatif	Menel	champ lexical	souffrance	intrinsèque	1
détriment	appréciatif	Menel	synonymie	dommage	intrinsèque	1
détruire	appréciatif;axiologique	Menel	arbre	INTUITION	pas d'indication	2
détruit	appréciatif	Menel	arbre	INTUITION	pas d'indication	2
dette	déontique	Menel	définition	obligation	intrinsèque;sublexical	1
deuil	appréciatif	Menel	champ lexical	souffrance	intrinsèque	1
dévaliser	pas d'indication	Menel	intuition	INTUITION	pas d'indication	3
dévalorisant	appréciatif;axiologique	Menel	définition	INTUITION	intrinsèque	1
dévaster	appréciatif;axiologique	Menel	arbre	INTUITION	pas d'indication	2
devoir	aléthique;déontique;épistémique	Gosselin	lecture	N/A	extrinsèque	0
dévorer	épistémique	Menel	arbre	INTUITION	pas d'indication	2
dévoreur	épistémique	Menel	arbre	INTUITION	pas d'indication	2
dictateur	pas d'indication	Menel	intuition	INTUITION	pas d'indication	3
dictature	pas d'indication	Menel	intuition	INTUITION	pas d'indication	3
dieu	épistémique	Gosselin	lecture	N/A	intrinsèque	0
difficile	appréciatif;épistémique	Menel	définition	INTUITION	intrinsèque	1
difficulté	pas d'indication	Menel	intuition	INTUITION	pas d'indication	3
digestif	appréciatif	Gosselin	lecture	N/A	inférence	0
digne	axiologique	Menel	champ lexical	mérite	intrinsèque	1
dignement	axiologique	Menel	définition	mérite	intrinsèque	1
dîner	aléthique;appréciatif	Menel	arbre	INTUITION	pas d'indication	2
dire	boulique	Gosselin	lecture	N/A	inférence	0
discrimination	pas d'indication	Menel	intuition	INTUITION	pas d'indication	3
discriminer	pas d'indication	Menel	intuition	INTUITION	pas d'indication	3
Disney	pas d'indication	Menel	intuition	INTUITION	pas d'indication	3
Disneyland	pas d'indication	Menel	intuition	INTUITION	pas d'indication	3
dispute	pas d'indication	Menel	intuition	INTUITION	pas d'indication	3
disputer	appréciatif;axiologique	Menel	définition	blâmable	intrinsèque;sublexical	1
divertissant	appréciatif	Gosselin	lecture	N/A	intrinsèque	0
divertissement	appréciatif	Menel	dérivation	divertissant	intrinsèque	1
divin	épistémique	Menel	dérivation	Dieu	intrinsèque;associé	1
divorce	pas d'indication	Menel	intuition	INTUITION	pas d'indication	3
dommage	appréciatif	Gosselin	lecture	N/A	extrinsèque	0
douceur	appréciatif	Menel	définition	agréable	intrinsèque;sublexical	1
doué	pas d'indication	Menel	intuition	INTUITION	pas d'indication	3
doute	épistémique	Gosselin	lecture	N/A	intrinsèque	0
douter	épistémique	Gosselin	lecture	N/A	extrinsèque	0
douteux	épistémique	Gosselin	lecture	N/A	extrinsèque	0
doux	appréciatif	Menel	définition	agréable	intrinsèque;sublexical	1
dramatique	appréciatif	Menel	synonymie	calamiteux	intrinsèque	1
drame	appréciatif	Menel	champ lexical	calamiteux	intrinsèque	1
droit	déontique	Gosselin	lecture	N/A	intrinsèque	0
drôle	appréciatif	Menel	champ lexical	amuser	intrinsèque	1
dur	pas d'indication	Menel	intuition	INTUITION	pas d'indication	3
ébahir	pas d'indication	Menel	intuition	INTUITION	pas d'indication	3
Ebola	pas d'indication	Menel	intuition	INTUITION	pas d'indication	3
échapper	pas d'indication	Menel	intuition	INTUITION	pas d'indication	3
échec	appréciatif	Menel	dérivation	échouer	intrinsèque	1
échouer	appréciatif	Gosselin	lecture	N/A	extrinsèque	0
éclairer	pas d'indication	Menel	intuition	INTUITION	pas d'indication	3
école	aléthique	Menel	arbre	INTUITION	pas d'indication	2
économe	axiologique	Gosselin	lecture	N/A	inférence	0
écrouler	pas d'indication	Menel	intuition	INTUITION	pas d'indication	3
effondré	appréciatif	Menel	arbre	INTUITION	pas d'indication	2
effondrement	pas d'indication	Menel	intuition	INTUITION	pas d'indication	3
efforcer	boulique	Gosselin	lecture	N/A	extrinsèque	0
effrayant	pas d'indication	Menel	intuition	INTUITION	pas d'indication	3
effrayer	pas d'indication	Menel	intuition	INTUITION	pas d'indication	3
égayer	appréciatif	Menel	champ lexical	heureux	intrinsèque;sublexical	1
élire	pas d'indication	Menel	intuition	INTUITION	pas d'indication	3
elle	aléthique;épistémique	Gosselin	lecture	N/A	intrinsèque	0
élu	pas d'indication	Menel	intuition	INTUITION	pas d'indication	3
emballé	pas d'indication	Menel	intuition	INTUITION	pas d'indication	3
embarras	pas d'indication	Menel	intuition	INTUITION	pas d'indication	3
embarrassé	appréciatif	Menel	arbre	INTUITION	pas d'indication	2
embarrasser	appréciatif	Menel	arbre	INTUITION	pas d'indication	2
embêtant	appréciatif	Menel	définition	ennui	intrinsèque;sublexical	1
embêter	appréciatif	Menel	définition	ennui	intrinsèque;sublexical	1
embouteillage	aléthique;appréciatif	Menel	arbre	INTUITION	pas d'indication	2
émerveiller	appréciatif	Menel	champ lexical	admirable	intrinsèque	1
émeute	pas d'indication	Menel	intuition	INTUITION	pas d'indication	3
empêcher	pas d'indication	Menel	intuition	INTUITION	pas d'indication	3
empester	appréciatif	Menel	définition	INTUITION	intrinsèque	1
emploi	appréciatif	Menel	synonymie	travail	inférence	1
empocher	pas d'indication	Menel	intuition	INTUITION	pas d'indication	3
empresser	pas d'indication	Menel	intuition	INTUITION	pas d'indication	3
emprisonné	appréciatif;axiologique	Menel	arbre	INTUITION	pas d'indication	2
encourager	boulique	Menel	arbre	INTUITION	pas d'indication	2
endeuillé	appréciatif	Menel	arbre	INTUITION	pas d'indication	2
endommagé	appréciatif	Menel	dérivation	dommage	intrinsèque	1
énerver	pas d'indication	Menel	intuition	INTUITION	pas d'indication	3
enfermé	appréciatif	Menel	arbre	INTUITION	pas d'indication	2
enfermer	pas d'indication	Menel	intuition	INTUITION	pas d'indication	3
engouement	appréciatif	Menel	définition	admirer	intrinsèque	1
engueuler	pas d'indication	Menel	intuition	INTUITION	pas d'indication	3
enlever	appréciatif;axiologique	Menel	arbre	INTUITION	pas d'indication	2
ennemi	appréciatif	Menel	définition	aimer	intrinsèque;sublexical	1
ennui	appréciatif	Gosselin	lecture	N/A	intrinsèque	0
énorme	épistémique	Menel	synonymie	grand	intrinsèque	1
enrichir	appréciatif	Menel	définition	INTUITION	intrinsèque	1
enterrement	pas d'indication	Menel	intuition	INTUITION	pas d'indication	3
enthousiasmant	appréciatif	Menel	champ lexical	heureux	intrinsèque	1
enthousiasme	appréciatif	Menel	champ lexical	heureux	intrinsèque	1
enthousiaste	appréciatif	Menel	synonymie	heureux	intrinsèque	1
envie	boulique	Gosselin	lecture	N/A	intrinsèque	0
épanouir	appréciatif	Menel	champ lexical	bonheur	intrinsèque	1
épater	pas d'indication	Menel	intuition	INTUITION	pas d'indication	3
épidémie	pas d'indication	Menel	intuition	INTUITION	pas d'indication	3
épidémique	pas d'indication	Menel	intuition	INTUITION	pas d'indication	3
épinards	appréciatif	Menel	champ lexical	frites	inférence	1
épouser	pas d'indication	Menel	intuition	INTUITION	pas d'indication	3
épouvante	appréciatif;épistémique	Menel	champ lexical	craindre	intrinsèque	1
esclaffer	pas d'indication	Menel	intuition	INTUITION	pas d'indication	3
esclavage	boulique	Menel	définition	volonté	intrinsèque;sublexical	1
escroquer	axiologique	Menel	champ lexical	voleur	intrinsèque	1
espérer	boulique;épistémique	Gosselin	lecture	N/A	extrinsèque	0
espionnage	appréciatif;axiologique	Menel	arbre	INTUITION	pas d'indication	2
espionner	appréciatif;axiologique	Menel	arbre	INTUITION	pas d'indication	2
espoir	boulique;épistémique	Menel	dérivation	espérer	intrinsèque	1
esprit	épistémique	Gosselin	lecture	N/A	intrinsèque	0
essayer	boulique;épistémique	Gosselin	lecture	N/A	extrinsèque	0
étonnant	épistémique	Menel	arbre	INTUITION	pas d'indication	2
étonnement	pas d'indication	Menel	intuition	INTUITION	pas d'indication	3
étonner	pas d'indication	Menel	intuition	INTUITION	pas d'indication	3
étrange	appréciatif;épistémique	Menel	arbre	INTUITION	pas d'indication	2
évidemment	épistémique	Aline	synonymie	certainement	extrinsèque	1
exaspération	pas d'indication	Menel	intuition	INTUITION	pas d'indication	3
exaspérer	pas d'indication	Menel	intuition	INTUITION	pas d'indication	3
excellence	appréciatif;axiologique	Menel	champ lexical	bien	intrinsèque	1
excellent	appréciatif;axiologique	Menel	synonymie	bien	intrinsèque	1
exceptionnel	appréciatif;axiologique;épistémique	Menel	arbre	INTUITION	pas d'indication	2
excitant	appréciatif;épistémique	Menel	arbre	INTUITION	pas d'indication	2
exciter	pas d'indication	Menel	intuition	INTUITION	pas d'indication	3
excuse	axiologique	Menel	arbre	INTUITION	pas d'indication	2
exercices	appréciatif	Menel	champ lexical	travail	inférence	1
exiger	aléthique;boulique;déontique	Gosselin	lecture	N/A	extrinsèque	0
exil	déontique	Menel	définition	interdire	intrinsèque;sublexical	1
exilé	boulique	Menel	définition	volontairement	intrinsèque;sublexical	1
exploit	pas d'indication	Menel	intuition	INTUITION	pas d'indication	3
exploiter	appréciatif;axiologique	Menel	arbre	INTUITION	pas d'indication	2
exploser	pas d'indication	Menel	intuition	INTUITION	pas d'indication	3
explosion	pas d'indication	Menel	intuition	INTUITION	pas d'indication	3
exprès	boulique;épistémique	Gosselin	lecture	N/A	extrinsèque	0
expulser	axiologique;déontique	Menel	arbre	INTUITION	pas d'indication	2
extinction	pas d'indication	Menel	intuition	INTUITION	pas d'indication	3
extra	appréciatif	Menel	synonymie	chouette	intrinsèque	1
extraordinaire	appréciatif;épistémique	Menel	arbre	INTUITION	pas d'indication	2
fabuleux	appréciatif	Menel	synonymie	magnifique	intrinsèque	1
fâcher	pas d'indication	Menel	intuition	INTUITION	pas d'indication	3
facile	appréciatif;épistémique	Menel	définition	INTUITION	intrinsèque	1
facilité	appréciatif;épistémique	Menel	définition	INTUITION	intrinsèque	1
faiblesse	appréciatif;axiologique	Menel	arbre	INTUITION	pas d'indication	2
faiblir	appréciatif;axiologique;épistémique	Menel	arbre	INTUITION	pas d'indication	2
fake	aléthique	Menel	arbre	INTUITION	pas d'indication	2
falloir	déontique	Gosselin	lecture	N/A	extrinsèque	0
falsifier	pas d'indication	Menel	intuition	INTUITION	pas d'indication	3
famille	aléthique	Menel	arbre	INTUITION	pas d'indication	2
famine	appréciatif	Menel	définition	souffrance	intrinsèque	1
fan	appréciatif	Menel	arbre	INTUITION	pas d'indication	2
fantôme	épistémique	Gosselin	lecture	N/A	intrinsèque	0
farfelu	appréciatif;épistémique	Menel	arbre	INTUITION	pas d'indication	2
fasciner	appréciatif	Menel	définition	INTUITION	intrinsèque	1
fatigué	appréciatif	Menel	arbre	INTUITION	pas d'indication	2
faute	appréciatif;axiologique	Menel	définition	mauvais	intrinsèque;sublexical	1
faux	aléthique	Menel	arbre	INTUITION	pas d'indication	2
favoriser	appréciatif	Menel	arbre	INTUITION	pas d'indication	2
féliciter	appréciatif	Gosselin	lecture	N/A	extrinsèque	0
féroce	appréciatif;épistémique	Menel	arbre	INTUITION	pas d'indication	2
festivité	appréciatif	Menel	dérivation	fête	inférence	1
fête	appréciatif	Gosselin	lecture	N/A	intrinsèque	0
fêter	appréciatif	Menel	dérivation	fête	extrinsèque	1
fidèle	axiologique	Gosselin	lecture	N/A	intrinsèque	0
fier	appréciatif;axiologique	Menel	arbre	INTUITION	pas d'indication	2
fierté	appréciatif;axiologique	Menel	arbre	INTUITION	pas d'indication	2
fièvre	pas d'indication	Menel	intuition	INTUITION	pas d'indication	3
fissure	appréciatif	Menel	arbre	INTUITION	pas d'indication	2
flâner	épistémique	Gosselin	lecture	N/A	intrinsèque	0
fleur	pas d'indication	Menel	intuition	INTUITION	pas d'indication	3
folie	pas d'indication	Menel	intuition	INTUITION	pas d'indication	3
fondant	appréciatif;épistémique	Menel	arbre	INTUITION	pas d'indication	2
force	pas d'indication	Menel	intuition	INTUITION	pas d'indication	3
forcément	aléthique	Menel	synonymie	nécessairement	extrinsèque	1
forcer	pas d'indication	Menel	intuition	INTUITION	pas d'indication	3
formalité	axiologique	Menel	définition	légal	intrinsèque;sublexical	1
formidable	appréciatif	Menel	synonymie	magnifique	intrinsèque	1
fort	pas d'indication	Menel	intuition	INTUITION	pas d'indication	3
fou	pas d'indication	Menel	intuition	INTUITION	pas d'indication	3
fracture	appréciatif	Menel	arbre	INTUITION	pas d'indication	2
frapper	appréciatif;axiologique	Menel	arbre	INTUITION	pas d'indication	2
fraude	axiologique	Menel	champ lexical	voleur	intrinsèque	1
frayeur	appréciatif;épistémique	Menel	champ lexical	craindre	intrinsèque	1
friandise	appréciatif	Menel	champ lexical	frites	inférence	1
frimer	appréciatif;axiologique	Menel	arbre	INTUITION	pas d'indication	2
frites	appréciatif	Gosselin	lecture	N/A	inférence	0
frustrant	appréciatif	Menel	champ lexical	décevoir	intrinsèque	1
frustrer	appréciatif	Menel	synonymie	décevoir	intrinsèque	1
fuir	appréciatif;axiologique;boulique	Menel	arbre	INTUITION	pas d'indication	2
funérailles	pas d'indication	Menel	intuition	INTUITION	pas d'indication	3
fureur	pas d'indication	Menel	intuition	INTUITION	pas d'indication	3
furieux	pas d'indication	Menel	intuition	INTUITION	pas d'indication	3
fusil	axiologique	Menel	champ lexical	guerre	inférence	1
gâcher	appréciatif;axiologique	Menel	définition	mauvais	intrinsèque;sublexical	1
gagner	appréciatif	Menel	synonymie	réussir	extrinsèque	1
gai	appréciatif	Menel	synonymie	heureux	intrinsèque	1
gaîment	appréciatif	Menel	synonymie	heureusement	intrinsèque	1
gain	appréciatif	Menel	synonymie	récompense	intrinsèque	1
gaspillage	appréciatif	Menel	définition	utile	intrinsèque;sublexical	1
gaspiller	pas d'indication	Menel	intuition	INTUITION	pas d'indication	3
gastronomie	appréciatif;axiologique	Menel	définition	bon	intrinsèque;sublexical	1
gâteau	appréciatif	Menel	champ lexical	frites	inférence	1
gaver	pas d'indication	Menel	intuition	INTUITION	pas d'indication	3
gênant	pas d'indication	Menel	intuition	INTUITION	pas d'indication	3
gêner	pas d'indication	Menel	intuition	INTUITION	pas d'indication	3
généralement	aléthique	Gosselin	lecture	N/A	extrinsèque	0
généreux	appréciatif;axiologique	Gosselin	lecture	N/A	intrinsèque	0
génial	appréciatif;axiologique	Menel	synonymie	bien	intrinsèque	1
gentil	appréciatif;axiologique	Menel	définition	courageux	intrinsèque	1
ghettos	aléthique;appréciatif	Menel	arbre	INTUITION	pas d'indication	2
gifle	appréciatif;axiologique	Menel	arbre	INTUITION	pas d'indication	2
gigantesque	épistémique	Menel	synonymie	grand	intrinsèque	1
glaces	appréciatif	Menel	champ lexical	frites	inférence	1
gloire	appréciatif	Menel	définition	INTUITION	intrinsèque	1
glorieux	appréciatif	Menel	définition	INTUITION	intrinsèque	1
good	appréciatif;axiologique	Menel	synonymie	bon	intrinsèque	1
goûter	pas d'indication	Menel	intuition	INTUITION	pas d'indication	3
gouverner	pas d'indication	Menel	intuition	INTUITION	pas d'indication	3
gracieux	appréciatif	Menel	champ lexical	beau	intrinsèque	1
grand	épistémique	Gosselin	lecture	N/A	intrinsèque	0
grave	appréciatif;axiologique	Menel	synonymie	mauvais	intrinsèque	1
grève	pas d'indication	Menel	intuition	INTUITION	pas d'indication	3
grimace	aléthique;appréciatif	Menel	arbre	INTUITION	pas d'indication	2
grognon	pas d'indication	Menel	intuition	INTUITION	pas d'indication	3
gros	épistémique	Menel	synonymie	grand	intrinsèque	1
grossier	axiologique	Menel	définition	INTUITION	intrinsèque	1
grr	pas d'indication	Menel	intuition	INTUITION	pas d'indication	3
guerre	axiologique	Gosselin	lecture	N/A	inférence	0
hallucinant	appréciatif;épistémique	Menel	arbre	INTUITION	pas d'indication	2
hanté	épistémique	Menel	arbre	INTUITION	pas d'indication	2
hantise	pas d'indication	Menel	intuition	INTUITION	pas d'indication	3
happy	appréciatif	Menel	synonymie	heureux	intrinsèque	1
harcèlement	appréciatif;axiologique	Menel	définition	blâmable	intrinsèque	1
harceler	appréciatif;axiologique	Menel	définition	blâmable	intrinsèque	1
hâte	pas d'indication	Menel	intuition	INTUITION	pas d'indication	3
haut	pas d'indication	Menel	intuition	INTUITION	pas d'indication	3
hé	pas d'indication	Menel	intuition	INTUITION	pas d'indication	3
hein	pas d'indication	Menel	intuition	INTUITION	pas d'indication	3
hélas	appréciatif	Gosselin	lecture	N/A	extrinsèque	0
hésitation	boulique;épistémique	Menel	définition	doute	intrinsèque	1
heureusement	appréciatif	Gosselin	lecture	N/A	extrinsèque	0
heureux	appréciatif	Gosselin	lecture	N/A	extrinsèque	0
heurt	appréciatif	Menel	arbre	INTUITION	pas d'indication	2
hilare	appréciatif	Menel	arbre	INTUITION	pas d'indication	2
hilarité	appréciatif	Menel	arbre	INTUITION	pas d'indication	2
hommage	axiologique	Menel	arbre	INTUITION	pas d'indication	2
honneur	axiologique	Menel	champ lexical	louable	intrinsèque	1
honorer	axiologique	Menel	champ lexical	louable	intrinsèque	1
honte	axiologique	Menel	dérivation	honteux	intrinsèque	1
honteux	axiologique	Gosselin	lecture	N/A	extrinsèque	0
horrible	appréciatif;épistémique	Menel	champ lexical	craindre	intrinsèque	1
hostile	appréciatif;axiologique;épistémique	Menel	arbre	INTUITION	pas d'indication	2
hostilité	pas d'indication	Menel	intuition	INTUITION	pas d'indication	3
hot-dog	appréciatif	Menel	champ lexical	frites	inférence	1
hourrah	appréciatif	Menel	champ lexical	ouf	extrinsèque	1
huer	appréciatif;axiologique	Menel	arbre	INTUITION	pas d'indication	2
humiliant	axiologique	Menel	champ lexical	honteux	intrinsèque	1
humiliation	axiologique	Menel	champ lexical	honteux	intrinsèque	1
humilier	axiologique	Menel	champ lexical	honteux	intrinsèque	1
icône	appréciatif	Menel	champ lexical	admirer	intrinsèque	1
idéal	appréciatif	Menel	synonymie	magnifique	intrinsèque	1
idiot	appréciatif	Menel	définition	INTUITION	intrinsèque	1
idole	appréciatif	Menel	champ lexical	admirer	intrinsèque	1
illégal	axiologique	Gosselin	lecture	N/A	intrinsèque	0
illuminations	aléthique;appréciatif	Menel	arbre	INTUITION	pas d'indication	2
illusion	aléthique	Menel	arbre	INTUITION	pas d'indication	2
imaginer	épistémique	Gosselin	lecture	N/A	extrinsèque	0
imbécile	pas d'indication	Menel	intuition	INTUITION	pas d'indication	3
immature	pas d'indication	Menel	intuition	INTUITION	pas d'indication	3
immense	épistémique	Menel	synonymie	grand	intrinsèque	1
immobile	pas d'indication	Menel	intuition	INTUITION	pas d'indication	3
immonde	appréciatif	Menel	champ lexical	aversion	intrinsèque	1
immoral	axiologique	Gosselin	lecture	N/A	intrinsèque	0
immoralité	axiologique	Menel	dérivation	immoral	intrinsèque	1
impatient	pas d'indication	Menel	intuition	INTUITION	pas d'indication	3
impeccable	pas d'indication	Menel	intuition	INTUITION	pas d'indication	3
impérativement	déontique	Gosselin	lecture	N/A	extrinsèque	0
impérieux	déontique	Gosselin	lecture	N/A	intrinsèque	0
important	appréciatif;axiologique;épistémique	Menel	arbre	INTUITION	pas d'indication	2
imposer	déontique	Menel	synonymie	obliger	extrinsèque	1
impossible	aléthique	Gosselin	lecture	N/A	intrinsèque	0
impressionnant	appréciatif	Menel	synonymie	admirable	intrinsèque	1
impressionner	pas d'indication	Menel	intuition	INTUITION	pas d'indication	3
imprévisible	appréciatif;aléthique	Menel	arbre	INTUITION	pas d'indication	2
improbable	épistémique	Menel	dérivation	probable	intrinsèque	1
inaction	pas d'indication	Menel	intuition	INTUITION	pas d'indication	3
inattendu	appréciatif;aléthique	Menel	arbre	INTUITION	pas d'indication	2
incapable	aléthique	Menel	définition	possibilité	intrinsèque	1
incendie	pas d'indication	Menel	intuition	INTUITION	pas d'indication	3
incendier	pas d'indication	Menel	intuition	INTUITION	pas d'indication	3
incorrect	pas d'indication	Menel	intuition	INTUITION	pas d'indication	3
incroyable	appréciatif;épistémique	Menel	dérivation	croire	intrinsèque	1
incurable	aléthique	Menel	définition	pouvoir	intrinsèque;sublexical	1
indignation	pas d'indication	Menel	intuition	INTUITION	pas d'indication	3
indigne	axiologique	Menel	champ lexical	mérite	intrinsèque	1
indigné	axiologique	Menel	arbre	INTUITION	pas d'indication	2
indispensable	appréciatif	Gosselin	lecture	N/A	extrinsèque	0
inédit	pas d'indication	Menel	intuition	INTUITION	pas d'indication	3
inégalité	pas d'indication	Menel	intuition	INTUITION	pas d'indication	3
infâme	axiologique	Menel	synonymie	honteux	intrinsèque	1
informe	pas d'indication	Menel	intuition	INTUITION	pas d'indication	3
ingénieux	pas d'indication	Menel	intuition	INTUITION	pas d'indication	3
inhabituel	épistémique	Menel	arbre	INTUITION	pas d'indication	2
injuste	axiologique	Gosselin	lecture	N/A	intrinsèque	0
injustice	axiologique	Menel	dérivation	injuste	intrinsèque	1
innocent	appréciatif;axiologique	Menel	définition	mal	intrinsèque;sublexical	1
inondation	aléthique;appréciatif	Menel	arbre	INTUITION	pas d'indication	2
inonder	pas d'indication	Menel	intuition	INTUITION	pas d'indication	3
inoxydable	aléthique	Gosselin	lecture	N/A	intrinsèque	0
inquiet	appréciatif;épistémique	Menel	champ lexical	craindre	intrinsèque	1
inquiétant	appréciatif;épistémique	Menel	champ lexical	craindre	intrinsèque	1
inquiétude	appréciatif;épistémique	Menel	champ lexical	craindre	intrinsèque	1
insolite	épistémique	Menel	arbre	INTUITION	pas d'indication	2
insulte	appréciatif;axiologique	Menel	définition	blâmable	intrinsèque	1
insulter	appréciatif;axiologique	Menel	définition	blâmable	intrinsèque	1
intelligent	appréciatif	Menel	définition	bon	intrinsèque	1
intempestif	appréciatif;axiologique	Menel	définition	mal	intrinsèque	1
intention	boulique	Menel	synonymie	volonté	intrinsèque	1
interdiction	déontique	Menel	dérivation	interdire	intrinsèque	1
interdire	déontique	Gosselin	lecture	N/A	intrinsèque	0
intéresser	pas d'indication	Menel	intuition	INTUITION	pas d'indication	3
intérêt	boulique	Menel	synonymie	désir	intrinsèque	1
interminable	pas d'indication	Menel	intuition	INTUITION	pas d'indication	3
intimidation	pas d'indication	Menel	intuition	INTUITION	pas d'indication	3
intimider	appréciatif;axiologique	Menel	arbre	INTUITION	pas d'indication	2
intriguant	appréciatif;épistémique	Menel	arbre	INTUITION	pas d'indication	2
intriguer	pas d'indication	Menel	intuition	INTUITION	pas d'indication	3
inutile	appréciatif	Menel	dérivation	utile	intrinsèque	1
inventer	épistémique	Menel	synonymie	imaginer	extrinsèque	1
invivable	pas d'indication	Menel	intuition	INTUITION	pas d'indication	3
involontairement	boulique	Gosselin	lecture	N/A	extrinsèque	0
irrespectueux	appréciatif;axiologique	Menel	champ lexical	blâmable	intrinsèque	1
irréversible	aléthique	Menel	définition	possibilité;pouvoir	intrinsèque	1
isocèle	aléthique	Gosselin	lecture	N/A	intrinsèque	0
isolé	appréciatif	Menel	arbre	INTUITION	pas d'indication	2
ivrogne	aléthique;axiologique	Gosselin	lecture	N/A	intrinsèque	0
jalousie	appréciatif;boulique;épistémique	Menel	définition	désir;bonheur;craindre;aimer	intrinsèque;sublexical	1
jaloux	appréciatif;boulique;épistémique	Menel	définition	désir;bonheur;souffrance;certitude;aimer	intrinsèque;sublexical	1
jamais	aléthique	Gosselin	lecture	N/A	extrinsèque	0
jeune	pas d'indication	Menel	intuition	INTUITION	pas d'indication	3
jeûne	appréciatif	Gosselin	lecture	N/A	inférence	0
joie	appréciatif	Menel	synonymie	plaisir	intrinsèque	1
joli	appréciatif	Menel	synonymie	beau	intrinsèque	1
jouer	appréciatif	Menel	champ lexical	amuser	intrinsèque	1
jouet	appréciatif	Menel	champ lexical	amuser	intrinsèque	1
jovial	appréciatif	Menel	synonymie	heureux	intrinsèque	1
joyeusement	appréciatif	Menel	champ lexical	heureux	intrinsèque	1
joyeux	appréciatif	Menel	synonymie	heureux	intrinsèque	1
jubiler	appréciatif	Menel	synonymie	réjouir	intrinsèque	1
juger	pas d'indication	Menel	intuition	INTUITION	pas d'indication	3
juridiquement	aléthique	Gosselin	lecture	N/A	extrinsèque	0
juste	axiologique	Gosselin	lecture	N/A	intrinsèque	0
justice	axiologique	Menel	dérivation	juste	intrinsèque	1
kidnapper	appréciatif;axiologique	Menel	arbre	INTUITION	pas d'indication	2
lâche	axiologique	Gosselin	lecture	N/A	intrinsèque	0
laisser	déontique	Menel	synonymie	permettre	extrinsèque	1
lamenter	appréciatif	Menel	arbre	INTUITION	pas d'indication	2
lassé	appréciatif	Menel	arbre	INTUITION	pas d'indication	2
légal	axiologique	Gosselin	lecture	N/A	intrinsèque	0
légende	aléthique	Menel	arbre	INTUITION	pas d'indication	2
lent	épistémique	Menel	champ lexical	vite	intrinsèque	1
lentement	épistémique	Gosselin	lecture	N/A	intrinsèque	0
liberté	appréciatif	Menel	arbre	INTUITION	pas d'indication	2
libre	appréciatif	Menel	arbre	INTUITION	pas d'indication	2
lire	boulique	Gosselin	lecture	N/A	inférence	0
loi	déontique	Menel	définition	obligation	intrinsèque;sublexical	1
loisir	appréciatif	Menel	champ lexical	divertissant	intrinsèque	1
long	épistémique	Menel	champ lexical	grand	intrinsèque	1
longtemps	épistémique	Menel	arbre	INTUITION	pas d'indication	2
louable	axiologique	Gosselin	lecture	N/A	intrinsèque	0
lourd	épistémique	Gosselin	lecture	N/A	intrinsèque	0
lourdement	épistémique	Gosselin	lecture	N/A	intrinsèque	0
lumière	aléthique;appréciatif	Menel	arbre	INTUITION	pas d'indication	2
lumineux	pas d'indication	Menel	intuition	INTUITION	pas d'indication	3
lutte	axiologique	Menel	champ lexical	guerre	inférence	1
magie	pas d'indication	Menel	intuition	INTUITION	pas d'indication	3
magique	pas d'indication	Menel	intuition	INTUITION	pas d'indication	3
magnifique	appréciatif	Gosselin	lecture	N/A	intrinsèque	0
majestueux	appréciatif	Menel	synonymie	somptueux	intrinsèque	1
mal	appréciatif;axiologique	Gosselin	lecture	N/A	intrinsèque	0
malade	appréciatif	Menel	champ lexical	souffrance	intrinsèque	1
maladie	appréciatif	Menel	champ lexical	souffrance	intrinsèque	1
maladresse	appréciatif;axiologique	Menel	dérivation	mal	intrinsèque	1
maladroit	appréciatif;axiologique	Menel	dérivation	mal	intrinsèque	1
malaise	appréciatif	Menel	dérivation	mal	intrinsèque	1
malfaisant	appréciatif;axiologique	Menel	dérivation	mal	intrinsèque	1
malgré	pas d'indication	Menel	intuition	INTUITION	pas d'indication	3
malheur	appréciatif	Gosselin	lecture	N/A	extrinsèque	0
malheureusement	appréciatif	Menel	dérivation	heureusement	intrinsèque	1
malhonnête	appréciatif;axiologique	Menel	dérivation	mal	intrinsèque	1
malice	appréciatif;axiologique	Menel	arbre	INTUITION	pas d'indication	2
maltraitance	appréciatif;axiologique	Menel	dérivation	mal	intrinsèque	1
maltraiter	appréciatif;axiologique	Menel	dérivation	mal	intrinsèque	1
manifestation	pas d'indication	Menel	intuition	INTUITION	pas d'indication	3
manifester	pas d'indication	Menel	intuition	INTUITION	pas d'indication	3
manigance	boulique	Menel	définition	vouloir	intrinsèque;sublexical	1
manipuler	appréciatif;axiologique	Menel	arbre	INTUITION	pas d'indication	2
marcher	boulique	Gosselin	lecture	N/A	inférence	0
mariage	pas d'indication	Menel	intuition	INTUITION	pas d'indication	3
marier	pas d'indication	Menel	intuition	INTUITION	pas d'indication	3
marrant	appréciatif	Menel	champ lexical	amuser	intrinsèque	1
marre	appréciatif	Menel	arbre	INTUITION	pas d'indication	2
massacre	aléthique;appréciatif;axiologique	Menel	champ lexical	assassin;souffrance	intrinsèque	1
maudire	axiologique	Menel	définition	réprouver	extrinsèque	1
mauvais	appréciatif;axiologique	Gosselin	lecture	N/A	intrinsèque	0
méchamment	appréciatif;axiologique	Menel	champ lexical	mauvais	intrinsèque	1
méchant	appréciatif;axiologique	Menel	synonymie	mauvais	intrinsèque	1
médaille	pas d'indication	Menel	intuition	INTUITION	pas d'indication	3
médailler	appréciatif;axiologique	Menel	définition	récompense	intrinsèque;sublexical	1
méfiance	pas d'indication	Menel	intuition	INTUITION	pas d'indication	3
méfiant	appréciatif;épistémique	Menel	définition	douter;craindre	intrinsèque;sublexical	1
meilleur	appréciatif;axiologique	Menel	dérivation	bon	intrinsèque	1
mélancolie	appréciatif	Menel	arbre	INTUITION	pas d'indication	2
menaçant	pas d'indication	Menel	intuition	INTUITION	pas d'indication	3
menace	appréciatif;axiologique	Menel	définition	mal	intrinsèque;sublexical	1
menacer	appréciatif;axiologique	Menel	définition	mal	intrinsèque;sublexical	1
mentir	épistémique	Menel	définition	savoir	intrinsèque;sublexical	1
merci	appréciatif;axiologique	Menel	arbre	INTUITION	pas d'indication	2
mérite	axiologique	Gosselin	lecture	N/A	extrinsèque	0
mériter	axiologique	Menel	dérivation	mérite	extrinsèque	1
merveilleux	appréciatif	Menel	arbre	INTUITION	pas d'indication	2
meurtre	aléthique;axiologique	Menel	champ lexical	assassin	intrinsèque	1
miam	appréciatif	Menel	définition	ouf;délicieux	extrinsèque	1
miel	appréciatif	Menel	champ lexical	frites	inférence	1
mieux	appréciatif;axiologique	Menel	dérivation	bon	intrinsèque	1
minable	appréciatif;axiologique	Menel	synonymie	mauvais	intrinsèque	1
mince	épistémique	Gosselin	lecture	N/A	intrinsèque	0
miracle	appréciatif	Menel	définition	admirable	intrinsèque;sublexical	1
misère	appréciatif	Menel	définition	INTUITION	intrinsèque	1
missile	pas d'indication	Menel	intuition	INTUITION	pas d'indication	3
moche	appréciatif	Menel	champ lexical	beau	intrinsèque	1
moderne	pas d'indication	Menel	intuition	INTUITION	pas d'indication	3
moindre	épistémique	Menel	synonymie	petit	intrinsèque	1
monstre	appréciatif	Menel	définition	INTUITION	intrinsèque;sublexical	1
moquer	pas d'indication	Menel	intuition	INTUITION	pas d'indication	3
moralement	aléthique	Gosselin	lecture	N/A	extrinsèque	0
mordre	appréciatif;axiologique	Menel	arbre	INTUITION	pas d'indication	2
mort	appréciatif	Menel	champ lexical	souffrance	inférence	1
mourir	appréciatif	Menel	champ lexical	souffrance	inférence	1
musclé	appréciatif;épistémique	Menel	arbre	INTUITION	pas d'indication	2
mystérieux	pas d'indication	Menel	intuition	INTUITION	pas d'indication	3
naturellement	aléthique	Menel	champ lexical	chimiquement	extrinsèque	1
nauséabond	appréciatif;axiologique	Menel	définition	mauvais	intrinsèque;sublexical	1
nausée	appréciatif;axiologique	Menel	définition	INTUITION	intrinsèque;sublexical	1
nécessaire	aléthique	Gosselin	lecture	N/A	extrinsèque	0
nécessairement	aléthique	Gosselin	lecture	N/A	extrinsèque	0
nécessité	aléthique	Gosselin	lecture	N/A	intrinsèque	0
nécessiter	aléthique	Gosselin	lecture	N/A	extrinsèque	0
néfaste	appréciatif	Gosselin	lecture	N/A	intrinsèque	0
négatif	pas d'indication	Menel	intuition	INTUITION	pas d'indication	3
neiger	aléthique	Gosselin	lecture	N/A	intrinsèque	0
Noël	pas d'indication	Menel	intuition	INTUITION	pas d'indication	3
noir	pas d'indication	Menel	intuition	INTUITION	pas d'indication	3
normal	épistémique	Menel	arbre	INTUITION	pas d'indication	2
nostalgie	appréciatif	Menel	arbre	INTUITION	pas d'indication	2
nourriture	aléthique;appréciatif	Menel	arbre	INTUITION	pas d'indication	2
nucléaire	pas d'indication	Menel	intuition	INTUITION	pas d'indication	3
nuire	appréciatif	Menel	dérivation	nuisible	intrinsèque	1
nuisance	appréciatif	Menel	dérivation	nuisible	intrinsèque	1
nuisible	appréciatif	Gosselin	lecture	N/A	intrinsèque	0
nuit	appréciatif	Menel	champ lexical	soleil	inférence	1
nul	appréciatif;axiologique	Menel	synonymie	mauvais	intrinsèque	1
obéir	déontique	Menel	définition	ordonner	intrinsèque;sublexical	1
obligation	déontique	Gosselin	lecture	N/A	intrinsèque	0
obligatoire	déontique	Gosselin	lecture	N/A	intrinsèque	0
obligatoirement	déontique	Gosselin	lecture	N/A	extrinsèque	0
obliger	déontique	Gosselin	lecture	N/A	intrinsèque	0
occupation	axiologique	Menel	champ lexical	résistance	inférence	1
offense	axiologique	Menel	champ lexical	blâmable	intrinsèque	1
offensif	pas d'indication	Menel	intuition	INTUITION	pas d'indication	3
offrir	appréciatif	Menel	champ lexical	cadeau	intrinsèque	1
oppresseur	pas d'indication	Menel	intuition	INTUITION	pas d'indication	3
optimiste	appréciatif;axiologique	Menel	définition	bon	intrinsèque;sublexical	1
orage	pas d'indication	Menel	intuition	INTUITION	pas d'indication	3
ordonner	déontique	Gosselin	lecture	N/A	extrinsèque	0
ordre	déontique	Menel	dérivation	ordonner	intrinsèque	1
oser	appréciatif;axiologique	Menel	champ lexical	courage	extrinsèque	1
oublier	pas d'indication	Menel	intuition	INTUITION	pas d'indication	3
ouf	appréciatif	Gosselin	lecture	N/A	extrinsèque	0
oups	pas d'indication	Menel	intuition	INTUITION	pas d'indication	3
ours	pas d'indication	Menel	intuition	INTUITION	pas d'indication	3
ouvrir	boulique	Gosselin	lecture	N/A	inférence	0
paix	axiologique	Menel	champ lexical	guerre	inférence	1
panique	pas d'indication	Menel	intuition	INTUITION	pas d'indication	3
paniquer	pas d'indication	Menel	intuition	INTUITION	pas d'indication	3
paraître	épistémique	Gosselin	lecture	N/A	extrinsèque	0
paranoïa	pas d'indication	Menel	intuition	INTUITION	pas d'indication	3
pardon	axiologique	Menel	arbre	INTUITION	pas d'indication	2
parfait	appréciatif;axiologique	Menel	synonymie	bon	intrinsèque	1
parfaitement	appréciatif;axiologique	Menel	synonymie	bien	extrinsèque	1
parfois	aléthique	Gosselin	lecture	N/A	extrinsèque	0
partir	aléthique	Menel	arbre	INTUITION	pas d'indication	2
partout	aléthique	Menel	champ lexical	toujours	extrinsèque	1
party	appréciatif	Menel	synonymie	fête	intrinsèque	1
passionner	pas d'indication	Menel	intuition	INTUITION	pas d'indication	3
pauvre	pas d'indication	Menel	intuition	INTUITION	pas d'indication	3
pauvreté	pas d'indication	Menel	intuition	INTUITION	pas d'indication	3
pavoiser	appréciatif	Menel	champ lexical	heureux	extrinsèque	1
PD	pas d'indication	Menel	intuition	INTUITION	pas d'indication	3
peine	appréciatif	Menel	synonymie	souffrance	intrinsèque	1
pénible	appréciatif	Menel	synonymie	désagréable	intrinsèque	1
penser	épistémique	Gosselin	lecture	N/A	extrinsèque	0
pénurie	pas d'indication	Menel	intuition	INTUITION	pas d'indication	3
perdant	appréciatif	Menel	champ lexical	échouer	intrinsèque	1
perdre	appréciatif	Menel	synonymie	échouer	extrinsèque	1
péril	appréciatif	Menel	champ lexical	risquer	intrinsèque;sublexical	1
permettre	déontique	Gosselin	lecture	N/A	extrinsèque	0
permission	déontique	Gosselin	lecture	N/A	intrinsèque	0
persécuter	axiologique	Menel	définition	injuste	intrinsèque;sublexical	1
persécution	axiologique	Menel	définition	injuste	intrinsèque;sublexical	1
personne	aléthique	Menel	synonymie	aucun	extrinsèque	1
personnellement	épistémique	Gosselin	lecture	N/A	extrinsèque	0
peste	pas d'indication	Menel	intuition	INTUITION	pas d'indication	3
pestiféré	boulique	Menel	définition	INTUITION	intrinsèque;sublexical	1
pestilentiel	pas d'indication	Menel	intuition	INTUITION	pas d'indication	3
petit	épistémique	Gosselin	lecture	N/A	intrinsèque	0
petits-fours	appréciatif	Menel	champ lexical	frites	inférence	1
peur	appréciatif;épistémique	Menel	champ lexical	craindre	intrinsèque	1
peureux	axiologique	Gosselin	lecture	N/A	intrinsèque	0
peut-être	épistémique	Gosselin	lecture	N/A	extrinsèque	0
piéger	pas d'indication	Menel	intuition	INTUITION	pas d'indication	3
piètre	appréciatif;axiologique	Menel	synonymie	mauvais	intrinsèque	1
pillage	axiologique	Menel	champ lexical	voleur	intrinsèque	1
piller	axiologique	Menel	champ lexical	voleur	intrinsèque	1
pique-nique	aléthique;appréciatif	Menel	arbre	INTUITION	pas d'indication	2
pirater	axiologique	Menel	champ lexical	voleur	intrinsèque	1
pire	appréciatif;axiologique	Menel	synonymie	mauvais	intrinsèque	1
pitié	pas d'indication	Menel	intuition	INTUITION	pas d'indication	3
plage	appréciatif	Menel	champ lexical	vacance;soleil	inférence	1
plaindre	appréciatif	Menel	définition	déplorer	intrinsèque;sublexical	1
plainte	pas d'indication	Menel	intuition	INTUITION	pas d'indication	3
plaire	appréciatif	Menel	synonymie	aimer	extrinsèque	1
plaisant	appréciatif	Menel	champ lexical	aimer	intrinsèque	1
plaisanter	appréciatif	Menel	arbre	INTUITION	pas d'indication	2
plaisanterie	appréciatif	Menel	arbre	INTUITION	pas d'indication	2
plaisir	appréciatif	Gosselin	lecture	N/A	intrinsèque	0
plat	pas d'indication	Menel	intuition	INTUITION	pas d'indication	3
please	boulique;déontique	Menel	définition	demander;ordonner	extrinsèque	1
pleurnicher	pas d'indication	Menel	intuition	INTUITION	pas d'indication	3
pleuvoir	aléthique	Gosselin	lecture	N/A	intrinsèque	0
pluie	aléthique;appréciatif	Gosselin	lecture	N/A	inférence	0
poison	pas d'indication	Menel	intuition	INTUITION	pas d'indication	3
poisse	appréciatif	Menel	champ lexical	chance	intrinsèque	1
polémique	axiologique	Menel	arbre	INTUITION	pas d'indication	2
polluer	pas d'indication	Menel	intuition	INTUITION	pas d'indication	3
pollution	pas d'indication	Menel	intuition	INTUITION	pas d'indication	3
populaire	pas d'indication	Menel	intuition	INTUITION	pas d'indication	3
porc	pas d'indication	Menel	intuition	INTUITION	pas d'indication	3
positif	pas d'indication	Menel	intuition	INTUITION	pas d'indication	3
possibilité	aléthique	Gosselin	lecture	N/A	intrinsèque	0
possible	aléthique	Gosselin	lecture	N/A	intrinsèque	0
potable	pas d'indication	Menel	intuition	INTUITION	pas d'indication	3
pourvu	boulique	Gosselin	lecture	N/A	extrinsèque	0
pouvoir	aléthique;déontique;épistémique	Gosselin	lecture	N/A	extrinsèque	0
précieux	appréciatif	Menel	définition	utile	intrinsèque;sublexical	1
précipiter	pas d'indication	Menel	intuition	INTUITION	pas d'indication	3
prédire	pas d'indication	Menel	intuition	INTUITION	pas d'indication	3
préférer	appréciatif;axiologique	Menel	arbre	INTUITION	pas d'indication	2
préoccupant	pas d'indication	Menel	intuition	INTUITION	pas d'indication	3
préoccupation	appréciatif	Menel	arbre	INTUITION	pas d'indication	2
préoccuper	pas d'indication	Menel	intuition	INTUITION	pas d'indication	3
presser	pas d'indication	Menel	intuition	INTUITION	pas d'indication	3
pression	pas d'indication	Menel	intuition	INTUITION	pas d'indication	3
prestige	appréciatif	Menel	champ lexical	admirable	intrinsèque	1
prestigieux	appréciatif	Menel	synonymie	admirable	intrinsèque	1
preuve	pas d'indication	Menel	intuition	INTUITION	pas d'indication	3
prévention	pas d'indication	Menel	intuition	INTUITION	pas d'indication	3
primer	appréciatif;axiologique	Menel	synonymie	récompenser	intrinsèque	1
prison	appréciatif;axiologique	Menel	arbre	INTUITION	pas d'indication	2
priver	pas d'indication	Menel	intuition	INTUITION	pas d'indication	3
privilège	déontique	Menel	synonymie	droit	intrinsèque;sublexical	1
prix	appréciatif;axiologique	Menel	synonymie	récompense	intrinsèque	1
probable	épistémique	Gosselin	lecture	N/A	extrinsèque	0
probablement	épistémique	Gosselin	lecture	N/A	extrinsèque	0
problème	appréciatif	Menel	définition	ennui	intrinsèque	1
progresser	pas d'indication	Menel	intuition	INTUITION	pas d'indication	3
promesse	pas d'indication	Menel	intuition	INTUITION	pas d'indication	3
protéger	pas d'indication	Menel	intuition	INTUITION	pas d'indication	3
protestation	pas d'indication	Menel	intuition	INTUITION	pas d'indication	3
protester	aléthique	Menel	arbre	INTUITION	pas d'indication	2
prouesse	appréciatif;axiologique	Menel	synonymie	courage	intrinsèque	1
provocation	pas d'indication	Menel	intuition	INTUITION	pas d'indication	3
prudence	axiologique	Menel	dérivation	prudent	intrinsèque	1
prudent	axiologique	Gosselin	lecture	N/A	intrinsèque	0
psychose	pas d'indication	Menel	intuition	INTUITION	pas d'indication	3
puissance	pas d'indication	Menel	intuition	INTUITION	pas d'indication	3
puissant	pas d'indication	Menel	intuition	INTUITION	pas d'indication	3
pulvériser	pas d'indication	Menel	intuition	INTUITION	pas d'indication	3
punir	appréciatif;axiologique	Gosselin	lecture	N/A	intrinsèque	0
punition	appréciatif;axiologique	Gosselin	lecture	N/A	intrinsèque	0
quadrupède	aléthique	Gosselin	lecture	N/A	intrinsèque	0
quelqu'un	aléthique	Menel	champ lexical	aucun	extrinsèque	1
querelle	axiologique	Menel	champ lexical	guerre	inférence	1
quitter	aléthique	Menel	champ lexical	venir	intrinsèque	1
rabaisser	pas d'indication	Menel	intuition	INTUITION	pas d'indication	3
racisme	épistémique	Menel	définition	croyance	intrinsèque;sublexical	1
raciste	pas d'indication	Menel	intuition	INTUITION	pas d'indication	3
radieux	appréciatif	Menel	synonymie	beau	intrinsèque	1
raffoler	appréciatif	Gosselin	lecture	N/A	extrinsèque	0
rage	appréciatif;axiologique	Menel	arbre	INTUITION	pas d'indication	2
ragoûtant	appréciatif	Menel	synonymie	savoureux	intrinsèque	1
râler	appréciatif	Menel	champ lexical	souffrance	intrinsèque	1
rapide	épistémique	Gosselin	lecture	N/A	intrinsèque	0
rapidement	épistémique	Gosselin	lecture	N/A	intrinsèque	0
rare	épistémique	Menel	arbre	INTUITION	pas d'indication	2
rarement	aléthique	Gosselin	lecture	N/A	extrinsèque	0
rat	pas d'indication	Menel	intuition	INTUITION	pas d'indication	3
rater	appréciatif	Menel	synonymie	échouer	intrinsèque	1
ravager	appréciatif;axiologique	Menel	arbre	INTUITION	pas d'indication	2
ravir	aléthique;appréciatif;axiologique	Menel	champ lexical	réjouir;voleur	intrinsèque	1
réalisable	pas d'indication	Menel	intuition	INTUITION	pas d'indication	3
réaliser	aléthique	Menel	arbre	INTUITION	pas d'indication	2
réalité	aléthique	Menel	arbre	INTUITION	pas d'indication	2
rebeller	pas d'indication	Menel	intuition	INTUITION	pas d'indication	3
rébellion	pas d'indication	Menel	intuition	INTUITION	pas d'indication	3
réclamer	boulique	Menel	arbre	INTUITION	pas d'indication	2
récompense	appréciatif;axiologique	Gosselin	lecture	N/A	intrinsèque	0
récompenser	appréciatif;axiologique	Gosselin	lecture	N/A	intrinsèque	0
reconnaissance	pas d'indication	Menel	intuition	INTUITION	pas d'indication	3
record	pas d'indication	Menel	intuition	INTUITION	pas d'indication	3
rectangulaire	aléthique	Gosselin	lecture	N/A	intrinsèque	0
redoubler	pas d'indication	Menel	intuition	INTUITION	pas d'indication	3
redouter	appréciatif;boulique;épistémique	Gosselin	lecture	N/A	intrinsèque	0
refuge	pas d'indication	Menel	intuition	INTUITION	pas d'indication	3
réfugié	aléthique;appréciatif;axiologique	Menel	arbre	INTUITION	pas d'indication	2
réfugier	pas d'indication	Menel	intuition	INTUITION	pas d'indication	3
refus	boulique	Menel	synonymie	aversion	intrinsèque	1
refuser	boulique	Menel	champ lexical	aversion	intrinsèque	1
regret	appréciatif;épistémique	Menel	dérivation	regretter	extrinsèque	1
regrettable	appréciatif;épistémique	Gosselin	lecture	N/A	extrinsèque	0
regretter	appréciatif;épistémique	Gosselin	lecture	N/A	extrinsèque	0
rejet	boulique	Menel	synonymie	aversion	intrinsèque	1
rejeter	boulique	Menel	champ lexical	aversion	intrinsèque	1
réjouir	appréciatif	Gosselin	lecture	N/A	extrinsèque	0
remercier	appréciatif;axiologique	Menel	arbre	INTUITION	pas d'indication	2
remords	appréciatif;épistémique	Menel	champ lexical	regretter	intrinsèque	1
remporter	appréciatif	Menel	synonymie	réussir	extrinsèque	1
renoncer	boulique;épistémique	Gosselin	lecture	N/A	extrinsèque	0
repas	aléthique;appréciatif	Menel	arbre	INTUITION	pas d'indication	2
représailles	appréciatif;axiologique	Menel	synonymie	punition	intrinsèque	1
réprimer	boulique	Menel	définition	envie	intrinsèque;sublexical	1
reproche	axiologique	Menel	définition	INTUITION	intrinsèque;sublexical	1
reprocher	axiologique	Menel	synonymie	réprouver	extrinsèque	1
réprouver	axiologique;déontique	Gosselin	lecture	N/A	extrinsèque	0
résigner	boulique;épistémique	Gosselin	lecture	N/A	extrinsèque	0
résistance	axiologique	Gosselin	lecture	N/A	inférence	0
respect	appréciatif;axiologique	Menel	champ lexical	louable	intrinsèque	1
respecter	appréciatif;axiologique	Menel	champ lexical	louable	intrinsèque	1
respectueux	appréciatif;axiologique	Menel	champ lexical	louable	intrinsèque	1
responsabilité	déontique	Menel	synonymie	obligation	intrinsèque	1
responsable	déontique	Menel	définition	devoir	intrinsèque;sublexical	1
retard	pas d'indication	Menel	intuition	INTUITION	pas d'indication	3
réussir	appréciatif	Gosselin	lecture	N/A	extrinsèque	0
réussite	appréciatif	Menel	dérivation	réussir	intrinsèque	1
rêve	aléthique;appréciatif	Menel	arbre	INTUITION	pas d'indication	2
revendiquer	boulique;déontique	Menel	arbre	INTUITION	pas d'indication	2
rêver	boulique	Menel	synonymie	désirer	intrinsèque	1
révolte	appréciatif;axiologique	Menel	arbre	INTUITION	pas d'indication	2
révolter	pas d'indication	Menel	intuition	INTUITION	pas d'indication	3
révolution	appréciatif;axiologique	Menel	arbre	INTUITION	pas d'indication	2
ricanement	appréciatif;axiologique	Menel	définition	mauvais	intrinsèque;sublexical	1
riche	appréciatif	Menel	définition	INTUITION	intrinsèque	1
ridicule	boulique	Menel	définition	involontairement	intrinsèque;sublexical	1
rien	aléthique	Menel	synonymie	aucun	extrinsèque	1
rigolo	appréciatif	Menel	champ lexical	amuser	intrinsèque	1
rire	appréciatif	Menel	arbre	INTUITION	pas d'indication	2
risquer	appréciatif	Gosselin	lecture	N/A	extrinsèque	0
robe	pas d'indication	Menel	intuition	INTUITION	pas d'indication	3
romantique	appréciatif	Menel	champ lexical	agréable	intrinsèque	1
rouspéter	pas d'indication	Menel	intuition	INTUITION	pas d'indication	3
ruer	pas d'indication	Menel	intuition	INTUITION	pas d'indication	3
ruiner	appréciatif;axiologique	Menel	définition	mauvais	intrinsèque;sublexical	1
ruisseau	épistémique	Gosselin	lecture	N/A	intrinsèque	0
rupture	pas d'indication	Menel	intuition	INTUITION	pas d'indication	3
s'enfuir	appréciatif;axiologique;boulique	Menel	arbre	INTUITION	pas d'indication	2
s'ennuyer	appréciatif	Menel	dérivation	ennui	extrinsèque	1
s'opposer	boulique;déontique	Menel	arbre	INTUITION	pas d'indication	2
sabotage	appréciatif;axiologique;boulique	Menel	définition	mal;volontairement	intrinsèque;sublexical	1
saboter	appréciatif;axiologique;boulique	Menel	définition	mal;volontairement	intrinsèque;sublexical	1
saccager	pas d'indication	Menel	intuition	INTUITION	pas d'indication	3
sacré	pas d'indication	Menel	intuition	INTUITION	pas d'indication	3
salades	pas d'indication	Menel	intuition	INTUITION	pas d'indication	3
salaud	appréciatif;axiologique	Gosselin	lecture	N/A	intrinsèque	0
sale	appréciatif	Menel	définition	INTUITION	intrinsèque	1
salutaire	appréciatif	Gosselin	lecture	N/A	intrinsèque	0
sanction	appréciatif;axiologique	Menel	synonymie	punition	intrinsèque;sublexical	1
sanglant	pas d'indication	Menel	intuition	INTUITION	pas d'indication	3
sans-abri	pas d'indication	Menel	intuition	INTUITION	pas d'indication	3
santé	pas d'indication	Menel	intuition	INTUITION	pas d'indication	3
satané	pas d'indication	Menel	intuition	INTUITION	pas d'indication	3
satisfaction	appréciatif	Menel	dérivation	satisfait	intrinsèque	1
satisfaire	appréciatif	Menel	dérivation	satisfait	extrinsèque	1
satisfait	appréciatif;boulique	Gosselin	lecture	N/A	extrinsèque	0
sauver	appréciatif	Menel	définition	malheur	intrinsèque;sublexical	1
savoir	épistémique	Gosselin	lecture	N/A	extrinsèque	0
savourer	appréciatif	Menel	dérivation	savoureux	intrinsèque	1
savoureux	appréciatif	Gosselin	lecture	N/A	intrinsèque	0
scandale	pas d'indication	Menel	intuition	INTUITION	pas d'indication	3
scandaliser	appréciatif;axiologique	Menel	définition	blâmable;réprouver	intrinsèque;sublexical	1
sécheresse	aléthique;appréciatif	Menel	arbre	INTUITION	pas d'indication	2
sécurité	pas d'indication	Menel	intuition	INTUITION	pas d'indication	3
séisme	pas d'indication	Menel	intuition	INTUITION	pas d'indication	3
selon	épistémique	Gosselin	lecture	N/A	extrinsèque	0
sembler	épistémique	Gosselin	lecture	N/A	extrinsèque	0
sensible	pas d'indication	Menel	intuition	INTUITION	pas d'indication	3
séquestrer	appréciatif;axiologique	Menel	arbre	INTUITION	pas d'indication	2
sérieux	pas d'indication	Menel	intuition	INTUITION	pas d'indication	3
sévère	pas d'indication	Menel	intuition	INTUITION	pas d'indication	3
sévir	appréciatif;axiologique	Menel	synonymie	punir	intrinsèque	1
soleil	appréciatif	Gosselin	lecture	N/A	inférence	0
somptueux	appréciatif	Gosselin	lecture	N/A	intrinsèque	0
sorcière	appréciatif;axiologique	Menel	arbre	INTUITION	pas d'indication	2
souci	appréciatif	Menel	définition	INTUITION	intrinsèque	1
soudain	pas d'indication	Menel	intuition	INTUITION	pas d'indication	3
souffrance	appréciatif	Gosselin	lecture	N/A	intrinsèque	0
souffrir	appréciatif	Menel	dérivation	souffrance	intrinsèque	1
souhait	boulique	Gosselin	lecture	N/A	intrinsèque	0
souhaitable	boulique	Gosselin	lecture	N/A	intrinsèque	0
soulagement	appréciatif	Menel	dérivation	soulager	intrinsèque	1
soulager	appréciatif;boulique	Gosselin	lecture	N/A	extrinsèque	0
soulèvement	pas d'indication	Menel	intuition	INTUITION	pas d'indication	3
soulever	pas d'indication	Menel	intuition	INTUITION	pas d'indication	3
soumis	appréciatif;axiologique	Menel	arbre	INTUITION	pas d'indication	2
soupçon	axiologique;épistémique	Menel	définition	croyance;blâmable	intrinsèque	1
souvenir	pas d'indication	Menel	intuition	INTUITION	pas d'indication	3
souvent	aléthique	Gosselin	lecture	N/A	extrinsèque	0
spectacle	appréciatif	Menel	champ lexical	divertissant	inférence	1
spectaculaire	appréciatif	Menel	synonymie	admirable	intrinsèque	1
stage	appréciatif	Menel	champ lexical	travail	inférence	1
star	appréciatif	Menel	champ lexical	admirable	intrinsèque	1
steak	appréciatif	Menel	champ lexical	frites	inférence	1
stérile	aléthique	Menel	définition	aucun	intrinsèque;sublexical	1
stress	pas d'indication	Menel	intuition	INTUITION	pas d'indication	3
stresser	pas d'indication	Menel	intuition	INTUITION	pas d'indication	3
stupéfait	pas d'indication	Menel	intuition	INTUITION	pas d'indication	3
stupide	pas d'indication	Menel	intuition	INTUITION	pas d'indication	3
subir	boulique	Menel	définition	vouloir	intrinsèque;sublexical	1
subitement	pas d'indication	Menel	intuition	INTUITION	pas d'indication	3
sublime	appréciatif	Menel	synonymie	magnifique	intrinsèque	1
submerger	pas d'indication	Menel	intuition	INTUITION	pas d'indication	3
succès	appréciatif	Menel	champ lexical	réussir	intrinsèque	1
succulent	appréciatif	Menel	synonymie	savoureux	intrinsèque	1
sucré	appréciatif	Menel	champ lexical	frites	inférence	1
suffire	pas d'indication	Menel	intuition	INTUITION	pas d'indication	3
suffisamment	pas d'indication	Menel	intuition	INTUITION	pas d'indication	3
suffisant	pas d'indication	Menel	intuition	INTUITION	pas d'indication	3
suicider	boulique	Menel	définition	volontairement	intrinsèque;sublexical	1
super	appréciatif	Gosselin	lecture	N/A	extrinsèque	0
superbe	appréciatif	Gosselin	lecture	N/A	intrinsèque	0
supplier	boulique	Gosselin	lecture	N/A	extrinsèque	0
supporter	pas d'indication	Menel	intuition	INTUITION	pas d'indication	3
sûr	épistémique	Menel	synonymie	certain	intrinsèque	1
surconsommation	pas d'indication	Menel	intuition	INTUITION	pas d'indication	3
sûrement	épistémique	Gosselin	lecture	N/A	extrinsèque	0
surprenant	épistémique	Menel	arbre	INTUITION	pas d'indication	2
surprendre	pas d'indication	Menel	intuition	INTUITION	pas d'indication	3
surprise	pas d'indication	Menel	intuition	INTUITION	pas d'indication	3
sympa	appréciatif	Menel	synonymie	chouette	intrinsèque	1
table	aléthique	Gosselin	lecture	N/A	intrinsèque	0
taire	boulique	Menel	champ lexical	dire	inférence	1
talent	pas d'indication	Menel	intuition	INTUITION	pas d'indication	3
tapage	pas d'indication	Menel	intuition	INTUITION	pas d'indication	3
téméraire	axiologique	Gosselin	lecture	N/A	intrinsèque	0
tempête	aléthique;appréciatif	Menel	champ lexical	pluie	inférence	1
tendre	pas d'indication	Menel	intuition	INTUITION	pas d'indication	3
tentant	boulique	Menel	définition	désir;envie	intrinsèque;sublexical	1
tenter	boulique	Menel	définition	désir;envie	intrinsèque;sublexical	1
terreur	appréciatif;épistémique	Menel	champ lexical	craindre	intrinsèque	1
terrible	appréciatif;épistémique	Menel	champ lexical	craindre	intrinsèque	1
terrifiant	appréciatif;épistémique	Menel	champ lexical	craindre	intrinsèque	1
terroriser	appréciatif;épistémique	Menel	champ lexical	craindre	intrinsèque	1
terrorisme	axiologique	Menel	champ lexical	crime	intrinsèque	1
terroriste	axiologique	Menel	définition	voleur	intrinsèque;associé	1
tétaniser	pas d'indication	Menel	intuition	INTUITION	pas d'indication	3
tigre	aléthique;appréciatif	Menel	arbre	INTUITION	pas d'indication	2
timide	pas d'indication	Menel	intuition	INTUITION	pas d'indication	3
timidement	pas d'indication	Menel	intuition	INTUITION	pas d'indication	3
timidité	pas d'indication	Menel	intuition	INTUITION	pas d'indication	3
tirer	pas d'indication	Menel	intuition	INTUITION	pas d'indication	3
tirs	pas d'indication	Menel	intuition	INTUITION	pas d'indication	3
tolérer	aléthique;boulique;déontique	Gosselin	lecture	N/A	intrinsèque	0
tort	axiologique	Gosselin	lecture	N/A	extrinsèque	0
torture	appréciatif	Menel	définition	souffrance	intrinsèque;sublexical	1
torturer	appréciatif	Menel	définition	souffrance	intrinsèque;sublexical	1
toujours	aléthique	Gosselin	lecture	N/A	extrinsèque	0
tourbillon	pas d'indication	Menel	intuition	INTUITION	pas d'indication	3
tous	aléthique	Gosselin	lecture	N/A	extrinsèque	0
trac	appréciatif;épistémique	Menel	champ lexical	craindre	intrinsèque	1
tracasser	pas d'indication	Menel	intuition	INTUITION	pas d'indication	3
trafiquant	pas d'indication	Menel	intuition	INTUITION	pas d'indication	3
trahison	axiologique	Menel	champ lexical	crime	intrinsèque	1
traiter	pas d'indication	Menel	intuition	INTUITION	pas d'indication	3
tranquille	appréciatif	Menel	champ lexical	agréable	intrinsèque	1
tranquillement	appréciatif	Menel	champ lexical	agréable	intrinsèque	1
traumatiser	appréciatif	Menel	champ lexical	souffrance	intrinsèque	1
traumatisme	appréciatif	Menel	champ lexical	souffrance	intrinsèque	1
travail	appréciatif	Gosselin	lecture	N/A	inférence	0
travailler	appréciatif	Menel	dérivation	travail	inférence	1
trésor	appréciatif	Menel	définition	INTUITION	intrinsèque	1
triangle	aléthique	Gosselin	lecture	N/A	intrinsèque	0
trinquer	pas d'indication	Menel	intuition	INTUITION	pas d'indication	3
triste	appréciatif	Menel	champ lexical	souffrance	intrinsèque	1
tristesse	appréciatif	Menel	champ lexical	souffrance	intrinsèque	1
tromper	axiologique	Menel	champ lexical	voleur	intrinsèque	1
troubler	appréciatif;axiologique	Menel	arbre	INTUITION	pas d'indication	2
truquer	pas d'indication	Menel	intuition	INTUITION	pas d'indication	3
tuer	aléthique;axiologique	Menel	champ lexical	assassin	intrinsèque	1
turbulence	aléthique;appréciatif	Menel	arbre	INTUITION	pas d'indication	2
unique	appréciatif	Menel	arbre	INTUITION	pas d'indication	2
urgence	pas d'indication	Menel	intuition	INTUITION	pas d'indication	3
utile	appréciatif	Gosselin	lecture	N/A	intrinsèque	0
vacance	appréciatif	Gosselin	lecture	N/A	inférence	0
vainqueur	appréciatif	Menel	champ lexical	réussir	intrinsèque	1
valider	pas d'indication	Menel	intuition	INTUITION	pas d'indication	3
vampire	appréciatif;axiologique	Menel	arbre	INTUITION	pas d'indication	2
vanter	pas d'indication	Menel	intuition	INTUITION	pas d'indication	3
véhément	pas d'indication	Menel	intuition	INTUITION	pas d'indication	3
vénère	pas d'indication	Menel	intuition	INTUITION	pas d'indication	3
vénérer	appréciatif;axiologique	Menel	champ lexical	louable;admirable	intrinsèque	1
vengeance	appréciatif;axiologique	Menel	définition	mal;punir	intrinsèque;sublexical	1
venger	pas d'indication	Menel	intuition	INTUITION	pas d'indication	3
venir	aléthique	Gosselin	lecture	N/A	intrinsèque	0
vent	aléthique;appréciatif	Menel	champ lexical	pluie	inférence	1
véridique	aléthique	Menel	arbre	INTUITION	pas d'indication	2
véritable	pas d'indication	Menel	intuition	INTUITION	pas d'indication	3
vérité	aléthique	Menel	arbre	INTUITION	pas d'indication	2
vexer	pas d'indication	Menel	intuition	INTUITION	pas d'indication	3
victime	pas d'indication	Menel	intuition	INTUITION	pas d'indication	3
victoire	appréciatif	Menel	champ lexical	réussir	intrinsèque	1
vieil	pas d'indication	Menel	intuition	INTUITION	pas d'indication	3
vieux	pas d'indication	Menel	intuition	INTUITION	pas d'indication	3
viol	axiologique	Menel	champ lexical	crime	intrinsèque	1
violent	axiologique	Menel	champ lexical	crime	intrinsèque;associé	1
virus	pas d'indication	Menel	intuition	INTUITION	pas d'indication	3
vite	épistémique	Gosselin	lecture	N/A	intrinsèque	0
voler	appréciatif;axiologique	Menel	dérivation	voleur	intrinsèque	1
voleur	axiologique	Gosselin	lecture	N/A	intrinsèque	0
volontairement	boulique	Gosselin	lecture	N/A	extrinsèque	0
volonté	boulique	Gosselin	lecture	N/A	intrinsèque	0
volontiers	boulique	Gosselin	lecture	N/A	extrinsèque	0
voter	boulique;épistémique	Menel	définition	décider	intrinsèque;sublexical	1
vouloir	boulique	Gosselin	lecture	N/A	extrinsèque	0
vrai	épistémique	Aline	synonymie	certain	extrinsèque	1
vraiment	épistémique	Aline	synonymie	certainement	extrinsèque	1
vraisemblable	épistémique	Gosselin	lecture	N/A	extrinsèque	0
vulgaire	appréciatif;axiologique	Menel	définition	mauvais	intrinsèque;sublexical	1
zut	appréciatif	Gosselin	lecture	N/A	extrinsèque	0
