====== Sentence Level Features ======

1. Sentence: Il s ' agit d ' organiser le désordre naturel sans le tuer .
Features :: Feature-Counts :: Feature-Lemmas
--------------------------------------------
marqueurs :: 1 :: [ tuer ]
alethique :: 1 :: [ tuer ]
axiologique :: 1 :: [ tuer ]
marqueurs_niveau2 :: 1 :: [ tuer ]
alethique_niveau2 :: 1 :: [ tuer ]
axiologique_niveau2 :: 1 :: [ tuer ]
Total feature counts: 6


====== Text Level Features ======

Features :: Feature-Counts :: Feature-Lemmas
--------------------------------------------
marqueurs :: 1 :: [ tuer ]
alethique :: 1 :: [ tuer ]
axiologique :: 1 :: [ tuer ]
marqueurs_niveau2 :: 1 :: [ tuer ]
alethique_niveau2 :: 1 :: [ tuer ]
axiologique_niveau2 :: 1 :: [ tuer ]
Total feature counts: 6

