
********** Entity Names Features **********
*******************************************

1. Sentence: c) les achats et les affaires personnelles
No features found.


********** Emotions Features **********
***************************************

1. Sentence: c) les achats et les affaires personnelles
No features found.


********** Modality Features **********
***************************************

1. Sentence: c) les achats et les affaires personnelles
No features found.


********** Adverbiaux Temporels Features **********
********************************************************

1. Sentence: c) les achats et les affaires personnelles
No features found.

