====== Sentence Level Features ======

1. Sentence: C ' est tout de même très drôle de trouver cela dans les Bucoliques .
Features :: Feature-Counts :: Feature-Lemmas
--------------------------------------------
marqueurs :: 1 :: [ drôle ]
appreciatif :: 1 :: [ drôle ]
marqueurs_niveau2 :: 1 :: [ drôle ]
appreciatif_niveau2 :: 1 :: [ drôle ]
Total feature counts: 4


====== Text Level Features ======

Features :: Feature-Counts :: Feature-Lemmas
--------------------------------------------
marqueurs :: 1 :: [ drôle ]
appreciatif :: 1 :: [ drôle ]
marqueurs_niveau2 :: 1 :: [ drôle ]
appreciatif_niveau2 :: 1 :: [ drôle ]
Total feature counts: 4

