
********** Entity Names Features **********
*******************************************

1. Sentence: La liaison de cette auto-route avec Paris a été assurée par deux branches en raison du nombre considérable de véhicules qu ' elle est appelée à recevoir .
Entity Name (Type) :: Paris (LOC)


********** Emotions Features **********
***************************************

1. Sentence: La liaison de cette auto-route avec Paris a été assurée par deux branches en raison du nombre considérable de véhicules qu ' elle est appelée à recevoir .
No features found.


********** Modality Features **********
***************************************

1. Sentence: La liaison de cette auto-route avec Paris a été assurée par deux branches en raison du nombre considérable de véhicules qu ' elle est appelée à recevoir .
No features found.


********** Adverbiaux Temporels Features **********
********************************************************

1. Sentence: La liaison de cette auto-route avec Paris a été assurée par deux branches en raison du nombre considérable de véhicules qu ' elle est appelée à recevoir .
No features found.

