====== Sentence Level Features ======

1. Sentence: Comment être là avec l ' institution et les efforts qu ' elle mérite sans anéantir la fragilité d ' une vieille structure urbaine ?
Features :: Feature-Counts :: Feature-Lemmas
--------------------------------------------
marqueurs :: 3 :: [ mériter, anéantir, vieux ]
pas_d_indication :: 2 :: [ anéantir, vieux ]
marqueurs_niveau0 :: 2 :: [ anéantir, vieux ]
pas_d_indication_niveau0 :: 2 :: [ anéantir, vieux ]
axiologique :: 1 :: [ mériter ]
marqueurs_niveau2 :: 1 :: [ mériter ]
axiologique_niveau2 :: 1 :: [ mériter ]
Total feature counts: 12


====== Text Level Features ======

Features :: Feature-Counts :: Feature-Lemmas
--------------------------------------------
marqueurs :: 3 :: [ mériter, anéantir, vieux ]
pas_d_indication :: 2 :: [ anéantir, vieux ]
marqueurs_niveau0 :: 2 :: [ anéantir, vieux ]
pas_d_indication_niveau0 :: 2 :: [ anéantir, vieux ]
axiologique :: 1 :: [ mériter ]
marqueurs_niveau2 :: 1 :: [ mériter ]
axiologique_niveau2 :: 1 :: [ mériter ]
Total feature counts: 12

