
********** Entity Names Features **********
*******************************************

1. Sentence: À l ' ambiance de fin du monde s ' oppose un optimisme candide .
No features found.


********** Emotions Features **********
***************************************

1. Sentence: À l ' ambiance de fin du monde s ' oppose un optimisme candide .
Tokens having emotion: [ optimisme ]
Lemmas having emotion: [ optimisme ]
Categories of the emotion lemmas: [ joie ]


********** Modality Features **********
***************************************

1. Sentence: À l ' ambiance de fin du monde s ' oppose un optimisme candide .
No features found.


********** Adverbiaux Temporels Features **********
********************************************************

1. Sentence: À l ' ambiance de fin du monde s ' oppose un optimisme candide .
No features found.

