====== Sentence Level Features ======

1. Sentence: OGI , bureau d ' études techniques .
Entity Name (Type) :: OGI (ORG)


====== Text Level Features ======

Entity Name (Entity Type)
-------------------------
OGI (ORG)
Total entitiy counts: 1

