
********** Entity Names Features **********
*******************************************

1. Sentence: C ' est moi qui ai représenté Blanc au jury de sélection des équipes , son directeur de cabinet était prêt à faire fi de l ' opération .
Entity Name (Type) :: Blanc (MISC)


********** Emotions Features **********
***************************************

1. Sentence: C ' est moi qui ai représenté Blanc au jury de sélection des équipes , son directeur de cabinet était prêt à faire fi de l ' opération .
No features found.


********** Modality Features **********
***************************************

1. Sentence: C ' est moi qui ai représenté Blanc au jury de sélection des équipes , son directeur de cabinet était prêt à faire fi de l ' opération .
Features :: Feature-Counts :: Feature-Lemmas
--------------------------------------------
marqueurs :: 1 :: [ lui ]
alethique :: 1 :: [ lui ]
epistemique :: 1 :: [ lui ]
marqueurs_niveau3 :: 1 :: [ lui ]
alethique_niveau3 :: 1 :: [ lui ]
epistemique_niveau3 :: 1 :: [ lui ]
Total feature counts: 6


********** Adverbiaux Temporels Features **********
********************************************************

1. Sentence: C ' est moi qui ai représenté Blanc au jury de sélection des équipes , son directeur de cabinet était prêt à faire fi de l ' opération .
No features found.

