====== Sentence Level Features ======

1. Sentence: J ' ai gardé politiques , je me destinais à la recherche .
Entity Name (Type) :: J (LOC)


====== Text Level Features ======

Entity Name (Entity Type)
-------------------------
J (LOC)
Total entitiy counts: 1

