====== Sentence Level Features ======

1. Sentence: Il ne sert à rien d ' être si fier de notre patrimoine français et de continuer à mégoter pour l ' entretenir .
Features :: Feature-Counts :: Feature-Lemmas
--------------------------------------------
marqueurs :: 2 :: [ rien, fier ]
alethique :: 1 :: [ rien ]
appreciatif :: 1 :: [ fier ]
axiologique :: 1 :: [ fier ]
marqueurs_niveau2 :: 1 :: [ rien ]
marqueurs_niveau1 :: 1 :: [ fier ]
alethique_niveau2 :: 1 :: [ rien ]
appreciatif_niveau1 :: 1 :: [ fier ]
axiologique_niveau1 :: 1 :: [ fier ]
Total feature counts: 10


====== Text Level Features ======

Features :: Feature-Counts :: Feature-Lemmas
--------------------------------------------
marqueurs :: 2 :: [ rien, fier ]
alethique :: 1 :: [ rien ]
appreciatif :: 1 :: [ fier ]
axiologique :: 1 :: [ fier ]
marqueurs_niveau2 :: 1 :: [ rien ]
marqueurs_niveau1 :: 1 :: [ fier ]
alethique_niveau2 :: 1 :: [ rien ]
appreciatif_niveau1 :: 1 :: [ fier ]
axiologique_niveau1 :: 1 :: [ fier ]
Total feature counts: 10

