
********** Entity Names Features **********
*******************************************

1. Sentence: Il n ' est pas illusoire de proposer des gestions d ' une cinquantaine d ' années pour la constitution d ' un paysage , d ' une géographie amplifiée pour la ville de demain .
No features found.


********** Emotions Features **********
***************************************

1. Sentence: Il n ' est pas illusoire de proposer des gestions d ' une cinquantaine d ' années pour la constitution d ' un paysage , d ' une géographie amplifiée pour la ville de demain .
No features found.


********** Modality Features **********
***************************************

1. Sentence: Il n ' est pas illusoire de proposer des gestions d ' une cinquantaine d ' années pour la constitution d ' un paysage , d ' une géographie amplifiée pour la ville de demain .
No features found.


********** Adverbiaux Temporels Features **********
********************************************************

1. Sentence: Il n ' est pas illusoire de proposer des gestions d ' une cinquantaine d ' années pour la constitution d ' un paysage , d ' une géographie amplifiée pour la ville de demain .
Features :: Feature-Counts :: Feature-Texts
--------------------------------------------
adverbiaux_temporels::2::['de demain', 'demain']
adverbiaux_localisation_temporelle::2::['de demain', 'demain']
adverbiaux_pointage_non_absolu::3::['de demain', 'demain', 'demain']
adverbiaux_loc_temp_regionalisation_id::1::['de demain']
adverbiaux_loc_temp_pointage_non_absolu::2::['de demain', 'demain']
adverbiaux_dur_iter_deictique::1::['demain']

