
********** Entity Names Features **********
*******************************************

1. Sentence: Débit journalier par section de ligne
No features found.


********** Emotions Features **********
***************************************

1. Sentence: Débit journalier par section de ligne
No features found.


********** Modality Features **********
***************************************

1. Sentence: Débit journalier par section de ligne
No features found.


********** Adverbiaux Temporels Features **********
********************************************************

1. Sentence: Débit journalier par section de ligne
No features found.

