
********** Entity Names Features **********
*******************************************

2. Sentence: 8 .
No features found.


********** Emotions Features **********
***************************************

2. Sentence: 8 .
No features found.


********** Modality Features **********
***************************************

2. Sentence: 8 .
No features found.


********** Adverbiaux Temporels Features **********
********************************************************

2. Sentence: 8 .
No features found.

