====== Sentence Level Features ======

1. Sentence: «De la ville et des territoires» À Marne-la-Vallée , dans l ' école où j ' enseigne et que j ' ai dirigée jusqu ' en 2001 ,  l ' ambition a toujours été d ' essayer la fusion ville-territoire .
Features :: Feature-Counts :: Feature-Lemmas
--------------------------------------------
marqueurs :: 3 :: [ école, toujours, essayer ]
alethique :: 2 :: [ école, toujours ]
marqueurs_niveau3 :: 2 :: [ toujours, essayer ]
boulique :: 1 :: [ essayer ]
epistemique :: 1 :: [ essayer ]
marqueurs_niveau1 :: 1 :: [ école ]
alethique_niveau3 :: 1 :: [ toujours ]
alethique_niveau1 :: 1 :: [ école ]
boulique_niveau3 :: 1 :: [ essayer ]
epistemique_niveau3 :: 1 :: [ essayer ]
Total feature counts: 14


====== Text Level Features ======

Features :: Feature-Counts :: Feature-Lemmas
--------------------------------------------
marqueurs :: 3 :: [ école, toujours, essayer ]
alethique :: 2 :: [ école, toujours ]
marqueurs_niveau3 :: 2 :: [ toujours, essayer ]
boulique :: 1 :: [ essayer ]
epistemique :: 1 :: [ essayer ]
marqueurs_niveau1 :: 1 :: [ école ]
alethique_niveau3 :: 1 :: [ toujours ]
alethique_niveau1 :: 1 :: [ école ]
boulique_niveau3 :: 1 :: [ essayer ]
epistemique_niveau3 :: 1 :: [ essayer ]
Total feature counts: 14

