
********** Entity Names Features **********
*******************************************

1. Sentence: Deux sites , c ' est un peu compliqué L ' Atelier Ruelle se déploie ainsi sur deux sites .
Entity Name (Type) :: L ' Atelier Ruelle (LOC)


********** Emotions Features **********
***************************************

1. Sentence: Deux sites , c ' est un peu compliqué L ' Atelier Ruelle se déploie ainsi sur deux sites .
No features found.


********** Modality Features **********
***************************************

1. Sentence: Deux sites , c ' est un peu compliqué L ' Atelier Ruelle se déploie ainsi sur deux sites .
No features found.


********** Adverbiaux Temporels Features **********
********************************************************

1. Sentence: Deux sites , c ' est un peu compliqué L ' Atelier Ruelle se déploie ainsi sur deux sites .
No features found.

