
********** Entity Names Features **********
*******************************************

1. Sentence: Cette place , très inspirée de la piazza Beaubourg est , aux PaysBas , le premier espace public conçu presque uniquement à partir d ' une surface en stabilisé .
Entity Name (Type) :: PaysBas (LOC)


********** Emotions Features **********
***************************************

1. Sentence: Cette place , très inspirée de la piazza Beaubourg est , aux PaysBas , le premier espace public conçu presque uniquement à partir d ' une surface en stabilisé .
No features found.


********** Modality Features **********
***************************************

1. Sentence: Cette place , très inspirée de la piazza Beaubourg est , aux PaysBas , le premier espace public conçu presque uniquement à partir d ' une surface en stabilisé .
Features :: Feature-Counts :: Feature-Lemmas
--------------------------------------------
marqueurs :: 1 :: [ partir ]
alethique :: 1 :: [ partir ]
marqueurs_niveau1 :: 1 :: [ partir ]
alethique_niveau1 :: 1 :: [ partir ]
Total feature counts: 4


********** Adverbiaux Temporels Features **********
********************************************************

1. Sentence: Cette place , très inspirée de la piazza Beaubourg est , aux PaysBas , le premier espace public conçu presque uniquement à partir d ' une surface en stabilisé .
No features found.

