
********** Entity Names Features **********
*******************************************

1. Sentence: PRINCIPAUX AXES ROUTIERS ET FERRÉS DANS L ' AGGLOMÉRATION PARIS INTRA-MUROS
Entity Name (Type) :: PRINCIPAUX AXES ROUTIERS ET FERRÉS DANS L ' AGGLOMÉRATION PARIS INTRA-MUROS (LOC)


********** Emotions Features **********
***************************************

1. Sentence: PRINCIPAUX AXES ROUTIERS ET FERRÉS DANS L ' AGGLOMÉRATION PARIS INTRA-MUROS
No features found.


********** Modality Features **********
***************************************

1. Sentence: PRINCIPAUX AXES ROUTIERS ET FERRÉS DANS L ' AGGLOMÉRATION PARIS INTRA-MUROS
No features found.


********** Adverbiaux Temporels Features **********
********************************************************

1. Sentence: PRINCIPAUX AXES ROUTIERS ET FERRÉS DANS L ' AGGLOMÉRATION PARIS INTRA-MUROS
No features found.

