====== Sentence Level Features ======

1. Sentence: C ' est en fait un « open planning » d ' îlots .
Entity Name (Type) :: C (MISC)


====== Text Level Features ======

Entity Name (Entity Type)
-------------------------
C (MISC)
Total entitiy counts: 1

