====== Sentence Level Features ======

1. Sentence: Triomphante par le nombre de ses habitants ,  l ' étendue de ses espaces , la ville n ' est plus , avec certitude , synonyme de progrès .
Features :: Feature-Counts :: Feature-Lemmas
--------------------------------------------
marqueurs :: 1 :: [ certitude ]
epistemique :: 1 :: [ certitude ]
marqueurs_niveau3 :: 1 :: [ certitude ]
epistemique_niveau3 :: 1 :: [ certitude ]
Total feature counts: 4


====== Text Level Features ======

Features :: Feature-Counts :: Feature-Lemmas
--------------------------------------------
marqueurs :: 1 :: [ certitude ]
epistemique :: 1 :: [ certitude ]
marqueurs_niveau3 :: 1 :: [ certitude ]
epistemique_niveau3 :: 1 :: [ certitude ]
Total feature counts: 4

