====== Sentence Level Features ======

1. Sentence: L ' une des miennes est la politique  : j ' ai appris en militant .
Entity Name (Type) :: L (MISC)


====== Text Level Features ======

Entity Name (Entity Type)
-------------------------
L (MISC)
Total entitiy counts: 1

