====== Sentence Level Features ======

1. Sentence: On détermine de plus en plus son lieu de résidence en cherchant à optimiser un faisceau de services , pris au sens large , où s ' intègrent pêle-mêle la taille du logement , la proximité des écoles ,  l ' image sociale , etc .
Features :: Feature-Counts :: Feature-Lemmas
--------------------------------------------
marqueurs :: 2 :: [ chercher, école ]
alethique :: 1 :: [ école ]
boulique :: 1 :: [ chercher ]
marqueurs_niveau3 :: 1 :: [ chercher ]
marqueurs_niveau1 :: 1 :: [ école ]
alethique_niveau1 :: 1 :: [ école ]
boulique_niveau3 :: 1 :: [ chercher ]
Total feature counts: 8


====== Text Level Features ======

Features :: Feature-Counts :: Feature-Lemmas
--------------------------------------------
marqueurs :: 2 :: [ chercher, école ]
alethique :: 1 :: [ école ]
boulique :: 1 :: [ chercher ]
marqueurs_niveau3 :: 1 :: [ chercher ]
marqueurs_niveau1 :: 1 :: [ école ]
alethique_niveau1 :: 1 :: [ école ]
boulique_niveau3 :: 1 :: [ chercher ]
Total feature counts: 8

