====== Sentence Level Features ======

1. Sentence: les gens de Grenelle ou de Vaugirard vont vers l ' Ouest ou le Sud-ouest et non vers Meaux .
Features :: Feature-Counts :: Feature-Lemmas
--------------------------------------------
marqueurs :: 1 :: [ aller ]
alethique :: 1 :: [ aller ]
marqueurs_niveau1 :: 1 :: [ aller ]
alethique_niveau1 :: 1 :: [ aller ]
Total feature counts: 4


====== Text Level Features ======

Features :: Feature-Counts :: Feature-Lemmas
--------------------------------------------
marqueurs :: 1 :: [ aller ]
alethique :: 1 :: [ aller ]
marqueurs_niveau1 :: 1 :: [ aller ]
alethique_niveau1 :: 1 :: [ aller ]
Total feature counts: 4

