
********** Entity Names Features **********
*******************************************

1. Sentence: Il s ' agit d ' organiser le désordre naturel sans le tuer .
No features found.


********** Emotions Features **********
***************************************

1. Sentence: Il s ' agit d ' organiser le désordre naturel sans le tuer .
No features found.


********** Modality Features **********
***************************************

1. Sentence: Il s ' agit d ' organiser le désordre naturel sans le tuer .
Features :: Feature-Counts :: Feature-Lemmas
--------------------------------------------
marqueurs :: 1 :: [ tuer ]
alethique :: 1 :: [ tuer ]
axiologique :: 1 :: [ tuer ]
marqueurs_niveau2 :: 1 :: [ tuer ]
alethique_niveau2 :: 1 :: [ tuer ]
axiologique_niveau2 :: 1 :: [ tuer ]
Total feature counts: 6


********** Adverbiaux Temporels Features **********
********************************************************

1. Sentence: Il s ' agit d ' organiser le désordre naturel sans le tuer .
No features found.

