
********** Entity Names Features **********
*******************************************

1. Sentence: La raison d ' être de ce plan , qui proposait une stratégie , non un programme figé , était d ' éviter les à-coups dans la programmation urbaine , dus à telle ou telle demande spécifique de tel ou tel élu .
No features found.


********** Emotions Features **********
***************************************

1. Sentence: La raison d ' être de ce plan , qui proposait une stratégie , non un programme figé , était d ' éviter les à-coups dans la programmation urbaine , dus à telle ou telle demande spécifique de tel ou tel élu .
No features found.


********** Modality Features **********
***************************************

1. Sentence: La raison d ' être de ce plan , qui proposait une stratégie , non un programme figé , était d ' éviter les à-coups dans la programmation urbaine , dus à telle ou telle demande spécifique de tel ou tel élu .
Features :: Feature-Counts :: Feature-Lemmas
--------------------------------------------
marqueurs :: 2 :: [ devoir, élu ]
alethique :: 1 :: [ devoir ]
deontique :: 1 :: [ devoir ]
epistemique :: 1 :: [ devoir ]
pas_d_indication :: 1 :: [ élu ]
marqueurs_niveau3 :: 1 :: [ devoir ]
marqueurs_niveau0 :: 1 :: [ élu ]
alethique_niveau3 :: 1 :: [ devoir ]
deontique_niveau3 :: 1 :: [ devoir ]
epistemique_niveau3 :: 1 :: [ devoir ]
pas_d_indication_niveau0 :: 1 :: [ élu ]
Total feature counts: 12


********** Adverbiaux Temporels Features **********
********************************************************

1. Sentence: La raison d ' être de ce plan , qui proposait une stratégie , non un programme figé , était d ' éviter les à-coups dans la programmation urbaine , dus à telle ou telle demande spécifique de tel ou tel élu .
No features found.

