
********** Entity Names Features **********
*******************************************

1. Sentence: Cette transposition est un travail de dessin . 1991 .
Entity Name (Type) :: Cette (LOC)


********** Emotions Features **********
***************************************

1. Sentence: Cette transposition est un travail de dessin . 1991 .
No features found.


********** Modality Features **********
***************************************

1. Sentence: Cette transposition est un travail de dessin . 1991 .
Features :: Feature-Counts :: Feature-Lemmas
--------------------------------------------
marqueurs :: 1 :: [ travail ]
appreciatif :: 1 :: [ travail ]
marqueurs_niveau3 :: 1 :: [ travail ]
appreciatif_niveau3 :: 1 :: [ travail ]
Total feature counts: 4


********** Adverbiaux Temporels Features **********
********************************************************

1. Sentence: Cette transposition est un travail de dessin . 1991 .
No features found.

