
********** Entity Names Features **********
*******************************************

1. Sentence: Le contrôle des implantations d ' activités , p . 57 .
No features found.


********** Emotions Features **********
***************************************

1. Sentence: Le contrôle des implantations d ' activités , p . 57 .
No features found.


********** Modality Features **********
***************************************

1. Sentence: Le contrôle des implantations d ' activités , p . 57 .
No features found.


********** Adverbiaux Temporels Features **********
********************************************************

1. Sentence: Le contrôle des implantations d ' activités , p . 57 .
No features found.

