
********** Entity Names Features **********
*******************************************

1. Sentence: Dès qu ' ils veulent ouvrir une formation nouvelle , ils « se cognent » au rectorat , au motif , par exemple , qu ' une formation similaire vient d ' être ouverte à Lille ou à Dunkerque .
Entity Name (Type) :: Dunkerque (LOC)


********** Emotions Features **********
***************************************

1. Sentence: Dès qu ' ils veulent ouvrir une formation nouvelle , ils « se cognent » au rectorat , au motif , par exemple , qu ' une formation similaire vient d ' être ouverte à Lille ou à Dunkerque .
No features found.


********** Modality Features **********
***************************************

1. Sentence: Dès qu ' ils veulent ouvrir une formation nouvelle , ils « se cognent » au rectorat , au motif , par exemple , qu ' une formation similaire vient d ' être ouverte à Lille ou à Dunkerque .
Features :: Feature-Counts :: Feature-Lemmas
--------------------------------------------
marqueurs :: 4 :: [ vouloir, ouvrir, venir, ouvrir ]
marqueurs_niveau3 :: 4 :: [ vouloir, ouvrir, venir, ouvrir ]
boulique :: 3 :: [ vouloir, ouvrir, ouvrir ]
boulique_niveau3 :: 3 :: [ vouloir, ouvrir, ouvrir ]
alethique :: 1 :: [ venir ]
alethique_niveau3 :: 1 :: [ venir ]
Total feature counts: 16


********** Adverbiaux Temporels Features **********
********************************************************

1. Sentence: Dès qu ' ils veulent ouvrir une formation nouvelle , ils « se cognent » au rectorat , au motif , par exemple , qu ' une formation similaire vient d ' être ouverte à Lille ou à Dunkerque .
No features found.

