
********** Entity Names Features **********
*******************************************

1. Sentence: CE3E conseil pour la passe à poissons .
Entity Name (Type) :: CE3E (LOC)


********** Emotions Features **********
***************************************

1. Sentence: CE3E conseil pour la passe à poissons .
No features found.


********** Modality Features **********
***************************************

1. Sentence: CE3E conseil pour la passe à poissons .
No features found.


********** Adverbiaux Temporels Features **********
********************************************************

1. Sentence: CE3E conseil pour la passe à poissons .
No features found.

