====== Sentence Level Features ======

1. Sentence: Ces prés et boisements sont gérés selon des techniques forestières et agricoles .
Features :: Feature-Counts :: Feature-Lemmas
--------------------------------------------
marqueurs :: 1 :: [ selon ]
epistemique :: 1 :: [ selon ]
marqueurs_niveau3 :: 1 :: [ selon ]
epistemique_niveau3 :: 1 :: [ selon ]
Total feature counts: 4


====== Text Level Features ======

Features :: Feature-Counts :: Feature-Lemmas
--------------------------------------------
marqueurs :: 1 :: [ selon ]
epistemique :: 1 :: [ selon ]
marqueurs_niveau3 :: 1 :: [ selon ]
epistemique_niveau3 :: 1 :: [ selon ]
Total feature counts: 4

