
********** Entity Names Features **********
*******************************************

1. Sentence: Le paysage est à l ' échelle de cet enjeu : si l ' étendue agricole du plateau peut sembler peu suggestive , les coteaux boisés qui bordent les vallées ont au contraire une très grande présence .
No features found.


********** Emotions Features **********
***************************************

1. Sentence: Le paysage est à l ' échelle de cet enjeu : si l ' étendue agricole du plateau peut sembler peu suggestive , les coteaux boisés qui bordent les vallées ont au contraire une très grande présence .
No features found.


********** Modality Features **********
***************************************

1. Sentence: Le paysage est à l ' échelle de cet enjeu : si l ' étendue agricole du plateau peut sembler peu suggestive , les coteaux boisés qui bordent les vallées ont au contraire une très grande présence .
Features :: Feature-Counts :: Feature-Lemmas
--------------------------------------------
marqueurs :: 3 :: [ pouvoir, sembler, grand ]
epistemique :: 3 :: [ pouvoir, sembler, grand ]
marqueurs_niveau3 :: 3 :: [ pouvoir, sembler, grand ]
epistemique_niveau3 :: 3 :: [ pouvoir, sembler, grand ]
alethique :: 1 :: [ pouvoir ]
deontique :: 1 :: [ pouvoir ]
alethique_niveau3 :: 1 :: [ pouvoir ]
deontique_niveau3 :: 1 :: [ pouvoir ]
Total feature counts: 16


********** Adverbiaux Temporels Features **********
********************************************************

1. Sentence: Le paysage est à l ' échelle de cet enjeu : si l ' étendue agricole du plateau peut sembler peu suggestive , les coteaux boisés qui bordent les vallées ont au contraire une très grande présence .
No features found.

