====== Sentence Level Features ======

1. Sentence: Elle l ' est également sur les principes du développement durable , pour endiguer l ' étalement urbain par exemple , puisque l ' intercommunalité a pour règle de ne pas transgresser le droit de veto d ' un maire sur la transformation du territoire de sa commune .
Features :: Feature-Counts :: Feature-Lemmas
--------------------------------------------
marqueurs :: 1 :: [ droit ]
deontique :: 1 :: [ droit ]
marqueurs_niveau3 :: 1 :: [ droit ]
deontique_niveau3 :: 1 :: [ droit ]
Total feature counts: 4


====== Text Level Features ======

Features :: Feature-Counts :: Feature-Lemmas
--------------------------------------------
marqueurs :: 1 :: [ droit ]
deontique :: 1 :: [ droit ]
marqueurs_niveau3 :: 1 :: [ droit ]
deontique_niveau3 :: 1 :: [ droit ]
Total feature counts: 4

