====== Sentence Level Features ======

1. Sentence: Avec lui , je conforte mon expérience des différentes échelles et des allers et retours nécessaires : de la minutie des objets – meubles ou cloisons – aux très grands espaces ouverts qu ' il me fait découvrir .
Features :: Feature-Counts :: Feature-Lemmas
--------------------------------------------
marqueurs :: 5 :: [ lui, aller, nécessaire, grand, découvrir ]
alethique :: 3 :: [ lui, aller, nécessaire ]
marqueurs_niveau3 :: 3 :: [ lui, nécessaire, grand ]
epistemique :: 2 :: [ lui, grand ]
alethique_niveau3 :: 2 :: [ lui, nécessaire ]
epistemique_niveau3 :: 2 :: [ lui, grand ]
pas_d_indication :: 1 :: [ découvrir ]
marqueurs_niveau1 :: 1 :: [ aller ]
marqueurs_niveau0 :: 1 :: [ découvrir ]
alethique_niveau1 :: 1 :: [ aller ]
pas_d_indication_niveau0 :: 1 :: [ découvrir ]
Total feature counts: 22


====== Text Level Features ======

Features :: Feature-Counts :: Feature-Lemmas
--------------------------------------------
marqueurs :: 5 :: [ lui, aller, nécessaire, grand, découvrir ]
alethique :: 3 :: [ lui, aller, nécessaire ]
marqueurs_niveau3 :: 3 :: [ lui, nécessaire, grand ]
epistemique :: 2 :: [ lui, grand ]
alethique_niveau3 :: 2 :: [ lui, nécessaire ]
epistemique_niveau3 :: 2 :: [ lui, grand ]
pas_d_indication :: 1 :: [ découvrir ]
marqueurs_niveau1 :: 1 :: [ aller ]
marqueurs_niveau0 :: 1 :: [ découvrir ]
alethique_niveau1 :: 1 :: [ aller ]
pas_d_indication_niveau0 :: 1 :: [ découvrir ]
Total feature counts: 22

