
********** Entity Names Features **********
*******************************************

1. Sentence: (3) A l ' exception de Versailles , dans une certaine mesure .
Entity Name (Type) :: Versailles (LOC)


********** Emotions Features **********
***************************************

1. Sentence: (3) A l ' exception de Versailles , dans une certaine mesure .
No features found.


********** Modality Features **********
***************************************

1. Sentence: (3) A l ' exception de Versailles , dans une certaine mesure .
Features :: Feature-Counts :: Feature-Lemmas
--------------------------------------------
marqueurs :: 1 :: [ certain ]
epistemique :: 1 :: [ certain ]
marqueurs_niveau3 :: 1 :: [ certain ]
epistemique_niveau3 :: 1 :: [ certain ]
Total feature counts: 4


********** Adverbiaux Temporels Features **********
********************************************************

1. Sentence: (3) A l ' exception de Versailles , dans une certaine mesure .
No features found.

