
********** Entity Names Features **********
*******************************************

1. Sentence: Le marché-gare de Rungis en fournit la plus prochaine illustration .
Entity Name (Type) :: Rungis (LOC)


********** Emotions Features **********
***************************************

1. Sentence: Le marché-gare de Rungis en fournit la plus prochaine illustration .
No features found.


********** Modality Features **********
***************************************

1. Sentence: Le marché-gare de Rungis en fournit la plus prochaine illustration .
No features found.


********** Adverbiaux Temporels Features **********
********************************************************

1. Sentence: Le marché-gare de Rungis en fournit la plus prochaine illustration .
No features found.

