====== Sentence Level Features ======

1. Sentence: à titre de comparaison , l ' actuelle région de Paris s ' étend sur 12 .
Entity Name (Type) :: Paris (LOC)

2. Sentence: 000 km2 , soit le triple .
No features found.


====== Text Level Features ======

Entity Name (Entity Type)
-------------------------
Paris (LOC)
Total entitiy counts: 1

