====== Sentence Level Features ======

1. Sentence: M . Sudreau qui avait aperçu que les dimensions du problème n ' étaient pas très justes et qu ’ il fallait voir plus loin que ne voyait le service d ' aménagement de M .
Features :: Feature-Counts :: Feature-Lemmas
--------------------------------------------
marqueurs :: 3 :: [ problème, juste, falloir ]
marqueurs_niveau3 :: 2 :: [ juste, falloir ]
appreciatif :: 1 :: [ problème ]
axiologique :: 1 :: [ juste ]
deontique :: 1 :: [ falloir ]
marqueurs_niveau2 :: 1 :: [ problème ]
appreciatif_niveau2 :: 1 :: [ problème ]
axiologique_niveau3 :: 1 :: [ juste ]
deontique_niveau3 :: 1 :: [ falloir ]
Total feature counts: 12


====== Text Level Features ======

Features :: Feature-Counts :: Feature-Lemmas
--------------------------------------------
marqueurs :: 3 :: [ problème, juste, falloir ]
marqueurs_niveau3 :: 2 :: [ juste, falloir ]
appreciatif :: 1 :: [ problème ]
axiologique :: 1 :: [ juste ]
deontique :: 1 :: [ falloir ]
marqueurs_niveau2 :: 1 :: [ problème ]
appreciatif_niveau2 :: 1 :: [ problème ]
axiologique_niveau3 :: 1 :: [ juste ]
deontique_niveau3 :: 1 :: [ falloir ]
Total feature counts: 12

