
********** Entity Names Features **********
*******************************************

1. Sentence: De leur côté , les chercheurs ont tendance à se replier sur leurs disciplines .
No features found.


********** Emotions Features **********
***************************************

1. Sentence: De leur côté , les chercheurs ont tendance à se replier sur leurs disciplines .
No features found.


********** Modality Features **********
***************************************

1. Sentence: De leur côté , les chercheurs ont tendance à se replier sur leurs disciplines .
No features found.


********** Adverbiaux Temporels Features **********
********************************************************

1. Sentence: De leur côté , les chercheurs ont tendance à se replier sur leurs disciplines .
No features found.

