====== Sentence Level Features ======

1. Sentence: Cette période ne doit pas être trop longue , car les conditions socio-économiques évoluent , les imaginaires et les attentes changent .
Features :: Feature-Counts :: Feature-Lemmas
--------------------------------------------
marqueurs :: 2 :: [ devoir, long ]
epistemique :: 2 :: [ devoir, long ]
alethique :: 1 :: [ devoir ]
deontique :: 1 :: [ devoir ]
marqueurs_niveau3 :: 1 :: [ devoir ]
marqueurs_niveau2 :: 1 :: [ long ]
alethique_niveau3 :: 1 :: [ devoir ]
deontique_niveau3 :: 1 :: [ devoir ]
epistemique_niveau3 :: 1 :: [ devoir ]
epistemique_niveau2 :: 1 :: [ long ]
Total feature counts: 12


====== Text Level Features ======

Features :: Feature-Counts :: Feature-Lemmas
--------------------------------------------
marqueurs :: 2 :: [ devoir, long ]
epistemique :: 2 :: [ devoir, long ]
alethique :: 1 :: [ devoir ]
deontique :: 1 :: [ devoir ]
marqueurs_niveau3 :: 1 :: [ devoir ]
marqueurs_niveau2 :: 1 :: [ long ]
alethique_niveau3 :: 1 :: [ devoir ]
deontique_niveau3 :: 1 :: [ devoir ]
epistemique_niveau3 :: 1 :: [ devoir ]
epistemique_niveau2 :: 1 :: [ long ]
Total feature counts: 12

