
********** Entity Names Features **********
*******************************************

1. Sentence: Nul besoin de la préciosité d ' un « musée en plein air » pour saisir le travail ,  l ' usure , le progressif effacement .
No features found.


********** Emotions Features **********
***************************************

1. Sentence: Nul besoin de la préciosité d ' un « musée en plein air » pour saisir le travail ,  l ' usure , le progressif effacement .
No features found.


********** Modality Features **********
***************************************

1. Sentence: Nul besoin de la préciosité d ' un « musée en plein air » pour saisir le travail ,  l ' usure , le progressif effacement .
Features :: Feature-Counts :: Feature-Lemmas
--------------------------------------------
marqueurs :: 3 :: [ nul, besoin, travail ]
appreciatif :: 2 :: [ nul, travail ]
marqueurs_niveau3 :: 2 :: [ besoin, travail ]
alethique :: 1 :: [ besoin ]
axiologique :: 1 :: [ nul ]
boulique :: 1 :: [ besoin ]
marqueurs_niveau2 :: 1 :: [ nul ]
alethique_niveau3 :: 1 :: [ besoin ]
appreciatif_niveau3 :: 1 :: [ travail ]
appreciatif_niveau2 :: 1 :: [ nul ]
axiologique_niveau2 :: 1 :: [ nul ]
boulique_niveau3 :: 1 :: [ besoin ]
Total feature counts: 16


********** Adverbiaux Temporels Features **********
********************************************************

1. Sentence: Nul besoin de la préciosité d ' un « musée en plein air » pour saisir le travail ,  l ' usure , le progressif effacement .
No features found.

