====== Sentence Level Features ======

1. Sentence: Alors nous sommes partis au Sri Lanka à la découverte de Geoffrey Bawa , architecte que la France ignore superbement et dont les revues d ' architecture n ' ont pas voulu entendre parler à mon retour alors qu ' il est un des héros nationaux de son pays .
Features :: Feature-Counts :: Feature-Lemmas
--------------------------------------------
marqueurs :: 2 :: [ partir, vouloir ]
alethique :: 1 :: [ partir ]
boulique :: 1 :: [ vouloir ]
marqueurs_niveau3 :: 1 :: [ vouloir ]
marqueurs_niveau1 :: 1 :: [ partir ]
alethique_niveau1 :: 1 :: [ partir ]
boulique_niveau3 :: 1 :: [ vouloir ]
Total feature counts: 8


====== Text Level Features ======

Features :: Feature-Counts :: Feature-Lemmas
--------------------------------------------
marqueurs :: 2 :: [ partir, vouloir ]
alethique :: 1 :: [ partir ]
boulique :: 1 :: [ vouloir ]
marqueurs_niveau3 :: 1 :: [ vouloir ]
marqueurs_niveau1 :: 1 :: [ partir ]
alethique_niveau1 :: 1 :: [ partir ]
boulique_niveau3 :: 1 :: [ vouloir ]
Total feature counts: 8

