
********** Entity Names Features **********
*******************************************

1. Sentence: Le tracé de ces radiales est en cours d ' études;
No features found.


********** Emotions Features **********
***************************************

1. Sentence: Le tracé de ces radiales est en cours d ' études;
No features found.


********** Modality Features **********
***************************************

1. Sentence: Le tracé de ces radiales est en cours d ' études;
No features found.


********** Adverbiaux Temporels Features **********
********************************************************

1. Sentence: Le tracé de ces radiales est en cours d ' études;
No features found.

