
********** Entity Names Features **********
*******************************************

1. Sentence: c ’ est que les gens qui avaient un pavillon individuel en accession à la propriété sous des zones de bruit en souffraient relativement peu ;
No features found.


********** Emotions Features **********
***************************************

1. Sentence: c ’ est que les gens qui avaient un pavillon individuel en accession à la propriété sous des zones de bruit en souffraient relativement peu ;
No features found.


********** Modality Features **********
***************************************

1. Sentence: c ’ est que les gens qui avaient un pavillon individuel en accession à la propriété sous des zones de bruit en souffraient relativement peu ;
No features found.


********** Adverbiaux Temporels Features **********
********************************************************

1. Sentence: c ’ est que les gens qui avaient un pavillon individuel en accession à la propriété sous des zones de bruit en souffraient relativement peu ;
No features found.

