
********** Entity Names Features **********
*******************************************

1. Sentence: mais au point de vue de la croissance des cités , cela n ’ en a pas .
No features found.


********** Emotions Features **********
***************************************

1. Sentence: mais au point de vue de la croissance des cités , cela n ’ en a pas .
No features found.


********** Modality Features **********
***************************************

1. Sentence: mais au point de vue de la croissance des cités , cela n ’ en a pas .
No features found.


********** Adverbiaux Temporels Features **********
********************************************************

1. Sentence: mais au point de vue de la croissance des cités , cela n ’ en a pas .
No features found.

