====== Sentence Level Features ======

1. Sentence: Il leur faudra plus d ' espace , des services meilleurs et plus nombreux .
Features :: Feature-Counts :: Feature-Lemmas
--------------------------------------------
marqueurs :: 3 :: [ lui, falloir, meilleur ]
marqueurs_niveau3 :: 2 :: [ lui, falloir ]
alethique :: 1 :: [ lui ]
appreciatif :: 1 :: [ meilleur ]
axiologique :: 1 :: [ meilleur ]
deontique :: 1 :: [ falloir ]
epistemique :: 1 :: [ lui ]
marqueurs_niveau2 :: 1 :: [ meilleur ]
alethique_niveau3 :: 1 :: [ lui ]
appreciatif_niveau2 :: 1 :: [ meilleur ]
axiologique_niveau2 :: 1 :: [ meilleur ]
deontique_niveau3 :: 1 :: [ falloir ]
epistemique_niveau3 :: 1 :: [ lui ]
Total feature counts: 16


====== Text Level Features ======

Features :: Feature-Counts :: Feature-Lemmas
--------------------------------------------
marqueurs :: 3 :: [ lui, falloir, meilleur ]
marqueurs_niveau3 :: 2 :: [ lui, falloir ]
alethique :: 1 :: [ lui ]
appreciatif :: 1 :: [ meilleur ]
axiologique :: 1 :: [ meilleur ]
deontique :: 1 :: [ falloir ]
epistemique :: 1 :: [ lui ]
marqueurs_niveau2 :: 1 :: [ meilleur ]
alethique_niveau3 :: 1 :: [ lui ]
appreciatif_niveau2 :: 1 :: [ meilleur ]
axiologique_niveau2 :: 1 :: [ meilleur ]
deontique_niveau3 :: 1 :: [ falloir ]
epistemique_niveau3 :: 1 :: [ lui ]
Total feature counts: 16

