
********** Entity Names Features **********
*******************************************

1. Sentence: Comme l ' a écrit Henri Michaux : «N ' a-t-on pas décomposé tout le décomposable , secoué le secouable , les formes , la lumière , les couleurs ?
Entity Name (Type) :: Henri Michaux (PER)


********** Emotions Features **********
***************************************

1. Sentence: Comme l ' a écrit Henri Michaux : «N ' a-t-on pas décomposé tout le décomposable , secoué le secouable , les formes , la lumière , les couleurs ?
No features found.


********** Modality Features **********
***************************************

1. Sentence: Comme l ' a écrit Henri Michaux : «N ' a-t-on pas décomposé tout le décomposable , secoué le secouable , les formes , la lumière , les couleurs ?
Features :: Feature-Counts :: Feature-Lemmas
--------------------------------------------
marqueurs :: 1 :: [ lumière ]
alethique :: 1 :: [ lumière ]
appreciatif :: 1 :: [ lumière ]
marqueurs_niveau1 :: 1 :: [ lumière ]
alethique_niveau1 :: 1 :: [ lumière ]
appreciatif_niveau1 :: 1 :: [ lumière ]
Total feature counts: 6


********** Adverbiaux Temporels Features **********
********************************************************

1. Sentence: Comme l ' a écrit Henri Michaux : «N ' a-t-on pas décomposé tout le décomposable , secoué le secouable , les formes , la lumière , les couleurs ?
No features found.

