
********** Entity Names Features **********
*******************************************

1. Sentence: Les logements s ' ouvrent en éventail sur la rue de Cîteaux pour gagner un maximum de lumière .
Entity Name (Type) :: rue de Cîteaux (LOC)


********** Emotions Features **********
***************************************

1. Sentence: Les logements s ' ouvrent en éventail sur la rue de Cîteaux pour gagner un maximum de lumière .
No features found.


********** Modality Features **********
***************************************

1. Sentence: Les logements s ' ouvrent en éventail sur la rue de Cîteaux pour gagner un maximum de lumière .
Features :: Feature-Counts :: Feature-Lemmas
--------------------------------------------
marqueurs :: 3 :: [ ouvrir, gagner, lumière ]
appreciatif :: 2 :: [ gagner, lumière ]
alethique :: 1 :: [ lumière ]
boulique :: 1 :: [ ouvrir ]
marqueurs_niveau3 :: 1 :: [ ouvrir ]
marqueurs_niveau2 :: 1 :: [ gagner ]
marqueurs_niveau1 :: 1 :: [ lumière ]
alethique_niveau1 :: 1 :: [ lumière ]
appreciatif_niveau2 :: 1 :: [ gagner ]
appreciatif_niveau1 :: 1 :: [ lumière ]
boulique_niveau3 :: 1 :: [ ouvrir ]
Total feature counts: 14


********** Adverbiaux Temporels Features **********
********************************************************

1. Sentence: Les logements s ' ouvrent en éventail sur la rue de Cîteaux pour gagner un maximum de lumière .
No features found.

