
********** Entity Names Features **********
*******************************************

1. Sentence: Hormis quelques périodes de récession , le phénomène urbain n ' existe que dans la durée , dans l ' accumulation progressive d ' extensions , d ' ajouts , de transformations , de novations .
No features found.


********** Emotions Features **********
***************************************

1. Sentence: Hormis quelques périodes de récession , le phénomène urbain n ' existe que dans la durée , dans l ' accumulation progressive d ' extensions , d ' ajouts , de transformations , de novations .
No features found.


********** Modality Features **********
***************************************

1. Sentence: Hormis quelques périodes de récession , le phénomène urbain n ' existe que dans la durée , dans l ' accumulation progressive d ' extensions , d ' ajouts , de transformations , de novations .
No features found.


********** Adverbiaux Temporels Features **********
********************************************************

1. Sentence: Hormis quelques périodes de récession , le phénomène urbain n ' existe que dans la durée , dans l ' accumulation progressive d ' extensions , d ' ajouts , de transformations , de novations .
No features found.

