
********** Entity Names Features **********
*******************************************

1. Sentence: gains de productivité sont redistribués et répartis .
No features found.


********** Emotions Features **********
***************************************

1. Sentence: gains de productivité sont redistribués et répartis .
No features found.


********** Modality Features **********
***************************************

1. Sentence: gains de productivité sont redistribués et répartis .
Features :: Feature-Counts :: Feature-Lemmas
--------------------------------------------
marqueurs :: 1 :: [ gain ]
appreciatif :: 1 :: [ gain ]
marqueurs_niveau2 :: 1 :: [ gain ]
appreciatif_niveau2 :: 1 :: [ gain ]
Total feature counts: 4


********** Adverbiaux Temporels Features **********
********************************************************

1. Sentence: gains de productivité sont redistribués et répartis .
No features found.

