
********** Entity Names Features **********
*******************************************

1. Sentence: On m ’ a donné les bandes et je me suis aperçu de cette chose très curieuse ;
No features found.


********** Emotions Features **********
***************************************

1. Sentence: On m ’ a donné les bandes et je me suis aperçu de cette chose très curieuse ;
Tokens having emotion: [ curieuse ]
Lemmas having emotion: [ curieux ]
Categories of the emotion lemmas: [ desir ]


********** Modality Features **********
***************************************

1. Sentence: On m ’ a donné les bandes et je me suis aperçu de cette chose très curieuse ;
Features :: Feature-Counts :: Feature-Lemmas
--------------------------------------------
marqueurs :: 1 :: [ curieux ]
boulique :: 1 :: [ curieux ]
epistemique :: 1 :: [ curieux ]
marqueurs_niveau2 :: 1 :: [ curieux ]
boulique_niveau2 :: 1 :: [ curieux ]
epistemique_niveau2 :: 1 :: [ curieux ]
Total feature counts: 6


********** Adverbiaux Temporels Features **********
********************************************************

1. Sentence: On m ’ a donné les bandes et je me suis aperçu de cette chose très curieuse ;
No features found.

