
********** Entity Names Features **********
*******************************************

1. Sentence: Chaque action s ' est ajoutée et a donné peu à peu un sens à une politique urbaine .
No features found.


********** Emotions Features **********
***************************************

1. Sentence: Chaque action s ' est ajoutée et a donné peu à peu un sens à une politique urbaine .
No features found.


********** Modality Features **********
***************************************

1. Sentence: Chaque action s ' est ajoutée et a donné peu à peu un sens à une politique urbaine .
No features found.


********** Adverbiaux Temporels Features **********
********************************************************

1. Sentence: Chaque action s ' est ajoutée et a donné peu à peu un sens à une politique urbaine .
No features found.

