
********** Entity Names Features **********
*******************************************

1. Sentence: La ligne ferrée de Valmondois qui fera partie du R . E . R . et la ligne de Pontoise assurent dans une première étape , la desserte de ce secteur .
Entity Name (Type) :: ligne de Pontoise (LOC)


********** Emotions Features **********
***************************************

1. Sentence: La ligne ferrée de Valmondois qui fera partie du R . E . R . et la ligne de Pontoise assurent dans une première étape , la desserte de ce secteur .
No features found.


********** Modality Features **********
***************************************

1. Sentence: La ligne ferrée de Valmondois qui fera partie du R . E . R . et la ligne de Pontoise assurent dans une première étape , la desserte de ce secteur .
No features found.


********** Adverbiaux Temporels Features **********
********************************************************

1. Sentence: La ligne ferrée de Valmondois qui fera partie du R . E . R . et la ligne de Pontoise assurent dans une première étape , la desserte de ce secteur .
No features found.

