====== Sentence Level Features ======

1. Sentence: je pense à LVMH et autres .
Entity Name (Type) :: LVMH (ORG)


====== Text Level Features ======

Entity Name (Entity Type)
-------------------------
LVMH (ORG)
Total entitiy counts: 1

