====== Sentence Level Features ======

1. Sentence: Et la grande majorité des activités n ' exige guère plus que l ' accès désormais ubiquitaire aux réseaux .
Features :: Feature-Counts :: Feature-Lemmas
--------------------------------------------
marqueurs :: 2 :: [ grand, exiger ]
marqueurs_niveau3 :: 2 :: [ grand, exiger ]
alethique :: 1 :: [ exiger ]
boulique :: 1 :: [ exiger ]
deontique :: 1 :: [ exiger ]
epistemique :: 1 :: [ grand ]
alethique_niveau3 :: 1 :: [ exiger ]
boulique_niveau3 :: 1 :: [ exiger ]
deontique_niveau3 :: 1 :: [ exiger ]
epistemique_niveau3 :: 1 :: [ grand ]
Total feature counts: 12


====== Text Level Features ======

Features :: Feature-Counts :: Feature-Lemmas
--------------------------------------------
marqueurs :: 2 :: [ grand, exiger ]
marqueurs_niveau3 :: 2 :: [ grand, exiger ]
alethique :: 1 :: [ exiger ]
boulique :: 1 :: [ exiger ]
deontique :: 1 :: [ exiger ]
epistemique :: 1 :: [ grand ]
alethique_niveau3 :: 1 :: [ exiger ]
boulique_niveau3 :: 1 :: [ exiger ]
deontique_niveau3 :: 1 :: [ exiger ]
epistemique_niveau3 :: 1 :: [ grand ]
Total feature counts: 12

