====== Sentence Level Features ======

1. Sentence: Équipe de projet , depuis 2006 : Atelier François Grether , architecte urbaniste mandataire;
Features :: Feature-Counts :: Feature-Texts
--------------------------------------------
adverbiaux_temporels::1::['depuis 2006']
adverbiaux_duratifs_iteratifs::1::['depuis 2006']
adverbiaux_pointage_absolu::1::['depuis 2006']
adverbiaux_loc_temp_focalisation_id::1::['depuis 2006']
adverbiaux_loc_temp_regionalisation_non_id::1::['depuis 2006']
adverbiaux_dur_iter_absolu::1::['depuis 2006']


====== Text Level Features ======

Features :: Feature-Counts :: Feature-Texts
--------------------------------------------
adverbiaux_temporels::1::['depuis 2006']
adverbiaux_duratifs_iteratifs::1::['depuis 2006']
adverbiaux_pointage_absolu::1::['depuis 2006']
adverbiaux_loc_temp_focalisation_id::1::['depuis 2006']
adverbiaux_loc_temp_regionalisation_non_id::1::['depuis 2006']
adverbiaux_dur_iter_absolu::1::['depuis 2006']
Total feature counts: 6

