
********** Entity Names Features **********
*******************************************

1. Sentence: Rien ne venait séparer l ' élévation du terrassement , les cadrages du paysage étaient conçus avec le plan de l ' édifice dessiné avec la forme du sol .
Entity Name (Type) :: Rien (LOC)


********** Emotions Features **********
***************************************

1. Sentence: Rien ne venait séparer l ' élévation du terrassement , les cadrages du paysage étaient conçus avec le plan de l ' édifice dessiné avec la forme du sol .
No features found.


********** Modality Features **********
***************************************

1. Sentence: Rien ne venait séparer l ' élévation du terrassement , les cadrages du paysage étaient conçus avec le plan de l ' édifice dessiné avec la forme du sol .
Features :: Feature-Counts :: Feature-Lemmas
--------------------------------------------
marqueurs :: 2 :: [ rien, venir ]
alethique :: 2 :: [ rien, venir ]
marqueurs_niveau3 :: 1 :: [ venir ]
marqueurs_niveau2 :: 1 :: [ rien ]
alethique_niveau3 :: 1 :: [ venir ]
alethique_niveau2 :: 1 :: [ rien ]
Total feature counts: 8


********** Adverbiaux Temporels Features **********
********************************************************

1. Sentence: Rien ne venait séparer l ' élévation du terrassement , les cadrages du paysage étaient conçus avec le plan de l ' édifice dessiné avec la forme du sol .
No features found.

