
********** Entity Names Features **********
*******************************************

1. Sentence: La découverte du «vide» renvoie également à l ' hypothèse d ' une «ville inverse» , que j ' ai exposée plus tard dans mon livre La Città elementare 2 .
Entity Name (Type) :: La Città elementare 2 (MISC)


********** Emotions Features **********
***************************************

1. Sentence: La découverte du «vide» renvoie également à l ' hypothèse d ' une «ville inverse» , que j ' ai exposée plus tard dans mon livre La Città elementare 2 .
No features found.


********** Modality Features **********
***************************************

1. Sentence: La découverte du «vide» renvoie également à l ' hypothèse d ' une «ville inverse» , que j ' ai exposée plus tard dans mon livre La Città elementare 2 .
No features found.


********** Adverbiaux Temporels Features **********
********************************************************

1. Sentence: La découverte du «vide» renvoie également à l ' hypothèse d ' une «ville inverse» , que j ' ai exposée plus tard dans mon livre La Città elementare 2 .
Features :: Feature-Counts :: Feature-Texts
--------------------------------------------
adverbiaux_temporels::1::['plus tard']
adverbiaux_localisation_temporelle::1::['plus tard']
adverbiaux_pointage_non_absolu::1::['plus tard']
adverbiaux_loc_temp_regionalisation_id::1::['plus tard']
adverbiaux_loc_temp_pointage_non_absolu::1::['plus tard']

