====== Sentence Level Features ======

1. Sentence: D ' après Ed . -L . Ullmann :  " The nature of Cities " dans The Regional Science Association Papers , volume 9 , 1962 .
Features :: Feature-Counts :: Feature-Texts
--------------------------------------------
adverbiaux_temporels::1::[', 1962 .']
adverbiaux_localisation_temporelle::1::[', 1962 .']
adverbiaux_pointage_absolu::1::[', 1962 .']
adverbiaux_loc_temp_pointage_absolu::1::[', 1962 .']


====== Text Level Features ======

Features :: Feature-Counts :: Feature-Texts
--------------------------------------------
adverbiaux_temporels::1::[', 1962 .']
adverbiaux_localisation_temporelle::1::[', 1962 .']
adverbiaux_pointage_absolu::1::[', 1962 .']
adverbiaux_loc_temp_pointage_absolu::1::[', 1962 .']
Total feature counts: 4

