
********** Entity Names Features **********
*******************************************

1. Sentence: TABLE
Entity Name (Type) :: TABLE (LOC)


********** Emotions Features **********
***************************************

1. Sentence: TABLE
No features found.


********** Modality Features **********
***************************************

1. Sentence: TABLE
No features found.


********** Adverbiaux Temporels Features **********
********************************************************

1. Sentence: TABLE
No features found.

