====== Sentence Level Features ======

1. Sentence: En 1978 , nous gagnons le concours pour la construction du palais de justice de Draguignan , sorte d ' éléphant administratif dans un Grand Prix de l ' urbanisme 2007 gence et leur besoin d ' explications .
Features :: Feature-Counts :: Feature-Lemmas
--------------------------------------------
marqueurs :: 5 :: [ gagner, justice, grand, prix, besoin ]
marqueurs_niveau2 :: 3 :: [ gagner, justice, prix ]
appreciatif :: 2 :: [ gagner, prix ]
axiologique :: 2 :: [ justice, prix ]
marqueurs_niveau3 :: 2 :: [ grand, besoin ]
appreciatif_niveau2 :: 2 :: [ gagner, prix ]
axiologique_niveau2 :: 2 :: [ justice, prix ]
alethique :: 1 :: [ besoin ]
boulique :: 1 :: [ besoin ]
epistemique :: 1 :: [ grand ]
alethique_niveau3 :: 1 :: [ besoin ]
boulique_niveau3 :: 1 :: [ besoin ]
epistemique_niveau3 :: 1 :: [ grand ]
Total feature counts: 24


====== Text Level Features ======

Features :: Feature-Counts :: Feature-Lemmas
--------------------------------------------
marqueurs :: 5 :: [ gagner, justice, grand, prix, besoin ]
marqueurs_niveau2 :: 3 :: [ gagner, justice, prix ]
appreciatif :: 2 :: [ gagner, prix ]
axiologique :: 2 :: [ justice, prix ]
marqueurs_niveau3 :: 2 :: [ grand, besoin ]
appreciatif_niveau2 :: 2 :: [ gagner, prix ]
axiologique_niveau2 :: 2 :: [ justice, prix ]
alethique :: 1 :: [ besoin ]
boulique :: 1 :: [ besoin ]
epistemique :: 1 :: [ grand ]
alethique_niveau3 :: 1 :: [ besoin ]
boulique_niveau3 :: 1 :: [ besoin ]
epistemique_niveau3 :: 1 :: [ grand ]
Total feature counts: 24

