
********** Entity Names Features **********
*******************************************

1. Sentence: ÉCHELLE : 1/400 . 000
Entity Name (Type) :: ÉCHELLE (LOC)


********** Emotions Features **********
***************************************

1. Sentence: ÉCHELLE : 1/400 . 000
No features found.


********** Modality Features **********
***************************************

1. Sentence: ÉCHELLE : 1/400 . 000
No features found.


********** Adverbiaux Temporels Features **********
********************************************************

1. Sentence: ÉCHELLE : 1/400 . 000
No features found.

