
********** Entity Names Features **********
*******************************************

1. Sentence: Gilles Huchette  : Il s ' agit d ' un programme de Pôle emploi .
Entity Name (Type) :: Pôle emploi (ORG)


********** Emotions Features **********
***************************************

1. Sentence: Gilles Huchette  : Il s ' agit d ' un programme de Pôle emploi .
No features found.


********** Modality Features **********
***************************************

1. Sentence: Gilles Huchette  : Il s ' agit d ' un programme de Pôle emploi .
Features :: Feature-Counts :: Feature-Lemmas
--------------------------------------------
marqueurs :: 1 :: [ emploi ]
appreciatif :: 1 :: [ emploi ]
marqueurs_niveau2 :: 1 :: [ emploi ]
appreciatif_niveau2 :: 1 :: [ emploi ]
Total feature counts: 4


********** Adverbiaux Temporels Features **********
********************************************************

1. Sentence: Gilles Huchette  : Il s ' agit d ' un programme de Pôle emploi .
No features found.

