====== Sentence Level Features ======

1. Sentence: enfin le comblement des espaces interstitiels , rendu possible par la multiplication des moyens de transport (bicyclette , autobus , voiture) rabattant sur ces gares ou donnant la liaison directe avec Paris .
Features :: Feature-Counts :: Feature-Lemmas
--------------------------------------------
marqueurs :: 1 :: [ possible ]
alethique :: 1 :: [ possible ]
marqueurs_niveau3 :: 1 :: [ possible ]
alethique_niveau3 :: 1 :: [ possible ]
Total feature counts: 4


====== Text Level Features ======

Features :: Feature-Counts :: Feature-Lemmas
--------------------------------------------
marqueurs :: 1 :: [ possible ]
alethique :: 1 :: [ possible ]
marqueurs_niveau3 :: 1 :: [ possible ]
alethique_niveau3 :: 1 :: [ possible ]
Total feature counts: 4

