
********** Entity Names Features **********
*******************************************

1. Sentence: Ariella Masboungi — À contre-pied de l ' idée d ' un Grand Paris , vous défendez l ' idée d ' une stratégie prioritaire d ' aménagement de l ' Îlede-France .
Entity Name (Type) :: Îlede-France (LOC)


********** Emotions Features **********
***************************************

1. Sentence: Ariella Masboungi — À contre-pied de l ' idée d ' un Grand Paris , vous défendez l ' idée d ' une stratégie prioritaire d ' aménagement de l ' Îlede-France .
No features found.


********** Modality Features **********
***************************************

1. Sentence: Ariella Masboungi — À contre-pied de l ' idée d ' un Grand Paris , vous défendez l ' idée d ' une stratégie prioritaire d ' aménagement de l ' Îlede-France .
Features :: Feature-Counts :: Feature-Lemmas
--------------------------------------------
marqueurs :: 2 :: [ grand, défendre ]
axiologique :: 1 :: [ défendre ]
epistemique :: 1 :: [ grand ]
marqueurs_niveau3 :: 1 :: [ grand ]
marqueurs_niveau1 :: 1 :: [ défendre ]
axiologique_niveau1 :: 1 :: [ défendre ]
epistemique_niveau3 :: 1 :: [ grand ]
Total feature counts: 8


********** Adverbiaux Temporels Features **********
********************************************************

1. Sentence: Ariella Masboungi — À contre-pied de l ' idée d ' un Grand Paris , vous défendez l ' idée d ' une stratégie prioritaire d ' aménagement de l ' Îlede-France .
No features found.

