
********** Entity Names Features **********
*******************************************

1. Sentence: Pourtant , on y trouve des enseignements utiles .
No features found.


********** Emotions Features **********
***************************************

1. Sentence: Pourtant , on y trouve des enseignements utiles .
No features found.


********** Modality Features **********
***************************************

1. Sentence: Pourtant , on y trouve des enseignements utiles .
Features :: Feature-Counts :: Feature-Lemmas
--------------------------------------------
marqueurs :: 1 :: [ utile ]
appreciatif :: 1 :: [ utile ]
marqueurs_niveau3 :: 1 :: [ utile ]
appreciatif_niveau3 :: 1 :: [ utile ]
Total feature counts: 4


********** Adverbiaux Temporels Features **********
********************************************************

1. Sentence: Pourtant , on y trouve des enseignements utiles .
No features found.

