
********** Entity Names Features **********
*******************************************

1. Sentence: Les lignes transversales Nord-Sud
Entity Name (Type) :: Nord-Sud (LOC)


********** Emotions Features **********
***************************************

1. Sentence: Les lignes transversales Nord-Sud
No features found.


********** Modality Features **********
***************************************

1. Sentence: Les lignes transversales Nord-Sud
No features found.


********** Adverbiaux Temporels Features **********
********************************************************

1. Sentence: Les lignes transversales Nord-Sud
No features found.

