====== Sentence Level Features ======

1. Sentence: encore les services intéressés - ceux de la statistique et ceux du ministère de la Construction - n ' ont-ils pas adopté la même frontière;
Features :: Feature-Counts :: Feature-Lemmas
--------------------------------------------
marqueurs :: 1 :: [ intéresser ]
pas_d_indication :: 1 :: [ intéresser ]
marqueurs_niveau0 :: 1 :: [ intéresser ]
pas_d_indication_niveau0 :: 1 :: [ intéresser ]
Total feature counts: 4


====== Text Level Features ======

Features :: Feature-Counts :: Feature-Lemmas
--------------------------------------------
marqueurs :: 1 :: [ intéresser ]
pas_d_indication :: 1 :: [ intéresser ]
marqueurs_niveau0 :: 1 :: [ intéresser ]
pas_d_indication_niveau0 :: 1 :: [ intéresser ]
Total feature counts: 4

