
********** Entity Names Features **********
*******************************************

1. Sentence: Alexandre Chemetoff a créé l ' Atelier de l ' île de Nantes , installé sur place .
Entity Name (Type) :: Atelier de l ' île de Nantes (LOC)


********** Emotions Features **********
***************************************

1. Sentence: Alexandre Chemetoff a créé l ' Atelier de l ' île de Nantes , installé sur place .
No features found.


********** Modality Features **********
***************************************

1. Sentence: Alexandre Chemetoff a créé l ' Atelier de l ' île de Nantes , installé sur place .
No features found.


********** Adverbiaux Temporels Features **********
********************************************************

1. Sentence: Alexandre Chemetoff a créé l ' Atelier de l ' île de Nantes , installé sur place .
No features found.

