====== Sentence Level Features ======

1. Sentence: Certes , le territoire Nantes-Rennes peut sembler aussi pertinent que Nantes−Saint-Nazaire , mais ce dernier se construit et se conforte à travers un projet porté par des instances politiques .
Features :: Feature-Counts :: Feature-Lemmas
--------------------------------------------
marqueurs :: 2 :: [ pouvoir, sembler ]
epistemique :: 2 :: [ pouvoir, sembler ]
marqueurs_niveau3 :: 2 :: [ pouvoir, sembler ]
epistemique_niveau3 :: 2 :: [ pouvoir, sembler ]
alethique :: 1 :: [ pouvoir ]
deontique :: 1 :: [ pouvoir ]
alethique_niveau3 :: 1 :: [ pouvoir ]
deontique_niveau3 :: 1 :: [ pouvoir ]
Total feature counts: 12


====== Text Level Features ======

Features :: Feature-Counts :: Feature-Lemmas
--------------------------------------------
marqueurs :: 2 :: [ pouvoir, sembler ]
epistemique :: 2 :: [ pouvoir, sembler ]
marqueurs_niveau3 :: 2 :: [ pouvoir, sembler ]
epistemique_niveau3 :: 2 :: [ pouvoir, sembler ]
alethique :: 1 :: [ pouvoir ]
deontique :: 1 :: [ pouvoir ]
alethique_niveau3 :: 1 :: [ pouvoir ]
deontique_niveau3 :: 1 :: [ pouvoir ]
Total feature counts: 12

