
********** Entity Names Features **********
*******************************************

1. Sentence: Comment pourraient-ils l ' être au cours des prochaines décennies ?
No features found.


********** Emotions Features **********
***************************************

1. Sentence: Comment pourraient-ils l ' être au cours des prochaines décennies ?
No features found.


********** Modality Features **********
***************************************

1. Sentence: Comment pourraient-ils l ' être au cours des prochaines décennies ?
Features :: Feature-Counts :: Feature-Lemmas
--------------------------------------------
marqueurs :: 1 :: [ pouvoir ]
alethique :: 1 :: [ pouvoir ]
deontique :: 1 :: [ pouvoir ]
epistemique :: 1 :: [ pouvoir ]
marqueurs_niveau3 :: 1 :: [ pouvoir ]
alethique_niveau3 :: 1 :: [ pouvoir ]
deontique_niveau3 :: 1 :: [ pouvoir ]
epistemique_niveau3 :: 1 :: [ pouvoir ]
Total feature counts: 8


********** Adverbiaux Temporels Features **********
********************************************************

1. Sentence: Comment pourraient-ils l ' être au cours des prochaines décennies ?
Features :: Feature-Counts :: Feature-Texts
--------------------------------------------
adverbiaux_temporels::1::['au cours des prochaines décennies']
adverbiaux_localisation_temporelle::1::['au cours des prochaines décennies']
adverbiaux_pointage_non_absolu::1::['au cours des prochaines décennies']
adverbiaux_loc_temp_focalisation_id::1::['au cours des prochaines décennies']
adverbiaux_loc_temp_regionalisation_id::1::['au cours des prochaines décennies']
adverbiaux_loc_temp_pointage_non_absolu::1::['au cours des prochaines décennies']

