====== Sentence Level Features ======

1. Sentence: De vrais cauchemars visuels .
Features :: Feature-Counts :: Feature-Lemmas
--------------------------------------------
marqueurs :: 1 :: [ vrai ]
alethique :: 1 :: [ vrai ]
marqueurs_niveau1 :: 1 :: [ vrai ]
alethique_niveau1 :: 1 :: [ vrai ]
Total feature counts: 4


====== Text Level Features ======

Features :: Feature-Counts :: Feature-Lemmas
--------------------------------------------
marqueurs :: 1 :: [ vrai ]
alethique :: 1 :: [ vrai ]
marqueurs_niveau1 :: 1 :: [ vrai ]
alethique_niveau1 :: 1 :: [ vrai ]
Total feature counts: 4

