
********** Entity Names Features **********
*******************************************

1. Sentence: Bordeaux évolue .
Entity Name (Type) :: Bordeaux (LOC)


********** Emotions Features **********
***************************************

1. Sentence: Bordeaux évolue .
No features found.


********** Modality Features **********
***************************************

1. Sentence: Bordeaux évolue .
No features found.


********** Adverbiaux Temporels Features **********
********************************************************

1. Sentence: Bordeaux évolue .
No features found.

