
********** Entity Names Features **********
*******************************************

1. Sentence: Jean‑Louis Subileau  : Songez qu ' à Stains , 40 000 habitants , une population massivement issue de l ' immigration ;
Entity Name (Type) :: Stains (LOC)


********** Emotions Features **********
***************************************

1. Sentence: Jean‑Louis Subileau  : Songez qu ' à Stains , 40 000 habitants , une population massivement issue de l ' immigration ;
No features found.


********** Modality Features **********
***************************************

1. Sentence: Jean‑Louis Subileau  : Songez qu ' à Stains , 40 000 habitants , une population massivement issue de l ' immigration ;
No features found.


********** Adverbiaux Temporels Features **********
********************************************************

1. Sentence: Jean‑Louis Subileau  : Songez qu ' à Stains , 40 000 habitants , une population massivement issue de l ' immigration ;
No features found.

