====== Sentence Level Features ======

1. Sentence: La progression et l ' évolution des emplois se traduisent d ' abord par un besoin d ' espace qui , à son tour , provoque une redistribution des activités parisiennes à l ' intérieur de la région .
Features :: Feature-Counts :: Feature-Lemmas
--------------------------------------------
marqueurs :: 2 :: [ emploi, besoin ]
alethique :: 1 :: [ besoin ]
appreciatif :: 1 :: [ emploi ]
boulique :: 1 :: [ besoin ]
marqueurs_niveau3 :: 1 :: [ besoin ]
marqueurs_niveau2 :: 1 :: [ emploi ]
alethique_niveau3 :: 1 :: [ besoin ]
appreciatif_niveau2 :: 1 :: [ emploi ]
boulique_niveau3 :: 1 :: [ besoin ]
Total feature counts: 10


====== Text Level Features ======

Features :: Feature-Counts :: Feature-Lemmas
--------------------------------------------
marqueurs :: 2 :: [ emploi, besoin ]
alethique :: 1 :: [ besoin ]
appreciatif :: 1 :: [ emploi ]
boulique :: 1 :: [ besoin ]
marqueurs_niveau3 :: 1 :: [ besoin ]
marqueurs_niveau2 :: 1 :: [ emploi ]
alethique_niveau3 :: 1 :: [ besoin ]
appreciatif_niveau2 :: 1 :: [ emploi ]
boulique_niveau3 :: 1 :: [ besoin ]
Total feature counts: 10

