
********** Entity Names Features **********
*******************************************

1. Sentence: elle accroît enfin la mobilité des acheteurs .
No features found.


********** Emotions Features **********
***************************************

1. Sentence: elle accroît enfin la mobilité des acheteurs .
No features found.


********** Modality Features **********
***************************************

1. Sentence: elle accroît enfin la mobilité des acheteurs .
No features found.


********** Adverbiaux Temporels Features **********
********************************************************

1. Sentence: elle accroît enfin la mobilité des acheteurs .
No features found.

