
********** Entity Names Features **********
*******************************************

1. Sentence: Leur nombre croîtra probablement jusqu ' à 1 . 100 . 000 .
No features found.


********** Emotions Features **********
***************************************

1. Sentence: Leur nombre croîtra probablement jusqu ' à 1 . 100 . 000 .
No features found.


********** Modality Features **********
***************************************

1. Sentence: Leur nombre croîtra probablement jusqu ' à 1 . 100 . 000 .
Features :: Feature-Counts :: Feature-Lemmas
--------------------------------------------
marqueurs :: 1 :: [ probablement ]
epistemique :: 1 :: [ probablement ]
marqueurs_niveau3 :: 1 :: [ probablement ]
epistemique_niveau3 :: 1 :: [ probablement ]
Total feature counts: 4


********** Adverbiaux Temporels Features **********
********************************************************

1. Sentence: Leur nombre croîtra probablement jusqu ' à 1 . 100 . 000 .
No features found.

