====== Sentence Level Features ======

1. Sentence: Les différentes couches d ' énergie grise peuvent aussi bien être considérées comme un potentiel (latence , redondance) que comme un obstacle aux changements .
Features :: Feature-Counts :: Feature-Lemmas
--------------------------------------------
marqueurs :: 3 :: [ pouvoir, bien, considérer ]
marqueurs_niveau3 :: 3 :: [ pouvoir, bien, considérer ]
epistemique :: 2 :: [ pouvoir, considérer ]
epistemique_niveau3 :: 2 :: [ pouvoir, considérer ]
alethique :: 1 :: [ pouvoir ]
appreciatif :: 1 :: [ bien ]
axiologique :: 1 :: [ bien ]
deontique :: 1 :: [ pouvoir ]
alethique_niveau3 :: 1 :: [ pouvoir ]
appreciatif_niveau3 :: 1 :: [ bien ]
axiologique_niveau3 :: 1 :: [ bien ]
deontique_niveau3 :: 1 :: [ pouvoir ]
Total feature counts: 18


====== Text Level Features ======

Features :: Feature-Counts :: Feature-Lemmas
--------------------------------------------
marqueurs :: 3 :: [ pouvoir, bien, considérer ]
marqueurs_niveau3 :: 3 :: [ pouvoir, bien, considérer ]
epistemique :: 2 :: [ pouvoir, considérer ]
epistemique_niveau3 :: 2 :: [ pouvoir, considérer ]
alethique :: 1 :: [ pouvoir ]
appreciatif :: 1 :: [ bien ]
axiologique :: 1 :: [ bien ]
deontique :: 1 :: [ pouvoir ]
alethique_niveau3 :: 1 :: [ pouvoir ]
appreciatif_niveau3 :: 1 :: [ bien ]
axiologique_niveau3 :: 1 :: [ bien ]
deontique_niveau3 :: 1 :: [ pouvoir ]
Total feature counts: 18

