
********** Entity Names Features **********
*******************************************

1. Sentence: 000 et au-dessus qui ont crû très vite , mais un peu moins vite que celles de la gamme 100 .
No features found.


********** Emotions Features **********
***************************************

1. Sentence: 000 et au-dessus qui ont crû très vite , mais un peu moins vite que celles de la gamme 100 .
No features found.


********** Modality Features **********
***************************************

1. Sentence: 000 et au-dessus qui ont crû très vite , mais un peu moins vite que celles de la gamme 100 .
Features :: Feature-Counts :: Feature-Lemmas
--------------------------------------------
marqueurs :: 2 :: [ vite, vite ]
epistemique :: 2 :: [ vite, vite ]
marqueurs_niveau3 :: 2 :: [ vite, vite ]
epistemique_niveau3 :: 2 :: [ vite, vite ]
Total feature counts: 8


********** Adverbiaux Temporels Features **********
********************************************************

1. Sentence: 000 et au-dessus qui ont crû très vite , mais un peu moins vite que celles de la gamme 100 .
No features found.

