====== Sentence Level Features ======

1. Sentence: Un autre cap a donc été pris d ' emblée il y a trente ans , quand nous peinons encore souvent à entrevoir des alternatives .
Features :: Feature-Counts :: Feature-Lemmas
--------------------------------------------
marqueurs :: 1 :: [ souvent ]
alethique :: 1 :: [ souvent ]
marqueurs_niveau3 :: 1 :: [ souvent ]
alethique_niveau3 :: 1 :: [ souvent ]
Total feature counts: 4


====== Text Level Features ======

Features :: Feature-Counts :: Feature-Lemmas
--------------------------------------------
marqueurs :: 1 :: [ souvent ]
alethique :: 1 :: [ souvent ]
marqueurs_niveau3 :: 1 :: [ souvent ]
alethique_niveau3 :: 1 :: [ souvent ]
Total feature counts: 4

