
********** Entity Names Features **********
*******************************************

1. Sentence: La nécessité de l ' urbanisme
No features found.


********** Emotions Features **********
***************************************

1. Sentence: La nécessité de l ' urbanisme
No features found.


********** Modality Features **********
***************************************

1. Sentence: La nécessité de l ' urbanisme
Features :: Feature-Counts :: Feature-Lemmas
--------------------------------------------
marqueurs :: 1 :: [ nécessité ]
alethique :: 1 :: [ nécessité ]
marqueurs_niveau3 :: 1 :: [ nécessité ]
alethique_niveau3 :: 1 :: [ nécessité ]
Total feature counts: 4


********** Adverbiaux Temporels Features **********
********************************************************

1. Sentence: La nécessité de l ' urbanisme
No features found.

