====== Sentence Level Features ======

1. Sentence: Petite légende à venir , la plus courte possible , merci .
Features :: Feature-Counts :: Feature-Lemmas
--------------------------------------------
marqueurs :: 5 :: [ petit, légende, venir, possible, merci ]
alethique :: 3 :: [ légende, venir, possible ]
marqueurs_niveau3 :: 3 :: [ petit, venir, possible ]
marqueurs_niveau1 :: 2 :: [ légende, merci ]
alethique_niveau3 :: 2 :: [ venir, possible ]
appreciatif :: 1 :: [ merci ]
axiologique :: 1 :: [ merci ]
epistemique :: 1 :: [ petit ]
alethique_niveau1 :: 1 :: [ légende ]
appreciatif_niveau1 :: 1 :: [ merci ]
axiologique_niveau1 :: 1 :: [ merci ]
epistemique_niveau3 :: 1 :: [ petit ]
Total feature counts: 22


====== Text Level Features ======

Features :: Feature-Counts :: Feature-Lemmas
--------------------------------------------
marqueurs :: 5 :: [ petit, légende, venir, possible, merci ]
alethique :: 3 :: [ légende, venir, possible ]
marqueurs_niveau3 :: 3 :: [ petit, venir, possible ]
marqueurs_niveau1 :: 2 :: [ légende, merci ]
alethique_niveau3 :: 2 :: [ venir, possible ]
appreciatif :: 1 :: [ merci ]
axiologique :: 1 :: [ merci ]
epistemique :: 1 :: [ petit ]
alethique_niveau1 :: 1 :: [ légende ]
appreciatif_niveau1 :: 1 :: [ merci ]
axiologique_niveau1 :: 1 :: [ merci ]
epistemique_niveau3 :: 1 :: [ petit ]
Total feature counts: 22

