====== Sentence Level Features ======

1. Sentence: DELOUVRIER . - A l ’ heure actuelle , il y a encore très peu d ' hectares zadés , je crois un millier au total , mais les 44 . 000 ou 43 .
Features :: Feature-Counts :: Feature-Lemmas
--------------------------------------------
marqueurs :: 1 :: [ croire ]
epistemique :: 1 :: [ croire ]
marqueurs_niveau3 :: 1 :: [ croire ]
epistemique_niveau3 :: 1 :: [ croire ]
Total feature counts: 4


====== Text Level Features ======

Features :: Feature-Counts :: Feature-Lemmas
--------------------------------------------
marqueurs :: 1 :: [ croire ]
epistemique :: 1 :: [ croire ]
marqueurs_niveau3 :: 1 :: [ croire ]
epistemique_niveau3 :: 1 :: [ croire ]
Total feature counts: 4

