
********** Entity Names Features **********
*******************************************

1. Sentence: Pour autant , il serait étriqué de ne considérer la thématique de l ' Europe des régions que sous l ' angle de ces risques .
Entity Name (Type) :: Europe (LOC)


********** Emotions Features **********
***************************************

1. Sentence: Pour autant , il serait étriqué de ne considérer la thématique de l ' Europe des régions que sous l ' angle de ces risques .
Tokens having emotion: [ considérer ]
Lemmas having emotion: [ considérer ]
Categories of the emotion lemmas: [ admiration ]


********** Modality Features **********
***************************************

1. Sentence: Pour autant , il serait étriqué de ne considérer la thématique de l ' Europe des régions que sous l ' angle de ces risques .
Features :: Feature-Counts :: Feature-Lemmas
--------------------------------------------
marqueurs :: 1 :: [ considérer ]
epistemique :: 1 :: [ considérer ]
marqueurs_niveau3 :: 1 :: [ considérer ]
epistemique_niveau3 :: 1 :: [ considérer ]
Total feature counts: 4


********** Adverbiaux Temporels Features **********
********************************************************

1. Sentence: Pour autant , il serait étriqué de ne considérer la thématique de l ' Europe des régions que sous l ' angle de ces risques .
No features found.

