====== Sentence Level Features ======

1. Sentence: Les Voies latérales devront assurer très largement la circulation résultant des nombreuses artères auxquelles elles donneront accès .
Features :: Feature-Counts :: Feature-Lemmas
--------------------------------------------
marqueurs :: 1 :: [ devoir ]
alethique :: 1 :: [ devoir ]
deontique :: 1 :: [ devoir ]
epistemique :: 1 :: [ devoir ]
marqueurs_niveau3 :: 1 :: [ devoir ]
alethique_niveau3 :: 1 :: [ devoir ]
deontique_niveau3 :: 1 :: [ devoir ]
epistemique_niveau3 :: 1 :: [ devoir ]
Total feature counts: 8


====== Text Level Features ======

Features :: Feature-Counts :: Feature-Lemmas
--------------------------------------------
marqueurs :: 1 :: [ devoir ]
alethique :: 1 :: [ devoir ]
deontique :: 1 :: [ devoir ]
epistemique :: 1 :: [ devoir ]
marqueurs_niveau3 :: 1 :: [ devoir ]
alethique_niveau3 :: 1 :: [ devoir ]
deontique_niveau3 :: 1 :: [ devoir ]
epistemique_niveau3 :: 1 :: [ devoir ]
Total feature counts: 8

