
********** Entity Names Features **********
*******************************************

1. Sentence: Enﬁn , des autoroutes urbaines cisaillant des quartiers doivent être démontées .
Entity Name (Type) :: Enﬁn (LOC)


********** Emotions Features **********
***************************************

1. Sentence: Enﬁn , des autoroutes urbaines cisaillant des quartiers doivent être démontées .
No features found.


********** Modality Features **********
***************************************

1. Sentence: Enﬁn , des autoroutes urbaines cisaillant des quartiers doivent être démontées .
Features :: Feature-Counts :: Feature-Lemmas
--------------------------------------------
marqueurs :: 1 :: [ devoir ]
alethique :: 1 :: [ devoir ]
deontique :: 1 :: [ devoir ]
epistemique :: 1 :: [ devoir ]
marqueurs_niveau3 :: 1 :: [ devoir ]
alethique_niveau3 :: 1 :: [ devoir ]
deontique_niveau3 :: 1 :: [ devoir ]
epistemique_niveau3 :: 1 :: [ devoir ]
Total feature counts: 8


********** Adverbiaux Temporels Features **********
********************************************************

1. Sentence: Enﬁn , des autoroutes urbaines cisaillant des quartiers doivent être démontées .
No features found.

