
********** Entity Names Features **********
*******************************************

1. Sentence: Utilisé parce qu ' il est le plus courant , ce terme de " loisir " recouvre ici toutes les occupations autres que professionnelles (1) .
No features found.


********** Emotions Features **********
***************************************

1. Sentence: Utilisé parce qu ' il est le plus courant , ce terme de " loisir " recouvre ici toutes les occupations autres que professionnelles (1) .
No features found.


********** Modality Features **********
***************************************

1. Sentence: Utilisé parce qu ' il est le plus courant , ce terme de " loisir " recouvre ici toutes les occupations autres que professionnelles (1) .
Features :: Feature-Counts :: Feature-Lemmas
--------------------------------------------
marqueurs :: 2 :: [ loisir, occupation ]
marqueurs_niveau2 :: 2 :: [ loisir, occupation ]
appreciatif :: 1 :: [ loisir ]
axiologique :: 1 :: [ occupation ]
appreciatif_niveau2 :: 1 :: [ loisir ]
axiologique_niveau2 :: 1 :: [ occupation ]
Total feature counts: 8


********** Adverbiaux Temporels Features **********
********************************************************

1. Sentence: Utilisé parce qu ' il est le plus courant , ce terme de " loisir " recouvre ici toutes les occupations autres que professionnelles (1) .
No features found.

