====== Sentence Level Features ======

1. Sentence: Pierre Veltz  :
No features found.

2. Sentence: Il n ' est pas nécessaire de choisir entre un néoconservatisme passéiste et une modernité débridée encensant le laisser-faire .
Features :: Feature-Counts :: Feature-Lemmas
--------------------------------------------
marqueurs :: 2 :: [ nécessaire, choisir ]
alethique :: 1 :: [ nécessaire ]
boulique :: 1 :: [ choisir ]
marqueurs_niveau3 :: 1 :: [ nécessaire ]
marqueurs_niveau2 :: 1 :: [ choisir ]
alethique_niveau3 :: 1 :: [ nécessaire ]
boulique_niveau2 :: 1 :: [ choisir ]
Total feature counts: 8


====== Text Level Features ======

Features :: Feature-Counts :: Feature-Lemmas
--------------------------------------------
marqueurs :: 2 :: [ nécessaire, choisir ]
alethique :: 1 :: [ nécessaire ]
boulique :: 1 :: [ choisir ]
marqueurs_niveau3 :: 1 :: [ nécessaire ]
marqueurs_niveau2 :: 1 :: [ choisir ]
alethique_niveau3 :: 1 :: [ nécessaire ]
boulique_niveau2 :: 1 :: [ choisir ]
Total feature counts: 8

