====== Sentence Level Features ======

1. Sentence: Quant au périmètre de ce plan , il ignorait les limites administratives , jusqu ' à ce que les élus exigent de suivre le contour des arrondissements .
Features :: Feature-Counts :: Feature-Lemmas
--------------------------------------------
marqueurs :: 2 :: [ élu, exiger ]
alethique :: 1 :: [ exiger ]
boulique :: 1 :: [ exiger ]
deontique :: 1 :: [ exiger ]
pas_d_indication :: 1 :: [ élu ]
marqueurs_niveau3 :: 1 :: [ exiger ]
marqueurs_niveau0 :: 1 :: [ élu ]
alethique_niveau3 :: 1 :: [ exiger ]
boulique_niveau3 :: 1 :: [ exiger ]
deontique_niveau3 :: 1 :: [ exiger ]
pas_d_indication_niveau0 :: 1 :: [ élu ]
Total feature counts: 12


====== Text Level Features ======

Features :: Feature-Counts :: Feature-Lemmas
--------------------------------------------
marqueurs :: 2 :: [ élu, exiger ]
alethique :: 1 :: [ exiger ]
boulique :: 1 :: [ exiger ]
deontique :: 1 :: [ exiger ]
pas_d_indication :: 1 :: [ élu ]
marqueurs_niveau3 :: 1 :: [ exiger ]
marqueurs_niveau0 :: 1 :: [ élu ]
alethique_niveau3 :: 1 :: [ exiger ]
boulique_niveau3 :: 1 :: [ exiger ]
deontique_niveau3 :: 1 :: [ exiger ]
pas_d_indication_niveau0 :: 1 :: [ élu ]
Total feature counts: 12

