
********** Entity Names Features **********
*******************************************

1. Sentence: Perspective sur la rue longeant le côté nord du centre commercial Mériadeck .
Entity Name (Type) :: Mériadeck (LOC)


********** Emotions Features **********
***************************************

1. Sentence: Perspective sur la rue longeant le côté nord du centre commercial Mériadeck .
No features found.


********** Modality Features **********
***************************************

1. Sentence: Perspective sur la rue longeant le côté nord du centre commercial Mériadeck .
No features found.


********** Adverbiaux Temporels Features **********
********************************************************

1. Sentence: Perspective sur la rue longeant le côté nord du centre commercial Mériadeck .
No features found.

