
********** Entity Names Features **********
*******************************************

1. Sentence: Tous ces projets donnent lieu à une exposition à Tokyo , « Urban situations » en 1991 .
Entity Name (Type) :: « Urban situations (MISC)


********** Emotions Features **********
***************************************

1. Sentence: Tous ces projets donnent lieu à une exposition à Tokyo , « Urban situations » en 1991 .
No features found.


********** Modality Features **********
***************************************

1. Sentence: Tous ces projets donnent lieu à une exposition à Tokyo , « Urban situations » en 1991 .
No features found.


********** Adverbiaux Temporels Features **********
********************************************************

1. Sentence: Tous ces projets donnent lieu à une exposition à Tokyo , « Urban situations » en 1991 .
Features :: Feature-Counts :: Feature-Texts
--------------------------------------------
adverbiaux_temporels::1::['en 1991']
adverbiaux_localisation_temporelle::1::['en 1991']
adverbiaux_pointage_absolu::1::['en 1991']
adverbiaux_pointage_non_absolu::1::['en 1991']
adverbiaux_loc_temp_focalisation_id::1::['en 1991']
adverbiaux_loc_temp_regionalisation_id::1::['en 1991']
adverbiaux_loc_temp_pointage_non_absolu::1::['en 1991']
adverbiaux_dur_iter_absolu::1::['en 1991']

