====== Sentence Level Features ======

1. Sentence: Les échanges entre les élus , les habitants , les services et l ' équipe de conception ont permis la construction d ' une vision d ' avenir partagée .
Features :: Feature-Counts :: Feature-Lemmas
--------------------------------------------
marqueurs :: 2 :: [ élu, permettre ]
deontique :: 1 :: [ permettre ]
pas_d_indication :: 1 :: [ élu ]
marqueurs_niveau3 :: 1 :: [ permettre ]
marqueurs_niveau0 :: 1 :: [ élu ]
deontique_niveau3 :: 1 :: [ permettre ]
pas_d_indication_niveau0 :: 1 :: [ élu ]
Total feature counts: 8


====== Text Level Features ======

Features :: Feature-Counts :: Feature-Lemmas
--------------------------------------------
marqueurs :: 2 :: [ élu, permettre ]
deontique :: 1 :: [ permettre ]
pas_d_indication :: 1 :: [ élu ]
marqueurs_niveau3 :: 1 :: [ permettre ]
marqueurs_niveau0 :: 1 :: [ élu ]
deontique_niveau3 :: 1 :: [ permettre ]
pas_d_indication_niveau0 :: 1 :: [ élu ]
Total feature counts: 8

