====== Sentence Level Features ======

1. Sentence: Mais , c ' est vrai aussi , on a des territoires qui vont très mal , dans le grand quart nord-est notamment , avec des atouts limités pour rebondir .
Features :: Feature-Counts :: Feature-Lemmas
--------------------------------------------
marqueurs :: 4 :: [ vrai, aller, mal, grand ]
alethique :: 2 :: [ vrai, aller ]
marqueurs_niveau3 :: 2 :: [ mal, grand ]
marqueurs_niveau1 :: 2 :: [ vrai, aller ]
alethique_niveau1 :: 2 :: [ vrai, aller ]
appreciatif :: 1 :: [ mal ]
axiologique :: 1 :: [ mal ]
epistemique :: 1 :: [ grand ]
appreciatif_niveau3 :: 1 :: [ mal ]
axiologique_niveau3 :: 1 :: [ mal ]
epistemique_niveau3 :: 1 :: [ grand ]
Total feature counts: 18


====== Text Level Features ======

Features :: Feature-Counts :: Feature-Lemmas
--------------------------------------------
marqueurs :: 4 :: [ vrai, aller, mal, grand ]
alethique :: 2 :: [ vrai, aller ]
marqueurs_niveau3 :: 2 :: [ mal, grand ]
marqueurs_niveau1 :: 2 :: [ vrai, aller ]
alethique_niveau1 :: 2 :: [ vrai, aller ]
appreciatif :: 1 :: [ mal ]
axiologique :: 1 :: [ mal ]
epistemique :: 1 :: [ grand ]
appreciatif_niveau3 :: 1 :: [ mal ]
axiologique_niveau3 :: 1 :: [ mal ]
epistemique_niveau3 :: 1 :: [ grand ]
Total feature counts: 18

