
********** Entity Names Features **********
*******************************************

1. Sentence: Émile Biasini me demande de l ' aider .
Entity Name (Type) :: Émile Biasini (PER)


********** Emotions Features **********
***************************************

1. Sentence: Émile Biasini me demande de l ' aider .
No features found.


********** Modality Features **********
***************************************

1. Sentence: Émile Biasini me demande de l ' aider .
Features :: Feature-Counts :: Feature-Lemmas
--------------------------------------------
marqueurs :: 1 :: [ demander ]
boulique :: 1 :: [ demander ]
marqueurs_niveau3 :: 1 :: [ demander ]
boulique_niveau3 :: 1 :: [ demander ]
Total feature counts: 4


********** Adverbiaux Temporels Features **********
********************************************************

1. Sentence: Émile Biasini me demande de l ' aider .
No features found.

