====== Sentence Level Features ======

1. Sentence: L ' agglomération parisienne n ' a pas su mesurer à temps l ' effet révolutionnaire des deux phénomènes analysés plus haut :
Features :: Feature-Counts :: Feature-Lemmas
--------------------------------------------
marqueurs :: 2 :: [ savoir, haut ]
epistemique :: 1 :: [ savoir ]
pas_d_indication :: 1 :: [ haut ]
marqueurs_niveau3 :: 1 :: [ savoir ]
marqueurs_niveau0 :: 1 :: [ haut ]
epistemique_niveau3 :: 1 :: [ savoir ]
pas_d_indication_niveau0 :: 1 :: [ haut ]
Total feature counts: 8


====== Text Level Features ======

Features :: Feature-Counts :: Feature-Lemmas
--------------------------------------------
marqueurs :: 2 :: [ savoir, haut ]
epistemique :: 1 :: [ savoir ]
pas_d_indication :: 1 :: [ haut ]
marqueurs_niveau3 :: 1 :: [ savoir ]
marqueurs_niveau0 :: 1 :: [ haut ]
epistemique_niveau3 :: 1 :: [ savoir ]
pas_d_indication_niveau0 :: 1 :: [ haut ]
Total feature counts: 8

