
********** Entity Names Features **********
*******************************************

1. Sentence: Il y a beaucoup d ' humour dans notre relation .
No features found.


********** Emotions Features **********
***************************************

1. Sentence: Il y a beaucoup d ' humour dans notre relation .
No features found.


********** Modality Features **********
***************************************

1. Sentence: Il y a beaucoup d ' humour dans notre relation .
Features :: Feature-Counts :: Feature-Lemmas
--------------------------------------------
marqueurs :: 1 :: [ beaucoup ]
epistemique :: 1 :: [ beaucoup ]
marqueurs_niveau1 :: 1 :: [ beaucoup ]
epistemique_niveau1 :: 1 :: [ beaucoup ]
Total feature counts: 4


********** Adverbiaux Temporels Features **********
********************************************************

1. Sentence: Il y a beaucoup d ' humour dans notre relation .
No features found.

