====== Sentence Level Features ======

1. Sentence: Le projet vise à créer un grand ensemble exemplaire , aux usages multiples , où espaces publics ou privés , ouverts ou fermés , cohabiteraient autour d ' une esplanade publique dominant la Grand prix de l ' urbanisme 2004 grammation évolutive dans le temps , gardant l ' image de l ' unité de l ' île comme référence poétique pour le projet d ' ensemble
Features :: Feature-Counts :: Feature-Lemmas
--------------------------------------------
marqueurs :: 3 :: [ grand, grand, prix ]
epistemique :: 2 :: [ grand, grand ]
marqueurs_niveau3 :: 2 :: [ grand, grand ]
epistemique_niveau3 :: 2 :: [ grand, grand ]
appreciatif :: 1 :: [ prix ]
axiologique :: 1 :: [ prix ]
marqueurs_niveau2 :: 1 :: [ prix ]
appreciatif_niveau2 :: 1 :: [ prix ]
axiologique_niveau2 :: 1 :: [ prix ]
Total feature counts: 14


====== Text Level Features ======

Features :: Feature-Counts :: Feature-Lemmas
--------------------------------------------
marqueurs :: 3 :: [ grand, grand, prix ]
epistemique :: 2 :: [ grand, grand ]
marqueurs_niveau3 :: 2 :: [ grand, grand ]
epistemique_niveau3 :: 2 :: [ grand, grand ]
appreciatif :: 1 :: [ prix ]
axiologique :: 1 :: [ prix ]
marqueurs_niveau2 :: 1 :: [ prix ]
appreciatif_niveau2 :: 1 :: [ prix ]
axiologique_niveau2 :: 1 :: [ prix ]
Total feature counts: 14

