
********** Entity Names Features **********
*******************************************

1. Sentence: Intermédiaires du commerce et de l ' industrie	45 , 3	45 , 3 %
No features found.


********** Emotions Features **********
***************************************

1. Sentence: Intermédiaires du commerce et de l ' industrie	45 , 3	45 , 3 %
No features found.


********** Modality Features **********
***************************************

1. Sentence: Intermédiaires du commerce et de l ' industrie	45 , 3	45 , 3 %
No features found.


********** Adverbiaux Temporels Features **********
********************************************************

1. Sentence: Intermédiaires du commerce et de l ' industrie	45 , 3	45 , 3 %
No features found.

