====== Sentence Level Features ======

1. Sentence: veux permettre les meilleurs déplacements , éviter que les pèlerins prennent des passages souterrains , qu ' il y ait des culs-de-sac .
Features :: Feature-Counts :: Feature-Lemmas
--------------------------------------------
marqueurs :: 3 :: [ vouloir, permettre, meilleur ]
marqueurs_niveau3 :: 2 :: [ vouloir, permettre ]
appreciatif :: 1 :: [ meilleur ]
axiologique :: 1 :: [ meilleur ]
boulique :: 1 :: [ vouloir ]
deontique :: 1 :: [ permettre ]
marqueurs_niveau2 :: 1 :: [ meilleur ]
appreciatif_niveau2 :: 1 :: [ meilleur ]
axiologique_niveau2 :: 1 :: [ meilleur ]
boulique_niveau3 :: 1 :: [ vouloir ]
deontique_niveau3 :: 1 :: [ permettre ]
Total feature counts: 14


====== Text Level Features ======

Features :: Feature-Counts :: Feature-Lemmas
--------------------------------------------
marqueurs :: 3 :: [ vouloir, permettre, meilleur ]
marqueurs_niveau3 :: 2 :: [ vouloir, permettre ]
appreciatif :: 1 :: [ meilleur ]
axiologique :: 1 :: [ meilleur ]
boulique :: 1 :: [ vouloir ]
deontique :: 1 :: [ permettre ]
marqueurs_niveau2 :: 1 :: [ meilleur ]
appreciatif_niveau2 :: 1 :: [ meilleur ]
axiologique_niveau2 :: 1 :: [ meilleur ]
boulique_niveau3 :: 1 :: [ vouloir ]
deontique_niveau3 :: 1 :: [ permettre ]
Total feature counts: 14

