
********** Entity Names Features **********
*******************************************

1. Sentence: il s ' agit notamment de définir la trame des espaces publics majeurs , de penser la séquence ville existante , quartier nouveau , parc , berges .
No features found.


********** Emotions Features **********
***************************************

1. Sentence: il s ' agit notamment de définir la trame des espaces publics majeurs , de penser la séquence ville existante , quartier nouveau , parc , berges .
No features found.


********** Modality Features **********
***************************************

1. Sentence: il s ' agit notamment de définir la trame des espaces publics majeurs , de penser la séquence ville existante , quartier nouveau , parc , berges .
Features :: Feature-Counts :: Feature-Lemmas
--------------------------------------------
marqueurs :: 1 :: [ penser ]
epistemique :: 1 :: [ penser ]
marqueurs_niveau3 :: 1 :: [ penser ]
epistemique_niveau3 :: 1 :: [ penser ]
Total feature counts: 4


********** Adverbiaux Temporels Features **********
********************************************************

1. Sentence: il s ' agit notamment de définir la trame des espaces publics majeurs , de penser la séquence ville existante , quartier nouveau , parc , berges .
No features found.

