====== Sentence Level Features ======

1. Sentence: C ' était sans doute exagéré , mais cela le dépeint bien .
Entity Name (Type) :: C (MISC)


====== Text Level Features ======

Entity Name (Entity Type)
-------------------------
C (MISC)
Total entitiy counts: 1

