
********** Entity Names Features **********
*******************************************

1. Sentence: C ' est une orientation politique que je vais assumer tout au long de ce quinquennat .
Entity Name (Type) :: C (LOC)


********** Emotions Features **********
***************************************

1. Sentence: C ' est une orientation politique que je vais assumer tout au long de ce quinquennat .
No features found.


********** Modality Features **********
***************************************

1. Sentence: C ' est une orientation politique que je vais assumer tout au long de ce quinquennat .
Features :: Feature-Counts :: Feature-Lemmas
--------------------------------------------
marqueurs :: 2 :: [ aller, long ]
alethique :: 1 :: [ aller ]
epistemique :: 1 :: [ long ]
marqueurs_niveau2 :: 1 :: [ long ]
marqueurs_niveau1 :: 1 :: [ aller ]
alethique_niveau1 :: 1 :: [ aller ]
epistemique_niveau2 :: 1 :: [ long ]
Total feature counts: 8


********** Adverbiaux Temporels Features **********
********************************************************

1. Sentence: C ' est une orientation politique que je vais assumer tout au long de ce quinquennat .
No features found.

