
********** Entity Names Features **********
*******************************************

1. Sentence: Ainsi qu ' Edgar Morin l ' a écrit en 1972 : « Partout préserver , étendre , développer la différence .
Entity Name (Type) :: Edgar Morin (PER)


********** Emotions Features **********
***************************************

1. Sentence: Ainsi qu ' Edgar Morin l ' a écrit en 1972 : « Partout préserver , étendre , développer la différence .
No features found.


********** Modality Features **********
***************************************

1. Sentence: Ainsi qu ' Edgar Morin l ' a écrit en 1972 : « Partout préserver , étendre , développer la différence .
Features :: Feature-Counts :: Feature-Lemmas
--------------------------------------------
marqueurs :: 1 :: [ partout ]
alethique :: 1 :: [ partout ]
marqueurs_niveau2 :: 1 :: [ partout ]
alethique_niveau2 :: 1 :: [ partout ]
Total feature counts: 4


********** Adverbiaux Temporels Features **********
********************************************************

1. Sentence: Ainsi qu ' Edgar Morin l ' a écrit en 1972 : « Partout préserver , étendre , développer la différence .
Features :: Feature-Counts :: Feature-Texts
--------------------------------------------
adverbiaux_temporels::1::['en 1972']
adverbiaux_localisation_temporelle::1::['en 1972']
adverbiaux_pointage_absolu::1::['en 1972']
adverbiaux_pointage_non_absolu::1::['en 1972']
adverbiaux_loc_temp_focalisation_id::1::['en 1972']
adverbiaux_loc_temp_regionalisation_id::1::['en 1972']
adverbiaux_loc_temp_pointage_non_absolu::1::['en 1972']
adverbiaux_dur_iter_absolu::1::['en 1972']

