====== Sentence Level Features ======

1. Sentence: À contrario , tout projet urbain important devrait faire l ' objet d ' une « insertion préventive » , d ' un mode de transport en site propre .
Features :: Feature-Counts :: Feature-Lemmas
--------------------------------------------
marqueurs :: 2 :: [ important, devoir ]
epistemique :: 2 :: [ important, devoir ]
alethique :: 1 :: [ devoir ]
appreciatif :: 1 :: [ important ]
axiologique :: 1 :: [ important ]
deontique :: 1 :: [ devoir ]
marqueurs_niveau3 :: 1 :: [ devoir ]
marqueurs_niveau1 :: 1 :: [ important ]
alethique_niveau3 :: 1 :: [ devoir ]
appreciatif_niveau1 :: 1 :: [ important ]
axiologique_niveau1 :: 1 :: [ important ]
deontique_niveau3 :: 1 :: [ devoir ]
epistemique_niveau3 :: 1 :: [ devoir ]
epistemique_niveau1 :: 1 :: [ important ]
Total feature counts: 16


====== Text Level Features ======

Features :: Feature-Counts :: Feature-Lemmas
--------------------------------------------
marqueurs :: 2 :: [ important, devoir ]
epistemique :: 2 :: [ important, devoir ]
alethique :: 1 :: [ devoir ]
appreciatif :: 1 :: [ important ]
axiologique :: 1 :: [ important ]
deontique :: 1 :: [ devoir ]
marqueurs_niveau3 :: 1 :: [ devoir ]
marqueurs_niveau1 :: 1 :: [ important ]
alethique_niveau3 :: 1 :: [ devoir ]
appreciatif_niveau1 :: 1 :: [ important ]
axiologique_niveau1 :: 1 :: [ important ]
deontique_niveau3 :: 1 :: [ devoir ]
epistemique_niveau3 :: 1 :: [ devoir ]
epistemique_niveau1 :: 1 :: [ important ]
Total feature counts: 16

