
********** Entity Names Features **********
*******************************************

1. Sentence: Implantées au voisinage de nœuds routiers importants , ces gares seraient aussi desservies par le réseau express régional .
No features found.


********** Emotions Features **********
***************************************

1. Sentence: Implantées au voisinage de nœuds routiers importants , ces gares seraient aussi desservies par le réseau express régional .
No features found.


********** Modality Features **********
***************************************

1. Sentence: Implantées au voisinage de nœuds routiers importants , ces gares seraient aussi desservies par le réseau express régional .
Features :: Feature-Counts :: Feature-Lemmas
--------------------------------------------
marqueurs :: 1 :: [ important ]
appreciatif :: 1 :: [ important ]
axiologique :: 1 :: [ important ]
epistemique :: 1 :: [ important ]
marqueurs_niveau1 :: 1 :: [ important ]
appreciatif_niveau1 :: 1 :: [ important ]
axiologique_niveau1 :: 1 :: [ important ]
epistemique_niveau1 :: 1 :: [ important ]
Total feature counts: 8


********** Adverbiaux Temporels Features **********
********************************************************

1. Sentence: Implantées au voisinage de nœuds routiers importants , ces gares seraient aussi desservies par le réseau express régional .
No features found.

