
********** Entity Names Features **********
*******************************************

1. Sentence: 000 logements sont à localiser chaque année en région de Paris , plus de 1 . 200 .
Entity Name (Type) :: Paris (LOC)


********** Emotions Features **********
***************************************

1. Sentence: 000 logements sont à localiser chaque année en région de Paris , plus de 1 . 200 .
No features found.


********** Modality Features **********
***************************************

1. Sentence: 000 logements sont à localiser chaque année en région de Paris , plus de 1 . 200 .
No features found.


********** Adverbiaux Temporels Features **********
********************************************************

1. Sentence: 000 logements sont à localiser chaque année en région de Paris , plus de 1 . 200 .
Features :: Feature-Counts :: Feature-Texts
--------------------------------------------
adverbiaux_temporels::1::['chaque année']
adverbiaux_purement_iteratifs::1::['chaque année']
adverbiaux_loc_temp_focalisation_id::1::['chaque année']
adverbiaux_loc_temp_regionalisation_id::1::['chaque année']
adverbiaux_iterateur_calendaire::1::['chaque année']

