====== Sentence Level Features ======

1. Sentence: Pendant de longues années , en région parisienne , le choix s ' est présenté en fait entre un appartement souvent exigu , sinon confortable , mais au centre ou près du centre bien équipé et le pavillon avec jardinet mais dans une banlieue fort mal équipée .
Features :: Feature-Counts :: Feature-Lemmas
--------------------------------------------
marqueurs :: 6 :: [ long, choix, souvent, bien, fort, mal ]
marqueurs_niveau3 :: 3 :: [ souvent, bien, mal ]
appreciatif :: 2 :: [ bien, mal ]
axiologique :: 2 :: [ bien, mal ]
marqueurs_niveau2 :: 2 :: [ long, choix ]
appreciatif_niveau3 :: 2 :: [ bien, mal ]
axiologique_niveau3 :: 2 :: [ bien, mal ]
alethique :: 1 :: [ souvent ]
boulique :: 1 :: [ choix ]
epistemique :: 1 :: [ long ]
pas_d_indication :: 1 :: [ fort ]
marqueurs_niveau0 :: 1 :: [ fort ]
alethique_niveau3 :: 1 :: [ souvent ]
boulique_niveau2 :: 1 :: [ choix ]
epistemique_niveau2 :: 1 :: [ long ]
pas_d_indication_niveau0 :: 1 :: [ fort ]
Total feature counts: 28


====== Text Level Features ======

Features :: Feature-Counts :: Feature-Lemmas
--------------------------------------------
marqueurs :: 6 :: [ long, choix, souvent, bien, fort, mal ]
marqueurs_niveau3 :: 3 :: [ souvent, bien, mal ]
appreciatif :: 2 :: [ bien, mal ]
axiologique :: 2 :: [ bien, mal ]
marqueurs_niveau2 :: 2 :: [ long, choix ]
appreciatif_niveau3 :: 2 :: [ bien, mal ]
axiologique_niveau3 :: 2 :: [ bien, mal ]
alethique :: 1 :: [ souvent ]
boulique :: 1 :: [ choix ]
epistemique :: 1 :: [ long ]
pas_d_indication :: 1 :: [ fort ]
marqueurs_niveau0 :: 1 :: [ fort ]
alethique_niveau3 :: 1 :: [ souvent ]
boulique_niveau2 :: 1 :: [ choix ]
epistemique_niveau2 :: 1 :: [ long ]
pas_d_indication_niveau0 :: 1 :: [ fort ]
Total feature counts: 28

