====== Sentence Level Features ======

1. Sentence: Puis le Grand Prix a été suspendu pendant cinq ans .
Entity Name (Type) :: Grand Prix (MISC)


====== Text Level Features ======

Entity Name (Entity Type)
-------------------------
Grand Prix (MISC)
Total entitiy counts: 1

