====== Sentence Level Features ======

1. Sentence: Je me réjouis aussi de présider le jury Europan 2017 , sur un thème qui m ' est cher , la « ville productive » .
Features :: Feature-Counts :: Feature-Lemmas
--------------------------------------------
marqueurs :: 2 :: [ réjouir, cher ]
appreciatif :: 1 :: [ réjouir ]
pas_d_indication :: 1 :: [ cher ]
marqueurs_niveau3 :: 1 :: [ réjouir ]
marqueurs_niveau0 :: 1 :: [ cher ]
appreciatif_niveau3 :: 1 :: [ réjouir ]
pas_d_indication_niveau0 :: 1 :: [ cher ]
Total feature counts: 8


====== Text Level Features ======

Features :: Feature-Counts :: Feature-Lemmas
--------------------------------------------
marqueurs :: 2 :: [ réjouir, cher ]
appreciatif :: 1 :: [ réjouir ]
pas_d_indication :: 1 :: [ cher ]
marqueurs_niveau3 :: 1 :: [ réjouir ]
marqueurs_niveau0 :: 1 :: [ cher ]
appreciatif_niveau3 :: 1 :: [ réjouir ]
pas_d_indication_niveau0 :: 1 :: [ cher ]
Total feature counts: 8

