====== Sentence Level Features ======

1. Sentence: En fait l ' aménagement du territoire n ' a pas pu se cristalliser sur quelques idées simples et pris à la gorge il a fallu que je demande au Gouvernement de sortir mon affaire .
Features :: Feature-Counts :: Feature-Lemmas
--------------------------------------------
marqueurs :: 3 :: [ pouvoir, falloir, demander ]
marqueurs_niveau3 :: 3 :: [ pouvoir, falloir, demander ]
deontique :: 2 :: [ pouvoir, falloir ]
deontique_niveau3 :: 2 :: [ pouvoir, falloir ]
alethique :: 1 :: [ pouvoir ]
boulique :: 1 :: [ demander ]
epistemique :: 1 :: [ pouvoir ]
alethique_niveau3 :: 1 :: [ pouvoir ]
boulique_niveau3 :: 1 :: [ demander ]
epistemique_niveau3 :: 1 :: [ pouvoir ]
Total feature counts: 16


====== Text Level Features ======

Features :: Feature-Counts :: Feature-Lemmas
--------------------------------------------
marqueurs :: 3 :: [ pouvoir, falloir, demander ]
marqueurs_niveau3 :: 3 :: [ pouvoir, falloir, demander ]
deontique :: 2 :: [ pouvoir, falloir ]
deontique_niveau3 :: 2 :: [ pouvoir, falloir ]
alethique :: 1 :: [ pouvoir ]
boulique :: 1 :: [ demander ]
epistemique :: 1 :: [ pouvoir ]
alethique_niveau3 :: 1 :: [ pouvoir ]
boulique_niveau3 :: 1 :: [ demander ]
epistemique_niveau3 :: 1 :: [ pouvoir ]
Total feature counts: 16

