====== Sentence Level Features ======

1. Sentence: Le Corbusier a pu être moderne , aussi , parce qu ' il n ' avait pas (trop) besoin de commandes , pas besoin d ' être conformiste , ce qui ne diminue en rien le courage et le génie .
Features :: Feature-Counts :: Feature-Lemmas
--------------------------------------------
marqueurs :: 6 :: [ pouvoir, moderne, besoin, besoin, rien, courage ]
alethique :: 4 :: [ pouvoir, besoin, besoin, rien ]
marqueurs_niveau3 :: 4 :: [ pouvoir, besoin, besoin, courage ]
alethique_niveau3 :: 3 :: [ pouvoir, besoin, besoin ]
boulique :: 2 :: [ besoin, besoin ]
boulique_niveau3 :: 2 :: [ besoin, besoin ]
appreciatif :: 1 :: [ courage ]
axiologique :: 1 :: [ courage ]
deontique :: 1 :: [ pouvoir ]
epistemique :: 1 :: [ pouvoir ]
pas_d_indication :: 1 :: [ moderne ]
marqueurs_niveau2 :: 1 :: [ rien ]
marqueurs_niveau0 :: 1 :: [ moderne ]
alethique_niveau2 :: 1 :: [ rien ]
appreciatif_niveau3 :: 1 :: [ courage ]
axiologique_niveau3 :: 1 :: [ courage ]
deontique_niveau3 :: 1 :: [ pouvoir ]
epistemique_niveau3 :: 1 :: [ pouvoir ]
pas_d_indication_niveau0 :: 1 :: [ moderne ]
Total feature counts: 34


====== Text Level Features ======

Features :: Feature-Counts :: Feature-Lemmas
--------------------------------------------
marqueurs :: 6 :: [ pouvoir, moderne, besoin, besoin, rien, courage ]
alethique :: 4 :: [ pouvoir, besoin, besoin, rien ]
marqueurs_niveau3 :: 4 :: [ pouvoir, besoin, besoin, courage ]
alethique_niveau3 :: 3 :: [ pouvoir, besoin, besoin ]
boulique :: 2 :: [ besoin, besoin ]
boulique_niveau3 :: 2 :: [ besoin, besoin ]
appreciatif :: 1 :: [ courage ]
axiologique :: 1 :: [ courage ]
deontique :: 1 :: [ pouvoir ]
epistemique :: 1 :: [ pouvoir ]
pas_d_indication :: 1 :: [ moderne ]
marqueurs_niveau2 :: 1 :: [ rien ]
marqueurs_niveau0 :: 1 :: [ moderne ]
alethique_niveau2 :: 1 :: [ rien ]
appreciatif_niveau3 :: 1 :: [ courage ]
axiologique_niveau3 :: 1 :: [ courage ]
deontique_niveau3 :: 1 :: [ pouvoir ]
epistemique_niveau3 :: 1 :: [ pouvoir ]
pas_d_indication_niveau0 :: 1 :: [ moderne ]
Total feature counts: 34

