====== Sentence Level Features ======

1. Sentence: Cette Voie emprunte sur la plus grande partie de son parcours le tracé d ’ une artère depuis longtemps projetée ;
Features :: Feature-Counts :: Feature-Lemmas
--------------------------------------------
marqueurs :: 2 :: [ grand, longtemps ]
epistemique :: 2 :: [ grand, longtemps ]
marqueurs_niveau3 :: 1 :: [ grand ]
marqueurs_niveau1 :: 1 :: [ longtemps ]
epistemique_niveau3 :: 1 :: [ grand ]
epistemique_niveau1 :: 1 :: [ longtemps ]
Total feature counts: 8


====== Text Level Features ======

Features :: Feature-Counts :: Feature-Lemmas
--------------------------------------------
marqueurs :: 2 :: [ grand, longtemps ]
epistemique :: 2 :: [ grand, longtemps ]
marqueurs_niveau3 :: 1 :: [ grand ]
marqueurs_niveau1 :: 1 :: [ longtemps ]
epistemique_niveau3 :: 1 :: [ grand ]
epistemique_niveau1 :: 1 :: [ longtemps ]
Total feature counts: 8

