====== Sentence Level Features ======

1. Sentence: Il est évident que si , au niveau mondial , une rareté alimentaire se développait , tous ces terrains deviendraient beaucoup plus utilisables et , en France , on ne manque pas d ' espaces pour l ' agriculture .
Features :: Feature-Counts :: Feature-Lemmas
--------------------------------------------
marqueurs :: 1 :: [ beaucoup ]
epistemique :: 1 :: [ beaucoup ]
marqueurs_niveau1 :: 1 :: [ beaucoup ]
epistemique_niveau1 :: 1 :: [ beaucoup ]
Total feature counts: 4


====== Text Level Features ======

Features :: Feature-Counts :: Feature-Lemmas
--------------------------------------------
marqueurs :: 1 :: [ beaucoup ]
epistemique :: 1 :: [ beaucoup ]
marqueurs_niveau1 :: 1 :: [ beaucoup ]
epistemique_niveau1 :: 1 :: [ beaucoup ]
Total feature counts: 4

