====== Sentence Level Features ======

1. Sentence: Il s ' agit de leur transmettre , en le justifiant , ce qui nous intéresse sur tel ou tel îlot pour l ' intérêt du projet d ' ensemble , de les introduire dans celui-ci en insistant sur ce qui en fait l ' essence , puis de leur faire part de toutes nos intentions , à toutes les échelles .
Features :: Feature-Counts :: Feature-Lemmas
--------------------------------------------
marqueurs :: 5 :: [ lui, intéresser, intérêt, lui, intention ]
alethique :: 2 :: [ lui, lui ]
boulique :: 2 :: [ intérêt, intention ]
epistemique :: 2 :: [ lui, lui ]
marqueurs_niveau3 :: 2 :: [ lui, lui ]
marqueurs_niveau2 :: 2 :: [ intérêt, intention ]
alethique_niveau3 :: 2 :: [ lui, lui ]
boulique_niveau2 :: 2 :: [ intérêt, intention ]
epistemique_niveau3 :: 2 :: [ lui, lui ]
pas_d_indication :: 1 :: [ intéresser ]
marqueurs_niveau0 :: 1 :: [ intéresser ]
pas_d_indication_niveau0 :: 1 :: [ intéresser ]
Total feature counts: 24


====== Text Level Features ======

Features :: Feature-Counts :: Feature-Lemmas
--------------------------------------------
marqueurs :: 5 :: [ lui, intéresser, intérêt, lui, intention ]
alethique :: 2 :: [ lui, lui ]
boulique :: 2 :: [ intérêt, intention ]
epistemique :: 2 :: [ lui, lui ]
marqueurs_niveau3 :: 2 :: [ lui, lui ]
marqueurs_niveau2 :: 2 :: [ intérêt, intention ]
alethique_niveau3 :: 2 :: [ lui, lui ]
boulique_niveau2 :: 2 :: [ intérêt, intention ]
epistemique_niveau3 :: 2 :: [ lui, lui ]
pas_d_indication :: 1 :: [ intéresser ]
marqueurs_niveau0 :: 1 :: [ intéresser ]
pas_d_indication_niveau0 :: 1 :: [ intéresser ]
Total feature counts: 24

