
********** Entity Names Features **********
*******************************************

1. Sentence: Une dalle fondue dans le sol de la ville
No features found.


********** Emotions Features **********
***************************************

1. Sentence: Une dalle fondue dans le sol de la ville
No features found.


********** Modality Features **********
***************************************

1. Sentence: Une dalle fondue dans le sol de la ville
No features found.


********** Adverbiaux Temporels Features **********
********************************************************

1. Sentence: Une dalle fondue dans le sol de la ville
No features found.

