
********** Entity Names Features **********
*******************************************

1. Sentence: Cette ligne de clivage ne date pas de la montée du numérique , qui bien sûr ,  l ' accentue fortement .
Entity Name (Type) :: Cette (LOC)


********** Emotions Features **********
***************************************

1. Sentence: Cette ligne de clivage ne date pas de la montée du numérique , qui bien sûr ,  l ' accentue fortement .
No features found.


********** Modality Features **********
***************************************

1. Sentence: Cette ligne de clivage ne date pas de la montée du numérique , qui bien sûr ,  l ' accentue fortement .
Features :: Feature-Counts :: Feature-Lemmas
--------------------------------------------
marqueurs :: 2 :: [ bien, sûr ]
appreciatif :: 1 :: [ bien ]
axiologique :: 1 :: [ bien ]
epistemique :: 1 :: [ sûr ]
marqueurs_niveau3 :: 1 :: [ bien ]
marqueurs_niveau2 :: 1 :: [ sûr ]
appreciatif_niveau3 :: 1 :: [ bien ]
axiologique_niveau3 :: 1 :: [ bien ]
epistemique_niveau2 :: 1 :: [ sûr ]
Total feature counts: 10


********** Adverbiaux Temporels Features **********
********************************************************

1. Sentence: Cette ligne de clivage ne date pas de la montée du numérique , qui bien sûr ,  l ' accentue fortement .
No features found.

