====== Sentence Level Features ======

1. Sentence: il ne faudra que quelques minutes à une auto pour gagner le Bourget à toute allure .
Features :: Feature-Counts :: Feature-Lemmas
--------------------------------------------
marqueurs :: 2 :: [ falloir, gagner ]
appreciatif :: 1 :: [ gagner ]
deontique :: 1 :: [ falloir ]
marqueurs_niveau3 :: 1 :: [ falloir ]
marqueurs_niveau2 :: 1 :: [ gagner ]
appreciatif_niveau2 :: 1 :: [ gagner ]
deontique_niveau3 :: 1 :: [ falloir ]
Total feature counts: 8


====== Text Level Features ======

Features :: Feature-Counts :: Feature-Lemmas
--------------------------------------------
marqueurs :: 2 :: [ falloir, gagner ]
appreciatif :: 1 :: [ gagner ]
deontique :: 1 :: [ falloir ]
marqueurs_niveau3 :: 1 :: [ falloir ]
marqueurs_niveau2 :: 1 :: [ gagner ]
appreciatif_niveau2 :: 1 :: [ gagner ]
deontique_niveau3 :: 1 :: [ falloir ]
Total feature counts: 8

