====== Sentence Level Features ======

1. Sentence: Auparavant , plusieurs années seront nécessaires pour remplir les nouveaux centres , plusieurs années encore pour que les populations qu ' ils desserviront en fassent " leurs " villes .
Features :: Feature-Counts :: Feature-Lemmas
--------------------------------------------
marqueurs :: 1 :: [ nécessaire ]
alethique :: 1 :: [ nécessaire ]
marqueurs_niveau3 :: 1 :: [ nécessaire ]
alethique_niveau3 :: 1 :: [ nécessaire ]
Total feature counts: 4


====== Text Level Features ======

Features :: Feature-Counts :: Feature-Lemmas
--------------------------------------------
marqueurs :: 1 :: [ nécessaire ]
alethique :: 1 :: [ nécessaire ]
marqueurs_niveau3 :: 1 :: [ nécessaire ]
alethique_niveau3 :: 1 :: [ nécessaire ]
Total feature counts: 4

