
********** Entity Names Features **********
*******************************************

1. Sentence: Industries extractives et de transformation	1453 , 2	36 , 8 %
No features found.


********** Emotions Features **********
***************************************

1. Sentence: Industries extractives et de transformation	1453 , 2	36 , 8 %
No features found.


********** Modality Features **********
***************************************

1. Sentence: Industries extractives et de transformation	1453 , 2	36 , 8 %
No features found.


********** Adverbiaux Temporels Features **********
********************************************************

1. Sentence: Industries extractives et de transformation	1453 , 2	36 , 8 %
No features found.

