
********** Entity Names Features **********
*******************************************

1. Sentence: Aujourd ' hui , faisons place nette et posons-nous la question : que réglementer et dans quel but ?
Entity Name (Type) :: Aujourd (LOC)


********** Emotions Features **********
***************************************

1. Sentence: Aujourd ' hui , faisons place nette et posons-nous la question : que réglementer et dans quel but ?
No features found.


********** Modality Features **********
***************************************

1. Sentence: Aujourd ' hui , faisons place nette et posons-nous la question : que réglementer et dans quel but ?
No features found.


********** Adverbiaux Temporels Features **********
********************************************************

1. Sentence: Aujourd ' hui , faisons place nette et posons-nous la question : que réglementer et dans quel but ?
No features found.

