====== Sentence Level Features ======

1. Sentence: Le réseau ferré à l ' échelle régionale : Londres en 1970
Entity Name (Type) :: Londres (LOC)


====== Text Level Features ======

Entity Name (Entity Type)
-------------------------
Londres (LOC)
Total entitiy counts: 1

