
********** Entity Names Features **********
*******************************************

1. Sentence: Dans l ' urbanisme d ' aujourd ' hui , la question du contenant spatial est à résoudre .
No features found.


********** Emotions Features **********
***************************************

1. Sentence: Dans l ' urbanisme d ' aujourd ' hui , la question du contenant spatial est à résoudre .
No features found.


********** Modality Features **********
***************************************

1. Sentence: Dans l ' urbanisme d ' aujourd ' hui , la question du contenant spatial est à résoudre .
No features found.


********** Adverbiaux Temporels Features **********
********************************************************

1. Sentence: Dans l ' urbanisme d ' aujourd ' hui , la question du contenant spatial est à résoudre .
No features found.

