
********** Entity Names Features **********
*******************************************

1. Sentence: Se dégage peu à peu l ' idée de retrouver , à la Jean-Louis Subileau , «Minimalisme et réalisme» , Ville-Architecture n° 5 , mai 1998 .
Entity Name (Type) :: Ville-Architecture (PER)


********** Emotions Features **********
***************************************

1. Sentence: Se dégage peu à peu l ' idée de retrouver , à la Jean-Louis Subileau , «Minimalisme et réalisme» , Ville-Architecture n° 5 , mai 1998 .
No features found.


********** Modality Features **********
***************************************

1. Sentence: Se dégage peu à peu l ' idée de retrouver , à la Jean-Louis Subileau , «Minimalisme et réalisme» , Ville-Architecture n° 5 , mai 1998 .
No features found.


********** Adverbiaux Temporels Features **********
********************************************************

1. Sentence: Se dégage peu à peu l ' idée de retrouver , à la Jean-Louis Subileau , «Minimalisme et réalisme» , Ville-Architecture n° 5 , mai 1998 .
Features :: Feature-Counts :: Feature-Texts
--------------------------------------------
adverbiaux_temporels::1::['mai 1998']
adverbiaux_localisation_temporelle::1::['mai 1998']
adverbiaux_pointage_absolu::1::['mai 1998']
adverbiaux_loc_temp_focalisation_id::1::['mai 1998']
adverbiaux_loc_temp_regionalisation_id::1::['mai 1998']
adverbiaux_loc_temp_pointage_absolu::1::['mai 1998']

