====== Sentence Level Features ======

1. Sentence: Ces travaux photographiques et culturels assez rentables me permettent de bâtir avec Daniel Tajan une agence , indépendante , qui participe , au milieu des années d ' architecture dans l ' enceinte de l ' école .
Features :: Feature-Counts :: Feature-Lemmas
--------------------------------------------
marqueurs :: 3 :: [ travail, permettre, école ]
marqueurs_niveau3 :: 2 :: [ travail, permettre ]
alethique :: 1 :: [ école ]
appreciatif :: 1 :: [ travail ]
deontique :: 1 :: [ permettre ]
marqueurs_niveau1 :: 1 :: [ école ]
alethique_niveau1 :: 1 :: [ école ]
appreciatif_niveau3 :: 1 :: [ travail ]
deontique_niveau3 :: 1 :: [ permettre ]
Total feature counts: 12


====== Text Level Features ======

Features :: Feature-Counts :: Feature-Lemmas
--------------------------------------------
marqueurs :: 3 :: [ travail, permettre, école ]
marqueurs_niveau3 :: 2 :: [ travail, permettre ]
alethique :: 1 :: [ école ]
appreciatif :: 1 :: [ travail ]
deontique :: 1 :: [ permettre ]
marqueurs_niveau1 :: 1 :: [ école ]
alethique_niveau1 :: 1 :: [ école ]
appreciatif_niveau3 :: 1 :: [ travail ]
deontique_niveau3 :: 1 :: [ permettre ]
Total feature counts: 12

