====== Sentence Level Features ======

1. Sentence: ce sont naturellement les chefs directs qui y sont sensibles ;
Features :: Feature-Counts :: Feature-Lemmas
--------------------------------------------
marqueurs :: 2 :: [ naturellement, sensible ]
alethique :: 1 :: [ naturellement ]
pas_d_indication :: 1 :: [ sensible ]
marqueurs_niveau2 :: 1 :: [ naturellement ]
marqueurs_niveau0 :: 1 :: [ sensible ]
alethique_niveau2 :: 1 :: [ naturellement ]
pas_d_indication_niveau0 :: 1 :: [ sensible ]
Total feature counts: 8


====== Text Level Features ======

Features :: Feature-Counts :: Feature-Lemmas
--------------------------------------------
marqueurs :: 2 :: [ naturellement, sensible ]
alethique :: 1 :: [ naturellement ]
pas_d_indication :: 1 :: [ sensible ]
marqueurs_niveau2 :: 1 :: [ naturellement ]
marqueurs_niveau0 :: 1 :: [ sensible ]
alethique_niveau2 :: 1 :: [ naturellement ]
pas_d_indication_niveau0 :: 1 :: [ sensible ]
Total feature counts: 8

