
********** Entity Names Features **********
*******************************************

1. Sentence: Ce qui n ' empêche pas l ' adaptation et la nouvelle création .
No features found.


********** Emotions Features **********
***************************************

1. Sentence: Ce qui n ' empêche pas l ' adaptation et la nouvelle création .
No features found.


********** Modality Features **********
***************************************

1. Sentence: Ce qui n ' empêche pas l ' adaptation et la nouvelle création .
Features :: Feature-Counts :: Feature-Lemmas
--------------------------------------------
marqueurs :: 1 :: [ empêcher ]
pas_d_indication :: 1 :: [ empêcher ]
marqueurs_niveau0 :: 1 :: [ empêcher ]
pas_d_indication_niveau0 :: 1 :: [ empêcher ]
Total feature counts: 4


********** Adverbiaux Temporels Features **********
********************************************************

1. Sentence: Ce qui n ' empêche pas l ' adaptation et la nouvelle création .
No features found.

