====== Sentence Level Features ======

1. Sentence: Or les projets issus de la ville , grandes surfaces commerciales en première ligne , agissent sans respect pour les sites qui les accueillent .
Features :: Feature-Counts :: Feature-Lemmas
--------------------------------------------
marqueurs :: 2 :: [ grand, respect ]
appreciatif :: 1 :: [ respect ]
axiologique :: 1 :: [ respect ]
epistemique :: 1 :: [ grand ]
marqueurs_niveau3 :: 1 :: [ grand ]
marqueurs_niveau2 :: 1 :: [ respect ]
appreciatif_niveau2 :: 1 :: [ respect ]
axiologique_niveau2 :: 1 :: [ respect ]
epistemique_niveau3 :: 1 :: [ grand ]
Total feature counts: 10


====== Text Level Features ======

Features :: Feature-Counts :: Feature-Lemmas
--------------------------------------------
marqueurs :: 2 :: [ grand, respect ]
appreciatif :: 1 :: [ respect ]
axiologique :: 1 :: [ respect ]
epistemique :: 1 :: [ grand ]
marqueurs_niveau3 :: 1 :: [ grand ]
marqueurs_niveau2 :: 1 :: [ respect ]
appreciatif_niveau2 :: 1 :: [ respect ]
axiologique_niveau2 :: 1 :: [ respect ]
epistemique_niveau3 :: 1 :: [ grand ]
Total feature counts: 10

