
********** Entity Names Features **********
*******************************************

1. Sentence: La confiance s ' est établie entre entreprises et lycées .
No features found.


********** Emotions Features **********
***************************************

1. Sentence: La confiance s ' est établie entre entreprises et lycées .
Tokens having emotion: [ confiance ]
Lemmas having emotion: [ confiance ]
Categories of the emotion lemmas: [ audace ]


********** Modality Features **********
***************************************

1. Sentence: La confiance s ' est établie entre entreprises et lycées .
Features :: Feature-Counts :: Feature-Lemmas
--------------------------------------------
marqueurs :: 1 :: [ confiance ]
epistemique :: 1 :: [ confiance ]
marqueurs_niveau2 :: 1 :: [ confiance ]
epistemique_niveau2 :: 1 :: [ confiance ]
Total feature counts: 4


********** Adverbiaux Temporels Features **********
********************************************************

1. Sentence: La confiance s ' est établie entre entreprises et lycées .
No features found.

