
********** Entity Names Features **********
*******************************************

1. Sentence: Le nombre des personnes actives résidant en banlieue serait multiplié par 1 , 9 .
No features found.


********** Emotions Features **********
***************************************

1. Sentence: Le nombre des personnes actives résidant en banlieue serait multiplié par 1 , 9 .
No features found.


********** Modality Features **********
***************************************

1. Sentence: Le nombre des personnes actives résidant en banlieue serait multiplié par 1 , 9 .
Features :: Feature-Counts :: Feature-Lemmas
--------------------------------------------
marqueurs :: 1 :: [ personne ]
alethique :: 1 :: [ personne ]
marqueurs_niveau2 :: 1 :: [ personne ]
alethique_niveau2 :: 1 :: [ personne ]
Total feature counts: 4


********** Adverbiaux Temporels Features **********
********************************************************

1. Sentence: Le nombre des personnes actives résidant en banlieue serait multiplié par 1 , 9 .
No features found.

