====== Sentence Level Features ======

1. Sentence: Je n ' en veux pas au sort .
Features :: Feature-Counts :: Feature-Lemmas
--------------------------------------------
marqueurs :: 1 :: [ vouloir ]
boulique :: 1 :: [ vouloir ]
marqueurs_niveau3 :: 1 :: [ vouloir ]
boulique_niveau3 :: 1 :: [ vouloir ]
Total feature counts: 4


====== Text Level Features ======

Features :: Feature-Counts :: Feature-Lemmas
--------------------------------------------
marqueurs :: 1 :: [ vouloir ]
boulique :: 1 :: [ vouloir ]
marqueurs_niveau3 :: 1 :: [ vouloir ]
boulique_niveau3 :: 1 :: [ vouloir ]
Total feature counts: 4

