====== Sentence Level Features ======

1. Sentence: Avec nos cahiers des charges , nous travaillons à donner à l ' espace toutes les chances d ' être le plus riche et le plus subtil possible .
Features :: Feature-Counts :: Feature-Lemmas
--------------------------------------------
marqueurs :: 4 :: [ travailler, chance, riche, possible ]
appreciatif :: 3 :: [ travailler, chance, riche ]
marqueurs_niveau3 :: 2 :: [ chance, possible ]
marqueurs_niveau2 :: 2 :: [ travailler, riche ]
appreciatif_niveau2 :: 2 :: [ travailler, riche ]
alethique :: 1 :: [ possible ]
alethique_niveau3 :: 1 :: [ possible ]
appreciatif_niveau3 :: 1 :: [ chance ]
Total feature counts: 16


====== Text Level Features ======

Features :: Feature-Counts :: Feature-Lemmas
--------------------------------------------
marqueurs :: 4 :: [ travailler, chance, riche, possible ]
appreciatif :: 3 :: [ travailler, chance, riche ]
marqueurs_niveau3 :: 2 :: [ chance, possible ]
marqueurs_niveau2 :: 2 :: [ travailler, riche ]
appreciatif_niveau2 :: 2 :: [ travailler, riche ]
alethique :: 1 :: [ possible ]
alethique_niveau3 :: 1 :: [ possible ]
appreciatif_niveau3 :: 1 :: [ chance ]
Total feature counts: 16

