
********** Entity Names Features **********
*******************************************

1. Sentence: J ' ai aussi trop peu travaillé dans les banlieues , sauf indirectement de par mes fonctions à la Scet et à l ' occa sion des missions pour les EMGP .
Entity Name (Type) :: EMGP (MISC)


********** Emotions Features **********
***************************************

1. Sentence: J ' ai aussi trop peu travaillé dans les banlieues , sauf indirectement de par mes fonctions à la Scet et à l ' occa sion des missions pour les EMGP .
No features found.


********** Modality Features **********
***************************************

1. Sentence: J ' ai aussi trop peu travaillé dans les banlieues , sauf indirectement de par mes fonctions à la Scet et à l ' occa sion des missions pour les EMGP .
Features :: Feature-Counts :: Feature-Lemmas
--------------------------------------------
marqueurs :: 1 :: [ travailler ]
appreciatif :: 1 :: [ travailler ]
marqueurs_niveau2 :: 1 :: [ travailler ]
appreciatif_niveau2 :: 1 :: [ travailler ]
Total feature counts: 4


********** Adverbiaux Temporels Features **********
********************************************************

1. Sentence: J ' ai aussi trop peu travaillé dans les banlieues , sauf indirectement de par mes fonctions à la Scet et à l ' occa sion des missions pour les EMGP .
No features found.

