====== Sentence Level Features ======

1. Sentence: Gaston MONSARRAT
Entity Name (Type) :: Gaston MONSARRAT (PER)


====== Text Level Features ======

Entity Name (Entity Type)
-------------------------
Gaston MONSARRAT (PER)
Total entitiy counts: 1

