====== Sentence Level Features ======

1. Sentence: Tout doit s ' ajuster , le socle de la ville est une épaisseur où se joue , du sous-sol à la surface , une négociation permanente , entre les racines et les réseaux , entre la terre et le béton , entre les vides et les pleins , entre les murs et les arbres…
Features :: Feature-Counts :: Feature-Lemmas
--------------------------------------------
marqueurs :: 2 :: [ devoir, jouer ]
alethique :: 1 :: [ devoir ]
appreciatif :: 1 :: [ jouer ]
deontique :: 1 :: [ devoir ]
epistemique :: 1 :: [ devoir ]
marqueurs_niveau3 :: 1 :: [ devoir ]
marqueurs_niveau2 :: 1 :: [ jouer ]
alethique_niveau3 :: 1 :: [ devoir ]
appreciatif_niveau2 :: 1 :: [ jouer ]
deontique_niveau3 :: 1 :: [ devoir ]
epistemique_niveau3 :: 1 :: [ devoir ]
Total feature counts: 12


====== Text Level Features ======

Features :: Feature-Counts :: Feature-Lemmas
--------------------------------------------
marqueurs :: 2 :: [ devoir, jouer ]
alethique :: 1 :: [ devoir ]
appreciatif :: 1 :: [ jouer ]
deontique :: 1 :: [ devoir ]
epistemique :: 1 :: [ devoir ]
marqueurs_niveau3 :: 1 :: [ devoir ]
marqueurs_niveau2 :: 1 :: [ jouer ]
alethique_niveau3 :: 1 :: [ devoir ]
appreciatif_niveau2 :: 1 :: [ jouer ]
deontique_niveau3 :: 1 :: [ devoir ]
epistemique_niveau3 :: 1 :: [ devoir ]
Total feature counts: 12

