====== Sentence Level Features ======

1. Sentence: Vers l ' est et le sud-est , tout commande de les organiser , dans les mêmes conditions , le long des vallées de la Marne et de la Seine , en amont de Paris , en entendant ce terme de vallées selon le sens large qui vient d ' être défini .
Features :: Feature-Counts :: Feature-Lemmas
--------------------------------------------
marqueurs :: 4 :: [ commander, long, selon, venir ]
marqueurs_niveau3 :: 3 :: [ commander, selon, venir ]
epistemique :: 2 :: [ long, selon ]
alethique :: 1 :: [ venir ]
deontique :: 1 :: [ commander ]
marqueurs_niveau2 :: 1 :: [ long ]
alethique_niveau3 :: 1 :: [ venir ]
deontique_niveau3 :: 1 :: [ commander ]
epistemique_niveau3 :: 1 :: [ selon ]
epistemique_niveau2 :: 1 :: [ long ]
Total feature counts: 16


====== Text Level Features ======

Features :: Feature-Counts :: Feature-Lemmas
--------------------------------------------
marqueurs :: 4 :: [ commander, long, selon, venir ]
marqueurs_niveau3 :: 3 :: [ commander, selon, venir ]
epistemique :: 2 :: [ long, selon ]
alethique :: 1 :: [ venir ]
deontique :: 1 :: [ commander ]
marqueurs_niveau2 :: 1 :: [ long ]
alethique_niveau3 :: 1 :: [ venir ]
deontique_niveau3 :: 1 :: [ commander ]
epistemique_niveau3 :: 1 :: [ selon ]
epistemique_niveau2 :: 1 :: [ long ]
Total feature counts: 16

