====== Sentence Level Features ======

1. Sentence: j ’ ai tout de même des crédits ouverts en quantité non négligeable , permettant d ’ exercer des droits de préemption dans les Z .
Features :: Feature-Counts :: Feature-Lemmas
--------------------------------------------
marqueurs :: 3 :: [ ouvrir, permettre, droit ]
marqueurs_niveau3 :: 3 :: [ ouvrir, permettre, droit ]
deontique :: 2 :: [ permettre, droit ]
deontique_niveau3 :: 2 :: [ permettre, droit ]
boulique :: 1 :: [ ouvrir ]
boulique_niveau3 :: 1 :: [ ouvrir ]
Total feature counts: 12


====== Text Level Features ======

Features :: Feature-Counts :: Feature-Lemmas
--------------------------------------------
marqueurs :: 3 :: [ ouvrir, permettre, droit ]
marqueurs_niveau3 :: 3 :: [ ouvrir, permettre, droit ]
deontique :: 2 :: [ permettre, droit ]
deontique_niveau3 :: 2 :: [ permettre, droit ]
boulique :: 1 :: [ ouvrir ]
boulique_niveau3 :: 1 :: [ ouvrir ]
Total feature counts: 12

