
********** Entity Names Features **********
*******************************************

1. Sentence: Quand les grands ensembles de logement social ont été construits , quelques arbres ont survécu , et la toponymie en a gardé la trace comme dans le quartier de La Chesnaie .
Entity Name (Type) :: La Chesnaie (LOC)


********** Emotions Features **********
***************************************

1. Sentence: Quand les grands ensembles de logement social ont été construits , quelques arbres ont survécu , et la toponymie en a gardé la trace comme dans le quartier de La Chesnaie .
No features found.


********** Modality Features **********
***************************************

1. Sentence: Quand les grands ensembles de logement social ont été construits , quelques arbres ont survécu , et la toponymie en a gardé la trace comme dans le quartier de La Chesnaie .
Features :: Feature-Counts :: Feature-Lemmas
--------------------------------------------
marqueurs :: 1 :: [ grand ]
epistemique :: 1 :: [ grand ]
marqueurs_niveau3 :: 1 :: [ grand ]
epistemique_niveau3 :: 1 :: [ grand ]
Total feature counts: 4


********** Adverbiaux Temporels Features **********
********************************************************

1. Sentence: Quand les grands ensembles de logement social ont été construits , quelques arbres ont survécu , et la toponymie en a gardé la trace comme dans le quartier de La Chesnaie .
No features found.

