====== Sentence Level Features ======

1. Sentence: La métropole durable reste à inventer , y compris sur le plan des concepts .
Features :: Feature-Counts :: Feature-Lemmas
--------------------------------------------
marqueurs :: 1 :: [ inventer ]
epistemique :: 1 :: [ inventer ]
marqueurs_niveau2 :: 1 :: [ inventer ]
epistemique_niveau2 :: 1 :: [ inventer ]
Total feature counts: 4


====== Text Level Features ======

Features :: Feature-Counts :: Feature-Lemmas
--------------------------------------------
marqueurs :: 1 :: [ inventer ]
epistemique :: 1 :: [ inventer ]
marqueurs_niveau2 :: 1 :: [ inventer ]
epistemique_niveau2 :: 1 :: [ inventer ]
Total feature counts: 4

