
********** Entity Names Features **********
*******************************************

1. Sentence: SCE , bureau d ' études techniques , François Gerain , ingénieur .
Entity Name (Type) :: François Gerain (PER)


********** Emotions Features **********
***************************************

1. Sentence: SCE , bureau d ' études techniques , François Gerain , ingénieur .
No features found.


********** Modality Features **********
***************************************

1. Sentence: SCE , bureau d ' études techniques , François Gerain , ingénieur .
No features found.


********** Adverbiaux Temporels Features **********
********************************************************

1. Sentence: SCE , bureau d ' études techniques , François Gerain , ingénieur .
No features found.

