====== Sentence Level Features ======

1. Sentence: Une « inégalité » procède toujours d ' un point de vue particulier .
Features :: Feature-Counts :: Feature-Lemmas
--------------------------------------------
marqueurs :: 2 :: [ inégalité, toujours ]
alethique :: 1 :: [ toujours ]
pas_d_indication :: 1 :: [ inégalité ]
marqueurs_niveau3 :: 1 :: [ toujours ]
marqueurs_niveau0 :: 1 :: [ inégalité ]
alethique_niveau3 :: 1 :: [ toujours ]
pas_d_indication_niveau0 :: 1 :: [ inégalité ]
Total feature counts: 8


====== Text Level Features ======

Features :: Feature-Counts :: Feature-Lemmas
--------------------------------------------
marqueurs :: 2 :: [ inégalité, toujours ]
alethique :: 1 :: [ toujours ]
pas_d_indication :: 1 :: [ inégalité ]
marqueurs_niveau3 :: 1 :: [ toujours ]
marqueurs_niveau0 :: 1 :: [ inégalité ]
alethique_niveau3 :: 1 :: [ toujours ]
pas_d_indication_niveau0 :: 1 :: [ inégalité ]
Total feature counts: 8

