
********** Entity Names Features **********
*******************************************

1. Sentence: Dans le cadre d ' une conférence , par ailleurs , je prépare un plan détaillé , mais je n ' utilise pas beaucoup le Power Point , car cela me piège dans un schéma .
Entity Name (Type) :: Power Point (MISC)


********** Emotions Features **********
***************************************

1. Sentence: Dans le cadre d ' une conférence , par ailleurs , je prépare un plan détaillé , mais je n ' utilise pas beaucoup le Power Point , car cela me piège dans un schéma .
No features found.


********** Modality Features **********
***************************************

1. Sentence: Dans le cadre d ' une conférence , par ailleurs , je prépare un plan détaillé , mais je n ' utilise pas beaucoup le Power Point , car cela me piège dans un schéma .
Features :: Feature-Counts :: Feature-Lemmas
--------------------------------------------
marqueurs :: 1 :: [ beaucoup ]
epistemique :: 1 :: [ beaucoup ]
marqueurs_niveau1 :: 1 :: [ beaucoup ]
epistemique_niveau1 :: 1 :: [ beaucoup ]
Total feature counts: 4


********** Adverbiaux Temporels Features **********
********************************************************

1. Sentence: Dans le cadre d ' une conférence , par ailleurs , je prépare un plan détaillé , mais je n ' utilise pas beaucoup le Power Point , car cela me piège dans un schéma .
No features found.

