
********** Entity Names Features **********
*******************************************

1. Sentence: Place enfin , à ce que nous avons appelé les « horizons-paysages » .
Entity Name (Type) :: Place (LOC)


********** Emotions Features **********
***************************************

1. Sentence: Place enfin , à ce que nous avons appelé les « horizons-paysages » .
No features found.


********** Modality Features **********
***************************************

1. Sentence: Place enfin , à ce que nous avons appelé les « horizons-paysages » .
No features found.


********** Adverbiaux Temporels Features **********
********************************************************

1. Sentence: Place enfin , à ce que nous avons appelé les « horizons-paysages » .
No features found.

