====== Sentence Level Features ======

1. Sentence: Cette place , très inspirée de la piazza Beaubourg est , aux PaysBas , le premier espace public conçu presque uniquement à partir d ' une surface en stabilisé .
Features :: Feature-Counts :: Feature-Lemmas
--------------------------------------------
marqueurs :: 1 :: [ partir ]
alethique :: 1 :: [ partir ]
marqueurs_niveau1 :: 1 :: [ partir ]
alethique_niveau1 :: 1 :: [ partir ]
Total feature counts: 4


====== Text Level Features ======

Features :: Feature-Counts :: Feature-Lemmas
--------------------------------------------
marqueurs :: 1 :: [ partir ]
alethique :: 1 :: [ partir ]
marqueurs_niveau1 :: 1 :: [ partir ]
alethique_niveau1 :: 1 :: [ partir ]
Total feature counts: 4

