
********** Entity Names Features **********
*******************************************

1. Sentence: Le rapport aux élus est , lui , essentiel , mais il doit être constructif et partagé , et permettre des échanges constants , car l ' urbanisme nécessite une vision commune de la ville .
No features found.


********** Emotions Features **********
***************************************

1. Sentence: Le rapport aux élus est , lui , essentiel , mais il doit être constructif et partagé , et permettre des échanges constants , car l ' urbanisme nécessite une vision commune de la ville .
No features found.


********** Modality Features **********
***************************************

1. Sentence: Le rapport aux élus est , lui , essentiel , mais il doit être constructif et partagé , et permettre des échanges constants , car l ' urbanisme nécessite une vision commune de la ville .
Features :: Feature-Counts :: Feature-Lemmas
--------------------------------------------
marqueurs :: 5 :: [ élu, lui, devoir, permettre, nécessiter ]
marqueurs_niveau3 :: 4 :: [ lui, devoir, permettre, nécessiter ]
alethique :: 3 :: [ lui, devoir, nécessiter ]
alethique_niveau3 :: 3 :: [ lui, devoir, nécessiter ]
deontique :: 2 :: [ devoir, permettre ]
epistemique :: 2 :: [ lui, devoir ]
deontique_niveau3 :: 2 :: [ devoir, permettre ]
epistemique_niveau3 :: 2 :: [ lui, devoir ]
pas_d_indication :: 1 :: [ élu ]
marqueurs_niveau0 :: 1 :: [ élu ]
pas_d_indication_niveau0 :: 1 :: [ élu ]
Total feature counts: 26


********** Adverbiaux Temporels Features **********
********************************************************

1. Sentence: Le rapport aux élus est , lui , essentiel , mais il doit être constructif et partagé , et permettre des échanges constants , car l ' urbanisme nécessite une vision commune de la ville .
No features found.

