====== Sentence Level Features ======

1. Sentence: L ' extension de la Capitale s ’ est faite avant Guerre , vers l ’ Ouest , puis à l ’ Est et au Nord depuis 1920 ;
Features :: Feature-Counts :: Feature-Texts
--------------------------------------------
adverbiaux_temporels::1::['depuis 1920']
adverbiaux_duratifs_iteratifs::1::['depuis 1920']
adverbiaux_pointage_absolu::1::['depuis 1920']
adverbiaux_loc_temp_focalisation_id::1::['depuis 1920']
adverbiaux_loc_temp_regionalisation_non_id::1::['depuis 1920']
adverbiaux_dur_iter_absolu::1::['depuis 1920']


====== Text Level Features ======

Features :: Feature-Counts :: Feature-Texts
--------------------------------------------
adverbiaux_temporels::1::['depuis 1920']
adverbiaux_duratifs_iteratifs::1::['depuis 1920']
adverbiaux_pointage_absolu::1::['depuis 1920']
adverbiaux_loc_temp_focalisation_id::1::['depuis 1920']
adverbiaux_loc_temp_regionalisation_non_id::1::['depuis 1920']
adverbiaux_dur_iter_absolu::1::['depuis 1920']
Total feature counts: 6

