
********** Entity Names Features **********
*******************************************

1. Sentence: Les aménagements expriment le plaisir d ' une réinterprétation contemporaine du langage classique de l ' espace public parisien .
No features found.


********** Emotions Features **********
***************************************

1. Sentence: Les aménagements expriment le plaisir d ' une réinterprétation contemporaine du langage classique de l ' espace public parisien .
Tokens having emotion: [ plaisir ]
Lemmas having emotion: [ plaisir ]
Categories of the emotion lemmas: [ joie ]


********** Modality Features **********
***************************************

1. Sentence: Les aménagements expriment le plaisir d ' une réinterprétation contemporaine du langage classique de l ' espace public parisien .
Features :: Feature-Counts :: Feature-Lemmas
--------------------------------------------
marqueurs :: 1 :: [ plaisir ]
appreciatif :: 1 :: [ plaisir ]
marqueurs_niveau3 :: 1 :: [ plaisir ]
appreciatif_niveau3 :: 1 :: [ plaisir ]
Total feature counts: 4


********** Adverbiaux Temporels Features **********
********************************************************

1. Sentence: Les aménagements expriment le plaisir d ' une réinterprétation contemporaine du langage classique de l ' espace public parisien .
No features found.

