====== Sentence Level Features ======

1. Sentence: les deux sont partiellement liées , car certains équipements - les centres commerciaux , les établissements d ' enseignement . . . - sont directement générateurs d ' emplois .
Features :: Feature-Counts :: Feature-Lemmas
--------------------------------------------
marqueurs :: 2 :: [ certain, emploi ]
appreciatif :: 1 :: [ emploi ]
epistemique :: 1 :: [ certain ]
marqueurs_niveau3 :: 1 :: [ certain ]
marqueurs_niveau2 :: 1 :: [ emploi ]
appreciatif_niveau2 :: 1 :: [ emploi ]
epistemique_niveau3 :: 1 :: [ certain ]
Total feature counts: 8


====== Text Level Features ======

Features :: Feature-Counts :: Feature-Lemmas
--------------------------------------------
marqueurs :: 2 :: [ certain, emploi ]
appreciatif :: 1 :: [ emploi ]
epistemique :: 1 :: [ certain ]
marqueurs_niveau3 :: 1 :: [ certain ]
marqueurs_niveau2 :: 1 :: [ emploi ]
appreciatif_niveau2 :: 1 :: [ emploi ]
epistemique_niveau3 :: 1 :: [ certain ]
Total feature counts: 8

