
********** Entity Names Features **********
*******************************************

1. Sentence: La solution que nous avons proposée est celle d ' un réseau de chaleur chaud/froid , autour d ' une boucle tempérée à 27° environ , alimentées par deux forages de géothermie .
Entity Name (Type) :: La (LOC)


********** Emotions Features **********
***************************************

1. Sentence: La solution que nous avons proposée est celle d ' un réseau de chaleur chaud/froid , autour d ' une boucle tempérée à 27° environ , alimentées par deux forages de géothermie .
No features found.


********** Modality Features **********
***************************************

1. Sentence: La solution que nous avons proposée est celle d ' un réseau de chaleur chaud/froid , autour d ' une boucle tempérée à 27° environ , alimentées par deux forages de géothermie .
No features found.


********** Adverbiaux Temporels Features **********
********************************************************

1. Sentence: La solution que nous avons proposée est celle d ' un réseau de chaleur chaud/froid , autour d ' une boucle tempérée à 27° environ , alimentées par deux forages de géothermie .
No features found.

