
********** Entity Names Features **********
*******************************************

1. Sentence: 2 , 4%	ENSEMBLE	827 . 000	1 . 005 .
Entity Name (Type) :: ENSEMBLE (LOC)


********** Emotions Features **********
***************************************

1. Sentence: 2 , 4%	ENSEMBLE	827 . 000	1 . 005 .
No features found.


********** Modality Features **********
***************************************

1. Sentence: 2 , 4%	ENSEMBLE	827 . 000	1 . 005 .
No features found.


********** Adverbiaux Temporels Features **********
********************************************************

1. Sentence: 2 , 4%	ENSEMBLE	827 . 000	1 . 005 .
No features found.

