====== Sentence Level Features ======

1. Sentence: l ' éventail des taux de croissance de 1954 à 1962 est plus ouvert , de 6 , 5 % à 0 , 5 % par an , mais le taux moyen de croissance annuel de l ' ensemble de ces villes n ' a pas atteint 2 , 5 % * .
Features :: Feature-Counts :: Feature-Texts
--------------------------------------------
adverbiaux_temporels::1::['de 1954 à 1962']
adverbiaux_localisation_temporelle::1::['de 1954 à 1962']
adverbiaux_pointage_absolu::1::['de 1954 à 1962']
adverbiaux_loc_temp_focalisation_id::1::['de 1954 à 1962']
adverbiaux_loc_temp_regionalisation_id::1::['de 1954 à 1962']
adverbiaux_loc_temp_pointage_absolu::1::['de 1954 à 1962']


====== Text Level Features ======

Features :: Feature-Counts :: Feature-Texts
--------------------------------------------
adverbiaux_temporels::1::['de 1954 à 1962']
adverbiaux_localisation_temporelle::1::['de 1954 à 1962']
adverbiaux_pointage_absolu::1::['de 1954 à 1962']
adverbiaux_loc_temp_focalisation_id::1::['de 1954 à 1962']
adverbiaux_loc_temp_regionalisation_id::1::['de 1954 à 1962']
adverbiaux_loc_temp_pointage_absolu::1::['de 1954 à 1962']
Total feature counts: 6

