====== Sentence Level Features ======

1. Sentence: Quelques chiffres montrent mieux encore l ' ampleur du phénomène .
Features :: Feature-Counts :: Feature-Lemmas
--------------------------------------------
marqueurs :: 1 :: [ mieux ]
appreciatif :: 1 :: [ mieux ]
axiologique :: 1 :: [ mieux ]
marqueurs_niveau2 :: 1 :: [ mieux ]
appreciatif_niveau2 :: 1 :: [ mieux ]
axiologique_niveau2 :: 1 :: [ mieux ]
Total feature counts: 6


====== Text Level Features ======

Features :: Feature-Counts :: Feature-Lemmas
--------------------------------------------
marqueurs :: 1 :: [ mieux ]
appreciatif :: 1 :: [ mieux ]
axiologique :: 1 :: [ mieux ]
marqueurs_niveau2 :: 1 :: [ mieux ]
appreciatif_niveau2 :: 1 :: [ mieux ]
axiologique_niveau2 :: 1 :: [ mieux ]
Total feature counts: 6

