====== Sentence Level Features ======

1. Sentence: Plus que la pression démographique , ces transformations que nul ne met en doute vont peser sur la demande de transports .
Features :: Feature-Counts :: Feature-Lemmas
--------------------------------------------
marqueurs :: 4 :: [ pression, nul, doute, aller ]
alethique :: 1 :: [ aller ]
appreciatif :: 1 :: [ nul ]
axiologique :: 1 :: [ nul ]
epistemique :: 1 :: [ doute ]
pas_d_indication :: 1 :: [ pression ]
marqueurs_niveau3 :: 1 :: [ doute ]
marqueurs_niveau2 :: 1 :: [ nul ]
marqueurs_niveau1 :: 1 :: [ aller ]
marqueurs_niveau0 :: 1 :: [ pression ]
alethique_niveau1 :: 1 :: [ aller ]
appreciatif_niveau2 :: 1 :: [ nul ]
axiologique_niveau2 :: 1 :: [ nul ]
epistemique_niveau3 :: 1 :: [ doute ]
pas_d_indication_niveau0 :: 1 :: [ pression ]
Total feature counts: 18


====== Text Level Features ======

Features :: Feature-Counts :: Feature-Lemmas
--------------------------------------------
marqueurs :: 4 :: [ pression, nul, doute, aller ]
alethique :: 1 :: [ aller ]
appreciatif :: 1 :: [ nul ]
axiologique :: 1 :: [ nul ]
epistemique :: 1 :: [ doute ]
pas_d_indication :: 1 :: [ pression ]
marqueurs_niveau3 :: 1 :: [ doute ]
marqueurs_niveau2 :: 1 :: [ nul ]
marqueurs_niveau1 :: 1 :: [ aller ]
marqueurs_niveau0 :: 1 :: [ pression ]
alethique_niveau1 :: 1 :: [ aller ]
appreciatif_niveau2 :: 1 :: [ nul ]
axiologique_niveau2 :: 1 :: [ nul ]
epistemique_niveau3 :: 1 :: [ doute ]
pas_d_indication_niveau0 :: 1 :: [ pression ]
Total feature counts: 18

