====== Sentence Level Features ======

1. Sentence: 1%	{ Lille - Roubaix - Tourcoing	801 . 000	864 . 000
Entity Name (Type) :: Tourcoing (LOC)


====== Text Level Features ======

Entity Name (Entity Type)
-------------------------
Lille (LOC)
Roubaix (LOC)
Tourcoing (LOC)
Total entitiy counts: 3

