
********** Entity Names Features **********
*******************************************

1. Sentence: Ariella Masboungi  : Cette idée d ' intérêt métropolitain a été portée par Laurent Théry au sein du club Ville-Aménagement quand il en était le président .
Entity Name (Type) :: club Ville-Aménagement (ORG)


********** Emotions Features **********
***************************************

1. Sentence: Ariella Masboungi  : Cette idée d ' intérêt métropolitain a été portée par Laurent Théry au sein du club Ville-Aménagement quand il en était le président .
Tokens having emotion: [ intérêt ]
Lemmas having emotion: [ intérêt ]
Categories of the emotion lemmas: [ desir ]


********** Modality Features **********
***************************************

1. Sentence: Ariella Masboungi  : Cette idée d ' intérêt métropolitain a été portée par Laurent Théry au sein du club Ville-Aménagement quand il en était le président .
Features :: Feature-Counts :: Feature-Lemmas
--------------------------------------------
marqueurs :: 1 :: [ intérêt ]
boulique :: 1 :: [ intérêt ]
marqueurs_niveau2 :: 1 :: [ intérêt ]
boulique_niveau2 :: 1 :: [ intérêt ]
Total feature counts: 4


********** Adverbiaux Temporels Features **********
********************************************************

1. Sentence: Ariella Masboungi  : Cette idée d ' intérêt métropolitain a été portée par Laurent Théry au sein du club Ville-Aménagement quand il en était le président .
No features found.

