
********** Entity Names Features **********
*******************************************

1. Sentence: En ce sens , le radicalisme ne s ' oppose pas à une lecture attentive .
No features found.


********** Emotions Features **********
***************************************

1. Sentence: En ce sens , le radicalisme ne s ' oppose pas à une lecture attentive .
No features found.


********** Modality Features **********
***************************************

1. Sentence: En ce sens , le radicalisme ne s ' oppose pas à une lecture attentive .
No features found.


********** Adverbiaux Temporels Features **********
********************************************************

1. Sentence: En ce sens , le radicalisme ne s ' oppose pas à une lecture attentive .
No features found.

