====== Sentence Level Features ======

1. Sentence: LES LOISIRS
Entity Name (Type) :: LES LOISIRS (ORG)


====== Text Level Features ======

Entity Name (Entity Type)
-------------------------
LES LOISIRS (ORG)
Total entitiy counts: 1

