====== Sentence Level Features ======

1. Sentence: Je lisais Louis Chevalier , Classes laborieuses et classes dangereuses (1958) , qui évoquait la ségrégation spatiale .
Features :: Feature-Counts :: Feature-Lemmas
--------------------------------------------
marqueurs :: 2 :: [ lire, dangereux ]
appreciatif :: 1 :: [ dangereux ]
boulique :: 1 :: [ lire ]
marqueurs_niveau3 :: 1 :: [ lire ]
marqueurs_niveau2 :: 1 :: [ dangereux ]
appreciatif_niveau2 :: 1 :: [ dangereux ]
boulique_niveau3 :: 1 :: [ lire ]
Total feature counts: 8


====== Text Level Features ======

Features :: Feature-Counts :: Feature-Lemmas
--------------------------------------------
marqueurs :: 2 :: [ lire, dangereux ]
appreciatif :: 1 :: [ dangereux ]
boulique :: 1 :: [ lire ]
marqueurs_niveau3 :: 1 :: [ lire ]
marqueurs_niveau2 :: 1 :: [ dangereux ]
appreciatif_niveau2 :: 1 :: [ dangereux ]
boulique_niveau3 :: 1 :: [ lire ]
Total feature counts: 8

