====== Sentence Level Features ======

1. Sentence: Les estimations disponibles , souvent anciennes , fournissent néanmoins un ordre de grandeur : l ' industrie et ses équipements annexes - voirie de desserte , parcs de stationnement - occupent un peu moins de 9 .
Features :: Feature-Counts :: Feature-Lemmas
--------------------------------------------
marqueurs :: 2 :: [ souvent, ordre ]
alethique :: 1 :: [ souvent ]
deontique :: 1 :: [ ordre ]
marqueurs_niveau3 :: 1 :: [ souvent ]
marqueurs_niveau2 :: 1 :: [ ordre ]
alethique_niveau3 :: 1 :: [ souvent ]
deontique_niveau2 :: 1 :: [ ordre ]
Total feature counts: 8

2. Sentence: 000 hectares dans l ' agglomération parisienne , dont 800 sur le territoire de la ville de Paris .
No features found.


====== Text Level Features ======

Features :: Feature-Counts :: Feature-Lemmas
--------------------------------------------
marqueurs :: 2 :: [ souvent, ordre ]
alethique :: 1 :: [ souvent ]
deontique :: 1 :: [ ordre ]
marqueurs_niveau3 :: 1 :: [ souvent ]
marqueurs_niveau2 :: 1 :: [ ordre ]
alethique_niveau3 :: 1 :: [ souvent ]
deontique_niveau2 :: 1 :: [ ordre ]
Total feature counts: 8

