
********** Entity Names Features **********
*******************************************

1. Sentence: De fortes relations s ' étant nouées entre l ' équipe de la Scet puis de G3A et les présidents d ' Université , nous continuons depuis à construire en mandat de nombreux programmes .
Entity Name (Type) :: Université (ORG)


********** Emotions Features **********
***************************************

1. Sentence: De fortes relations s ' étant nouées entre l ' équipe de la Scet puis de G3A et les présidents d ' Université , nous continuons depuis à construire en mandat de nombreux programmes .
No features found.


********** Modality Features **********
***************************************

1. Sentence: De fortes relations s ' étant nouées entre l ' équipe de la Scet puis de G3A et les présidents d ' Université , nous continuons depuis à construire en mandat de nombreux programmes .
Features :: Feature-Counts :: Feature-Lemmas
--------------------------------------------
marqueurs :: 1 :: [ fort ]
pas_d_indication :: 1 :: [ fort ]
marqueurs_niveau0 :: 1 :: [ fort ]
pas_d_indication_niveau0 :: 1 :: [ fort ]
Total feature counts: 4


********** Adverbiaux Temporels Features **********
********************************************************

1. Sentence: De fortes relations s ' étant nouées entre l ' équipe de la Scet puis de G3A et les présidents d ' Université , nous continuons depuis à construire en mandat de nombreux programmes .
No features found.

