
********** Entity Names Features **********
*******************************************

1. Sentence: Par ailleurs , il est souhaitable de préserver le champ d ' action des constructeurs , des architectes , des habitants .
No features found.


********** Emotions Features **********
***************************************

1. Sentence: Par ailleurs , il est souhaitable de préserver le champ d ' action des constructeurs , des architectes , des habitants .
No features found.


********** Modality Features **********
***************************************

1. Sentence: Par ailleurs , il est souhaitable de préserver le champ d ' action des constructeurs , des architectes , des habitants .
Features :: Feature-Counts :: Feature-Lemmas
--------------------------------------------
marqueurs :: 1 :: [ souhaitable ]
boulique :: 1 :: [ souhaitable ]
marqueurs_niveau3 :: 1 :: [ souhaitable ]
boulique_niveau3 :: 1 :: [ souhaitable ]
Total feature counts: 4


********** Adverbiaux Temporels Features **********
********************************************************

1. Sentence: Par ailleurs , il est souhaitable de préserver le champ d ' action des constructeurs , des architectes , des habitants .
No features found.

