
********** Entity Names Features **********
*******************************************

1. Sentence: S ' il est dense dans Paris à quelques lacunes près , il n ' est guère de lignes qui n ' y soient saturées , au moins dans leur partie centrale .
Entity Name (Type) :: Paris (LOC)


********** Emotions Features **********
***************************************

1. Sentence: S ' il est dense dans Paris à quelques lacunes près , il n ' est guère de lignes qui n ' y soient saturées , au moins dans leur partie centrale .
No features found.


********** Modality Features **********
***************************************

1. Sentence: S ' il est dense dans Paris à quelques lacunes près , il n ' est guère de lignes qui n ' y soient saturées , au moins dans leur partie centrale .
No features found.


********** Adverbiaux Temporels Features **********
********************************************************

1. Sentence: S ' il est dense dans Paris à quelques lacunes près , il n ' est guère de lignes qui n ' y soient saturées , au moins dans leur partie centrale .
No features found.

