
********** Entity Names Features **********
*******************************************

1. Sentence: conséquence la seconde génération n ’ a plus le choix de l ’ entrepreneur , ou alors il faut qu ’ elle s ’ en aille très loin , il faut aller se réinstaller tout-à-fait ailleurs .
No features found.


********** Emotions Features **********
***************************************

1. Sentence: conséquence la seconde génération n ’ a plus le choix de l ’ entrepreneur , ou alors il faut qu ’ elle s ’ en aille très loin , il faut aller se réinstaller tout-à-fait ailleurs .
No features found.


********** Modality Features **********
***************************************

1. Sentence: conséquence la seconde génération n ’ a plus le choix de l ’ entrepreneur , ou alors il faut qu ’ elle s ’ en aille très loin , il faut aller se réinstaller tout-à-fait ailleurs .
Features :: Feature-Counts :: Feature-Lemmas
--------------------------------------------
marqueurs :: 5 :: [ choix, falloir, aller, falloir, aller ]
alethique :: 2 :: [ aller, aller ]
deontique :: 2 :: [ falloir, falloir ]
marqueurs_niveau3 :: 2 :: [ falloir, falloir ]
marqueurs_niveau1 :: 2 :: [ aller, aller ]
alethique_niveau1 :: 2 :: [ aller, aller ]
deontique_niveau3 :: 2 :: [ falloir, falloir ]
boulique :: 1 :: [ choix ]
marqueurs_niveau2 :: 1 :: [ choix ]
boulique_niveau2 :: 1 :: [ choix ]
Total feature counts: 20


********** Adverbiaux Temporels Features **********
********************************************************

1. Sentence: conséquence la seconde génération n ’ a plus le choix de l ’ entrepreneur , ou alors il faut qu ’ elle s ’ en aille très loin , il faut aller se réinstaller tout-à-fait ailleurs .
No features found.

