====== Sentence Level Features ======

1. Sentence: L ' analyse de Davezies a eu cette force de montrer qu ' il n ' y avait pas de déséquilibre .
Features :: Feature-Counts :: Feature-Lemmas
--------------------------------------------
marqueurs :: 1 :: [ force ]
pas_d_indication :: 1 :: [ force ]
marqueurs_niveau0 :: 1 :: [ force ]
pas_d_indication_niveau0 :: 1 :: [ force ]
Total feature counts: 4


====== Text Level Features ======

Features :: Feature-Counts :: Feature-Lemmas
--------------------------------------------
marqueurs :: 1 :: [ force ]
pas_d_indication :: 1 :: [ force ]
marqueurs_niveau0 :: 1 :: [ force ]
pas_d_indication_niveau0 :: 1 :: [ force ]
Total feature counts: 4

