====== Sentence Level Features ======

1. Sentence: Cons . d ' Et . , Tables 1905-1924 , t 1er , p . 531 et suiv . ) .
Entity Name (Type) :: Tables (MISC)


====== Text Level Features ======

Entity Name (Entity Type)
-------------------------
Cons (MISC)
Tables (MISC)
Total entitiy counts: 2

