====== Sentence Level Features ======

1. Sentence: Il en résulte deux conséquences majeures du point de vue de l ' urbanisme : d ' une part , la qualité sensible des lieux importe de plus en plus , la notion d ' ambiance multisensorielle revêtant une importance accrue;
Features :: Feature-Counts :: Feature-Lemmas
--------------------------------------------
marqueurs :: 1 :: [ sensible ]
pas_d_indication :: 1 :: [ sensible ]
marqueurs_niveau0 :: 1 :: [ sensible ]
pas_d_indication_niveau0 :: 1 :: [ sensible ]
Total feature counts: 4


====== Text Level Features ======

Features :: Feature-Counts :: Feature-Lemmas
--------------------------------------------
marqueurs :: 1 :: [ sensible ]
pas_d_indication :: 1 :: [ sensible ]
marqueurs_niveau0 :: 1 :: [ sensible ]
pas_d_indication_niveau0 :: 1 :: [ sensible ]
Total feature counts: 4

