
********** Entity Names Features **********
*******************************************

1. Sentence: Même à population égale , cette croissance des besoins commande , à coup sûr , une nouvelle dimension d ' urbanisme , une nouvelle dimension des villes .
Entity Name (Type) :: Même (LOC)


********** Emotions Features **********
***************************************

1. Sentence: Même à population égale , cette croissance des besoins commande , à coup sûr , une nouvelle dimension d ' urbanisme , une nouvelle dimension des villes .
No features found.


********** Modality Features **********
***************************************

1. Sentence: Même à population égale , cette croissance des besoins commande , à coup sûr , une nouvelle dimension d ' urbanisme , une nouvelle dimension des villes .
Features :: Feature-Counts :: Feature-Lemmas
--------------------------------------------
marqueurs :: 3 :: [ besoin, commander, sûr ]
marqueurs_niveau3 :: 2 :: [ besoin, commander ]
alethique :: 1 :: [ besoin ]
boulique :: 1 :: [ besoin ]
deontique :: 1 :: [ commander ]
epistemique :: 1 :: [ sûr ]
marqueurs_niveau2 :: 1 :: [ sûr ]
alethique_niveau3 :: 1 :: [ besoin ]
boulique_niveau3 :: 1 :: [ besoin ]
deontique_niveau3 :: 1 :: [ commander ]
epistemique_niveau2 :: 1 :: [ sûr ]
Total feature counts: 14


********** Adverbiaux Temporels Features **********
********************************************************

1. Sentence: Même à population égale , cette croissance des besoins commande , à coup sûr , une nouvelle dimension d ' urbanisme , une nouvelle dimension des villes .
No features found.

