
********** Entity Names Features **********
*******************************************

1. Sentence: La nomenclature des espaces libres contenue dans le programme est établie en fonction de ces prévisions .
No features found.


********** Emotions Features **********
***************************************

1. Sentence: La nomenclature des espaces libres contenue dans le programme est établie en fonction de ces prévisions .
No features found.


********** Modality Features **********
***************************************

1. Sentence: La nomenclature des espaces libres contenue dans le programme est établie en fonction de ces prévisions .
Features :: Feature-Counts :: Feature-Lemmas
--------------------------------------------
marqueurs :: 1 :: [ libre ]
appreciatif :: 1 :: [ libre ]
marqueurs_niveau1 :: 1 :: [ libre ]
appreciatif_niveau1 :: 1 :: [ libre ]
Total feature counts: 4


********** Adverbiaux Temporels Features **********
********************************************************

1. Sentence: La nomenclature des espaces libres contenue dans le programme est établie en fonction de ces prévisions .
No features found.

