====== Sentence Level Features ======

1. Sentence: Il exerce , par nécessité , un rôle essentiel dans la production du projet , choisissant les intervenants , découpant les lots , séquençant les interventions .
Features :: Feature-Counts :: Feature-Lemmas
--------------------------------------------
marqueurs :: 2 :: [ nécessité, choisir ]
alethique :: 1 :: [ nécessité ]
boulique :: 1 :: [ choisir ]
marqueurs_niveau3 :: 1 :: [ nécessité ]
marqueurs_niveau2 :: 1 :: [ choisir ]
alethique_niveau3 :: 1 :: [ nécessité ]
boulique_niveau2 :: 1 :: [ choisir ]
Total feature counts: 8


====== Text Level Features ======

Features :: Feature-Counts :: Feature-Lemmas
--------------------------------------------
marqueurs :: 2 :: [ nécessité, choisir ]
alethique :: 1 :: [ nécessité ]
boulique :: 1 :: [ choisir ]
marqueurs_niveau3 :: 1 :: [ nécessité ]
marqueurs_niveau2 :: 1 :: [ choisir ]
alethique_niveau3 :: 1 :: [ nécessité ]
boulique_niveau2 :: 1 :: [ choisir ]
Total feature counts: 8

