====== Sentence Level Features ======

1. Sentence: Les lignes transversales Nord-Sud
Entity Name (Type) :: Nord-Sud (LOC)


====== Text Level Features ======

Entity Name (Entity Type)
-------------------------
Nord-Sud (LOC)
Total entitiy counts: 1

