====== Sentence Level Features ======

1. Sentence: CHAPITRE I : 	COMMENTAIRE GÉNÉRAL DE LA CARTE AU 1/100 .
Entity Name (Type) :: AU (LOC)

2. Sentence: 000
No features found.


====== Text Level Features ======

Entity Name (Entity Type)
-------------------------
CHAPITRE I : 	COMMENTAIRE (MISC)
DE LA CARTE (ORG)
AU (LOC)
Total entitiy counts: 3

