
********** Entity Names Features **********
*******************************************

1. Sentence: Une esthétique des traces s ' est développée .
No features found.


********** Emotions Features **********
***************************************

1. Sentence: Une esthétique des traces s ' est développée .
No features found.


********** Modality Features **********
***************************************

1. Sentence: Une esthétique des traces s ' est développée .
No features found.


********** Adverbiaux Temporels Features **********
********************************************************

1. Sentence: Une esthétique des traces s ' est développée .
No features found.

