====== Sentence Level Features ======

1. Sentence: Ligne	 " type	métro " (ne dessert que le centre)
Entity Name (Type) :: Ligne (LOC)


====== Text Level Features ======

Entity Name (Entity Type)
-------------------------
Ligne (LOC)
Total entitiy counts: 1

