
********** Entity Names Features **********
*******************************************

1. Sentence: Arcadis BET VRD;
Entity Name (Type) :: Arcadis BET VRD (ORG)


********** Emotions Features **********
***************************************

1. Sentence: Arcadis BET VRD;
No features found.


********** Modality Features **********
***************************************

1. Sentence: Arcadis BET VRD;
No features found.


********** Adverbiaux Temporels Features **********
********************************************************

1. Sentence: Arcadis BET VRD;
No features found.

