====== Sentence Level Features ======

1. Sentence: 000 emplois industriels à la ville de Paris , et cette perte a été compensée par la création d ' un nombre sensiblement égal d ' emplois tertiaires .
Features :: Feature-Counts :: Feature-Lemmas
--------------------------------------------
marqueurs :: 2 :: [ emploi, emploi ]
appreciatif :: 2 :: [ emploi, emploi ]
marqueurs_niveau2 :: 2 :: [ emploi, emploi ]
appreciatif_niveau2 :: 2 :: [ emploi, emploi ]
Total feature counts: 8


====== Text Level Features ======

Features :: Feature-Counts :: Feature-Lemmas
--------------------------------------------
marqueurs :: 2 :: [ emploi, emploi ]
appreciatif :: 2 :: [ emploi, emploi ]
marqueurs_niveau2 :: 2 :: [ emploi, emploi ]
appreciatif_niveau2 :: 2 :: [ emploi, emploi ]
Total feature counts: 8

