====== Sentence Level Features ======

1. Sentence: Élaboration : Apur .
Entity Name (Type) :: Apur (LOC)


====== Text Level Features ======

Entity Name (Entity Type)
-------------------------
Apur (LOC)
Total entitiy counts: 1

