====== Sentence Level Features ======

1. Sentence: Pour ma part , je me suis toujours attaché à intégrer dans les équipes de maîtrise d ' ouvrage urbaine que j ' ai constituées , et au premier rang , des compétences d ' architectes-urbanistes .
Features :: Feature-Counts :: Feature-Lemmas
--------------------------------------------
marqueurs :: 1 :: [ toujours ]
alethique :: 1 :: [ toujours ]
marqueurs_niveau3 :: 1 :: [ toujours ]
alethique_niveau3 :: 1 :: [ toujours ]
Total feature counts: 4


====== Text Level Features ======

Features :: Feature-Counts :: Feature-Lemmas
--------------------------------------------
marqueurs :: 1 :: [ toujours ]
alethique :: 1 :: [ toujours ]
marqueurs_niveau3 :: 1 :: [ toujours ]
alethique_niveau3 :: 1 :: [ toujours ]
Total feature counts: 4

