
********** Entity Names Features **********
*******************************************

1. Sentence: Les grands territoires ,  l ' ouverture à l ' expérimentation
No features found.


********** Emotions Features **********
***************************************

1. Sentence: Les grands territoires ,  l ' ouverture à l ' expérimentation
No features found.


********** Modality Features **********
***************************************

1. Sentence: Les grands territoires ,  l ' ouverture à l ' expérimentation
Features :: Feature-Counts :: Feature-Lemmas
--------------------------------------------
marqueurs :: 1 :: [ grand ]
epistemique :: 1 :: [ grand ]
marqueurs_niveau3 :: 1 :: [ grand ]
epistemique_niveau3 :: 1 :: [ grand ]
Total feature counts: 4


********** Adverbiaux Temporels Features **********
********************************************************

1. Sentence: Les grands territoires ,  l ' ouverture à l ' expérimentation
No features found.

