
********** Entity Names Features **********
*******************************************

1. Sentence: Centre : départements du Cher , de l ' Eure-et-Loir , de l ' Indre , de l ' Indre-et-Loire , du Loiret et du Loir-et-Cher .
Entity Name (Type) :: Loir-et-Cher (LOC)


********** Emotions Features **********
***************************************

1. Sentence: Centre : départements du Cher , de l ' Eure-et-Loir , de l ' Indre , de l ' Indre-et-Loire , du Loiret et du Loir-et-Cher .
No features found.


********** Modality Features **********
***************************************

1. Sentence: Centre : départements du Cher , de l ' Eure-et-Loir , de l ' Indre , de l ' Indre-et-Loire , du Loiret et du Loir-et-Cher .
No features found.


********** Adverbiaux Temporels Features **********
********************************************************

1. Sentence: Centre : départements du Cher , de l ' Eure-et-Loir , de l ' Indre , de l ' Indre-et-Loire , du Loiret et du Loir-et-Cher .
No features found.

