====== Sentence Level Features ======

1. Sentence: Certes , il fallait affirmer que la planification et la Charte d ' Athènes n ' étaient plus notre référence , mais surtout que le modèle classique ancien , lui non plus , ne pouvait plus être actuel .
Features :: Feature-Counts :: Feature-Lemmas
--------------------------------------------
marqueurs :: 4 :: [ falloir, affirmer, lui, pouvoir ]
marqueurs_niveau3 :: 3 :: [ falloir, lui, pouvoir ]
alethique :: 2 :: [ lui, pouvoir ]
deontique :: 2 :: [ falloir, pouvoir ]
epistemique :: 2 :: [ lui, pouvoir ]
alethique_niveau3 :: 2 :: [ lui, pouvoir ]
deontique_niveau3 :: 2 :: [ falloir, pouvoir ]
epistemique_niveau3 :: 2 :: [ lui, pouvoir ]
pas_d_indication :: 1 :: [ affirmer ]
marqueurs_niveau0 :: 1 :: [ affirmer ]
pas_d_indication_niveau0 :: 1 :: [ affirmer ]
Total feature counts: 22


====== Text Level Features ======

Features :: Feature-Counts :: Feature-Lemmas
--------------------------------------------
marqueurs :: 4 :: [ falloir, affirmer, lui, pouvoir ]
marqueurs_niveau3 :: 3 :: [ falloir, lui, pouvoir ]
alethique :: 2 :: [ lui, pouvoir ]
deontique :: 2 :: [ falloir, pouvoir ]
epistemique :: 2 :: [ lui, pouvoir ]
alethique_niveau3 :: 2 :: [ lui, pouvoir ]
deontique_niveau3 :: 2 :: [ falloir, pouvoir ]
epistemique_niveau3 :: 2 :: [ lui, pouvoir ]
pas_d_indication :: 1 :: [ affirmer ]
marqueurs_niveau0 :: 1 :: [ affirmer ]
pas_d_indication_niveau0 :: 1 :: [ affirmer ]
Total feature counts: 22

