
********** Entity Names Features **********
*******************************************

1. Sentence: Hors de l ' agglomération dense , et notamment dans les zones dont l ' urbanisation est prévue par le schéma directeur , le problème se pose différemment .
No features found.


********** Emotions Features **********
***************************************

1. Sentence: Hors de l ' agglomération dense , et notamment dans les zones dont l ' urbanisation est prévue par le schéma directeur , le problème se pose différemment .
No features found.


********** Modality Features **********
***************************************

1. Sentence: Hors de l ' agglomération dense , et notamment dans les zones dont l ' urbanisation est prévue par le schéma directeur , le problème se pose différemment .
Features :: Feature-Counts :: Feature-Lemmas
--------------------------------------------
marqueurs :: 1 :: [ problème ]
appreciatif :: 1 :: [ problème ]
marqueurs_niveau2 :: 1 :: [ problème ]
appreciatif_niveau2 :: 1 :: [ problème ]
Total feature counts: 4


********** Adverbiaux Temporels Features **********
********************************************************

1. Sentence: Hors de l ' agglomération dense , et notamment dans les zones dont l ' urbanisation est prévue par le schéma directeur , le problème se pose différemment .
No features found.

