
********** Entity Names Features **********
*******************************************

1. Sentence: Cette mise en mouvement concrète de la transformation de la ville est le socle du métier de l ' aménageur .
Entity Name (Type) :: Cette (LOC)


********** Emotions Features **********
***************************************

1. Sentence: Cette mise en mouvement concrète de la transformation de la ville est le socle du métier de l ' aménageur .
No features found.


********** Modality Features **********
***************************************

1. Sentence: Cette mise en mouvement concrète de la transformation de la ville est le socle du métier de l ' aménageur .
No features found.


********** Adverbiaux Temporels Features **********
********************************************************

1. Sentence: Cette mise en mouvement concrète de la transformation de la ville est le socle du métier de l ' aménageur .
No features found.

