====== Sentence Level Features ======

1. Sentence: 2 - LES EMPLOIS
Entity Name (Type) :: LES EMPLOIS (ORG)


====== Text Level Features ======

Entity Name (Entity Type)
-------------------------
LES EMPLOIS (ORG)
Total entitiy counts: 1

