====== Sentence Level Features ======

1. Sentence: 000 personnes et le jour près de 3 . 500 . 000 .
Features :: Feature-Counts :: Feature-Lemmas
--------------------------------------------
marqueurs :: 1 :: [ personne ]
alethique :: 1 :: [ personne ]
marqueurs_niveau2 :: 1 :: [ personne ]
alethique_niveau2 :: 1 :: [ personne ]
Total feature counts: 4


====== Text Level Features ======

Features :: Feature-Counts :: Feature-Lemmas
--------------------------------------------
marqueurs :: 1 :: [ personne ]
alethique :: 1 :: [ personne ]
marqueurs_niveau2 :: 1 :: [ personne ]
alethique_niveau2 :: 1 :: [ personne ]
Total feature counts: 4

