
********** Entity Names Features **********
*******************************************

1. Sentence: Seuls seront évoqués ici les problèmes des zones de transition , mi-urbaines mi-rurales , qui vont se développer , et ceux des villes petites et moyennes de la périphérie .
No features found.


********** Emotions Features **********
***************************************

1. Sentence: Seuls seront évoqués ici les problèmes des zones de transition , mi-urbaines mi-rurales , qui vont se développer , et ceux des villes petites et moyennes de la périphérie .
No features found.


********** Modality Features **********
***************************************

1. Sentence: Seuls seront évoqués ici les problèmes des zones de transition , mi-urbaines mi-rurales , qui vont se développer , et ceux des villes petites et moyennes de la périphérie .
Features :: Feature-Counts :: Feature-Lemmas
--------------------------------------------
marqueurs :: 3 :: [ problème, aller, petit ]
alethique :: 1 :: [ aller ]
appreciatif :: 1 :: [ problème ]
epistemique :: 1 :: [ petit ]
marqueurs_niveau3 :: 1 :: [ petit ]
marqueurs_niveau2 :: 1 :: [ problème ]
marqueurs_niveau1 :: 1 :: [ aller ]
alethique_niveau1 :: 1 :: [ aller ]
appreciatif_niveau2 :: 1 :: [ problème ]
epistemique_niveau3 :: 1 :: [ petit ]
Total feature counts: 12


********** Adverbiaux Temporels Features **********
********************************************************

1. Sentence: Seuls seront évoqués ici les problèmes des zones de transition , mi-urbaines mi-rurales , qui vont se développer , et ceux des villes petites et moyennes de la périphérie .
No features found.

