
********** Entity Names Features **********
*******************************************

1. Sentence: J ' eus à cette fin la chance d ' interviewer Cedric Price , Peter Smithson , Àlvaro Siza et Elissa Aalto et de réaliser plusieurs dessins mêlant édifices et paysages .
Entity Name (Type) :: Elissa Aalto (PER)


********** Emotions Features **********
***************************************

1. Sentence: J ' eus à cette fin la chance d ' interviewer Cedric Price , Peter Smithson , Àlvaro Siza et Elissa Aalto et de réaliser plusieurs dessins mêlant édifices et paysages .
No features found.


********** Modality Features **********
***************************************

1. Sentence: J ' eus à cette fin la chance d ' interviewer Cedric Price , Peter Smithson , Àlvaro Siza et Elissa Aalto et de réaliser plusieurs dessins mêlant édifices et paysages .
Features :: Feature-Counts :: Feature-Lemmas
--------------------------------------------
marqueurs :: 2 :: [ chance, réaliser ]
alethique :: 1 :: [ réaliser ]
appreciatif :: 1 :: [ chance ]
marqueurs_niveau3 :: 1 :: [ chance ]
marqueurs_niveau1 :: 1 :: [ réaliser ]
alethique_niveau1 :: 1 :: [ réaliser ]
appreciatif_niveau3 :: 1 :: [ chance ]
Total feature counts: 8


********** Adverbiaux Temporels Features **********
********************************************************

1. Sentence: J ' eus à cette fin la chance d ' interviewer Cedric Price , Peter Smithson , Àlvaro Siza et Elissa Aalto et de réaliser plusieurs dessins mêlant édifices et paysages .
No features found.

