====== Sentence Level Features ======

1. Sentence: La représentation et le dessin y jouent un rôle fondamental , qu ' il s ' agisse de lire des plans et des projets d ' urbanisme , ou de les redécouvrir en sais avoir évité quelques questions parmi lesquelles celle du «genre» .
Features :: Feature-Counts :: Feature-Lemmas
--------------------------------------------
marqueurs :: 3 :: [ jouer, lire, savoir ]
marqueurs_niveau3 :: 2 :: [ lire, savoir ]
appreciatif :: 1 :: [ jouer ]
boulique :: 1 :: [ lire ]
epistemique :: 1 :: [ savoir ]
marqueurs_niveau2 :: 1 :: [ jouer ]
appreciatif_niveau2 :: 1 :: [ jouer ]
boulique_niveau3 :: 1 :: [ lire ]
epistemique_niveau3 :: 1 :: [ savoir ]
Total feature counts: 12


====== Text Level Features ======

Features :: Feature-Counts :: Feature-Lemmas
--------------------------------------------
marqueurs :: 3 :: [ jouer, lire, savoir ]
marqueurs_niveau3 :: 2 :: [ lire, savoir ]
appreciatif :: 1 :: [ jouer ]
boulique :: 1 :: [ lire ]
epistemique :: 1 :: [ savoir ]
marqueurs_niveau2 :: 1 :: [ jouer ]
appreciatif_niveau2 :: 1 :: [ jouer ]
boulique_niveau3 :: 1 :: [ lire ]
epistemique_niveau3 :: 1 :: [ savoir ]
Total feature counts: 12

