====== Sentence Level Features ======

1. Sentence: A l ' inverse , les emplois des sièges sociaux parisiens ont progressé de 15 % en trois ans (de 1960 à 1963) .
Features :: Feature-Counts :: Feature-Lemmas
--------------------------------------------
marqueurs :: 2 :: [ emploi, progresser ]
appreciatif :: 1 :: [ emploi ]
pas_d_indication :: 1 :: [ progresser ]
marqueurs_niveau2 :: 1 :: [ emploi ]
marqueurs_niveau0 :: 1 :: [ progresser ]
appreciatif_niveau2 :: 1 :: [ emploi ]
pas_d_indication_niveau0 :: 1 :: [ progresser ]
Total feature counts: 8


====== Text Level Features ======

Features :: Feature-Counts :: Feature-Lemmas
--------------------------------------------
marqueurs :: 2 :: [ emploi, progresser ]
appreciatif :: 1 :: [ emploi ]
pas_d_indication :: 1 :: [ progresser ]
marqueurs_niveau2 :: 1 :: [ emploi ]
marqueurs_niveau0 :: 1 :: [ progresser ]
appreciatif_niveau2 :: 1 :: [ emploi ]
pas_d_indication_niveau0 :: 1 :: [ progresser ]
Total feature counts: 8

