
********** Entity Names Features **********
*******************************************

1. Sentence: L ' une des miennes est la politique  : j ' ai appris en militant .
Entity Name (Type) :: L (MISC)


********** Emotions Features **********
***************************************

1. Sentence: L ' une des miennes est la politique  : j ' ai appris en militant .
No features found.


********** Modality Features **********
***************************************

1. Sentence: L ' une des miennes est la politique  : j ' ai appris en militant .
No features found.


********** Adverbiaux Temporels Features **********
********************************************************

1. Sentence: L ' une des miennes est la politique  : j ' ai appris en militant .
No features found.

