====== Sentence Level Features ======

1. Sentence: Après 1999 , la loi Chevènement 1 suscita un vent nouveau , grâce à la création des communautés d ' agglomération et à la modification des communautés urbaines instituées par la loi de 1967 .
Features :: Feature-Counts :: Feature-Texts
--------------------------------------------
adverbiaux_temporels::2::['Après 1999', 'de 1967']
adverbiaux_localisation_temporelle::2::['Après 1999', 'de 1967']
adverbiaux_pointage_absolu::2::['Après 1999', 'de 1967']
adverbiaux_loc_temp_focalisation_id::2::['Après 1999', 'de 1967']
adverbiaux_loc_temp_regionalisation_id::1::['de 1967']
adverbiaux_loc_temp_regionalisation_non_id::1::['Après 1999']
adverbiaux_loc_temp_pointage_absolu::2::['Après 1999', 'de 1967']


====== Text Level Features ======

Features :: Feature-Counts :: Feature-Texts
--------------------------------------------
adverbiaux_temporels::2::['Après 1999', 'de 1967']
adverbiaux_localisation_temporelle::2::['Après 1999', 'de 1967']
adverbiaux_pointage_absolu::2::['Après 1999', 'de 1967']
adverbiaux_loc_temp_focalisation_id::2::['Après 1999', 'de 1967']
adverbiaux_loc_temp_regionalisation_id::1::['de 1967']
adverbiaux_loc_temp_regionalisation_non_id::1::['Après 1999']
adverbiaux_loc_temp_pointage_absolu::2::['Après 1999', 'de 1967']
Total feature counts: 12

