
********** Entity Names Features **********
*******************************************

1. Sentence: Au moment de l ' achat , le parc était celui de la Belle au Bois dormant .
Entity Name (Type) :: Belle au Bois dormant (LOC)


********** Emotions Features **********
***************************************

1. Sentence: Au moment de l ' achat , le parc était celui de la Belle au Bois dormant .
No features found.


********** Modality Features **********
***************************************

1. Sentence: Au moment de l ' achat , le parc était celui de la Belle au Bois dormant .
Features :: Feature-Counts :: Feature-Lemmas
--------------------------------------------
marqueurs :: 1 :: [ beau ]
appreciatif :: 1 :: [ beau ]
marqueurs_niveau3 :: 1 :: [ beau ]
appreciatif_niveau3 :: 1 :: [ beau ]
Total feature counts: 4


********** Adverbiaux Temporels Features **********
********************************************************

1. Sentence: Au moment de l ' achat , le parc était celui de la Belle au Bois dormant .
No features found.

