====== Sentence Level Features ======

1. Sentence: Dans cette perspective , les réseaux les plus importants sont ceux destinés au transport des personnes .
Features :: Feature-Counts :: Feature-Lemmas
--------------------------------------------
marqueurs :: 2 :: [ important, personne ]
alethique :: 1 :: [ personne ]
appreciatif :: 1 :: [ important ]
axiologique :: 1 :: [ important ]
epistemique :: 1 :: [ important ]
marqueurs_niveau2 :: 1 :: [ personne ]
marqueurs_niveau1 :: 1 :: [ important ]
alethique_niveau2 :: 1 :: [ personne ]
appreciatif_niveau1 :: 1 :: [ important ]
axiologique_niveau1 :: 1 :: [ important ]
epistemique_niveau1 :: 1 :: [ important ]
Total feature counts: 12


====== Text Level Features ======

Features :: Feature-Counts :: Feature-Lemmas
--------------------------------------------
marqueurs :: 2 :: [ important, personne ]
alethique :: 1 :: [ personne ]
appreciatif :: 1 :: [ important ]
axiologique :: 1 :: [ important ]
epistemique :: 1 :: [ important ]
marqueurs_niveau2 :: 1 :: [ personne ]
marqueurs_niveau1 :: 1 :: [ important ]
alethique_niveau2 :: 1 :: [ personne ]
appreciatif_niveau1 :: 1 :: [ important ]
axiologique_niveau1 :: 1 :: [ important ]
epistemique_niveau1 :: 1 :: [ important ]
Total feature counts: 12

