====== Sentence Level Features ======

1. Sentence: La taille de ces " villes nouvelles " en région parisienne pourrait sembler à certains trop élevée , sinon démesurée , et susciter un réflexe de défiance .
Features :: Feature-Counts :: Feature-Lemmas
--------------------------------------------
marqueurs :: 3 :: [ pouvoir, sembler, certain ]
epistemique :: 3 :: [ pouvoir, sembler, certain ]
marqueurs_niveau3 :: 3 :: [ pouvoir, sembler, certain ]
epistemique_niveau3 :: 3 :: [ pouvoir, sembler, certain ]
alethique :: 1 :: [ pouvoir ]
deontique :: 1 :: [ pouvoir ]
alethique_niveau3 :: 1 :: [ pouvoir ]
deontique_niveau3 :: 1 :: [ pouvoir ]
Total feature counts: 16


====== Text Level Features ======

Features :: Feature-Counts :: Feature-Lemmas
--------------------------------------------
marqueurs :: 3 :: [ pouvoir, sembler, certain ]
epistemique :: 3 :: [ pouvoir, sembler, certain ]
marqueurs_niveau3 :: 3 :: [ pouvoir, sembler, certain ]
epistemique_niveau3 :: 3 :: [ pouvoir, sembler, certain ]
alethique :: 1 :: [ pouvoir ]
deontique :: 1 :: [ pouvoir ]
alethique_niveau3 :: 1 :: [ pouvoir ]
deontique_niveau3 :: 1 :: [ pouvoir ]
Total feature counts: 16

