====== Sentence Level Features ======

1. Sentence: Quand j ' ai commencé à travailler à Saint-Nazaire ,  l ' espace public émergeait comme sujet de conquête urbaine et de nouveaux concepteurs sont venus s ' emparer de territoires précédemment l ' apanage des services techniques des villes .
Features :: Feature-Counts :: Feature-Lemmas
--------------------------------------------
marqueurs :: 2 :: [ travailler, venir ]
alethique :: 1 :: [ venir ]
appreciatif :: 1 :: [ travailler ]
marqueurs_niveau3 :: 1 :: [ venir ]
marqueurs_niveau2 :: 1 :: [ travailler ]
alethique_niveau3 :: 1 :: [ venir ]
appreciatif_niveau2 :: 1 :: [ travailler ]
Total feature counts: 8


====== Text Level Features ======

Features :: Feature-Counts :: Feature-Lemmas
--------------------------------------------
marqueurs :: 2 :: [ travailler, venir ]
alethique :: 1 :: [ venir ]
appreciatif :: 1 :: [ travailler ]
marqueurs_niveau3 :: 1 :: [ venir ]
marqueurs_niveau2 :: 1 :: [ travailler ]
alethique_niveau3 :: 1 :: [ venir ]
appreciatif_niveau2 :: 1 :: [ travailler ]
Total feature counts: 8

