
********** Entity Names Features **********
*******************************************

1. Sentence: La nomenclature utilisée (S . E . E . F . ) est celle de la comptabilité nationale .
Entity Name (Type) :: F (LOC)


********** Emotions Features **********
***************************************

1. Sentence: La nomenclature utilisée (S . E . E . F . ) est celle de la comptabilité nationale .
No features found.


********** Modality Features **********
***************************************

1. Sentence: La nomenclature utilisée (S . E . E . F . ) est celle de la comptabilité nationale .
No features found.


********** Adverbiaux Temporels Features **********
********************************************************

1. Sentence: La nomenclature utilisée (S . E . E . F . ) est celle de la comptabilité nationale .
No features found.

