====== Sentence Level Features ======

1. Sentence: Très souvent , me dit-on , «[mon] projet ne se voit pas !
Features :: Feature-Counts :: Feature-Lemmas
--------------------------------------------
marqueurs :: 2 :: [ souvent, dire ]
marqueurs_niveau3 :: 2 :: [ souvent, dire ]
alethique :: 1 :: [ souvent ]
boulique :: 1 :: [ dire ]
alethique_niveau3 :: 1 :: [ souvent ]
boulique_niveau3 :: 1 :: [ dire ]
Total feature counts: 8


====== Text Level Features ======

Features :: Feature-Counts :: Feature-Lemmas
--------------------------------------------
marqueurs :: 2 :: [ souvent, dire ]
marqueurs_niveau3 :: 2 :: [ souvent, dire ]
alethique :: 1 :: [ souvent ]
boulique :: 1 :: [ dire ]
alethique_niveau3 :: 1 :: [ souvent ]
boulique_niveau3 :: 1 :: [ dire ]
Total feature counts: 8

