====== Sentence Level Features ======

1. Sentence: Comment transformer des rapports ambigus avec l ' usine , source d ' emplois , mais aussi de nuisances ?
Features :: Feature-Counts :: Feature-Lemmas
--------------------------------------------
marqueurs :: 2 :: [ emploi, nuisance ]
appreciatif :: 2 :: [ emploi, nuisance ]
marqueurs_niveau2 :: 2 :: [ emploi, nuisance ]
appreciatif_niveau2 :: 2 :: [ emploi, nuisance ]
Total feature counts: 8


====== Text Level Features ======

Features :: Feature-Counts :: Feature-Lemmas
--------------------------------------------
marqueurs :: 2 :: [ emploi, nuisance ]
appreciatif :: 2 :: [ emploi, nuisance ]
marqueurs_niveau2 :: 2 :: [ emploi, nuisance ]
appreciatif_niveau2 :: 2 :: [ emploi, nuisance ]
Total feature counts: 8

