
********** Entity Names Features **********
*******************************************

1. Sentence: Le projet a ainsi concentré le regard sur une grande fenêtre qui révélait le doux paysage flamand .
No features found.


********** Emotions Features **********
***************************************

1. Sentence: Le projet a ainsi concentré le regard sur une grande fenêtre qui révélait le doux paysage flamand .
No features found.


********** Modality Features **********
***************************************

1. Sentence: Le projet a ainsi concentré le regard sur une grande fenêtre qui révélait le doux paysage flamand .
Features :: Feature-Counts :: Feature-Lemmas
--------------------------------------------
marqueurs :: 2 :: [ grand, doux ]
appreciatif :: 1 :: [ doux ]
epistemique :: 1 :: [ grand ]
marqueurs_niveau3 :: 1 :: [ grand ]
marqueurs_niveau2 :: 1 :: [ doux ]
appreciatif_niveau2 :: 1 :: [ doux ]
epistemique_niveau3 :: 1 :: [ grand ]
Total feature counts: 8


********** Adverbiaux Temporels Features **********
********************************************************

1. Sentence: Le projet a ainsi concentré le regard sur une grande fenêtre qui révélait le doux paysage flamand .
No features found.

