====== Sentence Level Features ======

1. Sentence: Washington : + 3 millions en 40 ans (de 2 à 5 millions , de 1960 à 2000) .
No features found.


====== Text Level Features ======

No features found.

