====== Sentence Level Features ======

1. Sentence: Car si l ' environnement que représente le cœur d ' une ville favorise la fréquentation de tels équipements , réciproquement leur présence est un facteur de croissance et d ' essor de la ville;
Features :: Feature-Counts :: Feature-Lemmas
--------------------------------------------
marqueurs :: 1 :: [ favoriser ]
appreciatif :: 1 :: [ favoriser ]
marqueurs_niveau1 :: 1 :: [ favoriser ]
appreciatif_niveau1 :: 1 :: [ favoriser ]
Total feature counts: 4


====== Text Level Features ======

Features :: Feature-Counts :: Feature-Lemmas
--------------------------------------------
marqueurs :: 1 :: [ favoriser ]
appreciatif :: 1 :: [ favoriser ]
marqueurs_niveau1 :: 1 :: [ favoriser ]
appreciatif_niveau1 :: 1 :: [ favoriser ]
Total feature counts: 4

