====== Sentence Level Features ======

1. Sentence: Un petit livre , Jardins élémentaires , est écrit par le philosophe Gilles A . Tiberghien 1 . 1986-1990 .
Features :: Feature-Counts :: Feature-Texts
--------------------------------------------
adverbiaux_temporels::1::['1986_1990']
adverbiaux_localisation_temporelle::1::['1986_1990']
adverbiaux_pointage_absolu::1::['1986_1990']
adverbiaux_loc_temp_focalisation_id::1::['1986_1990']
adverbiaux_loc_temp_regionalisation_id::1::['1986_1990']
adverbiaux_loc_temp_pointage_absolu::1::['1986_1990']


====== Text Level Features ======

Features :: Feature-Counts :: Feature-Texts
--------------------------------------------
adverbiaux_temporels::1::['1986_1990']
adverbiaux_localisation_temporelle::1::['1986_1990']
adverbiaux_pointage_absolu::1::['1986_1990']
adverbiaux_loc_temp_focalisation_id::1::['1986_1990']
adverbiaux_loc_temp_regionalisation_id::1::['1986_1990']
adverbiaux_loc_temp_pointage_absolu::1::['1986_1990']
Total feature counts: 6

