
********** Entity Names Features **********
*******************************************

1. Sentence: Tel est le schéma directeur , qui inscrit sur la carte ce que l ' on appelle " le Paris de l ' an 2000 " ;
Entity Name (Type) :: Paris (LOC)


********** Emotions Features **********
***************************************

1. Sentence: Tel est le schéma directeur , qui inscrit sur la carte ce que l ' on appelle " le Paris de l ' an 2000 " ;
No features found.


********** Modality Features **********
***************************************

1. Sentence: Tel est le schéma directeur , qui inscrit sur la carte ce que l ' on appelle " le Paris de l ' an 2000 " ;
No features found.


********** Adverbiaux Temporels Features **********
********************************************************

1. Sentence: Tel est le schéma directeur , qui inscrit sur la carte ce que l ' on appelle " le Paris de l ' an 2000 " ;
Features :: Feature-Counts :: Feature-Texts
--------------------------------------------
adverbiaux_temporels::1::['de l ` an 2000']
adverbiaux_localisation_temporelle::1::['de l ` an 2000']
adverbiaux_pointage_absolu::1::['de l ` an 2000']
adverbiaux_loc_temp_focalisation_id::1::['de l ` an 2000']
adverbiaux_loc_temp_regionalisation_id::1::['de l ` an 2000']
adverbiaux_loc_temp_pointage_absolu::1::['de l ` an 2000']

