====== Sentence Level Features ======

1. Sentence: Il a quitté récemment l ' École de Versailles , mais continue d ' enseigner , avec un plaisir évident , à l ' Institut d ' architecture de l ' Université de Genève .
Features :: Feature-Counts :: Feature-Lemmas
--------------------------------------------
marqueurs :: 3 :: [ quitter, école, plaisir ]
alethique :: 2 :: [ quitter, école ]
appreciatif :: 1 :: [ plaisir ]
marqueurs_niveau3 :: 1 :: [ plaisir ]
marqueurs_niveau2 :: 1 :: [ quitter ]
marqueurs_niveau1 :: 1 :: [ école ]
alethique_niveau2 :: 1 :: [ quitter ]
alethique_niveau1 :: 1 :: [ école ]
appreciatif_niveau3 :: 1 :: [ plaisir ]
Total feature counts: 12


====== Text Level Features ======

Features :: Feature-Counts :: Feature-Lemmas
--------------------------------------------
marqueurs :: 3 :: [ quitter, école, plaisir ]
alethique :: 2 :: [ quitter, école ]
appreciatif :: 1 :: [ plaisir ]
marqueurs_niveau3 :: 1 :: [ plaisir ]
marqueurs_niveau2 :: 1 :: [ quitter ]
marqueurs_niveau1 :: 1 :: [ école ]
alethique_niveau2 :: 1 :: [ quitter ]
alethique_niveau1 :: 1 :: [ école ]
appreciatif_niveau3 :: 1 :: [ plaisir ]
Total feature counts: 12

