====== Sentence Level Features ======

1. Sentence: (C ' est ce que font les études d ' impact , souvent faussement scientifiques et rigoureuses . )
Features :: Feature-Counts :: Feature-Lemmas
--------------------------------------------
marqueurs :: 1 :: [ souvent ]
alethique :: 1 :: [ souvent ]
marqueurs_niveau3 :: 1 :: [ souvent ]
alethique_niveau3 :: 1 :: [ souvent ]
Total feature counts: 4


====== Text Level Features ======

Features :: Feature-Counts :: Feature-Lemmas
--------------------------------------------
marqueurs :: 1 :: [ souvent ]
alethique :: 1 :: [ souvent ]
marqueurs_niveau3 :: 1 :: [ souvent ]
alethique_niveau3 :: 1 :: [ souvent ]
Total feature counts: 4

