====== Sentence Level Features ======

1. Sentence: En cela , nous , paysagistes et urbanistes , sommes confrontés à la difficulté de voir , de comprendre , de mesurer , d ' arbitrer .
Features :: Feature-Counts :: Feature-Lemmas
--------------------------------------------
marqueurs :: 1 :: [ difficulté ]
pas_d_indication :: 1 :: [ difficulté ]
marqueurs_niveau0 :: 1 :: [ difficulté ]
pas_d_indication_niveau0 :: 1 :: [ difficulté ]
Total feature counts: 4


====== Text Level Features ======

Features :: Feature-Counts :: Feature-Lemmas
--------------------------------------------
marqueurs :: 1 :: [ difficulté ]
pas_d_indication :: 1 :: [ difficulté ]
marqueurs_niveau0 :: 1 :: [ difficulté ]
pas_d_indication_niveau0 :: 1 :: [ difficulté ]
Total feature counts: 4

