
********** Entity Names Features **********
*******************************************

1. Sentence: Des actes pernicieux — Haussmann , les grands ensembles — se sont faits sur ces bases incontestables .
Entity Name (Type) :: Haussmann (PER)


********** Emotions Features **********
***************************************

1. Sentence: Des actes pernicieux — Haussmann , les grands ensembles — se sont faits sur ces bases incontestables .
No features found.


********** Modality Features **********
***************************************

1. Sentence: Des actes pernicieux — Haussmann , les grands ensembles — se sont faits sur ces bases incontestables .
Features :: Feature-Counts :: Feature-Lemmas
--------------------------------------------
marqueurs :: 1 :: [ grand ]
epistemique :: 1 :: [ grand ]
marqueurs_niveau3 :: 1 :: [ grand ]
epistemique_niveau3 :: 1 :: [ grand ]
Total feature counts: 4


********** Adverbiaux Temporels Features **********
********************************************************

1. Sentence: Des actes pernicieux — Haussmann , les grands ensembles — se sont faits sur ces bases incontestables .
No features found.

