====== Sentence Level Features ======

1. Sentence: L ' espace des quais d ' Anvers possède une longue histoire et une forte identité ;
Features :: Feature-Counts :: Feature-Lemmas
--------------------------------------------
marqueurs :: 2 :: [ long, fort ]
epistemique :: 1 :: [ long ]
pas_d_indication :: 1 :: [ fort ]
marqueurs_niveau2 :: 1 :: [ long ]
marqueurs_niveau0 :: 1 :: [ fort ]
epistemique_niveau2 :: 1 :: [ long ]
pas_d_indication_niveau0 :: 1 :: [ fort ]
Total feature counts: 8


====== Text Level Features ======

Features :: Feature-Counts :: Feature-Lemmas
--------------------------------------------
marqueurs :: 2 :: [ long, fort ]
epistemique :: 1 :: [ long ]
pas_d_indication :: 1 :: [ fort ]
marqueurs_niveau2 :: 1 :: [ long ]
marqueurs_niveau0 :: 1 :: [ fort ]
epistemique_niveau2 :: 1 :: [ long ]
pas_d_indication_niveau0 :: 1 :: [ fort ]
Total feature counts: 8

