====== Sentence Level Features ======

1. Sentence: Le projet urbain que nous voulons réaliser doit seul guider notre action .
Features :: Feature-Counts :: Feature-Lemmas
--------------------------------------------
marqueurs :: 3 :: [ vouloir, réaliser, devoir ]
alethique :: 2 :: [ réaliser, devoir ]
marqueurs_niveau3 :: 2 :: [ vouloir, devoir ]
boulique :: 1 :: [ vouloir ]
deontique :: 1 :: [ devoir ]
epistemique :: 1 :: [ devoir ]
marqueurs_niveau1 :: 1 :: [ réaliser ]
alethique_niveau3 :: 1 :: [ devoir ]
alethique_niveau1 :: 1 :: [ réaliser ]
boulique_niveau3 :: 1 :: [ vouloir ]
deontique_niveau3 :: 1 :: [ devoir ]
epistemique_niveau3 :: 1 :: [ devoir ]
Total feature counts: 16


====== Text Level Features ======

Features :: Feature-Counts :: Feature-Lemmas
--------------------------------------------
marqueurs :: 3 :: [ vouloir, réaliser, devoir ]
alethique :: 2 :: [ réaliser, devoir ]
marqueurs_niveau3 :: 2 :: [ vouloir, devoir ]
boulique :: 1 :: [ vouloir ]
deontique :: 1 :: [ devoir ]
epistemique :: 1 :: [ devoir ]
marqueurs_niveau1 :: 1 :: [ réaliser ]
alethique_niveau3 :: 1 :: [ devoir ]
alethique_niveau1 :: 1 :: [ réaliser ]
boulique_niveau3 :: 1 :: [ vouloir ]
deontique_niveau3 :: 1 :: [ devoir ]
epistemique_niveau3 :: 1 :: [ devoir ]
Total feature counts: 16

