====== Sentence Level Features ======

1. Sentence: Le problème n ' est pas « éthique » , il est celui de l ' absence d ' insti‑ tutions et de règles du jeu capables de relayer le rôle traditionnel des États à l ' échelle mondiale , et même à l ' échelle continentale .
Features :: Feature-Counts :: Feature-Lemmas
--------------------------------------------
marqueurs :: 1 :: [ problème ]
appreciatif :: 1 :: [ problème ]
marqueurs_niveau2 :: 1 :: [ problème ]
appreciatif_niveau2 :: 1 :: [ problème ]
Total feature counts: 4


====== Text Level Features ======

Features :: Feature-Counts :: Feature-Lemmas
--------------------------------------------
marqueurs :: 1 :: [ problème ]
appreciatif :: 1 :: [ problème ]
marqueurs_niveau2 :: 1 :: [ problème ]
appreciatif_niveau2 :: 1 :: [ problème ]
Total feature counts: 4

