
********** Entity Names Features **********
*******************************************

1. Sentence: C ' est sans doute là qu ' un paysagiste apporte à l ' urbanisme une logique singulière .
No features found.


********** Emotions Features **********
***************************************

1. Sentence: C ' est sans doute là qu ' un paysagiste apporte à l ' urbanisme une logique singulière .
No features found.


********** Modality Features **********
***************************************

1. Sentence: C ' est sans doute là qu ' un paysagiste apporte à l ' urbanisme une logique singulière .
Features :: Feature-Counts :: Feature-Lemmas
--------------------------------------------
marqueurs :: 1 :: [ doute ]
epistemique :: 1 :: [ doute ]
marqueurs_niveau3 :: 1 :: [ doute ]
epistemique_niveau3 :: 1 :: [ doute ]
Total feature counts: 4


********** Adverbiaux Temporels Features **********
********************************************************

1. Sentence: C ' est sans doute là qu ' un paysagiste apporte à l ' urbanisme une logique singulière .
No features found.

