====== Sentence Level Features ======

1. Sentence: BAVOUX , E . COHEN-BOULAKIA , C . DELPRAT , E . DROUANT , J . JUVIN , M . LEMAISTRE , R . MAISON , P . PAVY , C . PLANTEVIN , J . TORRES , T . WNUK;
Entity Name (Type) :: WNUK (ORG)


====== Text Level Features ======

Entity Name (Entity Type)
-------------------------
BAVOUX (LOC)
COHEN-BOULAKIA (ORG)
C (ORG)
DELPRAT (ORG)
E (ORG)
DROUANT (ORG)
J (ORG)
JUVIN (ORG)
M (ORG)
LEMAISTRE (ORG)
R (ORG)
MAISON (ORG)
P (ORG)
PAVY (ORG)
C (ORG)
PLANTEVIN (ORG)
J (ORG)
TORRES (ORG)
T (ORG)
WNUK (ORG)
Total entitiy counts: 20

