====== Sentence Level Features ======

1. Sentence: Or on ne peut plus séparer les deux échelles .
Entity Name (Type) :: Or (LOC)


====== Text Level Features ======

Entity Name (Entity Type)
-------------------------
Or (LOC)
Total entitiy counts: 1

