====== Sentence Level Features ======

1. Sentence: «L ' urbanisme ne peut être une vérité née de la main de l ' artiste et de l ' esprit du créateur .
Features :: Feature-Counts :: Feature-Lemmas
--------------------------------------------
marqueurs :: 3 :: [ pouvoir, vérité, esprit ]
alethique :: 2 :: [ pouvoir, vérité ]
epistemique :: 2 :: [ pouvoir, esprit ]
marqueurs_niveau3 :: 2 :: [ pouvoir, esprit ]
epistemique_niveau3 :: 2 :: [ pouvoir, esprit ]
deontique :: 1 :: [ pouvoir ]
marqueurs_niveau1 :: 1 :: [ vérité ]
alethique_niveau3 :: 1 :: [ pouvoir ]
alethique_niveau1 :: 1 :: [ vérité ]
deontique_niveau3 :: 1 :: [ pouvoir ]
Total feature counts: 16


====== Text Level Features ======

Features :: Feature-Counts :: Feature-Lemmas
--------------------------------------------
marqueurs :: 3 :: [ pouvoir, vérité, esprit ]
alethique :: 2 :: [ pouvoir, vérité ]
epistemique :: 2 :: [ pouvoir, esprit ]
marqueurs_niveau3 :: 2 :: [ pouvoir, esprit ]
epistemique_niveau3 :: 2 :: [ pouvoir, esprit ]
deontique :: 1 :: [ pouvoir ]
marqueurs_niveau1 :: 1 :: [ vérité ]
alethique_niveau3 :: 1 :: [ pouvoir ]
alethique_niveau1 :: 1 :: [ vérité ]
deontique_niveau3 :: 1 :: [ pouvoir ]
Total feature counts: 16

