
********** Entity Names Features **********
*******************************************

1. Sentence: (1) " Agglomération étendue " , au sens de l ' I . N . S . E . E .
Entity Name (Type) :: E (LOC)


********** Emotions Features **********
***************************************

1. Sentence: (1) " Agglomération étendue " , au sens de l ' I . N . S . E . E .
No features found.


********** Modality Features **********
***************************************

1. Sentence: (1) " Agglomération étendue " , au sens de l ' I . N . S . E . E .
No features found.


********** Adverbiaux Temporels Features **********
********************************************************

1. Sentence: (1) " Agglomération étendue " , au sens de l ' I . N . S . E . E .
No features found.

