
********** Entity Names Features **********
*******************************************

1. Sentence: Genève , Porte Sud , 1999-2000 , et Plaine de l ' Aire-Saint-Julien , 2008-2009
Entity Name (Type) :: Plaine de l ' Aire-Saint-Julien (LOC)


********** Emotions Features **********
***************************************

1. Sentence: Genève , Porte Sud , 1999-2000 , et Plaine de l ' Aire-Saint-Julien , 2008-2009
No features found.


********** Modality Features **********
***************************************

1. Sentence: Genève , Porte Sud , 1999-2000 , et Plaine de l ' Aire-Saint-Julien , 2008-2009
No features found.


********** Adverbiaux Temporels Features **********
********************************************************

1. Sentence: Genève , Porte Sud , 1999-2000 , et Plaine de l ' Aire-Saint-Julien , 2008-2009
Features :: Feature-Counts :: Feature-Texts
--------------------------------------------
adverbiaux_temporels::2::['1999_2000', '2008_2009']
adverbiaux_localisation_temporelle::2::['1999_2000', '2008_2009']
adverbiaux_pointage_absolu::2::['1999_2000', '2008_2009']
adverbiaux_loc_temp_focalisation_id::2::['1999_2000', '2008_2009']
adverbiaux_loc_temp_regionalisation_id::2::['1999_2000', '2008_2009']
adverbiaux_loc_temp_pointage_absolu::2::['1999_2000', '2008_2009']

