
********** Entity Names Features **********
*******************************************

1. Sentence: Jacques Simon et Michel Corajoud témoignaient d ' une nécessité de penser et d ' œuvrer dans le cadre de la fabrique de la ville .
Entity Name (Type) :: Michel Corajoud (PER)


********** Emotions Features **********
***************************************

1. Sentence: Jacques Simon et Michel Corajoud témoignaient d ' une nécessité de penser et d ' œuvrer dans le cadre de la fabrique de la ville .
No features found.


********** Modality Features **********
***************************************

1. Sentence: Jacques Simon et Michel Corajoud témoignaient d ' une nécessité de penser et d ' œuvrer dans le cadre de la fabrique de la ville .
Features :: Feature-Counts :: Feature-Lemmas
--------------------------------------------
marqueurs :: 2 :: [ nécessité, penser ]
marqueurs_niveau3 :: 2 :: [ nécessité, penser ]
alethique :: 1 :: [ nécessité ]
epistemique :: 1 :: [ penser ]
alethique_niveau3 :: 1 :: [ nécessité ]
epistemique_niveau3 :: 1 :: [ penser ]
Total feature counts: 8


********** Adverbiaux Temporels Features **********
********************************************************

1. Sentence: Jacques Simon et Michel Corajoud témoignaient d ' une nécessité de penser et d ' œuvrer dans le cadre de la fabrique de la ville .
No features found.

