
********** Entity Names Features **********
*******************************************

1. Sentence: Il s ' agit d ' inverser cette tendance en cessant de considérer l ' habitant seulement comme un consommateur et en le prenant aussi pour ce qu ' il est  : un agent producteur .
No features found.


********** Emotions Features **********
***************************************

1. Sentence: Il s ' agit d ' inverser cette tendance en cessant de considérer l ' habitant seulement comme un consommateur et en le prenant aussi pour ce qu ' il est  : un agent producteur .
Tokens having emotion: [ considérer ]
Lemmas having emotion: [ considérer ]
Categories of the emotion lemmas: [ admiration ]


********** Modality Features **********
***************************************

1. Sentence: Il s ' agit d ' inverser cette tendance en cessant de considérer l ' habitant seulement comme un consommateur et en le prenant aussi pour ce qu ' il est  : un agent producteur .
Features :: Feature-Counts :: Feature-Lemmas
--------------------------------------------
marqueurs :: 1 :: [ considérer ]
epistemique :: 1 :: [ considérer ]
marqueurs_niveau3 :: 1 :: [ considérer ]
epistemique_niveau3 :: 1 :: [ considérer ]
Total feature counts: 4


********** Adverbiaux Temporels Features **********
********************************************************

1. Sentence: Il s ' agit d ' inverser cette tendance en cessant de considérer l ' habitant seulement comme un consommateur et en le prenant aussi pour ce qu ' il est  : un agent producteur .
No features found.

