====== Sentence Level Features ======

1. Sentence: La démarche qui consiste à aller chercher des gens et les faire parler de leurs souhaits , de leurs inquiétudes , etc .
Features :: Feature-Counts :: Feature-Lemmas
--------------------------------------------
marqueurs :: 4 :: [ aller, chercher, souhait, inquiétude ]
boulique :: 2 :: [ chercher, souhait ]
marqueurs_niveau3 :: 2 :: [ chercher, souhait ]
boulique_niveau3 :: 2 :: [ chercher, souhait ]
alethique :: 1 :: [ aller ]
appreciatif :: 1 :: [ inquiétude ]
epistemique :: 1 :: [ inquiétude ]
marqueurs_niveau2 :: 1 :: [ inquiétude ]
marqueurs_niveau1 :: 1 :: [ aller ]
alethique_niveau1 :: 1 :: [ aller ]
appreciatif_niveau2 :: 1 :: [ inquiétude ]
epistemique_niveau2 :: 1 :: [ inquiétude ]
Total feature counts: 18


====== Text Level Features ======

Features :: Feature-Counts :: Feature-Lemmas
--------------------------------------------
marqueurs :: 4 :: [ aller, chercher, souhait, inquiétude ]
boulique :: 2 :: [ chercher, souhait ]
marqueurs_niveau3 :: 2 :: [ chercher, souhait ]
boulique_niveau3 :: 2 :: [ chercher, souhait ]
alethique :: 1 :: [ aller ]
appreciatif :: 1 :: [ inquiétude ]
epistemique :: 1 :: [ inquiétude ]
marqueurs_niveau2 :: 1 :: [ inquiétude ]
marqueurs_niveau1 :: 1 :: [ aller ]
alethique_niveau1 :: 1 :: [ aller ]
appreciatif_niveau2 :: 1 :: [ inquiétude ]
epistemique_niveau2 :: 1 :: [ inquiétude ]
Total feature counts: 18

