====== Sentence Level Features ======

1. Sentence: L ' ambition est d ' inscrire pleinement l ' opération dans la grande dimension territoriale du Val-de-Seine , de l ' ouvrir sur son environnement , de ménager le maximum d ' interfaces et de continuités avec la ville existante .
Features :: Feature-Counts :: Feature-Lemmas
--------------------------------------------
marqueurs :: 2 :: [ grand, ouvrir ]
marqueurs_niveau3 :: 2 :: [ grand, ouvrir ]
boulique :: 1 :: [ ouvrir ]
epistemique :: 1 :: [ grand ]
boulique_niveau3 :: 1 :: [ ouvrir ]
epistemique_niveau3 :: 1 :: [ grand ]
Total feature counts: 8


====== Text Level Features ======

Features :: Feature-Counts :: Feature-Lemmas
--------------------------------------------
marqueurs :: 2 :: [ grand, ouvrir ]
marqueurs_niveau3 :: 2 :: [ grand, ouvrir ]
boulique :: 1 :: [ ouvrir ]
epistemique :: 1 :: [ grand ]
boulique_niveau3 :: 1 :: [ ouvrir ]
epistemique_niveau3 :: 1 :: [ grand ]
Total feature counts: 8

