====== Sentence Level Features ======

1. Sentence: elles ont eu pour elles l ' étendue et elles n ' en ont rien fait) , c ' est que leur légèreté , l ' espacement qu ' elles manipulaient sont tissés d ' un espoir que toute cette archéologie ne peut que contrarier .
Features :: Feature-Counts :: Feature-Lemmas
--------------------------------------------
marqueurs :: 5 :: [ rien, manipuler, espoir, pouvoir, contrarier ]
alethique :: 2 :: [ rien, pouvoir ]
epistemique :: 2 :: [ espoir, pouvoir ]
marqueurs_niveau2 :: 2 :: [ rien, espoir ]
appreciatif :: 1 :: [ manipuler ]
axiologique :: 1 :: [ manipuler ]
boulique :: 1 :: [ espoir ]
deontique :: 1 :: [ pouvoir ]
pas_d_indication :: 1 :: [ contrarier ]
marqueurs_niveau3 :: 1 :: [ pouvoir ]
marqueurs_niveau1 :: 1 :: [ manipuler ]
marqueurs_niveau0 :: 1 :: [ contrarier ]
alethique_niveau3 :: 1 :: [ pouvoir ]
alethique_niveau2 :: 1 :: [ rien ]
appreciatif_niveau1 :: 1 :: [ manipuler ]
axiologique_niveau1 :: 1 :: [ manipuler ]
boulique_niveau2 :: 1 :: [ espoir ]
deontique_niveau3 :: 1 :: [ pouvoir ]
epistemique_niveau3 :: 1 :: [ pouvoir ]
epistemique_niveau2 :: 1 :: [ espoir ]
pas_d_indication_niveau0 :: 1 :: [ contrarier ]
Total feature counts: 28


====== Text Level Features ======

Features :: Feature-Counts :: Feature-Lemmas
--------------------------------------------
marqueurs :: 5 :: [ rien, manipuler, espoir, pouvoir, contrarier ]
alethique :: 2 :: [ rien, pouvoir ]
epistemique :: 2 :: [ espoir, pouvoir ]
marqueurs_niveau2 :: 2 :: [ rien, espoir ]
appreciatif :: 1 :: [ manipuler ]
axiologique :: 1 :: [ manipuler ]
boulique :: 1 :: [ espoir ]
deontique :: 1 :: [ pouvoir ]
pas_d_indication :: 1 :: [ contrarier ]
marqueurs_niveau3 :: 1 :: [ pouvoir ]
marqueurs_niveau1 :: 1 :: [ manipuler ]
marqueurs_niveau0 :: 1 :: [ contrarier ]
alethique_niveau3 :: 1 :: [ pouvoir ]
alethique_niveau2 :: 1 :: [ rien ]
appreciatif_niveau1 :: 1 :: [ manipuler ]
axiologique_niveau1 :: 1 :: [ manipuler ]
boulique_niveau2 :: 1 :: [ espoir ]
deontique_niveau3 :: 1 :: [ pouvoir ]
epistemique_niveau3 :: 1 :: [ pouvoir ]
epistemique_niveau2 :: 1 :: [ espoir ]
pas_d_indication_niveau0 :: 1 :: [ contrarier ]
Total feature counts: 28

