
********** Entity Names Features **********
*******************************************

1. Sentence: L ' Atelier Ruelle proposa d ' opérer un grand mouvement de la gare à l ' île de Nantes en emportant Malakoff au passage .
Entity Name (Type) :: Malakoff (LOC)


********** Emotions Features **********
***************************************

1. Sentence: L ' Atelier Ruelle proposa d ' opérer un grand mouvement de la gare à l ' île de Nantes en emportant Malakoff au passage .
No features found.


********** Modality Features **********
***************************************

1. Sentence: L ' Atelier Ruelle proposa d ' opérer un grand mouvement de la gare à l ' île de Nantes en emportant Malakoff au passage .
Features :: Feature-Counts :: Feature-Lemmas
--------------------------------------------
marqueurs :: 1 :: [ grand ]
epistemique :: 1 :: [ grand ]
marqueurs_niveau3 :: 1 :: [ grand ]
epistemique_niveau3 :: 1 :: [ grand ]
Total feature counts: 4


********** Adverbiaux Temporels Features **********
********************************************************

1. Sentence: L ' Atelier Ruelle proposa d ' opérer un grand mouvement de la gare à l ' île de Nantes en emportant Malakoff au passage .
No features found.

