====== Sentence Level Features ======

1. Sentence: En tant que règlement d ' usage du sol privé , un Pos ne peut porter sur l ' espace public .
Entity Name (Type) :: Pos (LOC)


====== Text Level Features ======

Entity Name (Entity Type)
-------------------------
Pos (LOC)
Total entitiy counts: 1

