====== Sentence Level Features ======

1. Sentence: Comme la seule façon de torpiller les choses est de les prendre dans l ’ œuf , dès que le Préfet de la Seine propose une étude pour faire une voirie nouvelle que ses services n ’ ont pas le temps d ’ étudier mais qu‘il faudrait faire étudier par un Bureau privé , il est bien évident que le Conseil municipal du quartier est contre , et fait tous les ennuis et tue dans l ’ œuf l ’ affaire en empêchant que le crédit d ’ étude soit voté .
Features :: Feature-Counts :: Feature-Lemmas
--------------------------------------------
marqueurs :: 6 :: [ falloir, bien, ennui, tuer, empêcher, voter ]
marqueurs_niveau3 :: 3 :: [ falloir, bien, ennui ]
appreciatif :: 2 :: [ bien, ennui ]
axiologique :: 2 :: [ bien, tuer ]
marqueurs_niveau2 :: 2 :: [ tuer, voter ]
appreciatif_niveau3 :: 2 :: [ bien, ennui ]
alethique :: 1 :: [ tuer ]
boulique :: 1 :: [ voter ]
deontique :: 1 :: [ falloir ]
epistemique :: 1 :: [ voter ]
pas_d_indication :: 1 :: [ empêcher ]
marqueurs_niveau0 :: 1 :: [ empêcher ]
alethique_niveau2 :: 1 :: [ tuer ]
axiologique_niveau3 :: 1 :: [ bien ]
axiologique_niveau2 :: 1 :: [ tuer ]
boulique_niveau2 :: 1 :: [ voter ]
deontique_niveau3 :: 1 :: [ falloir ]
epistemique_niveau2 :: 1 :: [ voter ]
pas_d_indication_niveau0 :: 1 :: [ empêcher ]
Total feature counts: 30


====== Text Level Features ======

Features :: Feature-Counts :: Feature-Lemmas
--------------------------------------------
marqueurs :: 6 :: [ falloir, bien, ennui, tuer, empêcher, voter ]
marqueurs_niveau3 :: 3 :: [ falloir, bien, ennui ]
appreciatif :: 2 :: [ bien, ennui ]
axiologique :: 2 :: [ bien, tuer ]
marqueurs_niveau2 :: 2 :: [ tuer, voter ]
appreciatif_niveau3 :: 2 :: [ bien, ennui ]
alethique :: 1 :: [ tuer ]
boulique :: 1 :: [ voter ]
deontique :: 1 :: [ falloir ]
epistemique :: 1 :: [ voter ]
pas_d_indication :: 1 :: [ empêcher ]
marqueurs_niveau0 :: 1 :: [ empêcher ]
alethique_niveau2 :: 1 :: [ tuer ]
axiologique_niveau3 :: 1 :: [ bien ]
axiologique_niveau2 :: 1 :: [ tuer ]
boulique_niveau2 :: 1 :: [ voter ]
deontique_niveau3 :: 1 :: [ falloir ]
epistemique_niveau2 :: 1 :: [ voter ]
pas_d_indication_niveau0 :: 1 :: [ empêcher ]
Total feature counts: 30

