====== Sentence Level Features ======

1. Sentence: » Si la loi s ' applique à tous , les géographies , les acteurs et les enjeux sont eux contextuels .
Features :: Feature-Counts :: Feature-Lemmas
--------------------------------------------
marqueurs :: 2 :: [ loi, lui ]
alethique :: 1 :: [ lui ]
deontique :: 1 :: [ loi ]
epistemique :: 1 :: [ lui ]
marqueurs_niveau3 :: 1 :: [ lui ]
marqueurs_niveau2 :: 1 :: [ loi ]
alethique_niveau3 :: 1 :: [ lui ]
deontique_niveau2 :: 1 :: [ loi ]
epistemique_niveau3 :: 1 :: [ lui ]
Total feature counts: 10


====== Text Level Features ======

Features :: Feature-Counts :: Feature-Lemmas
--------------------------------------------
marqueurs :: 2 :: [ loi, lui ]
alethique :: 1 :: [ lui ]
deontique :: 1 :: [ loi ]
epistemique :: 1 :: [ lui ]
marqueurs_niveau3 :: 1 :: [ lui ]
marqueurs_niveau2 :: 1 :: [ loi ]
alethique_niveau3 :: 1 :: [ lui ]
deontique_niveau2 :: 1 :: [ loi ]
epistemique_niveau3 :: 1 :: [ lui ]
Total feature counts: 10

