
********** Entity Names Features **********
*******************************************

1. Sentence: La traversée des échelles consiste donc à maîtriser , simultanément ,  l ' ensemble et le détail , le proche et le lointain .
Entity Name (Type) :: La traversée des échelles (MISC)


********** Emotions Features **********
***************************************

1. Sentence: La traversée des échelles consiste donc à maîtriser , simultanément ,  l ' ensemble et le détail , le proche et le lointain .
No features found.


********** Modality Features **********
***************************************

1. Sentence: La traversée des échelles consiste donc à maîtriser , simultanément ,  l ' ensemble et le détail , le proche et le lointain .
No features found.


********** Adverbiaux Temporels Features **********
********************************************************

1. Sentence: La traversée des échelles consiste donc à maîtriser , simultanément ,  l ' ensemble et le détail , le proche et le lointain .
No features found.

