====== Sentence Level Features ======

1. Sentence: Deux projets donc , où s ' est déroulé mon travail de paysagiste urbaniste comme les intrigues d ' histoires différentes de la relation entre esthétique et écologie , représentées in fine sur des scènes paysagères aussi variées que l ' exigeaient ces histoires .
Features :: Feature-Counts :: Feature-Lemmas
--------------------------------------------
marqueurs :: 2 :: [ travail, exiger ]
marqueurs_niveau3 :: 2 :: [ travail, exiger ]
alethique :: 1 :: [ exiger ]
appreciatif :: 1 :: [ travail ]
boulique :: 1 :: [ exiger ]
deontique :: 1 :: [ exiger ]
alethique_niveau3 :: 1 :: [ exiger ]
appreciatif_niveau3 :: 1 :: [ travail ]
boulique_niveau3 :: 1 :: [ exiger ]
deontique_niveau3 :: 1 :: [ exiger ]
Total feature counts: 12


====== Text Level Features ======

Features :: Feature-Counts :: Feature-Lemmas
--------------------------------------------
marqueurs :: 2 :: [ travail, exiger ]
marqueurs_niveau3 :: 2 :: [ travail, exiger ]
alethique :: 1 :: [ exiger ]
appreciatif :: 1 :: [ travail ]
boulique :: 1 :: [ exiger ]
deontique :: 1 :: [ exiger ]
alethique_niveau3 :: 1 :: [ exiger ]
appreciatif_niveau3 :: 1 :: [ travail ]
boulique_niveau3 :: 1 :: [ exiger ]
deontique_niveau3 :: 1 :: [ exiger ]
Total feature counts: 12

