====== Sentence Level Features ======

1. Sentence: Un apprentissage collectif du projet urbain :  l ' Apur En 1970 , le hasard fait , pour moi , bien les choses : Pierre-Yves Ligen recherche un chargé de mission pour l ' aider à la rédaction des rapports de l ' Apur , des mémoires au Conseil de Paris et des articles de Paris-Projet .
Features :: Feature-Counts :: Feature-Lemmas
--------------------------------------------
marqueurs :: 2 :: [ lui, bien ]
marqueurs_niveau3 :: 2 :: [ lui, bien ]
alethique :: 1 :: [ lui ]
appreciatif :: 1 :: [ bien ]
axiologique :: 1 :: [ bien ]
epistemique :: 1 :: [ lui ]
alethique_niveau3 :: 1 :: [ lui ]
appreciatif_niveau3 :: 1 :: [ bien ]
axiologique_niveau3 :: 1 :: [ bien ]
epistemique_niveau3 :: 1 :: [ lui ]
Total feature counts: 12


====== Text Level Features ======

Features :: Feature-Counts :: Feature-Lemmas
--------------------------------------------
marqueurs :: 2 :: [ lui, bien ]
marqueurs_niveau3 :: 2 :: [ lui, bien ]
alethique :: 1 :: [ lui ]
appreciatif :: 1 :: [ bien ]
axiologique :: 1 :: [ bien ]
epistemique :: 1 :: [ lui ]
alethique_niveau3 :: 1 :: [ lui ]
appreciatif_niveau3 :: 1 :: [ bien ]
axiologique_niveau3 :: 1 :: [ bien ]
epistemique_niveau3 :: 1 :: [ lui ]
Total feature counts: 12

