
********** Entity Names Features **********
*******************************************

1. Sentence: À quoi se référer , sur quoi s ' appuyer pour leur imaginer un avenir et impulser une autre manière de les habiter ?
No features found.


********** Emotions Features **********
***************************************

1. Sentence: À quoi se référer , sur quoi s ' appuyer pour leur imaginer un avenir et impulser une autre manière de les habiter ?
No features found.


********** Modality Features **********
***************************************

1. Sentence: À quoi se référer , sur quoi s ' appuyer pour leur imaginer un avenir et impulser une autre manière de les habiter ?
Features :: Feature-Counts :: Feature-Lemmas
--------------------------------------------
marqueurs :: 2 :: [ lui, imaginer ]
epistemique :: 2 :: [ lui, imaginer ]
marqueurs_niveau3 :: 2 :: [ lui, imaginer ]
epistemique_niveau3 :: 2 :: [ lui, imaginer ]
alethique :: 1 :: [ lui ]
alethique_niveau3 :: 1 :: [ lui ]
Total feature counts: 10


********** Adverbiaux Temporels Features **********
********************************************************

1. Sentence: À quoi se référer , sur quoi s ' appuyer pour leur imaginer un avenir et impulser une autre manière de les habiter ?
No features found.

