
********** Entity Names Features **********
*******************************************

1. Sentence: Plutôt que l ' opposition stérile des métiers d ' archi tecte et de paysagiste , cette synthèse des milieux peut rassembler les points de vue 7 au service du projet de territoire .
No features found.


********** Emotions Features **********
***************************************

1. Sentence: Plutôt que l ' opposition stérile des métiers d ' archi tecte et de paysagiste , cette synthèse des milieux peut rassembler les points de vue 7 au service du projet de territoire .
No features found.


********** Modality Features **********
***************************************

1. Sentence: Plutôt que l ' opposition stérile des métiers d ' archi tecte et de paysagiste , cette synthèse des milieux peut rassembler les points de vue 7 au service du projet de territoire .
Features :: Feature-Counts :: Feature-Lemmas
--------------------------------------------
marqueurs :: 2 :: [ stérile, pouvoir ]
alethique :: 2 :: [ stérile, pouvoir ]
deontique :: 1 :: [ pouvoir ]
epistemique :: 1 :: [ pouvoir ]
marqueurs_niveau3 :: 1 :: [ pouvoir ]
marqueurs_niveau2 :: 1 :: [ stérile ]
alethique_niveau3 :: 1 :: [ pouvoir ]
alethique_niveau2 :: 1 :: [ stérile ]
deontique_niveau3 :: 1 :: [ pouvoir ]
epistemique_niveau3 :: 1 :: [ pouvoir ]
Total feature counts: 12


********** Adverbiaux Temporels Features **********
********************************************************

1. Sentence: Plutôt que l ' opposition stérile des métiers d ' archi tecte et de paysagiste , cette synthèse des milieux peut rassembler les points de vue 7 au service du projet de territoire .
No features found.

