
********** Entity Names Features **********
*******************************************

1. Sentence: Ensuite , une fois que des architectes sont retenus , le travail avance dans la concertation .
No features found.


********** Emotions Features **********
***************************************

1. Sentence: Ensuite , une fois que des architectes sont retenus , le travail avance dans la concertation .
No features found.


********** Modality Features **********
***************************************

1. Sentence: Ensuite , une fois que des architectes sont retenus , le travail avance dans la concertation .
Features :: Feature-Counts :: Feature-Lemmas
--------------------------------------------
marqueurs :: 1 :: [ travail ]
appreciatif :: 1 :: [ travail ]
marqueurs_niveau3 :: 1 :: [ travail ]
appreciatif_niveau3 :: 1 :: [ travail ]
Total feature counts: 4


********** Adverbiaux Temporels Features **********
********************************************************

1. Sentence: Ensuite , une fois que des architectes sont retenus , le travail avance dans la concertation .
No features found.

