====== Sentence Level Features ======

1. Sentence: Il est ouvert à l ' aléatoire .
Features :: Feature-Counts :: Feature-Lemmas
--------------------------------------------
marqueurs :: 1 :: [ ouvrir ]
boulique :: 1 :: [ ouvrir ]
marqueurs_niveau3 :: 1 :: [ ouvrir ]
boulique_niveau3 :: 1 :: [ ouvrir ]
Total feature counts: 4


====== Text Level Features ======

Features :: Feature-Counts :: Feature-Lemmas
--------------------------------------------
marqueurs :: 1 :: [ ouvrir ]
boulique :: 1 :: [ ouvrir ]
marqueurs_niveau3 :: 1 :: [ ouvrir ]
boulique_niveau3 :: 1 :: [ ouvrir ]
Total feature counts: 4

