
********** Entity Names Features **********
*******************************************

1. Sentence: L ' Atelier est un capital culturel commun qui s ' est construit au fil des années .
Entity Name (Type) :: Atelier (LOC)


********** Emotions Features **********
***************************************

1. Sentence: L ' Atelier est un capital culturel commun qui s ' est construit au fil des années .
No features found.


********** Modality Features **********
***************************************

1. Sentence: L ' Atelier est un capital culturel commun qui s ' est construit au fil des années .
No features found.


********** Adverbiaux Temporels Features **********
********************************************************

1. Sentence: L ' Atelier est un capital culturel commun qui s ' est construit au fil des années .
Features :: Feature-Counts :: Feature-Texts
--------------------------------------------
adverbiaux_temporels::1::['au fil des années']
adverbiaux_duratifs_iteratifs::1::['au fil des années']
adverbiaux_pointage_non_absolu::1::['au fil des années']
adverbiaux_dur_iter_anaphorique::1::['au fil des années']

