
********** Entity Names Features **********
*******************************************

1. Sentence: J ' approuve , pour ma part , le Grand 8 de Christian Blanc .
Entity Name (Type) :: Christian Blanc (PER)


********** Emotions Features **********
***************************************

1. Sentence: J ' approuve , pour ma part , le Grand 8 de Christian Blanc .
No features found.


********** Modality Features **********
***************************************

1. Sentence: J ' approuve , pour ma part , le Grand 8 de Christian Blanc .
Features :: Feature-Counts :: Feature-Lemmas
--------------------------------------------
marqueurs :: 2 :: [ approuver, grand ]
marqueurs_niveau3 :: 2 :: [ approuver, grand ]
axiologique :: 1 :: [ approuver ]
deontique :: 1 :: [ approuver ]
epistemique :: 1 :: [ grand ]
axiologique_niveau3 :: 1 :: [ approuver ]
deontique_niveau3 :: 1 :: [ approuver ]
epistemique_niveau3 :: 1 :: [ grand ]
Total feature counts: 10


********** Adverbiaux Temporels Features **********
********************************************************

1. Sentence: J ' approuve , pour ma part , le Grand 8 de Christian Blanc .
No features found.

