====== Sentence Level Features ======

1. Sentence: d ' Ulm sont montés au créneau .
Entity Name (Type) :: Ulm (LOC)


====== Text Level Features ======

Entity Name (Entity Type)
-------------------------
Ulm (LOC)
Total entitiy counts: 1

