
********** Entity Names Features **********
*******************************************

1. Sentence: La croissance des livraisons aux entreprises est liée à celle des emplois;
No features found.


********** Emotions Features **********
***************************************

1. Sentence: La croissance des livraisons aux entreprises est liée à celle des emplois;
No features found.


********** Modality Features **********
***************************************

1. Sentence: La croissance des livraisons aux entreprises est liée à celle des emplois;
Features :: Feature-Counts :: Feature-Lemmas
--------------------------------------------
marqueurs :: 1 :: [ emploi ]
appreciatif :: 1 :: [ emploi ]
marqueurs_niveau2 :: 1 :: [ emploi ]
appreciatif_niveau2 :: 1 :: [ emploi ]
Total feature counts: 4


********** Adverbiaux Temporels Features **********
********************************************************

1. Sentence: La croissance des livraisons aux entreprises est liée à celle des emplois;
No features found.

