
********** Entity Names Features **********
*******************************************

1. Sentence: Mais certaines formes urbaines — comme les plans en peigne d ' Arabianranta — sont riches d ' enseignement , s ' insérant dans la géographie , croisant transport et urbanisme et préservant la campagne .
Entity Name (Type) :: Arabianranta (LOC)


********** Emotions Features **********
***************************************

1. Sentence: Mais certaines formes urbaines — comme les plans en peigne d ' Arabianranta — sont riches d ' enseignement , s ' insérant dans la géographie , croisant transport et urbanisme et préservant la campagne .
No features found.


********** Modality Features **********
***************************************

1. Sentence: Mais certaines formes urbaines — comme les plans en peigne d ' Arabianranta — sont riches d ' enseignement , s ' insérant dans la géographie , croisant transport et urbanisme et préservant la campagne .
Features :: Feature-Counts :: Feature-Lemmas
--------------------------------------------
marqueurs :: 3 :: [ certain, riche, croire ]
epistemique :: 2 :: [ certain, croire ]
marqueurs_niveau3 :: 2 :: [ certain, croire ]
epistemique_niveau3 :: 2 :: [ certain, croire ]
appreciatif :: 1 :: [ riche ]
marqueurs_niveau2 :: 1 :: [ riche ]
appreciatif_niveau2 :: 1 :: [ riche ]
Total feature counts: 12


********** Adverbiaux Temporels Features **********
********************************************************

1. Sentence: Mais certaines formes urbaines — comme les plans en peigne d ' Arabianranta — sont riches d ' enseignement , s ' insérant dans la géographie , croisant transport et urbanisme et préservant la campagne .
No features found.

