====== Sentence Level Features ======

1. Sentence: Du côté de la ville ancienne , elle a sans doute été de s ' en tenir à quelques grands projets sans prendre la mesure d ' un tissu qu ' il fallait , lui aussi , essayer de réinventer .
Features :: Feature-Counts :: Feature-Lemmas
--------------------------------------------
marqueurs :: 5 :: [ doute, grand, falloir, lui, essayer ]
marqueurs_niveau3 :: 5 :: [ doute, grand, falloir, lui, essayer ]
epistemique :: 4 :: [ doute, grand, lui, essayer ]
epistemique_niveau3 :: 4 :: [ doute, grand, lui, essayer ]
alethique :: 1 :: [ lui ]
boulique :: 1 :: [ essayer ]
deontique :: 1 :: [ falloir ]
alethique_niveau3 :: 1 :: [ lui ]
boulique_niveau3 :: 1 :: [ essayer ]
deontique_niveau3 :: 1 :: [ falloir ]
Total feature counts: 24


====== Text Level Features ======

Features :: Feature-Counts :: Feature-Lemmas
--------------------------------------------
marqueurs :: 5 :: [ doute, grand, falloir, lui, essayer ]
marqueurs_niveau3 :: 5 :: [ doute, grand, falloir, lui, essayer ]
epistemique :: 4 :: [ doute, grand, lui, essayer ]
epistemique_niveau3 :: 4 :: [ doute, grand, lui, essayer ]
alethique :: 1 :: [ lui ]
boulique :: 1 :: [ essayer ]
deontique :: 1 :: [ falloir ]
alethique_niveau3 :: 1 :: [ lui ]
boulique_niveau3 :: 1 :: [ essayer ]
deontique_niveau3 :: 1 :: [ falloir ]
Total feature counts: 24

