
********** Entity Names Features **********
*******************************************

1. Sentence: Que reste-t-il de vivant dans les territoires commerciaux périurbains , et comment revitaliser ces espaces ?
No features found.


********** Emotions Features **********
***************************************

1. Sentence: Que reste-t-il de vivant dans les territoires commerciaux périurbains , et comment revitaliser ces espaces ?
No features found.


********** Modality Features **********
***************************************

1. Sentence: Que reste-t-il de vivant dans les territoires commerciaux périurbains , et comment revitaliser ces espaces ?
No features found.


********** Adverbiaux Temporels Features **********
********************************************************

1. Sentence: Que reste-t-il de vivant dans les territoires commerciaux périurbains , et comment revitaliser ces espaces ?
No features found.

