====== Sentence Level Features ======

1. Sentence: ils ont sûrement accentué l ' implantation d ' activités en province , c ' est-à-dire leur décentralisation .
Features :: Feature-Counts :: Feature-Lemmas
--------------------------------------------
marqueurs :: 1 :: [ sûrement ]
epistemique :: 1 :: [ sûrement ]
marqueurs_niveau3 :: 1 :: [ sûrement ]
epistemique_niveau3 :: 1 :: [ sûrement ]
Total feature counts: 4


====== Text Level Features ======

Features :: Feature-Counts :: Feature-Lemmas
--------------------------------------------
marqueurs :: 1 :: [ sûrement ]
epistemique :: 1 :: [ sûrement ]
marqueurs_niveau3 :: 1 :: [ sûrement ]
epistemique_niveau3 :: 1 :: [ sûrement ]
Total feature counts: 4

