
********** Entity Names Features **********
*******************************************

1. Sentence: La précarité assure en réalité une grande pérennité .
Entity Name (Type) :: La (LOC)


********** Emotions Features **********
***************************************

1. Sentence: La précarité assure en réalité une grande pérennité .
No features found.


********** Modality Features **********
***************************************

1. Sentence: La précarité assure en réalité une grande pérennité .
Features :: Feature-Counts :: Feature-Lemmas
--------------------------------------------
marqueurs :: 2 :: [ réalité, grand ]
alethique :: 1 :: [ réalité ]
epistemique :: 1 :: [ grand ]
marqueurs_niveau3 :: 1 :: [ grand ]
marqueurs_niveau1 :: 1 :: [ réalité ]
alethique_niveau1 :: 1 :: [ réalité ]
epistemique_niveau3 :: 1 :: [ grand ]
Total feature counts: 8


********** Adverbiaux Temporels Features **********
********************************************************

1. Sentence: La précarité assure en réalité une grande pérennité .
No features found.

