
********** Entity Names Features **********
*******************************************

1. Sentence: Au lancement du concours par François Barré , responsable de son programme , le projet avait été annoncé comme le premier parc du xxie siècle .
Entity Name (Type) :: François Barré (PER)


********** Emotions Features **********
***************************************

1. Sentence: Au lancement du concours par François Barré , responsable de son programme , le projet avait été annoncé comme le premier parc du xxie siècle .
No features found.


********** Modality Features **********
***************************************

1. Sentence: Au lancement du concours par François Barré , responsable de son programme , le projet avait été annoncé comme le premier parc du xxie siècle .
Features :: Feature-Counts :: Feature-Lemmas
--------------------------------------------
marqueurs :: 1 :: [ responsable ]
deontique :: 1 :: [ responsable ]
marqueurs_niveau2 :: 1 :: [ responsable ]
deontique_niveau2 :: 1 :: [ responsable ]
Total feature counts: 4


********** Adverbiaux Temporels Features **********
********************************************************

1. Sentence: Au lancement du concours par François Barré , responsable de son programme , le projet avait été annoncé comme le premier parc du xxie siècle .
Features :: Feature-Counts :: Feature-Texts
--------------------------------------------
adverbiaux_temporels::1::['du xxie siècle']
adverbiaux_localisation_temporelle::1::['du xxie siècle']
adverbiaux_pointage_absolu::1::['du xxie siècle']
adverbiaux_loc_temp_focalisation_id::1::['du xxie siècle']
adverbiaux_loc_temp_regionalisation_id::1::['du xxie siècle']
adverbiaux_loc_temp_pointage_absolu::1::['du xxie siècle']

