
********** Entity Names Features **********
*******************************************

1. Sentence: J ' ai ainsi décroché un contrat sur les jeux (le rôle du jeu dans la vie sociale) avec Francis Godard , un autre sur le développement des pratiques sportives nouvelles .
Entity Name (Type) :: Francis Godard (PER)


********** Emotions Features **********
***************************************

1. Sentence: J ' ai ainsi décroché un contrat sur les jeux (le rôle du jeu dans la vie sociale) avec Francis Godard , un autre sur le développement des pratiques sportives nouvelles .
No features found.


********** Modality Features **********
***************************************

1. Sentence: J ' ai ainsi décroché un contrat sur les jeux (le rôle du jeu dans la vie sociale) avec Francis Godard , un autre sur le développement des pratiques sportives nouvelles .
No features found.


********** Adverbiaux Temporels Features **********
********************************************************

1. Sentence: J ' ai ainsi décroché un contrat sur les jeux (le rôle du jeu dans la vie sociale) avec Francis Godard , un autre sur le développement des pratiques sportives nouvelles .
No features found.

