
********** Entity Names Features **********
*******************************************

1. Sentence: I - SITUATION ACTUELLE DE L ' URBANISME : PARIS ET SA BANLIEUE
Entity Name (Type) :: SA BANLIEUE (ORG)


********** Emotions Features **********
***************************************

1. Sentence: I - SITUATION ACTUELLE DE L ' URBANISME : PARIS ET SA BANLIEUE
No features found.


********** Modality Features **********
***************************************

1. Sentence: I - SITUATION ACTUELLE DE L ' URBANISME : PARIS ET SA BANLIEUE
No features found.


********** Adverbiaux Temporels Features **********
********************************************************

1. Sentence: I - SITUATION ACTUELLE DE L ' URBANISME : PARIS ET SA BANLIEUE
No features found.

