
********** Entity Names Features **********
*******************************************

1. Sentence: Je crois à la pertinence de mon idée de la « ville France » en constitution .
Entity Name (Type) :: ville France (LOC)


********** Emotions Features **********
***************************************

1. Sentence: Je crois à la pertinence de mon idée de la « ville France » en constitution .
No features found.


********** Modality Features **********
***************************************

1. Sentence: Je crois à la pertinence de mon idée de la « ville France » en constitution .
Features :: Feature-Counts :: Feature-Lemmas
--------------------------------------------
marqueurs :: 1 :: [ croire ]
epistemique :: 1 :: [ croire ]
marqueurs_niveau3 :: 1 :: [ croire ]
epistemique_niveau3 :: 1 :: [ croire ]
Total feature counts: 4


********** Adverbiaux Temporels Features **********
********************************************************

1. Sentence: Je crois à la pertinence de mon idée de la « ville France » en constitution .
No features found.

