
********** Entity Names Features **********
*******************************************

1. Sentence: Ce qui composerait ainsi un «paysage zéro» , paysage de préfiguration dont la mise en œuvre et la lisibilité pourraient être très rapides .
No features found.


********** Emotions Features **********
***************************************

1. Sentence: Ce qui composerait ainsi un «paysage zéro» , paysage de préfiguration dont la mise en œuvre et la lisibilité pourraient être très rapides .
No features found.


********** Modality Features **********
***************************************

1. Sentence: Ce qui composerait ainsi un «paysage zéro» , paysage de préfiguration dont la mise en œuvre et la lisibilité pourraient être très rapides .
Features :: Feature-Counts :: Feature-Lemmas
--------------------------------------------
marqueurs :: 2 :: [ pouvoir, rapide ]
epistemique :: 2 :: [ pouvoir, rapide ]
marqueurs_niveau3 :: 2 :: [ pouvoir, rapide ]
epistemique_niveau3 :: 2 :: [ pouvoir, rapide ]
alethique :: 1 :: [ pouvoir ]
deontique :: 1 :: [ pouvoir ]
alethique_niveau3 :: 1 :: [ pouvoir ]
deontique_niveau3 :: 1 :: [ pouvoir ]
Total feature counts: 12


********** Adverbiaux Temporels Features **********
********************************************************

1. Sentence: Ce qui composerait ainsi un «paysage zéro» , paysage de préfiguration dont la mise en œuvre et la lisibilité pourraient être très rapides .
No features found.

