
********** Entity Names Features **********
*******************************************

1. Sentence: La ville est une figure libre D ' après un entretien avec Laurent Théry .
Entity Name (Type) :: Laurent Théry (PER)


********** Emotions Features **********
***************************************

1. Sentence: La ville est une figure libre D ' après un entretien avec Laurent Théry .
No features found.


********** Modality Features **********
***************************************

1. Sentence: La ville est une figure libre D ' après un entretien avec Laurent Théry .
Features :: Feature-Counts :: Feature-Lemmas
--------------------------------------------
marqueurs :: 1 :: [ libre ]
appreciatif :: 1 :: [ libre ]
marqueurs_niveau1 :: 1 :: [ libre ]
appreciatif_niveau1 :: 1 :: [ libre ]
Total feature counts: 4


********** Adverbiaux Temporels Features **********
********************************************************

1. Sentence: La ville est une figure libre D ' après un entretien avec Laurent Théry .
No features found.

