====== Sentence Level Features ======

1. Sentence: La proposition «naturaliste» mise en œuvre à Saclay , préférée à toute solution technicienne , telle la mise en œuvre de tuyaux enterrés , n ' est donc que la redécouverte de solutions que l ' on a perdues et qui ont été élaborées de façon empirique à des époques antérieures .
Features :: Feature-Counts :: Feature-Lemmas
--------------------------------------------
marqueurs :: 1 :: [ perdre ]
appreciatif :: 1 :: [ perdre ]
marqueurs_niveau2 :: 1 :: [ perdre ]
appreciatif_niveau2 :: 1 :: [ perdre ]
Total feature counts: 4


====== Text Level Features ======

Features :: Feature-Counts :: Feature-Lemmas
--------------------------------------------
marqueurs :: 1 :: [ perdre ]
appreciatif :: 1 :: [ perdre ]
marqueurs_niveau2 :: 1 :: [ perdre ]
appreciatif_niveau2 :: 1 :: [ perdre ]
Total feature counts: 4

