====== Sentence Level Features ======

1. Sentence: — offrir une qualité aux espaces résidentiels comme aux espaces publics majeurs .
Features :: Feature-Counts :: Feature-Lemmas
--------------------------------------------
marqueurs :: 1 :: [ offrir ]
appreciatif :: 1 :: [ offrir ]
marqueurs_niveau2 :: 1 :: [ offrir ]
appreciatif_niveau2 :: 1 :: [ offrir ]
Total feature counts: 4


====== Text Level Features ======

Features :: Feature-Counts :: Feature-Lemmas
--------------------------------------------
marqueurs :: 1 :: [ offrir ]
appreciatif :: 1 :: [ offrir ]
marqueurs_niveau2 :: 1 :: [ offrir ]
appreciatif_niveau2 :: 1 :: [ offrir ]
Total feature counts: 4

