
********** Entity Names Features **********
*******************************************

2. Sentence: son besoin de participer à la foule .
No features found.


********** Emotions Features **********
***************************************

2. Sentence: son besoin de participer à la foule .
No features found.


********** Modality Features **********
***************************************

2. Sentence: son besoin de participer à la foule .
Features :: Feature-Counts :: Feature-Lemmas
--------------------------------------------
marqueurs :: 1 :: [ besoin ]
alethique :: 1 :: [ besoin ]
boulique :: 1 :: [ besoin ]
marqueurs_niveau3 :: 1 :: [ besoin ]
alethique_niveau3 :: 1 :: [ besoin ]
boulique_niveau3 :: 1 :: [ besoin ]
Total feature counts: 6


********** Adverbiaux Temporels Features **********
********************************************************

2. Sentence: son besoin de participer à la foule .
No features found.

