
********** Entity Names Features **********
*******************************************

1. Sentence: Enseignement Accademia Svizzera , Mendrizio , Suisse Qualité de la ville diffuse tessinoise
Entity Name (Type) :: Suisse Qualité (ORG)


********** Emotions Features **********
***************************************

1. Sentence: Enseignement Accademia Svizzera , Mendrizio , Suisse Qualité de la ville diffuse tessinoise
No features found.


********** Modality Features **********
***************************************

1. Sentence: Enseignement Accademia Svizzera , Mendrizio , Suisse Qualité de la ville diffuse tessinoise
No features found.


********** Adverbiaux Temporels Features **********
********************************************************

1. Sentence: Enseignement Accademia Svizzera , Mendrizio , Suisse Qualité de la ville diffuse tessinoise
No features found.

