
********** Entity Names Features **********
*******************************************

1. Sentence: Le projet en a été établi par les Services des Chemins de fer de l ’ État .
Entity Name (Type) :: Services des Chemins de fer de l ’ État (ORG)


********** Emotions Features **********
***************************************

1. Sentence: Le projet en a été établi par les Services des Chemins de fer de l ’ État .
Tokens having emotion: [ État ]
Lemmas having emotion: [ état ]
Categories of the emotion lemmas: [ non_specifiee ]


********** Modality Features **********
***************************************

1. Sentence: Le projet en a été établi par les Services des Chemins de fer de l ’ État .
No features found.


********** Adverbiaux Temporels Features **********
********************************************************

1. Sentence: Le projet en a été établi par les Services des Chemins de fer de l ’ État .
No features found.

