
********** Entity Names Features **********
*******************************************

1. Sentence: nous régulons l ' ensemble de son cycle pour répondre aux besoins hydrauliques de la pépinière .
No features found.


********** Emotions Features **********
***************************************

1. Sentence: nous régulons l ' ensemble de son cycle pour répondre aux besoins hydrauliques de la pépinière .
No features found.


********** Modality Features **********
***************************************

1. Sentence: nous régulons l ' ensemble de son cycle pour répondre aux besoins hydrauliques de la pépinière .
Features :: Feature-Counts :: Feature-Lemmas
--------------------------------------------
marqueurs :: 1 :: [ besoin ]
alethique :: 1 :: [ besoin ]
boulique :: 1 :: [ besoin ]
marqueurs_niveau3 :: 1 :: [ besoin ]
alethique_niveau3 :: 1 :: [ besoin ]
boulique_niveau3 :: 1 :: [ besoin ]
Total feature counts: 6


********** Adverbiaux Temporels Features **********
********************************************************

1. Sentence: nous régulons l ' ensemble de son cycle pour répondre aux besoins hydrauliques de la pépinière .
No features found.

