====== Sentence Level Features ======

1. Sentence: il est probable que cette proportion évoluera peu , car la plupart des activités situées dans les zones d ' habitat sont des services destinés aux besoins les plus constants de la population et les emplois correspondants varient sensiblement comme cette population .
Features :: Feature-Counts :: Feature-Lemmas
--------------------------------------------
marqueurs :: 3 :: [ probable, besoin, emploi ]
marqueurs_niveau3 :: 2 :: [ probable, besoin ]
alethique :: 1 :: [ besoin ]
appreciatif :: 1 :: [ emploi ]
boulique :: 1 :: [ besoin ]
epistemique :: 1 :: [ probable ]
marqueurs_niveau2 :: 1 :: [ emploi ]
alethique_niveau3 :: 1 :: [ besoin ]
appreciatif_niveau2 :: 1 :: [ emploi ]
boulique_niveau3 :: 1 :: [ besoin ]
epistemique_niveau3 :: 1 :: [ probable ]
Total feature counts: 14


====== Text Level Features ======

Features :: Feature-Counts :: Feature-Lemmas
--------------------------------------------
marqueurs :: 3 :: [ probable, besoin, emploi ]
marqueurs_niveau3 :: 2 :: [ probable, besoin ]
alethique :: 1 :: [ besoin ]
appreciatif :: 1 :: [ emploi ]
boulique :: 1 :: [ besoin ]
epistemique :: 1 :: [ probable ]
marqueurs_niveau2 :: 1 :: [ emploi ]
alethique_niveau3 :: 1 :: [ besoin ]
appreciatif_niveau2 :: 1 :: [ emploi ]
boulique_niveau3 :: 1 :: [ besoin ]
epistemique_niveau3 :: 1 :: [ probable ]
Total feature counts: 14

