====== Sentence Level Features ======

1. Sentence: Les ordres de grandeur d ' ensemble commandent , il faut le rappeler ici .
Features :: Feature-Counts :: Feature-Lemmas
--------------------------------------------
marqueurs :: 3 :: [ ordre, commander, falloir ]
deontique :: 3 :: [ ordre, commander, falloir ]
marqueurs_niveau3 :: 2 :: [ commander, falloir ]
deontique_niveau3 :: 2 :: [ commander, falloir ]
marqueurs_niveau2 :: 1 :: [ ordre ]
deontique_niveau2 :: 1 :: [ ordre ]
Total feature counts: 12


====== Text Level Features ======

Features :: Feature-Counts :: Feature-Lemmas
--------------------------------------------
marqueurs :: 3 :: [ ordre, commander, falloir ]
deontique :: 3 :: [ ordre, commander, falloir ]
marqueurs_niveau3 :: 2 :: [ commander, falloir ]
deontique_niveau3 :: 2 :: [ commander, falloir ]
marqueurs_niveau2 :: 1 :: [ ordre ]
deontique_niveau2 :: 1 :: [ ordre ]
Total feature counts: 12

