
********** Entity Names Features **********
*******************************************

1. Sentence: 2 , 5%	Châlons-sur-Marne
Entity Name (Type) :: Châlons-sur-Marne (LOC)


********** Emotions Features **********
***************************************

1. Sentence: 2 , 5%	Châlons-sur-Marne
No features found.


********** Modality Features **********
***************************************

1. Sentence: 2 , 5%	Châlons-sur-Marne
No features found.


********** Adverbiaux Temporels Features **********
********************************************************

1. Sentence: 2 , 5%	Châlons-sur-Marne
No features found.

