====== Sentence Level Features ======

1. Sentence: dans un processus de stratification , en particulier les morceaux de ville linéaire de la plaine pouvant être repensés à partir de la restructuration des aires autour des gares et d ' une meilleure compréhension de la topographie;
Features :: Feature-Counts :: Feature-Lemmas
--------------------------------------------
marqueurs :: 3 :: [ pouvoir, partir, meilleur ]
alethique :: 2 :: [ pouvoir, partir ]
appreciatif :: 1 :: [ meilleur ]
axiologique :: 1 :: [ meilleur ]
deontique :: 1 :: [ pouvoir ]
epistemique :: 1 :: [ pouvoir ]
marqueurs_niveau3 :: 1 :: [ pouvoir ]
marqueurs_niveau2 :: 1 :: [ meilleur ]
marqueurs_niveau1 :: 1 :: [ partir ]
alethique_niveau3 :: 1 :: [ pouvoir ]
alethique_niveau1 :: 1 :: [ partir ]
appreciatif_niveau2 :: 1 :: [ meilleur ]
axiologique_niveau2 :: 1 :: [ meilleur ]
deontique_niveau3 :: 1 :: [ pouvoir ]
epistemique_niveau3 :: 1 :: [ pouvoir ]
Total feature counts: 18


====== Text Level Features ======

Features :: Feature-Counts :: Feature-Lemmas
--------------------------------------------
marqueurs :: 3 :: [ pouvoir, partir, meilleur ]
alethique :: 2 :: [ pouvoir, partir ]
appreciatif :: 1 :: [ meilleur ]
axiologique :: 1 :: [ meilleur ]
deontique :: 1 :: [ pouvoir ]
epistemique :: 1 :: [ pouvoir ]
marqueurs_niveau3 :: 1 :: [ pouvoir ]
marqueurs_niveau2 :: 1 :: [ meilleur ]
marqueurs_niveau1 :: 1 :: [ partir ]
alethique_niveau3 :: 1 :: [ pouvoir ]
alethique_niveau1 :: 1 :: [ partir ]
appreciatif_niveau2 :: 1 :: [ meilleur ]
axiologique_niveau2 :: 1 :: [ meilleur ]
deontique_niveau3 :: 1 :: [ pouvoir ]
epistemique_niveau3 :: 1 :: [ pouvoir ]
Total feature counts: 18

