====== Sentence Level Features ======

1. Sentence: Le paysage en préalable L ' image du cluster devient forte et évidente .
Entity Name (Type) :: L (MISC)


====== Text Level Features ======

Entity Name (Entity Type)
-------------------------
L (MISC)
Total entitiy counts: 1

