
********** Entity Names Features **********
*******************************************

1. Sentence: Tous les deux sont consacrés à l ' élaboration de stratégies d ' aménagement de l ' espace sur le long terme du territoire métropolitain .
No features found.


********** Emotions Features **********
***************************************

1. Sentence: Tous les deux sont consacrés à l ' élaboration de stratégies d ' aménagement de l ' espace sur le long terme du territoire métropolitain .
No features found.


********** Modality Features **********
***************************************

1. Sentence: Tous les deux sont consacrés à l ' élaboration de stratégies d ' aménagement de l ' espace sur le long terme du territoire métropolitain .
Features :: Feature-Counts :: Feature-Lemmas
--------------------------------------------
marqueurs :: 1 :: [ long ]
epistemique :: 1 :: [ long ]
marqueurs_niveau2 :: 1 :: [ long ]
epistemique_niveau2 :: 1 :: [ long ]
Total feature counts: 4


********** Adverbiaux Temporels Features **********
********************************************************

1. Sentence: Tous les deux sont consacrés à l ' élaboration de stratégies d ' aménagement de l ' espace sur le long terme du territoire métropolitain .
No features found.

