
********** Entity Names Features **********
*******************************************

1. Sentence: Le projet SAS Suède s ' inscrit dans le développement du quartier d ' Arenc au nord du secteur Euroméditerranée .
Entity Name (Type) :: Euroméditerranée (LOC)


********** Emotions Features **********
***************************************

1. Sentence: Le projet SAS Suède s ' inscrit dans le développement du quartier d ' Arenc au nord du secteur Euroméditerranée .
No features found.


********** Modality Features **********
***************************************

1. Sentence: Le projet SAS Suède s ' inscrit dans le développement du quartier d ' Arenc au nord du secteur Euroméditerranée .
No features found.


********** Adverbiaux Temporels Features **********
********************************************************

1. Sentence: Le projet SAS Suède s ' inscrit dans le développement du quartier d ' Arenc au nord du secteur Euroméditerranée .
No features found.

