
********** Entity Names Features **********
*******************************************

1. Sentence: Ces sols sont irréparables car leur écriture datée n ' est pas reproductible , les Calmer le jeu de l ' espace public
Entity Name (Type) :: les Calmer (MISC)


********** Emotions Features **********
***************************************

1. Sentence: Ces sols sont irréparables car leur écriture datée n ' est pas reproductible , les Calmer le jeu de l ' espace public
No features found.


********** Modality Features **********
***************************************

1. Sentence: Ces sols sont irréparables car leur écriture datée n ' est pas reproductible , les Calmer le jeu de l ' espace public
No features found.


********** Adverbiaux Temporels Features **********
********************************************************

1. Sentence: Ces sols sont irréparables car leur écriture datée n ' est pas reproductible , les Calmer le jeu de l ' espace public
No features found.

