
********** Entity Names Features **********
*******************************************

1. Sentence: Le double axe principal : la Seine-aval au large des deux rives
Entity Name (Type) :: Seine-aval (LOC)


********** Emotions Features **********
***************************************

1. Sentence: Le double axe principal : la Seine-aval au large des deux rives
No features found.


********** Modality Features **********
***************************************

1. Sentence: Le double axe principal : la Seine-aval au large des deux rives
No features found.


********** Adverbiaux Temporels Features **********
********************************************************

1. Sentence: Le double axe principal : la Seine-aval au large des deux rives
No features found.

