
********** Entity Names Features **********
*******************************************

1. Sentence: Il y a un rapport entre les structures théoriques du projet (catégories , identifiants , dispositifs , dynamiques) et les structures de la représentation .
No features found.


********** Emotions Features **********
***************************************

1. Sentence: Il y a un rapport entre les structures théoriques du projet (catégories , identifiants , dispositifs , dynamiques) et les structures de la représentation .
No features found.


********** Modality Features **********
***************************************

1. Sentence: Il y a un rapport entre les structures théoriques du projet (catégories , identifiants , dispositifs , dynamiques) et les structures de la représentation .
No features found.


********** Adverbiaux Temporels Features **********
********************************************************

1. Sentence: Il y a un rapport entre les structures théoriques du projet (catégories , identifiants , dispositifs , dynamiques) et les structures de la représentation .
No features found.

