====== Sentence Level Features ======

1. Sentence: C ' est ainsi que la « Preuve par 7 » explore sept échelles d ' intervention différentes , du village à la métropole .
Features :: Feature-Counts :: Feature-Lemmas
--------------------------------------------
marqueurs :: 1 :: [ preuve ]
pas_d_indication :: 1 :: [ preuve ]
marqueurs_niveau0 :: 1 :: [ preuve ]
pas_d_indication_niveau0 :: 1 :: [ preuve ]
Total feature counts: 4


====== Text Level Features ======

Features :: Feature-Counts :: Feature-Lemmas
--------------------------------------------
marqueurs :: 1 :: [ preuve ]
pas_d_indication :: 1 :: [ preuve ]
marqueurs_niveau0 :: 1 :: [ preuve ]
pas_d_indication_niveau0 :: 1 :: [ preuve ]
Total feature counts: 4

