====== Sentence Level Features ======

1. Sentence: Le plan de 1965 - ce schéma directeur - vient au moment de l ' un de ces recommencements dont l ' histoire de Paris est jalonnée;
Features :: Feature-Counts :: Feature-Texts
--------------------------------------------
adverbiaux_temporels::1::['de 1965']
adverbiaux_localisation_temporelle::1::['de 1965']
adverbiaux_pointage_absolu::1::['de 1965']
adverbiaux_loc_temp_focalisation_id::1::['de 1965']
adverbiaux_loc_temp_regionalisation_id::1::['de 1965']
adverbiaux_loc_temp_pointage_absolu::1::['de 1965']


====== Text Level Features ======

Features :: Feature-Counts :: Feature-Texts
--------------------------------------------
adverbiaux_temporels::1::['de 1965']
adverbiaux_localisation_temporelle::1::['de 1965']
adverbiaux_pointage_absolu::1::['de 1965']
adverbiaux_loc_temp_focalisation_id::1::['de 1965']
adverbiaux_loc_temp_regionalisation_id::1::['de 1965']
adverbiaux_loc_temp_pointage_absolu::1::['de 1965']
Total feature counts: 6

