====== Sentence Level Features ======

1. Sentence: Les grandes villes sont aujourd ' hui les lieux où se concentrent massivement les plus éduqués , mais aussi , plus généralement , les jeunes .
Features :: Feature-Counts :: Feature-Lemmas
--------------------------------------------
marqueurs :: 3 :: [ grand, généralement, jeune ]
marqueurs_niveau3 :: 2 :: [ grand, généralement ]
alethique :: 1 :: [ généralement ]
epistemique :: 1 :: [ grand ]
pas_d_indication :: 1 :: [ jeune ]
marqueurs_niveau0 :: 1 :: [ jeune ]
alethique_niveau3 :: 1 :: [ généralement ]
epistemique_niveau3 :: 1 :: [ grand ]
pas_d_indication_niveau0 :: 1 :: [ jeune ]
Total feature counts: 12


====== Text Level Features ======

Features :: Feature-Counts :: Feature-Lemmas
--------------------------------------------
marqueurs :: 3 :: [ grand, généralement, jeune ]
marqueurs_niveau3 :: 2 :: [ grand, généralement ]
alethique :: 1 :: [ généralement ]
epistemique :: 1 :: [ grand ]
pas_d_indication :: 1 :: [ jeune ]
marqueurs_niveau0 :: 1 :: [ jeune ]
alethique_niveau3 :: 1 :: [ généralement ]
epistemique_niveau3 :: 1 :: [ grand ]
pas_d_indication_niveau0 :: 1 :: [ jeune ]
Total feature counts: 12

