====== Sentence Level Features ======

1. Sentence: Ch~x	27 . 000 30 . 000 38 . 000 38 . 000 41 . 000 27 . 000 38 . 000 27 . 000 22 . 000 29 . 000 56 . 000 21 . 000 3 1 . 000 21 . 000 22 . 000 18 . 000 19 . 000 58 . 000 21 . 000 50 . 000 32 . 000		36 . 000 39 . 000 49 . 000 49 . 000 52 . 000 32 . 000 46 . 000 33 . 000 27 . 000 36 . 000 67 . 000 25 . 000 36 . 000 24 . 000 26 . 000 22 . 000 22 . 000 66 . 000 24 . 000 57 . 000 36 .
No features found.

2. Sentence: 000
No features found.


====== Text Level Features ======

No features found.

