
********** Entity Names Features **********
*******************************************

1. Sentence: Il s ' agit , à l ' ère contemporaine , de savoir fabriquer un territoire d ' une taille tout à fait comparable à Boston ou Minneapolis .
Entity Name (Type) :: Minneapolis (LOC)


********** Emotions Features **********
***************************************

1. Sentence: Il s ' agit , à l ' ère contemporaine , de savoir fabriquer un territoire d ' une taille tout à fait comparable à Boston ou Minneapolis .
No features found.


********** Modality Features **********
***************************************

1. Sentence: Il s ' agit , à l ' ère contemporaine , de savoir fabriquer un territoire d ' une taille tout à fait comparable à Boston ou Minneapolis .
Features :: Feature-Counts :: Feature-Lemmas
--------------------------------------------
marqueurs :: 1 :: [ savoir ]
epistemique :: 1 :: [ savoir ]
marqueurs_niveau3 :: 1 :: [ savoir ]
epistemique_niveau3 :: 1 :: [ savoir ]
Total feature counts: 4


********** Adverbiaux Temporels Features **********
********************************************************

1. Sentence: Il s ' agit , à l ' ère contemporaine , de savoir fabriquer un territoire d ' une taille tout à fait comparable à Boston ou Minneapolis .
No features found.

