====== Sentence Level Features ======

1. Sentence: la structure urbaine depuis toujours calée sur Écoquartier de Viikki à Helsinki , 1995-2014 .
Features :: Feature-Counts :: Feature-Lemmas
--------------------------------------------
marqueurs :: 1 :: [ toujours ]
alethique :: 1 :: [ toujours ]
marqueurs_niveau3 :: 1 :: [ toujours ]
alethique_niveau3 :: 1 :: [ toujours ]
Total feature counts: 4


====== Text Level Features ======

Features :: Feature-Counts :: Feature-Lemmas
--------------------------------------------
marqueurs :: 1 :: [ toujours ]
alethique :: 1 :: [ toujours ]
marqueurs_niveau3 :: 1 :: [ toujours ]
alethique_niveau3 :: 1 :: [ toujours ]
Total feature counts: 4

