====== Sentence Level Features ======

1. Sentence: Fig 36
Entity Name (Type) :: Fig 36 (MISC)


====== Text Level Features ======

Entity Name (Entity Type)
-------------------------
Fig 36 (MISC)
Total entitiy counts: 1

