====== Sentence Level Features ======

1. Sentence: Deuxième point sur lequel je voudrais insister et essayer de donner des idées flashes c ’ est ce que nous appelons dans notre jargon " l ' urbanisme opérationnel” .
Features :: Feature-Counts :: Feature-Lemmas
--------------------------------------------
marqueurs :: 2 :: [ vouloir, essayer ]
boulique :: 2 :: [ vouloir, essayer ]
marqueurs_niveau3 :: 2 :: [ vouloir, essayer ]
boulique_niveau3 :: 2 :: [ vouloir, essayer ]
epistemique :: 1 :: [ essayer ]
epistemique_niveau3 :: 1 :: [ essayer ]
Total feature counts: 10


====== Text Level Features ======

Features :: Feature-Counts :: Feature-Lemmas
--------------------------------------------
marqueurs :: 2 :: [ vouloir, essayer ]
boulique :: 2 :: [ vouloir, essayer ]
marqueurs_niveau3 :: 2 :: [ vouloir, essayer ]
boulique_niveau3 :: 2 :: [ vouloir, essayer ]
epistemique :: 1 :: [ essayer ]
epistemique_niveau3 :: 1 :: [ essayer ]
Total feature counts: 10

