====== Sentence Level Features ======

1. Sentence: Il est dans la ville , qui offre des temps simultanés , le garant de la pérennité .
Features :: Feature-Counts :: Feature-Lemmas
--------------------------------------------
marqueurs :: 1 :: [ offrir ]
appreciatif :: 1 :: [ offrir ]
marqueurs_niveau2 :: 1 :: [ offrir ]
appreciatif_niveau2 :: 1 :: [ offrir ]
Total feature counts: 4


====== Text Level Features ======

Features :: Feature-Counts :: Feature-Lemmas
--------------------------------------------
marqueurs :: 1 :: [ offrir ]
appreciatif :: 1 :: [ offrir ]
marqueurs_niveau2 :: 1 :: [ offrir ]
appreciatif_niveau2 :: 1 :: [ offrir ]
Total feature counts: 4

