====== Sentence Level Features ======

1. Sentence: Nous y travaillons en ce moment avec François Grether et Michel Desvigne , membres initiaux de notre groupement , et avec François Barré , qui nous a rejoints , pour la programmation .
Features :: Feature-Counts :: Feature-Lemmas
--------------------------------------------
marqueurs :: 1 :: [ travailler ]
appreciatif :: 1 :: [ travailler ]
marqueurs_niveau2 :: 1 :: [ travailler ]
appreciatif_niveau2 :: 1 :: [ travailler ]
Total feature counts: 4


====== Text Level Features ======

Features :: Feature-Counts :: Feature-Lemmas
--------------------------------------------
marqueurs :: 1 :: [ travailler ]
appreciatif :: 1 :: [ travailler ]
marqueurs_niveau2 :: 1 :: [ travailler ]
appreciatif_niveau2 :: 1 :: [ travailler ]
Total feature counts: 4

