====== Sentence Level Features ======

1. Sentence: Dans ce pays voisin , un directeur de l ' urbanisme dispose d ' une grande marge de manœuvre et peut s ' exprimer au nom de la collectivité , alors qu ' en France la parole est réservée aux élus .
Features :: Feature-Counts :: Feature-Lemmas
--------------------------------------------
marqueurs :: 3 :: [ grand, pouvoir, élu ]
epistemique :: 2 :: [ grand, pouvoir ]
marqueurs_niveau3 :: 2 :: [ grand, pouvoir ]
epistemique_niveau3 :: 2 :: [ grand, pouvoir ]
alethique :: 1 :: [ pouvoir ]
deontique :: 1 :: [ pouvoir ]
pas_d_indication :: 1 :: [ élu ]
marqueurs_niveau0 :: 1 :: [ élu ]
alethique_niveau3 :: 1 :: [ pouvoir ]
deontique_niveau3 :: 1 :: [ pouvoir ]
pas_d_indication_niveau0 :: 1 :: [ élu ]
Total feature counts: 16


====== Text Level Features ======

Features :: Feature-Counts :: Feature-Lemmas
--------------------------------------------
marqueurs :: 3 :: [ grand, pouvoir, élu ]
epistemique :: 2 :: [ grand, pouvoir ]
marqueurs_niveau3 :: 2 :: [ grand, pouvoir ]
epistemique_niveau3 :: 2 :: [ grand, pouvoir ]
alethique :: 1 :: [ pouvoir ]
deontique :: 1 :: [ pouvoir ]
pas_d_indication :: 1 :: [ élu ]
marqueurs_niveau0 :: 1 :: [ élu ]
alethique_niveau3 :: 1 :: [ pouvoir ]
deontique_niveau3 :: 1 :: [ pouvoir ]
pas_d_indication_niveau0 :: 1 :: [ élu ]
Total feature counts: 16

