
********** Entity Names Features **********
*******************************************

1. Sentence: Quelques emplacements étaient déjà prévus dans le Plan d ' aménagement et d ' organisation générale de la région parisienne (P . A . D . O . G . ) .
Entity Name (Type) :: G (LOC)


********** Emotions Features **********
***************************************

1. Sentence: Quelques emplacements étaient déjà prévus dans le Plan d ' aménagement et d ' organisation générale de la région parisienne (P . A . D . O . G . ) .
No features found.


********** Modality Features **********
***************************************

1. Sentence: Quelques emplacements étaient déjà prévus dans le Plan d ' aménagement et d ' organisation générale de la région parisienne (P . A . D . O . G . ) .
No features found.


********** Adverbiaux Temporels Features **********
********************************************************

1. Sentence: Quelques emplacements étaient déjà prévus dans le Plan d ' aménagement et d ' organisation générale de la région parisienne (P . A . D . O . G . ) .
No features found.

