====== Sentence Level Features ======

1. Sentence: Les grands réseaux , celui de l ' Équipement , celui de la Scet , dont le rôle est irremplaçable pour développer les innovations , mettre en commun les références , parviennent mal à se départir de leur technicisme , de leur méfiance à l ' égard des architectes-urbanistes trop indépendants d ' esprit…
Features :: Feature-Counts :: Feature-Lemmas
--------------------------------------------
marqueurs :: 4 :: [ grand, mal, méfiance, esprit ]
marqueurs_niveau3 :: 3 :: [ grand, mal, esprit ]
epistemique :: 2 :: [ grand, esprit ]
epistemique_niveau3 :: 2 :: [ grand, esprit ]
appreciatif :: 1 :: [ mal ]
axiologique :: 1 :: [ mal ]
pas_d_indication :: 1 :: [ méfiance ]
marqueurs_niveau0 :: 1 :: [ méfiance ]
appreciatif_niveau3 :: 1 :: [ mal ]
axiologique_niveau3 :: 1 :: [ mal ]
pas_d_indication_niveau0 :: 1 :: [ méfiance ]
Total feature counts: 18


====== Text Level Features ======

Features :: Feature-Counts :: Feature-Lemmas
--------------------------------------------
marqueurs :: 4 :: [ grand, mal, méfiance, esprit ]
marqueurs_niveau3 :: 3 :: [ grand, mal, esprit ]
epistemique :: 2 :: [ grand, esprit ]
epistemique_niveau3 :: 2 :: [ grand, esprit ]
appreciatif :: 1 :: [ mal ]
axiologique :: 1 :: [ mal ]
pas_d_indication :: 1 :: [ méfiance ]
marqueurs_niveau0 :: 1 :: [ méfiance ]
appreciatif_niveau3 :: 1 :: [ mal ]
axiologique_niveau3 :: 1 :: [ mal ]
pas_d_indication_niveau0 :: 1 :: [ méfiance ]
Total feature counts: 18

