
********** Entity Names Features **********
*******************************************

1. Sentence: la géographie des activités , la dynamique des villes et des territoires , de l ' autre .
No features found.


********** Emotions Features **********
***************************************

1. Sentence: la géographie des activités , la dynamique des villes et des territoires , de l ' autre .
No features found.


********** Modality Features **********
***************************************

1. Sentence: la géographie des activités , la dynamique des villes et des territoires , de l ' autre .
No features found.


********** Adverbiaux Temporels Features **********
********************************************************

1. Sentence: la géographie des activités , la dynamique des villes et des territoires , de l ' autre .
No features found.

