====== Sentence Level Features ======

1. Sentence: Ils ont laissé sur place les rêves à la Poussin du Mouvement moderne , Chandigarh , Brasilia , les lacs encore intacts de Futur System et l ' Atlanpole que Nantes avait un moment adoptée .
Features :: Feature-Counts :: Feature-Lemmas
--------------------------------------------
marqueurs :: 3 :: [ laisser, rêve, moderne ]
alethique :: 1 :: [ rêve ]
appreciatif :: 1 :: [ rêve ]
deontique :: 1 :: [ laisser ]
pas_d_indication :: 1 :: [ moderne ]
marqueurs_niveau2 :: 1 :: [ laisser ]
marqueurs_niveau1 :: 1 :: [ rêve ]
marqueurs_niveau0 :: 1 :: [ moderne ]
alethique_niveau1 :: 1 :: [ rêve ]
appreciatif_niveau1 :: 1 :: [ rêve ]
deontique_niveau2 :: 1 :: [ laisser ]
pas_d_indication_niveau0 :: 1 :: [ moderne ]
Total feature counts: 14


====== Text Level Features ======

Features :: Feature-Counts :: Feature-Lemmas
--------------------------------------------
marqueurs :: 3 :: [ laisser, rêve, moderne ]
alethique :: 1 :: [ rêve ]
appreciatif :: 1 :: [ rêve ]
deontique :: 1 :: [ laisser ]
pas_d_indication :: 1 :: [ moderne ]
marqueurs_niveau2 :: 1 :: [ laisser ]
marqueurs_niveau1 :: 1 :: [ rêve ]
marqueurs_niveau0 :: 1 :: [ moderne ]
alethique_niveau1 :: 1 :: [ rêve ]
appreciatif_niveau1 :: 1 :: [ rêve ]
deontique_niveau2 :: 1 :: [ laisser ]
pas_d_indication_niveau0 :: 1 :: [ moderne ]
Total feature counts: 14

