
********** Entity Names Features **********
*******************************************

1. Sentence: Mais sa préférence , c ' est l ' architecture navale .
No features found.


********** Emotions Features **********
***************************************

1. Sentence: Mais sa préférence , c ' est l ' architecture navale .
Tokens having emotion: [ préférence ]
Lemmas having emotion: [ préférence ]
Categories of the emotion lemmas: [ amour ]


********** Modality Features **********
***************************************

1. Sentence: Mais sa préférence , c ' est l ' architecture navale .
No features found.


********** Adverbiaux Temporels Features **********
********************************************************

1. Sentence: Mais sa préférence , c ' est l ' architecture navale .
No features found.

