
********** Entity Names Features **********
*******************************************

1. Sentence: Ainsi se dégagent des faits les trois principes qui sont à la base du schéma directeur proposé et qu ' il convient d ' expliciter :
No features found.


********** Emotions Features **********
***************************************

1. Sentence: Ainsi se dégagent des faits les trois principes qui sont à la base du schéma directeur proposé et qu ' il convient d ' expliciter :
No features found.


********** Modality Features **********
***************************************

1. Sentence: Ainsi se dégagent des faits les trois principes qui sont à la base du schéma directeur proposé et qu ' il convient d ' expliciter :
No features found.


********** Adverbiaux Temporels Features **********
********************************************************

1. Sentence: Ainsi se dégagent des faits les trois principes qui sont à la base du schéma directeur proposé et qu ' il convient d ' expliciter :
No features found.

