====== Sentence Level Features ======

1. Sentence: L ' observation précise du territoire est un préalable à l ' élaboration de nos projets .
Entity Name (Type) :: L (LOC)


====== Text Level Features ======

Entity Name (Entity Type)
-------------------------
L (LOC)
Total entitiy counts: 1

