
********** Entity Names Features **********
*******************************************

1. Sentence: Je vois la ville comme une question globale , qui fait société , et non comme une question d ' urbanisme ou de représentation .
Entity Name (Type) :: Je (LOC)


********** Emotions Features **********
***************************************

1. Sentence: Je vois la ville comme une question globale , qui fait société , et non comme une question d ' urbanisme ou de représentation .
No features found.


********** Modality Features **********
***************************************

1. Sentence: Je vois la ville comme une question globale , qui fait société , et non comme une question d ' urbanisme ou de représentation .
No features found.


********** Adverbiaux Temporels Features **********
********************************************************

1. Sentence: Je vois la ville comme une question globale , qui fait société , et non comme une question d ' urbanisme ou de représentation .
No features found.

