====== Sentence Level Features ======

1. Sentence: Maintenant , plus que jamais , les transformations et les aménagements des rivages apparaissent comme un important enjeu de représentation , de rayonnement et d ' attractivité .
Features :: Feature-Counts :: Feature-Lemmas
--------------------------------------------
marqueurs :: 2 :: [ jamais, important ]
alethique :: 1 :: [ jamais ]
appreciatif :: 1 :: [ important ]
axiologique :: 1 :: [ important ]
epistemique :: 1 :: [ important ]
marqueurs_niveau3 :: 1 :: [ jamais ]
marqueurs_niveau1 :: 1 :: [ important ]
alethique_niveau3 :: 1 :: [ jamais ]
appreciatif_niveau1 :: 1 :: [ important ]
axiologique_niveau1 :: 1 :: [ important ]
epistemique_niveau1 :: 1 :: [ important ]
Total feature counts: 12


====== Text Level Features ======

Features :: Feature-Counts :: Feature-Lemmas
--------------------------------------------
marqueurs :: 2 :: [ jamais, important ]
alethique :: 1 :: [ jamais ]
appreciatif :: 1 :: [ important ]
axiologique :: 1 :: [ important ]
epistemique :: 1 :: [ important ]
marqueurs_niveau3 :: 1 :: [ jamais ]
marqueurs_niveau1 :: 1 :: [ important ]
alethique_niveau3 :: 1 :: [ jamais ]
appreciatif_niveau1 :: 1 :: [ important ]
axiologique_niveau1 :: 1 :: [ important ]
epistemique_niveau1 :: 1 :: [ important ]
Total feature counts: 12

