====== Sentence Level Features ======

1. Sentence: — une quinzaine d ' emplois (architecture , paysage et urbanisme) ;
Features :: Feature-Counts :: Feature-Lemmas
--------------------------------------------
marqueurs :: 1 :: [ emploi ]
appreciatif :: 1 :: [ emploi ]
marqueurs_niveau2 :: 1 :: [ emploi ]
appreciatif_niveau2 :: 1 :: [ emploi ]
Total feature counts: 4


====== Text Level Features ======

Features :: Feature-Counts :: Feature-Lemmas
--------------------------------------------
marqueurs :: 1 :: [ emploi ]
appreciatif :: 1 :: [ emploi ]
marqueurs_niveau2 :: 1 :: [ emploi ]
appreciatif_niveau2 :: 1 :: [ emploi ]
Total feature counts: 4

