
********** Entity Names Features **********
*******************************************

1. Sentence: « À quelles conditions Tokyo peut-elle devenir la ville du XXIe siècle ?
Entity Name (Type) :: Tokyo (LOC)


********** Emotions Features **********
***************************************

1. Sentence: « À quelles conditions Tokyo peut-elle devenir la ville du XXIe siècle ?
No features found.


********** Modality Features **********
***************************************

1. Sentence: « À quelles conditions Tokyo peut-elle devenir la ville du XXIe siècle ?
Features :: Feature-Counts :: Feature-Lemmas
--------------------------------------------
marqueurs :: 1 :: [ pouvoir ]
alethique :: 1 :: [ pouvoir ]
deontique :: 1 :: [ pouvoir ]
epistemique :: 1 :: [ pouvoir ]
marqueurs_niveau3 :: 1 :: [ pouvoir ]
alethique_niveau3 :: 1 :: [ pouvoir ]
deontique_niveau3 :: 1 :: [ pouvoir ]
epistemique_niveau3 :: 1 :: [ pouvoir ]
Total feature counts: 8


********** Adverbiaux Temporels Features **********
********************************************************

1. Sentence: « À quelles conditions Tokyo peut-elle devenir la ville du XXIe siècle ?
Features :: Feature-Counts :: Feature-Texts
--------------------------------------------
adverbiaux_temporels::1::['du XXIe siècle']
adverbiaux_localisation_temporelle::1::['du XXIe siècle']
adverbiaux_pointage_absolu::1::['du XXIe siècle']
adverbiaux_loc_temp_focalisation_id::1::['du XXIe siècle']
adverbiaux_loc_temp_regionalisation_id::1::['du XXIe siècle']
adverbiaux_loc_temp_pointage_absolu::1::['du XXIe siècle']

