====== Sentence Level Features ======

1. Sentence: Ariella Masboungi  : La démarche animée par Euralens évoque la labellisation Iba , notamment l ' Iba Emscher Park (1989-1999) qui s ' est penchée sur le développement de la région de la Ruhr , dévastée par l ' industria lisation puis par la fermeture des mines et des hauts fourneaux .
Features :: Feature-Counts :: Feature-Lemmas
--------------------------------------------
marqueurs :: 2 :: [ dévaster, haut ]
appreciatif :: 1 :: [ dévaster ]
axiologique :: 1 :: [ dévaster ]
pas_d_indication :: 1 :: [ haut ]
marqueurs_niveau1 :: 1 :: [ dévaster ]
marqueurs_niveau0 :: 1 :: [ haut ]
appreciatif_niveau1 :: 1 :: [ dévaster ]
axiologique_niveau1 :: 1 :: [ dévaster ]
pas_d_indication_niveau0 :: 1 :: [ haut ]
Total feature counts: 10


====== Text Level Features ======

Features :: Feature-Counts :: Feature-Lemmas
--------------------------------------------
marqueurs :: 2 :: [ dévaster, haut ]
appreciatif :: 1 :: [ dévaster ]
axiologique :: 1 :: [ dévaster ]
pas_d_indication :: 1 :: [ haut ]
marqueurs_niveau1 :: 1 :: [ dévaster ]
marqueurs_niveau0 :: 1 :: [ haut ]
appreciatif_niveau1 :: 1 :: [ dévaster ]
axiologique_niveau1 :: 1 :: [ dévaster ]
pas_d_indication_niveau0 :: 1 :: [ haut ]
Total feature counts: 10

