====== Sentence Level Features ======

1. Sentence: Mon rôle a donc été celui d ' assister la maîtrise d ' ouvrage .
Entity Name (Type) :: Mon rôle (MISC)


====== Text Level Features ======

Entity Name (Entity Type)
-------------------------
Mon rôle (MISC)
Total entitiy counts: 1

