
********** Entity Names Features **********
*******************************************

1. Sentence: Les 7 échelles abordent donc 9 sites auxquels pourraient s ' ajouter d ' autres , le dispositif restant ouvert , attentif aux sollicitations des territoires qui voudraient s ' y inscrire 5 .
No features found.


********** Emotions Features **********
***************************************

1. Sentence: Les 7 échelles abordent donc 9 sites auxquels pourraient s ' ajouter d ' autres , le dispositif restant ouvert , attentif aux sollicitations des territoires qui voudraient s ' y inscrire 5 .
No features found.


********** Modality Features **********
***************************************

1. Sentence: Les 7 échelles abordent donc 9 sites auxquels pourraient s ' ajouter d ' autres , le dispositif restant ouvert , attentif aux sollicitations des territoires qui voudraient s ' y inscrire 5 .
Features :: Feature-Counts :: Feature-Lemmas
--------------------------------------------
marqueurs :: 2 :: [ pouvoir, vouloir ]
marqueurs_niveau3 :: 2 :: [ pouvoir, vouloir ]
alethique :: 1 :: [ pouvoir ]
boulique :: 1 :: [ vouloir ]
deontique :: 1 :: [ pouvoir ]
epistemique :: 1 :: [ pouvoir ]
alethique_niveau3 :: 1 :: [ pouvoir ]
boulique_niveau3 :: 1 :: [ vouloir ]
deontique_niveau3 :: 1 :: [ pouvoir ]
epistemique_niveau3 :: 1 :: [ pouvoir ]
Total feature counts: 12


********** Adverbiaux Temporels Features **********
********************************************************

1. Sentence: Les 7 échelles abordent donc 9 sites auxquels pourraient s ' ajouter d ' autres , le dispositif restant ouvert , attentif aux sollicitations des territoires qui voudraient s ' y inscrire 5 .
No features found.

