
********** Entity Names Features **********
*******************************************

1. Sentence: ils couvrent la région et intéressent le bassin parisien lui-même , dans les seules directions retenues pour l ' extension de la zone agglomérée (1) .
No features found.


********** Emotions Features **********
***************************************

1. Sentence: ils couvrent la région et intéressent le bassin parisien lui-même , dans les seules directions retenues pour l ' extension de la zone agglomérée (1) .
Tokens having emotion: [ intéressent ]
Lemmas having emotion: [ intéresser ]
Categories of the emotion lemmas: [ desir ]


********** Modality Features **********
***************************************

1. Sentence: ils couvrent la région et intéressent le bassin parisien lui-même , dans les seules directions retenues pour l ' extension de la zone agglomérée (1) .
Features :: Feature-Counts :: Feature-Lemmas
--------------------------------------------
marqueurs :: 1 :: [ intéresser ]
pas_d_indication :: 1 :: [ intéresser ]
marqueurs_niveau0 :: 1 :: [ intéresser ]
pas_d_indication_niveau0 :: 1 :: [ intéresser ]
Total feature counts: 4


********** Adverbiaux Temporels Features **********
********************************************************

1. Sentence: ils couvrent la région et intéressent le bassin parisien lui-même , dans les seules directions retenues pour l ' extension de la zone agglomérée (1) .
No features found.

