
********** Entity Names Features **********
*******************************************

1. Sentence: Pour un territoire comme le Bassin minier , s ' il fallait retenir un lieu emblématique pour l ' avenir , ce serait le lycée professionnel .
Entity Name (Type) :: Bassin minier (LOC)


********** Emotions Features **********
***************************************

1. Sentence: Pour un territoire comme le Bassin minier , s ' il fallait retenir un lieu emblématique pour l ' avenir , ce serait le lycée professionnel .
No features found.


********** Modality Features **********
***************************************

1. Sentence: Pour un territoire comme le Bassin minier , s ' il fallait retenir un lieu emblématique pour l ' avenir , ce serait le lycée professionnel .
Features :: Feature-Counts :: Feature-Lemmas
--------------------------------------------
marqueurs :: 1 :: [ falloir ]
deontique :: 1 :: [ falloir ]
marqueurs_niveau3 :: 1 :: [ falloir ]
deontique_niveau3 :: 1 :: [ falloir ]
Total feature counts: 4


********** Adverbiaux Temporels Features **********
********************************************************

1. Sentence: Pour un territoire comme le Bassin minier , s ' il fallait retenir un lieu emblématique pour l ' avenir , ce serait le lycée professionnel .
No features found.

