
********** Entity Names Features **********
*******************************************

1. Sentence: La marche !
Entity Name (Type) :: La marche ! (MISC)


********** Emotions Features **********
***************************************

1. Sentence: La marche !
No features found.


********** Modality Features **********
***************************************

1. Sentence: La marche !
No features found.


********** Adverbiaux Temporels Features **********
********************************************************

1. Sentence: La marche !
No features found.

