====== Sentence Level Features ======

1. Sentence: La boucle proposée au-dessus du périphérique , par exemple , supposait des correspondances difficiles avec les lignes radiales souterraines .
Features :: Feature-Counts :: Feature-Lemmas
--------------------------------------------
marqueurs :: 1 :: [ difficile ]
appreciatif :: 1 :: [ difficile ]
epistemique :: 1 :: [ difficile ]
marqueurs_niveau2 :: 1 :: [ difficile ]
appreciatif_niveau2 :: 1 :: [ difficile ]
epistemique_niveau2 :: 1 :: [ difficile ]
Total feature counts: 6


====== Text Level Features ======

Features :: Feature-Counts :: Feature-Lemmas
--------------------------------------------
marqueurs :: 1 :: [ difficile ]
appreciatif :: 1 :: [ difficile ]
epistemique :: 1 :: [ difficile ]
marqueurs_niveau2 :: 1 :: [ difficile ]
appreciatif_niveau2 :: 1 :: [ difficile ]
epistemique_niveau2 :: 1 :: [ difficile ]
Total feature counts: 6

