====== Sentence Level Features ======

1. Sentence: Vue projetée : du plateau à la plage .
Entity Name (Type) :: Vue (LOC)


====== Text Level Features ======

Entity Name (Entity Type)
-------------------------
Vue (LOC)
Total entitiy counts: 1

