====== Sentence Level Features ======

1. Sentence: - l ' intervalle entre les stations sera suffisamment long pour que la vitesse moyenne de parcours ne soit pas inférieure à 40 ou 50 km/h , au lieu de 25 km/h sur le réseau métropolitain;
Features :: Feature-Counts :: Feature-Lemmas
--------------------------------------------
marqueurs :: 2 :: [ suffisamment, long ]
epistemique :: 1 :: [ long ]
pas_d_indication :: 1 :: [ suffisamment ]
marqueurs_niveau2 :: 1 :: [ long ]
marqueurs_niveau0 :: 1 :: [ suffisamment ]
epistemique_niveau2 :: 1 :: [ long ]
pas_d_indication_niveau0 :: 1 :: [ suffisamment ]
Total feature counts: 8


====== Text Level Features ======

Features :: Feature-Counts :: Feature-Lemmas
--------------------------------------------
marqueurs :: 2 :: [ suffisamment, long ]
epistemique :: 1 :: [ long ]
pas_d_indication :: 1 :: [ suffisamment ]
marqueurs_niveau2 :: 1 :: [ long ]
marqueurs_niveau0 :: 1 :: [ suffisamment ]
epistemique_niveau2 :: 1 :: [ long ]
pas_d_indication_niveau0 :: 1 :: [ suffisamment ]
Total feature counts: 8

