
********** Entity Names Features **********
*******************************************

1. Sentence: J ' ai trouvé cet exercice passionnant , par la diversité des approches , la capacité de susciter enfin un imaginaire débordant le périphérique .
Entity Name (Type) :: J (PER)


********** Emotions Features **********
***************************************

1. Sentence: J ' ai trouvé cet exercice passionnant , par la diversité des approches , la capacité de susciter enfin un imaginaire débordant le périphérique .
No features found.


********** Modality Features **********
***************************************

1. Sentence: J ' ai trouvé cet exercice passionnant , par la diversité des approches , la capacité de susciter enfin un imaginaire débordant le périphérique .
No features found.


********** Adverbiaux Temporels Features **********
********************************************************

1. Sentence: J ' ai trouvé cet exercice passionnant , par la diversité des approches , la capacité de susciter enfin un imaginaire débordant le périphérique .
No features found.

