====== Sentence Level Features ======

1. Sentence: Mais y a-t-il un avenir pour une forme d ' agriculture en Île-deFrance qui serait rentable mais préserverait les territoires naturels dont on a besoin ?
Features :: Feature-Counts :: Feature-Lemmas
--------------------------------------------
marqueurs :: 1 :: [ besoin ]
alethique :: 1 :: [ besoin ]
boulique :: 1 :: [ besoin ]
marqueurs_niveau3 :: 1 :: [ besoin ]
alethique_niveau3 :: 1 :: [ besoin ]
boulique_niveau3 :: 1 :: [ besoin ]
Total feature counts: 6


====== Text Level Features ======

Features :: Feature-Counts :: Feature-Lemmas
--------------------------------------------
marqueurs :: 1 :: [ besoin ]
alethique :: 1 :: [ besoin ]
boulique :: 1 :: [ besoin ]
marqueurs_niveau3 :: 1 :: [ besoin ]
alethique_niveau3 :: 1 :: [ besoin ]
boulique_niveau3 :: 1 :: [ besoin ]
Total feature counts: 6

