====== Sentence Level Features ======

1. Sentence: Que signifie d ' autre part la dimension « critique » dont elles se targuent volontiers à l ' égard des acteurs ?
Features :: Feature-Counts :: Feature-Lemmas
--------------------------------------------
marqueurs :: 1 :: [ volontiers ]
boulique :: 1 :: [ volontiers ]
marqueurs_niveau3 :: 1 :: [ volontiers ]
boulique_niveau3 :: 1 :: [ volontiers ]
Total feature counts: 4


====== Text Level Features ======

Features :: Feature-Counts :: Feature-Lemmas
--------------------------------------------
marqueurs :: 1 :: [ volontiers ]
boulique :: 1 :: [ volontiers ]
marqueurs_niveau3 :: 1 :: [ volontiers ]
boulique_niveau3 :: 1 :: [ volontiers ]
Total feature counts: 4

