====== Sentence Level Features ======

1. Sentence: Manuel de Solà-Morales représente à mes yeux l ' architecte mythique qui avait réalisé à Barcelone le Moll de la Fuesta (à l ' époque lieu de destination , aujourd ' hui espace de transition) , reconquête extra ordinaire d ' une autoroute urbaine qui coupait la ville de son port .
Features :: Feature-Counts :: Feature-Lemmas
--------------------------------------------
marqueurs :: 2 :: [ réaliser, extra ]
alethique :: 1 :: [ réaliser ]
appreciatif :: 1 :: [ extra ]
marqueurs_niveau2 :: 1 :: [ extra ]
marqueurs_niveau1 :: 1 :: [ réaliser ]
alethique_niveau1 :: 1 :: [ réaliser ]
appreciatif_niveau2 :: 1 :: [ extra ]
Total feature counts: 8


====== Text Level Features ======

Features :: Feature-Counts :: Feature-Lemmas
--------------------------------------------
marqueurs :: 2 :: [ réaliser, extra ]
alethique :: 1 :: [ réaliser ]
appreciatif :: 1 :: [ extra ]
marqueurs_niveau2 :: 1 :: [ extra ]
marqueurs_niveau1 :: 1 :: [ réaliser ]
alethique_niveau1 :: 1 :: [ réaliser ]
appreciatif_niveau2 :: 1 :: [ extra ]
Total feature counts: 8

