
********** Entity Names Features **********
*******************************************

1. Sentence: Carte de l ' eau et coupes topographiques .
No features found.


********** Emotions Features **********
***************************************

1. Sentence: Carte de l ' eau et coupes topographiques .
No features found.


********** Modality Features **********
***************************************

1. Sentence: Carte de l ' eau et coupes topographiques .
No features found.


********** Adverbiaux Temporels Features **********
********************************************************

1. Sentence: Carte de l ' eau et coupes topographiques .
No features found.

