====== Sentence Level Features ======

1. Sentence: Avec Robert Lion , nous décidâmes d ' oser .
Features :: Feature-Counts :: Feature-Lemmas
--------------------------------------------
marqueurs :: 1 :: [ oser ]
appreciatif :: 1 :: [ oser ]
axiologique :: 1 :: [ oser ]
marqueurs_niveau2 :: 1 :: [ oser ]
appreciatif_niveau2 :: 1 :: [ oser ]
axiologique_niveau2 :: 1 :: [ oser ]
Total feature counts: 6


====== Text Level Features ======

Features :: Feature-Counts :: Feature-Lemmas
--------------------------------------------
marqueurs :: 1 :: [ oser ]
appreciatif :: 1 :: [ oser ]
axiologique :: 1 :: [ oser ]
marqueurs_niveau2 :: 1 :: [ oser ]
appreciatif_niveau2 :: 1 :: [ oser ]
axiologique_niveau2 :: 1 :: [ oser ]
Total feature counts: 6

