====== Sentence Level Features ======

1. Sentence: (4) Cf : I - Situation actuelle de l ' urbanisme , 6)
Entity Name (Type) :: (4) Cf : I - Situation (LOC)


====== Text Level Features ======

Entity Name (Entity Type)
-------------------------
(4) Cf : I - Situation (LOC)
Total entitiy counts: 1

