====== Sentence Level Features ======

1. Sentence: Donc , mon exposé ne sera pas ordonné ;
Features :: Feature-Counts :: Feature-Lemmas
--------------------------------------------
marqueurs :: 1 :: [ ordonner ]
deontique :: 1 :: [ ordonner ]
marqueurs_niveau3 :: 1 :: [ ordonner ]
deontique_niveau3 :: 1 :: [ ordonner ]
Total feature counts: 4


====== Text Level Features ======

Features :: Feature-Counts :: Feature-Lemmas
--------------------------------------------
marqueurs :: 1 :: [ ordonner ]
deontique :: 1 :: [ ordonner ]
marqueurs_niveau3 :: 1 :: [ ordonner ]
deontique_niveau3 :: 1 :: [ ordonner ]
Total feature counts: 4

