
********** Entity Names Features **********
*******************************************

1. Sentence: Je me suis intéressé à l ' assemblage entre ces territoires .
No features found.


********** Emotions Features **********
***************************************

1. Sentence: Je me suis intéressé à l ' assemblage entre ces territoires .
Tokens having emotion: [ intéressé ]
Lemmas having emotion: [ intéresser ]
Categories of the emotion lemmas: [ desir ]


********** Modality Features **********
***************************************

1. Sentence: Je me suis intéressé à l ' assemblage entre ces territoires .
Features :: Feature-Counts :: Feature-Lemmas
--------------------------------------------
marqueurs :: 1 :: [ intéresser ]
pas_d_indication :: 1 :: [ intéresser ]
marqueurs_niveau0 :: 1 :: [ intéresser ]
pas_d_indication_niveau0 :: 1 :: [ intéresser ]
Total feature counts: 4


********** Adverbiaux Temporels Features **********
********************************************************

1. Sentence: Je me suis intéressé à l ' assemblage entre ces territoires .
No features found.

