
********** Entity Names Features **********
*******************************************

1. Sentence: Les entreprises y trouvent une main-d ' œuvre qualifiée plus abondante qu ' ailleurs , et plus prompte à s ' adapter aux changements .
No features found.


********** Emotions Features **********
***************************************

1. Sentence: Les entreprises y trouvent une main-d ' œuvre qualifiée plus abondante qu ' ailleurs , et plus prompte à s ' adapter aux changements .
No features found.


********** Modality Features **********
***************************************

1. Sentence: Les entreprises y trouvent une main-d ' œuvre qualifiée plus abondante qu ' ailleurs , et plus prompte à s ' adapter aux changements .
No features found.


********** Adverbiaux Temporels Features **********
********************************************************

1. Sentence: Les entreprises y trouvent une main-d ' œuvre qualifiée plus abondante qu ' ailleurs , et plus prompte à s ' adapter aux changements .
No features found.

