====== Sentence Level Features ======

1. Sentence: La maison de Tanger favorisa bien sûr l ' agacement que j ' éprouve vis-à-vis de la «scène» architecturale .
Features :: Feature-Counts :: Feature-Lemmas
--------------------------------------------
marqueurs :: 3 :: [ favoriser, bien, sûr ]
appreciatif :: 2 :: [ favoriser, bien ]
axiologique :: 1 :: [ bien ]
epistemique :: 1 :: [ sûr ]
marqueurs_niveau3 :: 1 :: [ bien ]
marqueurs_niveau2 :: 1 :: [ sûr ]
marqueurs_niveau1 :: 1 :: [ favoriser ]
appreciatif_niveau3 :: 1 :: [ bien ]
appreciatif_niveau1 :: 1 :: [ favoriser ]
axiologique_niveau3 :: 1 :: [ bien ]
epistemique_niveau2 :: 1 :: [ sûr ]
Total feature counts: 14


====== Text Level Features ======

Features :: Feature-Counts :: Feature-Lemmas
--------------------------------------------
marqueurs :: 3 :: [ favoriser, bien, sûr ]
appreciatif :: 2 :: [ favoriser, bien ]
axiologique :: 1 :: [ bien ]
epistemique :: 1 :: [ sûr ]
marqueurs_niveau3 :: 1 :: [ bien ]
marqueurs_niveau2 :: 1 :: [ sûr ]
marqueurs_niveau1 :: 1 :: [ favoriser ]
appreciatif_niveau3 :: 1 :: [ bien ]
appreciatif_niveau1 :: 1 :: [ favoriser ]
axiologique_niveau3 :: 1 :: [ bien ]
epistemique_niveau2 :: 1 :: [ sûr ]
Total feature counts: 14

