
********** Entity Names Features **********
*******************************************

1. Sentence: Stéphane Cordobès  :
Entity Name (Type) :: Stéphane Cordobès (PER)


********** Emotions Features **********
***************************************

1. Sentence: Stéphane Cordobès  :
No features found.


********** Modality Features **********
***************************************

1. Sentence: Stéphane Cordobès  :
No features found.


********** Adverbiaux Temporels Features **********
********************************************************

1. Sentence: Stéphane Cordobès  :
No features found.

