====== Sentence Level Features ======

1. Sentence: Cette idée est fausse et dangereuse .
Features :: Feature-Counts :: Feature-Lemmas
--------------------------------------------
marqueurs :: 2 :: [ faux, dangereux ]
alethique :: 1 :: [ faux ]
appreciatif :: 1 :: [ dangereux ]
marqueurs_niveau2 :: 1 :: [ dangereux ]
marqueurs_niveau1 :: 1 :: [ faux ]
alethique_niveau1 :: 1 :: [ faux ]
appreciatif_niveau2 :: 1 :: [ dangereux ]
Total feature counts: 8


====== Text Level Features ======

Features :: Feature-Counts :: Feature-Lemmas
--------------------------------------------
marqueurs :: 2 :: [ faux, dangereux ]
alethique :: 1 :: [ faux ]
appreciatif :: 1 :: [ dangereux ]
marqueurs_niveau2 :: 1 :: [ dangereux ]
marqueurs_niveau1 :: 1 :: [ faux ]
alethique_niveau1 :: 1 :: [ faux ]
appreciatif_niveau2 :: 1 :: [ dangereux ]
Total feature counts: 8

