====== Sentence Level Features ======

1. Sentence: Tanger me paraît être plus de villégiature que ma ville natale .
Features :: Feature-Counts :: Feature-Lemmas
--------------------------------------------
marqueurs :: 1 :: [ paraître ]
epistemique :: 1 :: [ paraître ]
marqueurs_niveau3 :: 1 :: [ paraître ]
epistemique_niveau3 :: 1 :: [ paraître ]
Total feature counts: 4


====== Text Level Features ======

Features :: Feature-Counts :: Feature-Lemmas
--------------------------------------------
marqueurs :: 1 :: [ paraître ]
epistemique :: 1 :: [ paraître ]
marqueurs_niveau3 :: 1 :: [ paraître ]
epistemique_niveau3 :: 1 :: [ paraître ]
Total feature counts: 4

