====== Sentence Level Features ======

1. Sentence: Il ne faut pas confondre le nombre d ' habitants d ' une ville avec le nombre de personnes que son centre peut desservir .
Features :: Feature-Counts :: Feature-Lemmas
--------------------------------------------
marqueurs :: 3 :: [ falloir, personne, pouvoir ]
alethique :: 2 :: [ personne, pouvoir ]
deontique :: 2 :: [ falloir, pouvoir ]
marqueurs_niveau3 :: 2 :: [ falloir, pouvoir ]
deontique_niveau3 :: 2 :: [ falloir, pouvoir ]
epistemique :: 1 :: [ pouvoir ]
marqueurs_niveau2 :: 1 :: [ personne ]
alethique_niveau3 :: 1 :: [ pouvoir ]
alethique_niveau2 :: 1 :: [ personne ]
epistemique_niveau3 :: 1 :: [ pouvoir ]
Total feature counts: 16


====== Text Level Features ======

Features :: Feature-Counts :: Feature-Lemmas
--------------------------------------------
marqueurs :: 3 :: [ falloir, personne, pouvoir ]
alethique :: 2 :: [ personne, pouvoir ]
deontique :: 2 :: [ falloir, pouvoir ]
marqueurs_niveau3 :: 2 :: [ falloir, pouvoir ]
deontique_niveau3 :: 2 :: [ falloir, pouvoir ]
epistemique :: 1 :: [ pouvoir ]
marqueurs_niveau2 :: 1 :: [ personne ]
alethique_niveau3 :: 1 :: [ pouvoir ]
alethique_niveau2 :: 1 :: [ personne ]
epistemique_niveau3 :: 1 :: [ pouvoir ]
Total feature counts: 16

