
********** Entity Names Features **********
*******************************************

1. Sentence: Certainement pas et , pour s ' en convaincre , il faut revisiter encore et encore Monte Carasso de Luigi Snozzi . 2011 .
Entity Name (Type) :: Luigi Snozzi (PER)


********** Emotions Features **********
***************************************

1. Sentence: Certainement pas et , pour s ' en convaincre , il faut revisiter encore et encore Monte Carasso de Luigi Snozzi . 2011 .
No features found.


********** Modality Features **********
***************************************

1. Sentence: Certainement pas et , pour s ' en convaincre , il faut revisiter encore et encore Monte Carasso de Luigi Snozzi . 2011 .
Features :: Feature-Counts :: Feature-Lemmas
--------------------------------------------
marqueurs :: 2 :: [ certainement, falloir ]
marqueurs_niveau3 :: 2 :: [ certainement, falloir ]
deontique :: 1 :: [ falloir ]
epistemique :: 1 :: [ certainement ]
deontique_niveau3 :: 1 :: [ falloir ]
epistemique_niveau3 :: 1 :: [ certainement ]
Total feature counts: 8


********** Adverbiaux Temporels Features **********
********************************************************

1. Sentence: Certainement pas et , pour s ' en convaincre , il faut revisiter encore et encore Monte Carasso de Luigi Snozzi . 2011 .
Features :: Feature-Counts :: Feature-Texts
--------------------------------------------
adverbiaux_temporels::2::['encore', 'encore']
adverbiaux_duratifs_iteratifs::2::['encore', 'encore']
adverbiaux_pointage_non_absolu::2::['encore', 'encore']
adverbiaux_dur_iter_relatif::2::['encore', 'encore']

