
********** Entity Names Features **********
*******************************************

1. Sentence: Il n ' y a pas là le désir volontaire d ' une architettura povera , mais le choix d ' une rusticité .
No features found.


********** Emotions Features **********
***************************************

1. Sentence: Il n ' y a pas là le désir volontaire d ' une architettura povera , mais le choix d ' une rusticité .
Tokens having emotion: [ désir ]
Lemmas having emotion: [ désir ]
Categories of the emotion lemmas: [ desir ]


********** Modality Features **********
***************************************

1. Sentence: Il n ' y a pas là le désir volontaire d ' une architettura povera , mais le choix d ' une rusticité .
Features :: Feature-Counts :: Feature-Lemmas
--------------------------------------------
marqueurs :: 2 :: [ désir, choix ]
boulique :: 2 :: [ désir, choix ]
marqueurs_niveau3 :: 1 :: [ désir ]
marqueurs_niveau2 :: 1 :: [ choix ]
boulique_niveau3 :: 1 :: [ désir ]
boulique_niveau2 :: 1 :: [ choix ]
Total feature counts: 8


********** Adverbiaux Temporels Features **********
********************************************************

1. Sentence: Il n ' y a pas là le désir volontaire d ' une architettura povera , mais le choix d ' une rusticité .
No features found.

