====== Sentence Level Features ======

1. Sentence: Enseigner En 1977 , je démarre une activité d ' enseignement de projet à l ' École nationale des ponts et chaussées où je découvre le plaisir de parler d ' architecture avec de jeunes ingénieurs .
Features :: Feature-Counts :: Feature-Lemmas
--------------------------------------------
marqueurs :: 4 :: [ école, découvrir, plaisir, jeune ]
pas_d_indication :: 2 :: [ découvrir, jeune ]
marqueurs_niveau0 :: 2 :: [ découvrir, jeune ]
pas_d_indication_niveau0 :: 2 :: [ découvrir, jeune ]
alethique :: 1 :: [ école ]
appreciatif :: 1 :: [ plaisir ]
marqueurs_niveau3 :: 1 :: [ plaisir ]
marqueurs_niveau1 :: 1 :: [ école ]
alethique_niveau1 :: 1 :: [ école ]
appreciatif_niveau3 :: 1 :: [ plaisir ]
Total feature counts: 16


====== Text Level Features ======

Features :: Feature-Counts :: Feature-Lemmas
--------------------------------------------
marqueurs :: 4 :: [ école, découvrir, plaisir, jeune ]
pas_d_indication :: 2 :: [ découvrir, jeune ]
marqueurs_niveau0 :: 2 :: [ découvrir, jeune ]
pas_d_indication_niveau0 :: 2 :: [ découvrir, jeune ]
alethique :: 1 :: [ école ]
appreciatif :: 1 :: [ plaisir ]
marqueurs_niveau3 :: 1 :: [ plaisir ]
marqueurs_niveau1 :: 1 :: [ école ]
alethique_niveau1 :: 1 :: [ école ]
appreciatif_niveau3 :: 1 :: [ plaisir ]
Total feature counts: 16

