====== Sentence Level Features ======

1. Sentence: Le premier élément de risque est un glissement et un étirement trop prononcé vers l ' ouest du centre des grandes affaires .
Features :: Feature-Counts :: Feature-Lemmas
--------------------------------------------
marqueurs :: 1 :: [ grand ]
epistemique :: 1 :: [ grand ]
marqueurs_niveau3 :: 1 :: [ grand ]
epistemique_niveau3 :: 1 :: [ grand ]
Total feature counts: 4


====== Text Level Features ======

Features :: Feature-Counts :: Feature-Lemmas
--------------------------------------------
marqueurs :: 1 :: [ grand ]
epistemique :: 1 :: [ grand ]
marqueurs_niveau3 :: 1 :: [ grand ]
epistemique_niveau3 :: 1 :: [ grand ]
Total feature counts: 4

