
********** Entity Names Features **********
*******************************************

1. Sentence: Du fait de leur haute densité , les métro‑ poles sont aussi plus écologiques que les nappes résidentielles rurales ou néorurales qui envahissent nos paysages .
Entity Name (Type) :: Du (LOC)


********** Emotions Features **********
***************************************

1. Sentence: Du fait de leur haute densité , les métro‑ poles sont aussi plus écologiques que les nappes résidentielles rurales ou néorurales qui envahissent nos paysages .
No features found.


********** Modality Features **********
***************************************

1. Sentence: Du fait de leur haute densité , les métro‑ poles sont aussi plus écologiques que les nappes résidentielles rurales ou néorurales qui envahissent nos paysages .
Features :: Feature-Counts :: Feature-Lemmas
--------------------------------------------
marqueurs :: 1 :: [ haut ]
pas_d_indication :: 1 :: [ haut ]
marqueurs_niveau0 :: 1 :: [ haut ]
pas_d_indication_niveau0 :: 1 :: [ haut ]
Total feature counts: 4


********** Adverbiaux Temporels Features **********
********************************************************

1. Sentence: Du fait de leur haute densité , les métro‑ poles sont aussi plus écologiques que les nappes résidentielles rurales ou néorurales qui envahissent nos paysages .
No features found.

