
********** Entity Names Features **********
*******************************************

1. Sentence: Maîtrise d ' ouvrage : Ville de Saint-Nazaire .
Entity Name (Type) :: Saint-Nazaire (LOC)


********** Emotions Features **********
***************************************

1. Sentence: Maîtrise d ' ouvrage : Ville de Saint-Nazaire .
No features found.


********** Modality Features **********
***************************************

1. Sentence: Maîtrise d ' ouvrage : Ville de Saint-Nazaire .
No features found.


********** Adverbiaux Temporels Features **********
********************************************************

1. Sentence: Maîtrise d ' ouvrage : Ville de Saint-Nazaire .
No features found.

