====== Sentence Level Features ======

1. Sentence: L ' urbaniste n ' est pas un deus ex machina et ne peut se contenter d ' avoir une vision prométhéenne pour réussir .
Features :: Feature-Counts :: Feature-Lemmas
--------------------------------------------
marqueurs :: 2 :: [ pouvoir, réussir ]
marqueurs_niveau3 :: 2 :: [ pouvoir, réussir ]
alethique :: 1 :: [ pouvoir ]
appreciatif :: 1 :: [ réussir ]
deontique :: 1 :: [ pouvoir ]
epistemique :: 1 :: [ pouvoir ]
alethique_niveau3 :: 1 :: [ pouvoir ]
appreciatif_niveau3 :: 1 :: [ réussir ]
deontique_niveau3 :: 1 :: [ pouvoir ]
epistemique_niveau3 :: 1 :: [ pouvoir ]
Total feature counts: 12


====== Text Level Features ======

Features :: Feature-Counts :: Feature-Lemmas
--------------------------------------------
marqueurs :: 2 :: [ pouvoir, réussir ]
marqueurs_niveau3 :: 2 :: [ pouvoir, réussir ]
alethique :: 1 :: [ pouvoir ]
appreciatif :: 1 :: [ réussir ]
deontique :: 1 :: [ pouvoir ]
epistemique :: 1 :: [ pouvoir ]
alethique_niveau3 :: 1 :: [ pouvoir ]
appreciatif_niveau3 :: 1 :: [ réussir ]
deontique_niveau3 :: 1 :: [ pouvoir ]
epistemique_niveau3 :: 1 :: [ pouvoir ]
Total feature counts: 12

