====== Sentence Level Features ======

1. Sentence: En 2000 , ils seront environ 75 millions .
Features :: Feature-Counts :: Feature-Texts
--------------------------------------------
adverbiaux_temporels::1::['En 2000']
adverbiaux_localisation_temporelle::1::['En 2000']
adverbiaux_pointage_absolu::1::['En 2000']
adverbiaux_pointage_non_absolu::1::['En 2000']
adverbiaux_loc_temp_focalisation_id::1::['En 2000']
adverbiaux_loc_temp_regionalisation_id::1::['En 2000']
adverbiaux_loc_temp_pointage_non_absolu::1::['En 2000']
adverbiaux_dur_iter_absolu::1::['En 2000']


====== Text Level Features ======

Features :: Feature-Counts :: Feature-Texts
--------------------------------------------
adverbiaux_temporels::1::['En 2000']
adverbiaux_localisation_temporelle::1::['En 2000']
adverbiaux_pointage_absolu::1::['En 2000']
adverbiaux_pointage_non_absolu::1::['En 2000']
adverbiaux_loc_temp_focalisation_id::1::['En 2000']
adverbiaux_loc_temp_regionalisation_id::1::['En 2000']
adverbiaux_loc_temp_pointage_non_absolu::1::['En 2000']
adverbiaux_dur_iter_absolu::1::['En 2000']
Total feature counts: 8

