====== Sentence Level Features ======

1. Sentence: Elle provoque , chaque fin de semaine , l ' accumulation de trop nombreuses voitures sur les trop rares exutoires que constituent les autoroutes de l ' Ouest et du Sud , et quelques artères principales , mal adaptées à cette circulation particulière .
Features :: Feature-Counts :: Feature-Lemmas
--------------------------------------------
marqueurs :: 2 :: [ rare, mal ]
appreciatif :: 1 :: [ mal ]
axiologique :: 1 :: [ mal ]
epistemique :: 1 :: [ rare ]
marqueurs_niveau3 :: 1 :: [ mal ]
marqueurs_niveau1 :: 1 :: [ rare ]
appreciatif_niveau3 :: 1 :: [ mal ]
axiologique_niveau3 :: 1 :: [ mal ]
epistemique_niveau1 :: 1 :: [ rare ]
Total feature counts: 10


====== Text Level Features ======

Features :: Feature-Counts :: Feature-Lemmas
--------------------------------------------
marqueurs :: 2 :: [ rare, mal ]
appreciatif :: 1 :: [ mal ]
axiologique :: 1 :: [ mal ]
epistemique :: 1 :: [ rare ]
marqueurs_niveau3 :: 1 :: [ mal ]
marqueurs_niveau1 :: 1 :: [ rare ]
appreciatif_niveau3 :: 1 :: [ mal ]
axiologique_niveau3 :: 1 :: [ mal ]
epistemique_niveau1 :: 1 :: [ rare ]
Total feature counts: 10

