====== Sentence Level Features ======

1. Sentence: Avec ces attitudes on ne risque pas d ' aller très loin .
Features :: Feature-Counts :: Feature-Lemmas
--------------------------------------------
marqueurs :: 2 :: [ risquer, aller ]
alethique :: 1 :: [ aller ]
appreciatif :: 1 :: [ risquer ]
marqueurs_niveau3 :: 1 :: [ risquer ]
marqueurs_niveau1 :: 1 :: [ aller ]
alethique_niveau1 :: 1 :: [ aller ]
appreciatif_niveau3 :: 1 :: [ risquer ]
Total feature counts: 8


====== Text Level Features ======

Features :: Feature-Counts :: Feature-Lemmas
--------------------------------------------
marqueurs :: 2 :: [ risquer, aller ]
alethique :: 1 :: [ aller ]
appreciatif :: 1 :: [ risquer ]
marqueurs_niveau3 :: 1 :: [ risquer ]
marqueurs_niveau1 :: 1 :: [ aller ]
alethique_niveau1 :: 1 :: [ aller ]
appreciatif_niveau3 :: 1 :: [ risquer ]
Total feature counts: 8

