
********** Entity Names Features **********
*******************************************

1. Sentence: À l ' autre extrémité de la chaîne de construction , il faut aussi reconsidérer la place de l ' architecture .
No features found.


********** Emotions Features **********
***************************************

1. Sentence: À l ' autre extrémité de la chaîne de construction , il faut aussi reconsidérer la place de l ' architecture .
No features found.


********** Modality Features **********
***************************************

1. Sentence: À l ' autre extrémité de la chaîne de construction , il faut aussi reconsidérer la place de l ' architecture .
Features :: Feature-Counts :: Feature-Lemmas
--------------------------------------------
marqueurs :: 1 :: [ falloir ]
deontique :: 1 :: [ falloir ]
marqueurs_niveau3 :: 1 :: [ falloir ]
deontique_niveau3 :: 1 :: [ falloir ]
Total feature counts: 4


********** Adverbiaux Temporels Features **********
********************************************************

1. Sentence: À l ' autre extrémité de la chaîne de construction , il faut aussi reconsidérer la place de l ' architecture .
No features found.

