
********** Entity Names Features **********
*******************************************

1. Sentence: Dans une large mesure , il détermine les principes mêmes de la future organisation urbaine .
No features found.


********** Emotions Features **********
***************************************

1. Sentence: Dans une large mesure , il détermine les principes mêmes de la future organisation urbaine .
Tokens having emotion: [ détermine ]
Lemmas having emotion: [ déterminer ]
Categories of the emotion lemmas: [ audace ]


********** Modality Features **********
***************************************

1. Sentence: Dans une large mesure , il détermine les principes mêmes de la future organisation urbaine .
No features found.


********** Adverbiaux Temporels Features **********
********************************************************

1. Sentence: Dans une large mesure , il détermine les principes mêmes de la future organisation urbaine .
No features found.

