====== Sentence Level Features ======

1. Sentence: Ainsi , il semble que l ' avenir des villes ne se joue plus dans le désir de «la ville à la campagne» , mais dans la nécessité de « l ' agriculture en ville » .
Features :: Feature-Counts :: Feature-Lemmas
--------------------------------------------
marqueurs :: 4 :: [ sembler, jouer, désir, nécessité ]
marqueurs_niveau3 :: 3 :: [ sembler, désir, nécessité ]
alethique :: 1 :: [ nécessité ]
appreciatif :: 1 :: [ jouer ]
boulique :: 1 :: [ désir ]
epistemique :: 1 :: [ sembler ]
marqueurs_niveau2 :: 1 :: [ jouer ]
alethique_niveau3 :: 1 :: [ nécessité ]
appreciatif_niveau2 :: 1 :: [ jouer ]
boulique_niveau3 :: 1 :: [ désir ]
epistemique_niveau3 :: 1 :: [ sembler ]
Total feature counts: 16


====== Text Level Features ======

Features :: Feature-Counts :: Feature-Lemmas
--------------------------------------------
marqueurs :: 4 :: [ sembler, jouer, désir, nécessité ]
marqueurs_niveau3 :: 3 :: [ sembler, désir, nécessité ]
alethique :: 1 :: [ nécessité ]
appreciatif :: 1 :: [ jouer ]
boulique :: 1 :: [ désir ]
epistemique :: 1 :: [ sembler ]
marqueurs_niveau2 :: 1 :: [ jouer ]
alethique_niveau3 :: 1 :: [ nécessité ]
appreciatif_niveau2 :: 1 :: [ jouer ]
boulique_niveau3 :: 1 :: [ désir ]
epistemique_niveau3 :: 1 :: [ sembler ]
Total feature counts: 16

