====== Sentence Level Features ======

1. Sentence: J ' ai dénoncé chaque fois que cela était possible l ' idée de « porte » nostalgique et rétrograde .
Features :: Feature-Counts :: Feature-Lemmas
--------------------------------------------
marqueurs :: 2 :: [ dénoncer, possible ]
alethique :: 1 :: [ possible ]
axiologique :: 1 :: [ dénoncer ]
marqueurs_niveau3 :: 1 :: [ possible ]
marqueurs_niveau1 :: 1 :: [ dénoncer ]
alethique_niveau3 :: 1 :: [ possible ]
axiologique_niveau1 :: 1 :: [ dénoncer ]
Total feature counts: 8


====== Text Level Features ======

Features :: Feature-Counts :: Feature-Lemmas
--------------------------------------------
marqueurs :: 2 :: [ dénoncer, possible ]
alethique :: 1 :: [ possible ]
axiologique :: 1 :: [ dénoncer ]
marqueurs_niveau3 :: 1 :: [ possible ]
marqueurs_niveau1 :: 1 :: [ dénoncer ]
alethique_niveau3 :: 1 :: [ possible ]
axiologique_niveau1 :: 1 :: [ dénoncer ]
Total feature counts: 8

