====== Sentence Level Features ======

1. Sentence: 1975 pour Tokyo (à partir de 1955);
Features :: Feature-Counts :: Feature-Texts
--------------------------------------------
adverbiaux_temporels::1::['à partir de 1955']
adverbiaux_duratifs_iteratifs::1::['à partir de 1955']
adverbiaux_pointage_absolu::1::['à partir de 1955']
adverbiaux_loc_temp_focalisation_id::1::['à partir de 1955']
adverbiaux_loc_temp_regionalisation_non_id::1::['à partir de 1955']
adverbiaux_dur_iter_absolu::1::['à partir de 1955']


====== Text Level Features ======

Features :: Feature-Counts :: Feature-Texts
--------------------------------------------
adverbiaux_temporels::1::['à partir de 1955']
adverbiaux_duratifs_iteratifs::1::['à partir de 1955']
adverbiaux_pointage_absolu::1::['à partir de 1955']
adverbiaux_loc_temp_focalisation_id::1::['à partir de 1955']
adverbiaux_loc_temp_regionalisation_non_id::1::['à partir de 1955']
adverbiaux_dur_iter_absolu::1::['à partir de 1955']
Total feature counts: 6

