====== Sentence Level Features ======

1. Sentence: 1975 pour Tokyo (à partir de 1955);
Entity Name (Type) :: Tokyo (LOC)


====== Text Level Features ======

Entity Name (Entity Type)
-------------------------
Tokyo (LOC)
Total entitiy counts: 1

