====== Sentence Level Features ======

1. Sentence: - sa vocation unique de capitale politique , culturelle et économique de la France ,
Features :: Feature-Counts :: Feature-Lemmas
--------------------------------------------
marqueurs :: 1 :: [ unique ]
appreciatif :: 1 :: [ unique ]
marqueurs_niveau1 :: 1 :: [ unique ]
appreciatif_niveau1 :: 1 :: [ unique ]
Total feature counts: 4


====== Text Level Features ======

Features :: Feature-Counts :: Feature-Lemmas
--------------------------------------------
marqueurs :: 1 :: [ unique ]
appreciatif :: 1 :: [ unique ]
marqueurs_niveau1 :: 1 :: [ unique ]
appreciatif_niveau1 :: 1 :: [ unique ]
Total feature counts: 4

