
********** Entity Names Features **********
*******************************************

1. Sentence: D ' abord , évidemment , à ramener dans la discussion et l ' action des connaissances que les opérationnels n ' ont pas le temps d ' aller chercher , à proposer des synthèses , etc .
No features found.


********** Emotions Features **********
***************************************

1. Sentence: D ' abord , évidemment , à ramener dans la discussion et l ' action des connaissances que les opérationnels n ' ont pas le temps d ' aller chercher , à proposer des synthèses , etc .
No features found.


********** Modality Features **********
***************************************

1. Sentence: D ' abord , évidemment , à ramener dans la discussion et l ' action des connaissances que les opérationnels n ' ont pas le temps d ' aller chercher , à proposer des synthèses , etc .
Features :: Feature-Counts :: Feature-Lemmas
--------------------------------------------
marqueurs :: 3 :: [ évidemment, aller, chercher ]
alethique :: 1 :: [ aller ]
boulique :: 1 :: [ chercher ]
pas_d_indication :: 1 :: [ évidemment ]
marqueurs_niveau3 :: 1 :: [ chercher ]
marqueurs_niveau1 :: 1 :: [ aller ]
marqueurs_niveau0 :: 1 :: [ évidemment ]
alethique_niveau1 :: 1 :: [ aller ]
boulique_niveau3 :: 1 :: [ chercher ]
pas_d_indication_niveau0 :: 1 :: [ évidemment ]
Total feature counts: 12


********** Adverbiaux Temporels Features **********
********************************************************

1. Sentence: D ' abord , évidemment , à ramener dans la discussion et l ' action des connaissances que les opérationnels n ' ont pas le temps d ' aller chercher , à proposer des synthèses , etc .
No features found.

