====== Sentence Level Features ======

1. Sentence: Le rapport d ' Émile Biasini est remis à Michel Rocard en mai 1989 .
Features :: Feature-Counts :: Feature-Texts
--------------------------------------------
adverbiaux_temporels::1::['en mai 1989']
adverbiaux_localisation_temporelle::1::['en mai 1989']
adverbiaux_pointage_absolu::1::['en mai 1989']
adverbiaux_pointage_non_absolu::1::['en mai 1989']
adverbiaux_loc_temp_focalisation_id::1::['en mai 1989']
adverbiaux_loc_temp_regionalisation_id::1::['en mai 1989']
adverbiaux_loc_temp_pointage_non_absolu::1::['en mai 1989']
adverbiaux_dur_iter_absolu::1::['en mai 1989']


====== Text Level Features ======

Features :: Feature-Counts :: Feature-Texts
--------------------------------------------
adverbiaux_temporels::1::['en mai 1989']
adverbiaux_localisation_temporelle::1::['en mai 1989']
adverbiaux_pointage_absolu::1::['en mai 1989']
adverbiaux_pointage_non_absolu::1::['en mai 1989']
adverbiaux_loc_temp_focalisation_id::1::['en mai 1989']
adverbiaux_loc_temp_regionalisation_id::1::['en mai 1989']
adverbiaux_loc_temp_pointage_non_absolu::1::['en mai 1989']
adverbiaux_dur_iter_absolu::1::['en mai 1989']
Total feature counts: 8

