====== Sentence Level Features ======

1. Sentence: Le parc devenait donc un emblème de dynamisme , un lien entre le front de mer et les quartiers plus populaires situés en retrait , et le catalyseur de la restauration du centre ancien dégradé .
Features :: Feature-Counts :: Feature-Lemmas
--------------------------------------------
marqueurs :: 1 :: [ populaire ]
pas_d_indication :: 1 :: [ populaire ]
marqueurs_niveau0 :: 1 :: [ populaire ]
pas_d_indication_niveau0 :: 1 :: [ populaire ]
Total feature counts: 4


====== Text Level Features ======

Features :: Feature-Counts :: Feature-Lemmas
--------------------------------------------
marqueurs :: 1 :: [ populaire ]
pas_d_indication :: 1 :: [ populaire ]
marqueurs_niveau0 :: 1 :: [ populaire ]
pas_d_indication_niveau0 :: 1 :: [ populaire ]
Total feature counts: 4

