====== Sentence Level Features ======

1. Sentence: La place de la nature en ville doit être repensée : la question du paysage ne se résume pas à celle des espaces verts et il s ' agit de redonner toute leur dimension aux éléments du grand paysage , des horizons et des vues , de l ' eau dans la ville .
Features :: Feature-Counts :: Feature-Lemmas
--------------------------------------------
marqueurs :: 2 :: [ devoir, grand ]
epistemique :: 2 :: [ devoir, grand ]
marqueurs_niveau3 :: 2 :: [ devoir, grand ]
epistemique_niveau3 :: 2 :: [ devoir, grand ]
alethique :: 1 :: [ devoir ]
deontique :: 1 :: [ devoir ]
alethique_niveau3 :: 1 :: [ devoir ]
deontique_niveau3 :: 1 :: [ devoir ]
Total feature counts: 12


====== Text Level Features ======

Features :: Feature-Counts :: Feature-Lemmas
--------------------------------------------
marqueurs :: 2 :: [ devoir, grand ]
epistemique :: 2 :: [ devoir, grand ]
marqueurs_niveau3 :: 2 :: [ devoir, grand ]
epistemique_niveau3 :: 2 :: [ devoir, grand ]
alethique :: 1 :: [ devoir ]
deontique :: 1 :: [ devoir ]
alethique_niveau3 :: 1 :: [ devoir ]
deontique_niveau3 :: 1 :: [ devoir ]
Total feature counts: 12

