====== Sentence Level Features ======

1. Sentence: Stéphane Cordobès  :
Entity Name (Type) :: Stéphane Cordobès (PER)


====== Text Level Features ======

Entity Name (Entity Type)
-------------------------
Stéphane Cordobès (PER)
Total entitiy counts: 1

