
********** Entity Names Features **********
*******************************************

1. Sentence: lesdits articles indiquent bien , en termes généraux , les caractères que pourront présenter ces servitudes;
No features found.


********** Emotions Features **********
***************************************

1. Sentence: lesdits articles indiquent bien , en termes généraux , les caractères que pourront présenter ces servitudes;
No features found.


********** Modality Features **********
***************************************

1. Sentence: lesdits articles indiquent bien , en termes généraux , les caractères que pourront présenter ces servitudes;
Features :: Feature-Counts :: Feature-Lemmas
--------------------------------------------
marqueurs :: 2 :: [ bien, pouvoir ]
marqueurs_niveau3 :: 2 :: [ bien, pouvoir ]
alethique :: 1 :: [ pouvoir ]
appreciatif :: 1 :: [ bien ]
axiologique :: 1 :: [ bien ]
deontique :: 1 :: [ pouvoir ]
epistemique :: 1 :: [ pouvoir ]
alethique_niveau3 :: 1 :: [ pouvoir ]
appreciatif_niveau3 :: 1 :: [ bien ]
axiologique_niveau3 :: 1 :: [ bien ]
deontique_niveau3 :: 1 :: [ pouvoir ]
epistemique_niveau3 :: 1 :: [ pouvoir ]
Total feature counts: 14


********** Adverbiaux Temporels Features **********
********************************************************

1. Sentence: lesdits articles indiquent bien , en termes généraux , les caractères que pourront présenter ces servitudes;
No features found.

