
********** Entity Names Features **********
*******************************************

1. Sentence: Précisément , c ' est ce qui s ' est passé .
No features found.


********** Emotions Features **********
***************************************

1. Sentence: Précisément , c ' est ce qui s ' est passé .
No features found.


********** Modality Features **********
***************************************

1. Sentence: Précisément , c ' est ce qui s ' est passé .
No features found.


********** Adverbiaux Temporels Features **********
********************************************************

1. Sentence: Précisément , c ' est ce qui s ' est passé .
No features found.

