
********** Entity Names Features **********
*******************************************

1. Sentence: A - Les forêts
No features found.


********** Emotions Features **********
***************************************

1. Sentence: A - Les forêts
No features found.


********** Modality Features **********
***************************************

1. Sentence: A - Les forêts
No features found.


********** Adverbiaux Temporels Features **********
********************************************************

1. Sentence: A - Les forêts
No features found.

