====== Sentence Level Features ======

1. Sentence: Il faut faire avec les moyens disponibles tout en gardant à l ' esprit qu ' il ne peut y avoir de prescriptions qui ne soient pas expérimentées par le prescripteur .
Features :: Feature-Counts :: Feature-Lemmas
--------------------------------------------
marqueurs :: 3 :: [ falloir, esprit, pouvoir ]
marqueurs_niveau3 :: 3 :: [ falloir, esprit, pouvoir ]
deontique :: 2 :: [ falloir, pouvoir ]
epistemique :: 2 :: [ esprit, pouvoir ]
deontique_niveau3 :: 2 :: [ falloir, pouvoir ]
epistemique_niveau3 :: 2 :: [ esprit, pouvoir ]
alethique :: 1 :: [ pouvoir ]
alethique_niveau3 :: 1 :: [ pouvoir ]
Total feature counts: 16


====== Text Level Features ======

Features :: Feature-Counts :: Feature-Lemmas
--------------------------------------------
marqueurs :: 3 :: [ falloir, esprit, pouvoir ]
marqueurs_niveau3 :: 3 :: [ falloir, esprit, pouvoir ]
deontique :: 2 :: [ falloir, pouvoir ]
epistemique :: 2 :: [ esprit, pouvoir ]
deontique_niveau3 :: 2 :: [ falloir, pouvoir ]
epistemique_niveau3 :: 2 :: [ esprit, pouvoir ]
alethique :: 1 :: [ pouvoir ]
alethique_niveau3 :: 1 :: [ pouvoir ]
Total feature counts: 16

