
********** Entity Names Features **********
*******************************************

1. Sentence: J ' ai suivi celui qu ' encadrait l ' urbaniste Lanfranco Virgili sur Champigny-sur-Marne .
Entity Name (Type) :: Champigny-sur-Marne (LOC)


********** Emotions Features **********
***************************************

1. Sentence: J ' ai suivi celui qu ' encadrait l ' urbaniste Lanfranco Virgili sur Champigny-sur-Marne .
No features found.


********** Modality Features **********
***************************************

1. Sentence: J ' ai suivi celui qu ' encadrait l ' urbaniste Lanfranco Virgili sur Champigny-sur-Marne .
No features found.


********** Adverbiaux Temporels Features **********
********************************************************

1. Sentence: J ' ai suivi celui qu ' encadrait l ' urbaniste Lanfranco Virgili sur Champigny-sur-Marne .
No features found.

