====== Sentence Level Features ======

1. Sentence: Les bons résultats sont à portée de main quand la maîtrise d ' ouvrage est avec nous .
Features :: Feature-Counts :: Feature-Lemmas
--------------------------------------------
marqueurs :: 1 :: [ bon ]
appreciatif :: 1 :: [ bon ]
axiologique :: 1 :: [ bon ]
marqueurs_niveau3 :: 1 :: [ bon ]
appreciatif_niveau3 :: 1 :: [ bon ]
axiologique_niveau3 :: 1 :: [ bon ]
Total feature counts: 6


====== Text Level Features ======

Features :: Feature-Counts :: Feature-Lemmas
--------------------------------------------
marqueurs :: 1 :: [ bon ]
appreciatif :: 1 :: [ bon ]
axiologique :: 1 :: [ bon ]
marqueurs_niveau3 :: 1 :: [ bon ]
appreciatif_niveau3 :: 1 :: [ bon ]
axiologique_niveau3 :: 1 :: [ bon ]
Total feature counts: 6

