
********** Entity Names Features **********
*******************************************

1. Sentence: Il existe , au Sud de Paris , un grand espace Agricole à proximité de la limite de la Capitale .
Entity Name (Type) :: Capitale (LOC)


********** Emotions Features **********
***************************************

1. Sentence: Il existe , au Sud de Paris , un grand espace Agricole à proximité de la limite de la Capitale .
No features found.


********** Modality Features **********
***************************************

1. Sentence: Il existe , au Sud de Paris , un grand espace Agricole à proximité de la limite de la Capitale .
Features :: Feature-Counts :: Feature-Lemmas
--------------------------------------------
marqueurs :: 1 :: [ grand ]
epistemique :: 1 :: [ grand ]
marqueurs_niveau3 :: 1 :: [ grand ]
epistemique_niveau3 :: 1 :: [ grand ]
Total feature counts: 4


********** Adverbiaux Temporels Features **********
********************************************************

1. Sentence: Il existe , au Sud de Paris , un grand espace Agricole à proximité de la limite de la Capitale .
No features found.

