====== Sentence Level Features ======

1. Sentence: également de désindustrialisation , du numérique qui va tout submerger .
Features :: Feature-Counts :: Feature-Lemmas
--------------------------------------------
marqueurs :: 2 :: [ aller, submerger ]
alethique :: 1 :: [ aller ]
pas_d_indication :: 1 :: [ submerger ]
marqueurs_niveau1 :: 1 :: [ aller ]
marqueurs_niveau0 :: 1 :: [ submerger ]
alethique_niveau1 :: 1 :: [ aller ]
pas_d_indication_niveau0 :: 1 :: [ submerger ]
Total feature counts: 8


====== Text Level Features ======

Features :: Feature-Counts :: Feature-Lemmas
--------------------------------------------
marqueurs :: 2 :: [ aller, submerger ]
alethique :: 1 :: [ aller ]
pas_d_indication :: 1 :: [ submerger ]
marqueurs_niveau1 :: 1 :: [ aller ]
marqueurs_niveau0 :: 1 :: [ submerger ]
alethique_niveau1 :: 1 :: [ aller ]
pas_d_indication_niveau0 :: 1 :: [ submerger ]
Total feature counts: 8

