
********** Entity Names Features **********
*******************************************

1. Sentence: Mais la situation a progressé , depuis dix ans .
No features found.


********** Emotions Features **********
***************************************

1. Sentence: Mais la situation a progressé , depuis dix ans .
No features found.


********** Modality Features **********
***************************************

1. Sentence: Mais la situation a progressé , depuis dix ans .
Features :: Feature-Counts :: Feature-Lemmas
--------------------------------------------
marqueurs :: 1 :: [ progresser ]
pas_d_indication :: 1 :: [ progresser ]
marqueurs_niveau0 :: 1 :: [ progresser ]
pas_d_indication_niveau0 :: 1 :: [ progresser ]
Total feature counts: 4


********** Adverbiaux Temporels Features **********
********************************************************

1. Sentence: Mais la situation a progressé , depuis dix ans .
No features found.

