====== Sentence Level Features ======

1. Sentence: Le parc aux Angéliques est le premier élément réalisé du très vaste parc de la rive droite de Bordeaux , prévu par Michel Desvigne dans le cadre de la charte des paysages de la ville .
Features :: Feature-Counts :: Feature-Lemmas
--------------------------------------------
marqueurs :: 2 :: [ réaliser, droit ]
alethique :: 1 :: [ réaliser ]
deontique :: 1 :: [ droit ]
marqueurs_niveau3 :: 1 :: [ droit ]
marqueurs_niveau1 :: 1 :: [ réaliser ]
alethique_niveau1 :: 1 :: [ réaliser ]
deontique_niveau3 :: 1 :: [ droit ]
Total feature counts: 8


====== Text Level Features ======

Features :: Feature-Counts :: Feature-Lemmas
--------------------------------------------
marqueurs :: 2 :: [ réaliser, droit ]
alethique :: 1 :: [ réaliser ]
deontique :: 1 :: [ droit ]
marqueurs_niveau3 :: 1 :: [ droit ]
marqueurs_niveau1 :: 1 :: [ réaliser ]
alethique_niveau1 :: 1 :: [ réaliser ]
deontique_niveau3 :: 1 :: [ droit ]
Total feature counts: 8

