
********** Entity Names Features **********
*******************************************

1. Sentence: Répondre à la demande sociale
No features found.


********** Emotions Features **********
***************************************

1. Sentence: Répondre à la demande sociale
No features found.


********** Modality Features **********
***************************************

1. Sentence: Répondre à la demande sociale
No features found.


********** Adverbiaux Temporels Features **********
********************************************************

1. Sentence: Répondre à la demande sociale
No features found.

