
********** Entity Names Features **********
*******************************************

1. Sentence: Le refus grandissant des effets pervers de la mondialisation ouvre des perspectives sur d ' autres formes d ' exploitation agricole .
Entity Name (Type) :: Le (LOC)


********** Emotions Features **********
***************************************

1. Sentence: Le refus grandissant des effets pervers de la mondialisation ouvre des perspectives sur d ' autres formes d ' exploitation agricole .
No features found.


********** Modality Features **********
***************************************

1. Sentence: Le refus grandissant des effets pervers de la mondialisation ouvre des perspectives sur d ' autres formes d ' exploitation agricole .
Features :: Feature-Counts :: Feature-Lemmas
--------------------------------------------
marqueurs :: 2 :: [ refus, ouvrir ]
boulique :: 2 :: [ refus, ouvrir ]
marqueurs_niveau3 :: 1 :: [ ouvrir ]
marqueurs_niveau2 :: 1 :: [ refus ]
boulique_niveau3 :: 1 :: [ ouvrir ]
boulique_niveau2 :: 1 :: [ refus ]
Total feature counts: 8


********** Adverbiaux Temporels Features **********
********************************************************

1. Sentence: Le refus grandissant des effets pervers de la mondialisation ouvre des perspectives sur d ' autres formes d ' exploitation agricole .
No features found.

