
********** Entity Names Features **********
*******************************************

1. Sentence: S ' y trouveront aussi des équipements intercommunaux : maison de la culture , lycée , parfois collège universitaire , parc de sports . . .
Entity Name (Type) :: S (LOC)


********** Emotions Features **********
***************************************

1. Sentence: S ' y trouveront aussi des équipements intercommunaux : maison de la culture , lycée , parfois collège universitaire , parc de sports . . .
No features found.


********** Modality Features **********
***************************************

1. Sentence: S ' y trouveront aussi des équipements intercommunaux : maison de la culture , lycée , parfois collège universitaire , parc de sports . . .
Features :: Feature-Counts :: Feature-Lemmas
--------------------------------------------
marqueurs :: 1 :: [ parfois ]
alethique :: 1 :: [ parfois ]
marqueurs_niveau3 :: 1 :: [ parfois ]
alethique_niveau3 :: 1 :: [ parfois ]
Total feature counts: 4


********** Adverbiaux Temporels Features **********
********************************************************

1. Sentence: S ' y trouveront aussi des équipements intercommunaux : maison de la culture , lycée , parfois collège universitaire , parc de sports . . .
Features :: Feature-Counts :: Feature-Texts
--------------------------------------------
adverbiaux_temporels::1::['parfois']
adverbiaux_purement_iteratifs::1::['parfois']
adverbiaux_iterateur_frequentiel::1::['parfois']

