====== Sentence Level Features ======

1. Sentence: J ' ai toujours été étonné de l ' enfermement physique , juridique , social et même conceptuel dans lequel on a laissé s ' installer ces cités .
Features :: Feature-Counts :: Feature-Lemmas
--------------------------------------------
marqueurs :: 3 :: [ toujours, étonner, laisser ]
alethique :: 1 :: [ toujours ]
deontique :: 1 :: [ laisser ]
pas_d_indication :: 1 :: [ étonner ]
marqueurs_niveau3 :: 1 :: [ toujours ]
marqueurs_niveau2 :: 1 :: [ laisser ]
marqueurs_niveau0 :: 1 :: [ étonner ]
alethique_niveau3 :: 1 :: [ toujours ]
deontique_niveau2 :: 1 :: [ laisser ]
pas_d_indication_niveau0 :: 1 :: [ étonner ]
Total feature counts: 12


====== Text Level Features ======

Features :: Feature-Counts :: Feature-Lemmas
--------------------------------------------
marqueurs :: 3 :: [ toujours, étonner, laisser ]
alethique :: 1 :: [ toujours ]
deontique :: 1 :: [ laisser ]
pas_d_indication :: 1 :: [ étonner ]
marqueurs_niveau3 :: 1 :: [ toujours ]
marqueurs_niveau2 :: 1 :: [ laisser ]
marqueurs_niveau0 :: 1 :: [ étonner ]
alethique_niveau3 :: 1 :: [ toujours ]
deontique_niveau2 :: 1 :: [ laisser ]
pas_d_indication_niveau0 :: 1 :: [ étonner ]
Total feature counts: 12

