====== Sentence Level Features ======

1. Sentence: - l ' autre sur la rive droite , en face de Corbeil , entre la forêt de Sénart , les bois du Rougeau et l ' autoroute du Sud-Est .
Features :: Feature-Counts :: Feature-Lemmas
--------------------------------------------
marqueurs :: 1 :: [ droit ]
deontique :: 1 :: [ droit ]
marqueurs_niveau3 :: 1 :: [ droit ]
deontique_niveau3 :: 1 :: [ droit ]
Total feature counts: 4


====== Text Level Features ======

Features :: Feature-Counts :: Feature-Lemmas
--------------------------------------------
marqueurs :: 1 :: [ droit ]
deontique :: 1 :: [ droit ]
marqueurs_niveau3 :: 1 :: [ droit ]
deontique_niveau3 :: 1 :: [ droit ]
Total feature counts: 4

