====== Sentence Level Features ======

1. Sentence: Mille questions doivent être posées :
Entity Name (Type) :: Mille (LOC)


====== Text Level Features ======

Entity Name (Entity Type)
-------------------------
Mille (LOC)
Total entitiy counts: 1

