
********** Entity Names Features **********
*******************************************

1. Sentence: Il fut un temps où des professionnels très expérimentés pouvaient assurer un grand nombre de tâches de natures différentes .
No features found.


********** Emotions Features **********
***************************************

1. Sentence: Il fut un temps où des professionnels très expérimentés pouvaient assurer un grand nombre de tâches de natures différentes .
No features found.


********** Modality Features **********
***************************************

1. Sentence: Il fut un temps où des professionnels très expérimentés pouvaient assurer un grand nombre de tâches de natures différentes .
Features :: Feature-Counts :: Feature-Lemmas
--------------------------------------------
marqueurs :: 2 :: [ pouvoir, grand ]
epistemique :: 2 :: [ pouvoir, grand ]
marqueurs_niveau3 :: 2 :: [ pouvoir, grand ]
epistemique_niveau3 :: 2 :: [ pouvoir, grand ]
alethique :: 1 :: [ pouvoir ]
deontique :: 1 :: [ pouvoir ]
alethique_niveau3 :: 1 :: [ pouvoir ]
deontique_niveau3 :: 1 :: [ pouvoir ]
Total feature counts: 12


********** Adverbiaux Temporels Features **********
********************************************************

1. Sentence: Il fut un temps où des professionnels très expérimentés pouvaient assurer un grand nombre de tâches de natures différentes .
No features found.

