
********** Entity Names Features **********
*******************************************

1. Sentence: La référence était la ruelle , petite rue qui s ' infiltre .
No features found.


********** Emotions Features **********
***************************************

1. Sentence: La référence était la ruelle , petite rue qui s ' infiltre .
No features found.


********** Modality Features **********
***************************************

1. Sentence: La référence était la ruelle , petite rue qui s ' infiltre .
Features :: Feature-Counts :: Feature-Lemmas
--------------------------------------------
marqueurs :: 1 :: [ petit ]
epistemique :: 1 :: [ petit ]
marqueurs_niveau3 :: 1 :: [ petit ]
epistemique_niveau3 :: 1 :: [ petit ]
Total feature counts: 4


********** Adverbiaux Temporels Features **********
********************************************************

1. Sentence: La référence était la ruelle , petite rue qui s ' infiltre .
No features found.

