====== Sentence Level Features ======

1. Sentence: nous avons stagné pendant prés d ' un an approximativement car nous n ' aurions peut-être pas pu sortir ceci avec ce degré de perfectionnement du texte ;
Features :: Feature-Counts :: Feature-Lemmas
--------------------------------------------
marqueurs :: 2 :: [ peut-être, pouvoir ]
epistemique :: 2 :: [ peut-être, pouvoir ]
marqueurs_niveau3 :: 2 :: [ peut-être, pouvoir ]
epistemique_niveau3 :: 2 :: [ peut-être, pouvoir ]
alethique :: 1 :: [ pouvoir ]
deontique :: 1 :: [ pouvoir ]
alethique_niveau3 :: 1 :: [ pouvoir ]
deontique_niveau3 :: 1 :: [ pouvoir ]
Total feature counts: 12


====== Text Level Features ======

Features :: Feature-Counts :: Feature-Lemmas
--------------------------------------------
marqueurs :: 2 :: [ peut-être, pouvoir ]
epistemique :: 2 :: [ peut-être, pouvoir ]
marqueurs_niveau3 :: 2 :: [ peut-être, pouvoir ]
epistemique_niveau3 :: 2 :: [ peut-être, pouvoir ]
alethique :: 1 :: [ pouvoir ]
deontique :: 1 :: [ pouvoir ]
alethique_niveau3 :: 1 :: [ pouvoir ]
deontique_niveau3 :: 1 :: [ pouvoir ]
Total feature counts: 12

