====== Sentence Level Features ======

1. Sentence: Les années suivantes , j ' ai été invitée dans plusieurs universités : à l ' École polytechnique fédérale de Lausanne , Paysage de la réforme Itinéraire narratif Expansion du vignoble Carrières Circuit du vin Jardins publics et kiosques , nouvelles caves les redessinant .
Features :: Feature-Counts :: Feature-Lemmas
--------------------------------------------
marqueurs :: 1 :: [ école ]
alethique :: 1 :: [ école ]
marqueurs_niveau1 :: 1 :: [ école ]
alethique_niveau1 :: 1 :: [ école ]
Total feature counts: 4


====== Text Level Features ======

Features :: Feature-Counts :: Feature-Lemmas
--------------------------------------------
marqueurs :: 1 :: [ école ]
alethique :: 1 :: [ école ]
marqueurs_niveau1 :: 1 :: [ école ]
alethique_niveau1 :: 1 :: [ école ]
Total feature counts: 4

