====== Sentence Level Features ======

1. Sentence: Il faut se demander aujourd ' hui si les indicateurs et les méthodes des décennies précédentes sont encore pertinents et suffisants pour interroger les territoires en cours d ' urbanisation .
Features :: Feature-Counts :: Feature-Lemmas
--------------------------------------------
marqueurs :: 3 :: [ falloir, demander, suffisant ]
marqueurs_niveau3 :: 2 :: [ falloir, demander ]
boulique :: 1 :: [ demander ]
deontique :: 1 :: [ falloir ]
pas_d_indication :: 1 :: [ suffisant ]
marqueurs_niveau0 :: 1 :: [ suffisant ]
boulique_niveau3 :: 1 :: [ demander ]
deontique_niveau3 :: 1 :: [ falloir ]
pas_d_indication_niveau0 :: 1 :: [ suffisant ]
Total feature counts: 12


====== Text Level Features ======

Features :: Feature-Counts :: Feature-Lemmas
--------------------------------------------
marqueurs :: 3 :: [ falloir, demander, suffisant ]
marqueurs_niveau3 :: 2 :: [ falloir, demander ]
boulique :: 1 :: [ demander ]
deontique :: 1 :: [ falloir ]
pas_d_indication :: 1 :: [ suffisant ]
marqueurs_niveau0 :: 1 :: [ suffisant ]
boulique_niveau3 :: 1 :: [ demander ]
deontique_niveau3 :: 1 :: [ falloir ]
pas_d_indication_niveau0 :: 1 :: [ suffisant ]
Total feature counts: 12

