
********** Entity Names Features **********
*******************************************

1. Sentence: Le projet est toujours en mouvement et doit s ' adapter aux leviers et opportunités .
No features found.


********** Emotions Features **********
***************************************

1. Sentence: Le projet est toujours en mouvement et doit s ' adapter aux leviers et opportunités .
No features found.


********** Modality Features **********
***************************************

1. Sentence: Le projet est toujours en mouvement et doit s ' adapter aux leviers et opportunités .
Features :: Feature-Counts :: Feature-Lemmas
--------------------------------------------
marqueurs :: 2 :: [ toujours, devoir ]
alethique :: 2 :: [ toujours, devoir ]
marqueurs_niveau3 :: 2 :: [ toujours, devoir ]
alethique_niveau3 :: 2 :: [ toujours, devoir ]
deontique :: 1 :: [ devoir ]
epistemique :: 1 :: [ devoir ]
deontique_niveau3 :: 1 :: [ devoir ]
epistemique_niveau3 :: 1 :: [ devoir ]
Total feature counts: 12


********** Adverbiaux Temporels Features **********
********************************************************

1. Sentence: Le projet est toujours en mouvement et doit s ' adapter aux leviers et opportunités .
Features :: Feature-Counts :: Feature-Texts
--------------------------------------------
adverbiaux_temporels::1::['toujours']
adverbiaux_duratifs_iteratifs::1::['toujours']

