====== Sentence Level Features ======

1. Sentence: Tel est le type de questions qui se posent lorsqu ' on tente d ' appréhender et d ' analyser la réalité mondialisée du maillage des métropoles contemporaines .
Features :: Feature-Counts :: Feature-Lemmas
--------------------------------------------
marqueurs :: 2 :: [ tenter, réalité ]
alethique :: 1 :: [ réalité ]
boulique :: 1 :: [ tenter ]
marqueurs_niveau2 :: 1 :: [ tenter ]
marqueurs_niveau1 :: 1 :: [ réalité ]
alethique_niveau1 :: 1 :: [ réalité ]
boulique_niveau2 :: 1 :: [ tenter ]
Total feature counts: 8


====== Text Level Features ======

Features :: Feature-Counts :: Feature-Lemmas
--------------------------------------------
marqueurs :: 2 :: [ tenter, réalité ]
alethique :: 1 :: [ réalité ]
boulique :: 1 :: [ tenter ]
marqueurs_niveau2 :: 1 :: [ tenter ]
marqueurs_niveau1 :: 1 :: [ réalité ]
alethique_niveau1 :: 1 :: [ réalité ]
boulique_niveau2 :: 1 :: [ tenter ]
Total feature counts: 8

