
********** Entity Names Features **********
*******************************************

1. Sentence: Dans les livres d ' enfants , on montre comment sont fabriqués les rues , les réseaux d ' eau et d ' énergie , les trottoirs .
No features found.


********** Emotions Features **********
***************************************

1. Sentence: Dans les livres d ' enfants , on montre comment sont fabriqués les rues , les réseaux d ' eau et d ' énergie , les trottoirs .
No features found.


********** Modality Features **********
***************************************

1. Sentence: Dans les livres d ' enfants , on montre comment sont fabriqués les rues , les réseaux d ' eau et d ' énergie , les trottoirs .
No features found.


********** Adverbiaux Temporels Features **********
********************************************************

1. Sentence: Dans les livres d ' enfants , on montre comment sont fabriqués les rues , les réseaux d ' eau et d ' énergie , les trottoirs .
No features found.

