
********** Entity Names Features **********
*******************************************

1. Sentence: Elle ne représente en fait que 16 à 22 % des emplois tertiaires à créer en région parisienne au cours des quarante prochaines années .
No features found.


********** Emotions Features **********
***************************************

1. Sentence: Elle ne représente en fait que 16 à 22 % des emplois tertiaires à créer en région parisienne au cours des quarante prochaines années .
No features found.


********** Modality Features **********
***************************************

1. Sentence: Elle ne représente en fait que 16 à 22 % des emplois tertiaires à créer en région parisienne au cours des quarante prochaines années .
Features :: Feature-Counts :: Feature-Lemmas
--------------------------------------------
marqueurs :: 1 :: [ emploi ]
appreciatif :: 1 :: [ emploi ]
marqueurs_niveau2 :: 1 :: [ emploi ]
appreciatif_niveau2 :: 1 :: [ emploi ]
Total feature counts: 4


********** Adverbiaux Temporels Features **********
********************************************************

1. Sentence: Elle ne représente en fait que 16 à 22 % des emplois tertiaires à créer en région parisienne au cours des quarante prochaines années .
No features found.

