
********** Entity Names Features **********
*******************************************

1. Sentence: S ' il était nécessaire de mettre d ' abord en relief les dimensions des besoins de la région de Paris , c ' est parce qu ' il ne peut y avoir d ' urbanisme sans prise en compte des aspects quantitatifs (1) .
Entity Name (Type) :: Paris (LOC)


********** Emotions Features **********
***************************************

1. Sentence: S ' il était nécessaire de mettre d ' abord en relief les dimensions des besoins de la région de Paris , c ' est parce qu ' il ne peut y avoir d ' urbanisme sans prise en compte des aspects quantitatifs (1) .
No features found.


********** Modality Features **********
***************************************

1. Sentence: S ' il était nécessaire de mettre d ' abord en relief les dimensions des besoins de la région de Paris , c ' est parce qu ' il ne peut y avoir d ' urbanisme sans prise en compte des aspects quantitatifs (1) .
Features :: Feature-Counts :: Feature-Lemmas
--------------------------------------------
marqueurs :: 3 :: [ nécessaire, besoin, pouvoir ]
alethique :: 3 :: [ nécessaire, besoin, pouvoir ]
marqueurs_niveau3 :: 3 :: [ nécessaire, besoin, pouvoir ]
alethique_niveau3 :: 3 :: [ nécessaire, besoin, pouvoir ]
boulique :: 1 :: [ besoin ]
deontique :: 1 :: [ pouvoir ]
epistemique :: 1 :: [ pouvoir ]
boulique_niveau3 :: 1 :: [ besoin ]
deontique_niveau3 :: 1 :: [ pouvoir ]
epistemique_niveau3 :: 1 :: [ pouvoir ]
Total feature counts: 18


********** Adverbiaux Temporels Features **********
********************************************************

1. Sentence: S ' il était nécessaire de mettre d ' abord en relief les dimensions des besoins de la région de Paris , c ' est parce qu ' il ne peut y avoir d ' urbanisme sans prise en compte des aspects quantitatifs (1) .
No features found.

