====== Sentence Level Features ======

1. Sentence: Je sais que notre plan devra accueillir des architectures éclectiques , vilaines , abusives , mais il résistera .
Features :: Feature-Counts :: Feature-Lemmas
--------------------------------------------
marqueurs :: 2 :: [ savoir, devoir ]
epistemique :: 2 :: [ savoir, devoir ]
marqueurs_niveau3 :: 2 :: [ savoir, devoir ]
epistemique_niveau3 :: 2 :: [ savoir, devoir ]
alethique :: 1 :: [ devoir ]
deontique :: 1 :: [ devoir ]
alethique_niveau3 :: 1 :: [ devoir ]
deontique_niveau3 :: 1 :: [ devoir ]
Total feature counts: 12


====== Text Level Features ======

Features :: Feature-Counts :: Feature-Lemmas
--------------------------------------------
marqueurs :: 2 :: [ savoir, devoir ]
epistemique :: 2 :: [ savoir, devoir ]
marqueurs_niveau3 :: 2 :: [ savoir, devoir ]
epistemique_niveau3 :: 2 :: [ savoir, devoir ]
alethique :: 1 :: [ devoir ]
deontique :: 1 :: [ devoir ]
alethique_niveau3 :: 1 :: [ devoir ]
deontique_niveau3 :: 1 :: [ devoir ]
Total feature counts: 12

