====== Sentence Level Features ======

1. Sentence: Au fond , d ' où vient ce qui nous motive ?
Features :: Feature-Counts :: Feature-Lemmas
--------------------------------------------
marqueurs :: 1 :: [ venir ]
alethique :: 1 :: [ venir ]
marqueurs_niveau3 :: 1 :: [ venir ]
alethique_niveau3 :: 1 :: [ venir ]
Total feature counts: 4


====== Text Level Features ======

Features :: Feature-Counts :: Feature-Lemmas
--------------------------------------------
marqueurs :: 1 :: [ venir ]
alethique :: 1 :: [ venir ]
marqueurs_niveau3 :: 1 :: [ venir ]
alethique_niveau3 :: 1 :: [ venir ]
Total feature counts: 4

