====== Sentence Level Features ======

1. Sentence: Le fait que les mises en service soient encore si rares illustrent seulement combien prévision à long terme et décision sans retard sont nécessaires en matière de grands équipements .
Features :: Feature-Counts :: Feature-Lemmas
--------------------------------------------
marqueurs :: 6 :: [ rare, long, décision, retard, nécessaire, grand ]
epistemique :: 4 :: [ rare, long, décision, grand ]
marqueurs_niveau3 :: 2 :: [ nécessaire, grand ]
marqueurs_niveau2 :: 2 :: [ long, décision ]
epistemique_niveau2 :: 2 :: [ long, décision ]
alethique :: 1 :: [ nécessaire ]
boulique :: 1 :: [ décision ]
pas_d_indication :: 1 :: [ retard ]
marqueurs_niveau1 :: 1 :: [ rare ]
marqueurs_niveau0 :: 1 :: [ retard ]
alethique_niveau3 :: 1 :: [ nécessaire ]
boulique_niveau2 :: 1 :: [ décision ]
epistemique_niveau3 :: 1 :: [ grand ]
epistemique_niveau1 :: 1 :: [ rare ]
pas_d_indication_niveau0 :: 1 :: [ retard ]
Total feature counts: 26


====== Text Level Features ======

Features :: Feature-Counts :: Feature-Lemmas
--------------------------------------------
marqueurs :: 6 :: [ rare, long, décision, retard, nécessaire, grand ]
epistemique :: 4 :: [ rare, long, décision, grand ]
marqueurs_niveau3 :: 2 :: [ nécessaire, grand ]
marqueurs_niveau2 :: 2 :: [ long, décision ]
epistemique_niveau2 :: 2 :: [ long, décision ]
alethique :: 1 :: [ nécessaire ]
boulique :: 1 :: [ décision ]
pas_d_indication :: 1 :: [ retard ]
marqueurs_niveau1 :: 1 :: [ rare ]
marqueurs_niveau0 :: 1 :: [ retard ]
alethique_niveau3 :: 1 :: [ nécessaire ]
boulique_niveau2 :: 1 :: [ décision ]
epistemique_niveau3 :: 1 :: [ grand ]
epistemique_niveau1 :: 1 :: [ rare ]
pas_d_indication_niveau0 :: 1 :: [ retard ]
Total feature counts: 26

