====== Sentence Level Features ======

1. Sentence: Je fais en 1993 , une conférence au Pavillon de l ' Arsenal , Bernard Rocher , directeur de l ' architecture pour la ville , et conseiller de Paris s ' intéresse à mes idées .
Features :: Feature-Counts :: Feature-Texts
--------------------------------------------
adverbiaux_temporels::1::['en 1993']
adverbiaux_localisation_temporelle::1::['en 1993']
adverbiaux_pointage_absolu::1::['en 1993']
adverbiaux_pointage_non_absolu::1::['en 1993']
adverbiaux_loc_temp_focalisation_id::1::['en 1993']
adverbiaux_loc_temp_regionalisation_id::1::['en 1993']
adverbiaux_loc_temp_pointage_non_absolu::1::['en 1993']
adverbiaux_dur_iter_absolu::1::['en 1993']


====== Text Level Features ======

Features :: Feature-Counts :: Feature-Texts
--------------------------------------------
adverbiaux_temporels::1::['en 1993']
adverbiaux_localisation_temporelle::1::['en 1993']
adverbiaux_pointage_absolu::1::['en 1993']
adverbiaux_pointage_non_absolu::1::['en 1993']
adverbiaux_loc_temp_focalisation_id::1::['en 1993']
adverbiaux_loc_temp_regionalisation_id::1::['en 1993']
adverbiaux_loc_temp_pointage_non_absolu::1::['en 1993']
adverbiaux_dur_iter_absolu::1::['en 1993']
Total feature counts: 8

