====== Sentence Level Features ======

1. Sentence: Ariella Masboungi  : Il n ' empêche que les villes moyennes françaises sont en crise .
Features :: Feature-Counts :: Feature-Lemmas
--------------------------------------------
marqueurs :: 2 :: [ empêcher, crise ]
appreciatif :: 1 :: [ crise ]
epistemique :: 1 :: [ crise ]
pas_d_indication :: 1 :: [ empêcher ]
marqueurs_niveau2 :: 1 :: [ crise ]
marqueurs_niveau0 :: 1 :: [ empêcher ]
appreciatif_niveau2 :: 1 :: [ crise ]
epistemique_niveau2 :: 1 :: [ crise ]
pas_d_indication_niveau0 :: 1 :: [ empêcher ]
Total feature counts: 10


====== Text Level Features ======

Features :: Feature-Counts :: Feature-Lemmas
--------------------------------------------
marqueurs :: 2 :: [ empêcher, crise ]
appreciatif :: 1 :: [ crise ]
epistemique :: 1 :: [ crise ]
pas_d_indication :: 1 :: [ empêcher ]
marqueurs_niveau2 :: 1 :: [ crise ]
marqueurs_niveau0 :: 1 :: [ empêcher ]
appreciatif_niveau2 :: 1 :: [ crise ]
epistemique_niveau2 :: 1 :: [ crise ]
pas_d_indication_niveau0 :: 1 :: [ empêcher ]
Total feature counts: 10

