
********** Entity Names Features **********
*******************************************

1. Sentence: Les thèmes sont pour la plupart liés à des sujets d ' exploration qui m ' occupent de longue date suite à des visites , des rencontres , des lectures , des participations à des jurys…
No features found.


********** Emotions Features **********
***************************************

1. Sentence: Les thèmes sont pour la plupart liés à des sujets d ' exploration qui m ' occupent de longue date suite à des visites , des rencontres , des lectures , des participations à des jurys…
No features found.


********** Modality Features **********
***************************************

1. Sentence: Les thèmes sont pour la plupart liés à des sujets d ' exploration qui m ' occupent de longue date suite à des visites , des rencontres , des lectures , des participations à des jurys…
Features :: Feature-Counts :: Feature-Lemmas
--------------------------------------------
marqueurs :: 1 :: [ long ]
epistemique :: 1 :: [ long ]
marqueurs_niveau2 :: 1 :: [ long ]
epistemique_niveau2 :: 1 :: [ long ]
Total feature counts: 4


********** Adverbiaux Temporels Features **********
********************************************************

1. Sentence: Les thèmes sont pour la plupart liés à des sujets d ' exploration qui m ' occupent de longue date suite à des visites , des rencontres , des lectures , des participations à des jurys…
Features :: Feature-Counts :: Feature-Texts
--------------------------------------------
adverbiaux_temporels::1::['de longue date']
adverbiaux_loc_temp_regionalisation_non_id::1::['de longue date']

