====== Sentence Level Features ======

1. Sentence: C - Prises de conscience
Entity Name (Type) :: Prises de conscience (MISC)


====== Text Level Features ======

Entity Name (Entity Type)
-------------------------
Prises de conscience (MISC)
Total entitiy counts: 1

