====== Sentence Level Features ======

1. Sentence: Dans les délaissés paysagers , appelés « terres vaines , vagues et sans maître » , la reconquête naturelle se met en place  : le monde animal et végétal revient petit à petit , réparant les actions de l ' homme par « phytoremédiation » sauvage .
Features :: Feature-Counts :: Feature-Lemmas
--------------------------------------------
marqueurs :: 2 :: [ petit, petit ]
epistemique :: 2 :: [ petit, petit ]
marqueurs_niveau3 :: 2 :: [ petit, petit ]
epistemique_niveau3 :: 2 :: [ petit, petit ]
Total feature counts: 8


====== Text Level Features ======

Features :: Feature-Counts :: Feature-Lemmas
--------------------------------------------
marqueurs :: 2 :: [ petit, petit ]
epistemique :: 2 :: [ petit, petit ]
marqueurs_niveau3 :: 2 :: [ petit, petit ]
epistemique_niveau3 :: 2 :: [ petit, petit ]
Total feature counts: 8

