====== Sentence Level Features ======

1. Sentence: La marche !
Entity Name (Type) :: La marche ! (MISC)


====== Text Level Features ======

Entity Name (Entity Type)
-------------------------
La marche ! (MISC)
Total entitiy counts: 1

