====== Sentence Level Features ======

1. Sentence: C ' est aujourd ' hui une structure partenariale cofinancée par l ' État , des collectivités locales , et de nombreuses entreprises (www . ihedate . org) C ' est un cycle qui réunit deux jours par mois une soixantaine d ' auditeurs et auditrices venant de milieux très variés , public et privé mélangés .
Features :: Feature-Counts :: Feature-Lemmas
--------------------------------------------
marqueurs :: 1 :: [ venir ]
alethique :: 1 :: [ venir ]
marqueurs_niveau3 :: 1 :: [ venir ]
alethique_niveau3 :: 1 :: [ venir ]
Total feature counts: 4


====== Text Level Features ======

Features :: Feature-Counts :: Feature-Lemmas
--------------------------------------------
marqueurs :: 1 :: [ venir ]
alethique :: 1 :: [ venir ]
marqueurs_niveau3 :: 1 :: [ venir ]
alethique_niveau3 :: 1 :: [ venir ]
Total feature counts: 4

