
********** Entity Names Features **********
*******************************************

1. Sentence: Il faut inventer notre propre voie .
No features found.


********** Emotions Features **********
***************************************

1. Sentence: Il faut inventer notre propre voie .
No features found.


********** Modality Features **********
***************************************

1. Sentence: Il faut inventer notre propre voie .
Features :: Feature-Counts :: Feature-Lemmas
--------------------------------------------
marqueurs :: 2 :: [ falloir, inventer ]
deontique :: 1 :: [ falloir ]
epistemique :: 1 :: [ inventer ]
marqueurs_niveau3 :: 1 :: [ falloir ]
marqueurs_niveau2 :: 1 :: [ inventer ]
deontique_niveau3 :: 1 :: [ falloir ]
epistemique_niveau2 :: 1 :: [ inventer ]
Total feature counts: 8


********** Adverbiaux Temporels Features **********
********************************************************

1. Sentence: Il faut inventer notre propre voie .
No features found.

