
********** Entity Names Features **********
*******************************************

1. Sentence: « J ' aime les études , ce qui est un peu compliqué .
No features found.


********** Emotions Features **********
***************************************

1. Sentence: « J ' aime les études , ce qui est un peu compliqué .
Tokens having emotion: [ aime ]
Lemmas having emotion: [ aimer ]
Categories of the emotion lemmas: [ amour ]


********** Modality Features **********
***************************************

1. Sentence: « J ' aime les études , ce qui est un peu compliqué .
Features :: Feature-Counts :: Feature-Lemmas
--------------------------------------------
marqueurs :: 1 :: [ aimer ]
appreciatif :: 1 :: [ aimer ]
marqueurs_niveau3 :: 1 :: [ aimer ]
appreciatif_niveau3 :: 1 :: [ aimer ]
Total feature counts: 4


********** Adverbiaux Temporels Features **********
********************************************************

1. Sentence: « J ' aime les études , ce qui est un peu compliqué .
No features found.

