
********** Entity Names Features **********
*******************************************

1. Sentence: Le plus sûr moyen d ' y parvenir est de fixer une grande trame d ' espaces structurants qui , à terme , deviendront «naturellement » les espaces publics de la ville .
Entity Name (Type) :: Le (LOC)


********** Emotions Features **********
***************************************

1. Sentence: Le plus sûr moyen d ' y parvenir est de fixer une grande trame d ' espaces structurants qui , à terme , deviendront «naturellement » les espaces publics de la ville .
No features found.


********** Modality Features **********
***************************************

1. Sentence: Le plus sûr moyen d ' y parvenir est de fixer une grande trame d ' espaces structurants qui , à terme , deviendront «naturellement » les espaces publics de la ville .
Features :: Feature-Counts :: Feature-Lemmas
--------------------------------------------
marqueurs :: 3 :: [ sûr, grand, naturellement ]
epistemique :: 2 :: [ sûr, grand ]
marqueurs_niveau2 :: 2 :: [ sûr, naturellement ]
alethique :: 1 :: [ naturellement ]
marqueurs_niveau3 :: 1 :: [ grand ]
alethique_niveau2 :: 1 :: [ naturellement ]
epistemique_niveau3 :: 1 :: [ grand ]
epistemique_niveau2 :: 1 :: [ sûr ]
Total feature counts: 12


********** Adverbiaux Temporels Features **********
********************************************************

1. Sentence: Le plus sûr moyen d ' y parvenir est de fixer une grande trame d ' espaces structurants qui , à terme , deviendront «naturellement » les espaces publics de la ville .
No features found.

