====== Sentence Level Features ======

1. Sentence: La vie doit pouvoir à chaque instant s ' installer dans les interstices de la grande trame dessinée , sur laquelle les engagements sont pris pour maintenir la cohérence dans le long terme .
Features :: Feature-Counts :: Feature-Lemmas
--------------------------------------------
marqueurs :: 4 :: [ devoir, pouvoir, grand, long ]
epistemique :: 4 :: [ devoir, pouvoir, grand, long ]
marqueurs_niveau3 :: 3 :: [ devoir, pouvoir, grand ]
epistemique_niveau3 :: 3 :: [ devoir, pouvoir, grand ]
alethique :: 2 :: [ devoir, pouvoir ]
deontique :: 2 :: [ devoir, pouvoir ]
alethique_niveau3 :: 2 :: [ devoir, pouvoir ]
deontique_niveau3 :: 2 :: [ devoir, pouvoir ]
marqueurs_niveau2 :: 1 :: [ long ]
epistemique_niveau2 :: 1 :: [ long ]
Total feature counts: 24


====== Text Level Features ======

Features :: Feature-Counts :: Feature-Lemmas
--------------------------------------------
marqueurs :: 4 :: [ devoir, pouvoir, grand, long ]
epistemique :: 4 :: [ devoir, pouvoir, grand, long ]
marqueurs_niveau3 :: 3 :: [ devoir, pouvoir, grand ]
epistemique_niveau3 :: 3 :: [ devoir, pouvoir, grand ]
alethique :: 2 :: [ devoir, pouvoir ]
deontique :: 2 :: [ devoir, pouvoir ]
alethique_niveau3 :: 2 :: [ devoir, pouvoir ]
deontique_niveau3 :: 2 :: [ devoir, pouvoir ]
marqueurs_niveau2 :: 1 :: [ long ]
epistemique_niveau2 :: 1 :: [ long ]
Total feature counts: 24

