====== Sentence Level Features ======

1. Sentence: Comme l ' annonçait Ildefons Cerdà dès 1867 , la campagne a bel et bien été urbanisée et la ville ruralisée .
Features :: Feature-Counts :: Feature-Texts
--------------------------------------------
adverbiaux_temporels::1::['dès 1867']
adverbiaux_localisation_temporelle::1::['dès 1867']
adverbiaux_pointage_absolu::1::['dès 1867']
adverbiaux_pointage_non_absolu::1::['dès 1867']
adverbiaux_loc_temp_focalisation_id::1::['dès 1867']
adverbiaux_loc_temp_regionalisation_non_id::1::['dès 1867']
adverbiaux_loc_temp_pointage_non_absolu::1::['dès 1867']
adverbiaux_dur_iter_absolu::1::['dès 1867']


====== Text Level Features ======

Features :: Feature-Counts :: Feature-Texts
--------------------------------------------
adverbiaux_temporels::1::['dès 1867']
adverbiaux_localisation_temporelle::1::['dès 1867']
adverbiaux_pointage_absolu::1::['dès 1867']
adverbiaux_pointage_non_absolu::1::['dès 1867']
adverbiaux_loc_temp_focalisation_id::1::['dès 1867']
adverbiaux_loc_temp_regionalisation_non_id::1::['dès 1867']
adverbiaux_loc_temp_pointage_non_absolu::1::['dès 1867']
adverbiaux_dur_iter_absolu::1::['dès 1867']
Total feature counts: 8

