
********** Entity Names Features **********
*******************************************

1. Sentence: » Ainsi , la ville est en profonde mutation quant à sa nature , ses projets , ses modes d ' intervention et son financement .
No features found.


********** Emotions Features **********
***************************************

1. Sentence: » Ainsi , la ville est en profonde mutation quant à sa nature , ses projets , ses modes d ' intervention et son financement .
No features found.


********** Modality Features **********
***************************************

1. Sentence: » Ainsi , la ville est en profonde mutation quant à sa nature , ses projets , ses modes d ' intervention et son financement .
No features found.


********** Adverbiaux Temporels Features **********
********************************************************

1. Sentence: » Ainsi , la ville est en profonde mutation quant à sa nature , ses projets , ses modes d ' intervention et son financement .
No features found.

