
********** Entity Names Features **********
*******************************************

1. Sentence: D ' où le fait que je n ' ai jamais exercé sous mon nom propre .
No features found.


********** Emotions Features **********
***************************************

1. Sentence: D ' où le fait que je n ' ai jamais exercé sous mon nom propre .
No features found.


********** Modality Features **********
***************************************

1. Sentence: D ' où le fait que je n ' ai jamais exercé sous mon nom propre .
Features :: Feature-Counts :: Feature-Lemmas
--------------------------------------------
marqueurs :: 1 :: [ jamais ]
alethique :: 1 :: [ jamais ]
marqueurs_niveau3 :: 1 :: [ jamais ]
alethique_niveau3 :: 1 :: [ jamais ]
Total feature counts: 4


********** Adverbiaux Temporels Features **********
********************************************************

1. Sentence: D ' où le fait que je n ' ai jamais exercé sous mon nom propre .
Features :: Feature-Counts :: Feature-Texts
--------------------------------------------
adverbiaux_temporels::1::['jamais']
adverbiaux_purement_iteratifs::1::['jamais']
adverbiaux_iterateur_frequentiel::1::['jamais']

