====== Sentence Level Features ======

1. Sentence: Gilles Huchette  : Il s ' agit d ' un programme de Pôle emploi .
Entity Name (Type) :: Pôle emploi (ORG)


====== Text Level Features ======

Entity Name (Entity Type)
-------------------------
Gilles Huchette (PER)
Pôle emploi (ORG)
Total entitiy counts: 2

