====== Sentence Level Features ======

1. Sentence: Notre réponse principale a été l ' idée du campus-ville (un vrai campus , pas une zone d ' activités ; avec une urbanité à créer de toutes pièces) reposant sur trois piliers , compacité , mixité , durabilité .
Features :: Feature-Counts :: Feature-Lemmas
--------------------------------------------
marqueurs :: 1 :: [ vrai ]
alethique :: 1 :: [ vrai ]
marqueurs_niveau1 :: 1 :: [ vrai ]
alethique_niveau1 :: 1 :: [ vrai ]
Total feature counts: 4


====== Text Level Features ======

Features :: Feature-Counts :: Feature-Lemmas
--------------------------------------------
marqueurs :: 1 :: [ vrai ]
alethique :: 1 :: [ vrai ]
marqueurs_niveau1 :: 1 :: [ vrai ]
alethique_niveau1 :: 1 :: [ vrai ]
Total feature counts: 4

