
********** Entity Names Features **********
*******************************************

1. Sentence: L ' Institut pour la ville en mouvement (IVM) est un bon exemple de ce type de démarche indépendante des jeux d ' acteurs de l ' université et de l ' aménagement . 2 .
Entity Name (Type) :: IVM (ORG)


********** Emotions Features **********
***************************************

1. Sentence: L ' Institut pour la ville en mouvement (IVM) est un bon exemple de ce type de démarche indépendante des jeux d ' acteurs de l ' université et de l ' aménagement . 2 .
No features found.


********** Modality Features **********
***************************************

1. Sentence: L ' Institut pour la ville en mouvement (IVM) est un bon exemple de ce type de démarche indépendante des jeux d ' acteurs de l ' université et de l ' aménagement . 2 .
Features :: Feature-Counts :: Feature-Lemmas
--------------------------------------------
marqueurs :: 1 :: [ bon ]
appreciatif :: 1 :: [ bon ]
axiologique :: 1 :: [ bon ]
marqueurs_niveau3 :: 1 :: [ bon ]
appreciatif_niveau3 :: 1 :: [ bon ]
axiologique_niveau3 :: 1 :: [ bon ]
Total feature counts: 6


********** Adverbiaux Temporels Features **********
********************************************************

1. Sentence: L ' Institut pour la ville en mouvement (IVM) est un bon exemple de ce type de démarche indépendante des jeux d ' acteurs de l ' université et de l ' aménagement . 2 .
No features found.

