
********** Entity Names Features **********
*******************************************

1. Sentence: « Agir sur les grands territoires » , avec l ' architecte-urbaniste David Mangin ;
Entity Name (Type) :: David Mangin (PER)


********** Emotions Features **********
***************************************

1. Sentence: « Agir sur les grands territoires » , avec l ' architecte-urbaniste David Mangin ;
No features found.


********** Modality Features **********
***************************************

1. Sentence: « Agir sur les grands territoires » , avec l ' architecte-urbaniste David Mangin ;
Features :: Feature-Counts :: Feature-Lemmas
--------------------------------------------
marqueurs :: 1 :: [ grand ]
epistemique :: 1 :: [ grand ]
marqueurs_niveau3 :: 1 :: [ grand ]
epistemique_niveau3 :: 1 :: [ grand ]
Total feature counts: 4


********** Adverbiaux Temporels Features **********
********************************************************

1. Sentence: « Agir sur les grands territoires » , avec l ' architecte-urbaniste David Mangin ;
No features found.

