
********** Entity Names Features **********
*******************************************

1. Sentence: Je voyais Rennes se transformer spectaculairement .
Entity Name (Type) :: Rennes (LOC)


********** Emotions Features **********
***************************************

1. Sentence: Je voyais Rennes se transformer spectaculairement .
No features found.


********** Modality Features **********
***************************************

1. Sentence: Je voyais Rennes se transformer spectaculairement .
No features found.


********** Adverbiaux Temporels Features **********
********************************************************

1. Sentence: Je voyais Rennes se transformer spectaculairement .
No features found.

