
********** Entity Names Features **********
*******************************************

1. Sentence: Et pour cela , ne pas programmer , construire autrement , en transformant , en étant à l ' écoute de la demande des occupants , des usagers , des élus et des constructeurs .
No features found.


********** Emotions Features **********
***************************************

1. Sentence: Et pour cela , ne pas programmer , construire autrement , en transformant , en étant à l ' écoute de la demande des occupants , des usagers , des élus et des constructeurs .
No features found.


********** Modality Features **********
***************************************

1. Sentence: Et pour cela , ne pas programmer , construire autrement , en transformant , en étant à l ' écoute de la demande des occupants , des usagers , des élus et des constructeurs .
Features :: Feature-Counts :: Feature-Lemmas
--------------------------------------------
marqueurs :: 1 :: [ élu ]
pas_d_indication :: 1 :: [ élu ]
marqueurs_niveau0 :: 1 :: [ élu ]
pas_d_indication_niveau0 :: 1 :: [ élu ]
Total feature counts: 4


********** Adverbiaux Temporels Features **********
********************************************************

1. Sentence: Et pour cela , ne pas programmer , construire autrement , en transformant , en étant à l ' écoute de la demande des occupants , des usagers , des élus et des constructeurs .
No features found.

