====== Sentence Level Features ======

1. Sentence: La complexité peut-être ordonnée pour paraître moins brouillonne .
Features :: Feature-Counts :: Feature-Lemmas
--------------------------------------------
marqueurs :: 3 :: [ peut-être, ordonner, paraître ]
marqueurs_niveau3 :: 3 :: [ peut-être, ordonner, paraître ]
epistemique :: 2 :: [ peut-être, paraître ]
epistemique_niveau3 :: 2 :: [ peut-être, paraître ]
deontique :: 1 :: [ ordonner ]
deontique_niveau3 :: 1 :: [ ordonner ]
Total feature counts: 12


====== Text Level Features ======

Features :: Feature-Counts :: Feature-Lemmas
--------------------------------------------
marqueurs :: 3 :: [ peut-être, ordonner, paraître ]
marqueurs_niveau3 :: 3 :: [ peut-être, ordonner, paraître ]
epistemique :: 2 :: [ peut-être, paraître ]
epistemique_niveau3 :: 2 :: [ peut-être, paraître ]
deontique :: 1 :: [ ordonner ]
deontique_niveau3 :: 1 :: [ ordonner ]
Total feature counts: 12

