
********** Entity Names Features **********
*******************************************

1. Sentence: Trois lieux , trois situations , trois attitudes illustrent ce propos .
No features found.


********** Emotions Features **********
***************************************

1. Sentence: Trois lieux , trois situations , trois attitudes illustrent ce propos .
No features found.


********** Modality Features **********
***************************************

1. Sentence: Trois lieux , trois situations , trois attitudes illustrent ce propos .
No features found.


********** Adverbiaux Temporels Features **********
********************************************************

1. Sentence: Trois lieux , trois situations , trois attitudes illustrent ce propos .
No features found.

