====== Sentence Level Features ======

1. Sentence: Le monde de la recherche en sciences sociales s ' est trop enfermé dans ses tours d ' ivoire .
Features :: Feature-Counts :: Feature-Lemmas
--------------------------------------------
marqueurs :: 1 :: [ enfermer ]
pas_d_indication :: 1 :: [ enfermer ]
marqueurs_niveau0 :: 1 :: [ enfermer ]
pas_d_indication_niveau0 :: 1 :: [ enfermer ]
Total feature counts: 4


====== Text Level Features ======

Features :: Feature-Counts :: Feature-Lemmas
--------------------------------------------
marqueurs :: 1 :: [ enfermer ]
pas_d_indication :: 1 :: [ enfermer ]
marqueurs_niveau0 :: 1 :: [ enfermer ]
pas_d_indication_niveau0 :: 1 :: [ enfermer ]
Total feature counts: 4

