====== Sentence Level Features ======

1. Sentence: La Cité radieuse de Marseille habitée aujourd ' hui par les «bobos» est patrimonialisée;
Features :: Feature-Counts :: Feature-Lemmas
--------------------------------------------
marqueurs :: 1 :: [ radieux ]
appreciatif :: 1 :: [ radieux ]
marqueurs_niveau2 :: 1 :: [ radieux ]
appreciatif_niveau2 :: 1 :: [ radieux ]
Total feature counts: 4


====== Text Level Features ======

Features :: Feature-Counts :: Feature-Lemmas
--------------------------------------------
marqueurs :: 1 :: [ radieux ]
appreciatif :: 1 :: [ radieux ]
marqueurs_niveau2 :: 1 :: [ radieux ]
appreciatif_niveau2 :: 1 :: [ radieux ]
Total feature counts: 4

