
********** Entity Names Features **********
*******************************************

1. Sentence: Île de Nantes
Entity Name (Type) :: Île de Nantes (LOC)


********** Emotions Features **********
***************************************

1. Sentence: Île de Nantes
No features found.


********** Modality Features **********
***************************************

1. Sentence: Île de Nantes
No features found.


********** Adverbiaux Temporels Features **********
********************************************************

1. Sentence: Île de Nantes
No features found.

