
********** Entity Names Features **********
*******************************************

1. Sentence: C ' est donc dans les secteurs plus lointains de banlieue et dans les zones d ' extension du schéma directeur qu ' elles seront le plus nécessaires .
Entity Name (Type) :: C (LOC)


********** Emotions Features **********
***************************************

1. Sentence: C ' est donc dans les secteurs plus lointains de banlieue et dans les zones d ' extension du schéma directeur qu ' elles seront le plus nécessaires .
No features found.


********** Modality Features **********
***************************************

1. Sentence: C ' est donc dans les secteurs plus lointains de banlieue et dans les zones d ' extension du schéma directeur qu ' elles seront le plus nécessaires .
Features :: Feature-Counts :: Feature-Lemmas
--------------------------------------------
marqueurs :: 1 :: [ nécessaire ]
alethique :: 1 :: [ nécessaire ]
marqueurs_niveau3 :: 1 :: [ nécessaire ]
alethique_niveau3 :: 1 :: [ nécessaire ]
Total feature counts: 4


********** Adverbiaux Temporels Features **********
********************************************************

1. Sentence: C ' est donc dans les secteurs plus lointains de banlieue et dans les zones d ' extension du schéma directeur qu ' elles seront le plus nécessaires .
No features found.

