
********** Entity Names Features **********
*******************************************

1. Sentence: Il est une expérience vécue dans le mouvement et par le mouvement .
No features found.


********** Emotions Features **********
***************************************

1. Sentence: Il est une expérience vécue dans le mouvement et par le mouvement .
No features found.


********** Modality Features **********
***************************************

1. Sentence: Il est une expérience vécue dans le mouvement et par le mouvement .
No features found.


********** Adverbiaux Temporels Features **********
********************************************************

1. Sentence: Il est une expérience vécue dans le mouvement et par le mouvement .
No features found.

