====== Sentence Level Features ======

1. Sentence: Décrire : observer de près , mesurer les fractures , les failles , qui se produisent sous nos yeux .
Features :: Feature-Counts :: Feature-Lemmas
--------------------------------------------
marqueurs :: 1 :: [ fracture ]
appreciatif :: 1 :: [ fracture ]
marqueurs_niveau1 :: 1 :: [ fracture ]
appreciatif_niveau1 :: 1 :: [ fracture ]
Total feature counts: 4


====== Text Level Features ======

Features :: Feature-Counts :: Feature-Lemmas
--------------------------------------------
marqueurs :: 1 :: [ fracture ]
appreciatif :: 1 :: [ fracture ]
marqueurs_niveau1 :: 1 :: [ fracture ]
appreciatif_niveau1 :: 1 :: [ fracture ]
Total feature counts: 4

