====== Sentence Level Features ======

1. Sentence: Dans cette optique , j ' ai toujours voulu jouer un rôle discret , auprès des élus , pour travailler à la commande architecturale .
Features :: Feature-Counts :: Feature-Texts
--------------------------------------------
adverbiaux_temporels::1::['toujours']
adverbiaux_duratifs_iteratifs::1::['toujours']


====== Text Level Features ======

Features :: Feature-Counts :: Feature-Texts
--------------------------------------------
adverbiaux_temporels::1::['toujours']
adverbiaux_duratifs_iteratifs::1::['toujours']
Total feature counts: 2

