====== Sentence Level Features ======

1. Sentence: Encore ce premier effort fut – il timide et destiné à faciliter les liaisons lointaines plutôt qu ' à desservir la banlieue .
Features :: Feature-Counts :: Feature-Lemmas
--------------------------------------------
marqueurs :: 1 :: [ timide ]
pas_d_indication :: 1 :: [ timide ]
marqueurs_niveau0 :: 1 :: [ timide ]
pas_d_indication_niveau0 :: 1 :: [ timide ]
Total feature counts: 4


====== Text Level Features ======

Features :: Feature-Counts :: Feature-Lemmas
--------------------------------------------
marqueurs :: 1 :: [ timide ]
pas_d_indication :: 1 :: [ timide ]
marqueurs_niveau0 :: 1 :: [ timide ]
pas_d_indication_niveau0 :: 1 :: [ timide ]
Total feature counts: 4

