
********** Entity Names Features **********
*******************************************

1. Sentence: Ces maquettes racontaient des histoires sous forme de projets ouverts , qui n ' enfermaient pas les choses dans des solutions figées .
No features found.


********** Emotions Features **********
***************************************

1. Sentence: Ces maquettes racontaient des histoires sous forme de projets ouverts , qui n ' enfermaient pas les choses dans des solutions figées .
No features found.


********** Modality Features **********
***************************************

1. Sentence: Ces maquettes racontaient des histoires sous forme de projets ouverts , qui n ' enfermaient pas les choses dans des solutions figées .
Features :: Feature-Counts :: Feature-Lemmas
--------------------------------------------
marqueurs :: 1 :: [ enfermer ]
pas_d_indication :: 1 :: [ enfermer ]
marqueurs_niveau0 :: 1 :: [ enfermer ]
pas_d_indication_niveau0 :: 1 :: [ enfermer ]
Total feature counts: 4


********** Adverbiaux Temporels Features **********
********************************************************

1. Sentence: Ces maquettes racontaient des histoires sous forme de projets ouverts , qui n ' enfermaient pas les choses dans des solutions figées .
No features found.

