
********** Entity Names Features **********
*******************************************

1. Sentence: il s ’ agit de penser plutôt aux générations futures qu ' aux besoins instantanés des existants .
No features found.


********** Emotions Features **********
***************************************

1. Sentence: il s ’ agit de penser plutôt aux générations futures qu ' aux besoins instantanés des existants .
No features found.


********** Modality Features **********
***************************************

1. Sentence: il s ’ agit de penser plutôt aux générations futures qu ' aux besoins instantanés des existants .
Features :: Feature-Counts :: Feature-Lemmas
--------------------------------------------
marqueurs :: 2 :: [ penser, besoin ]
marqueurs_niveau3 :: 2 :: [ penser, besoin ]
alethique :: 1 :: [ besoin ]
boulique :: 1 :: [ besoin ]
epistemique :: 1 :: [ penser ]
alethique_niveau3 :: 1 :: [ besoin ]
boulique_niveau3 :: 1 :: [ besoin ]
epistemique_niveau3 :: 1 :: [ penser ]
Total feature counts: 10


********** Adverbiaux Temporels Features **********
********************************************************

1. Sentence: il s ’ agit de penser plutôt aux générations futures qu ' aux besoins instantanés des existants .
No features found.

