
********** Entity Names Features **********
*******************************************

1. Sentence: Malgré tout , je continue à faire des choix , des choix éditoriaux : Métapolis sort en poche chez Odile Jacob .
Entity Name (Type) :: Odile Jacob (PER)


********** Emotions Features **********
***************************************

1. Sentence: Malgré tout , je continue à faire des choix , des choix éditoriaux : Métapolis sort en poche chez Odile Jacob .
No features found.


********** Modality Features **********
***************************************

1. Sentence: Malgré tout , je continue à faire des choix , des choix éditoriaux : Métapolis sort en poche chez Odile Jacob .
Features :: Feature-Counts :: Feature-Lemmas
--------------------------------------------
marqueurs :: 3 :: [ malgré, choix, choix ]
boulique :: 2 :: [ choix, choix ]
marqueurs_niveau2 :: 2 :: [ choix, choix ]
boulique_niveau2 :: 2 :: [ choix, choix ]
pas_d_indication :: 1 :: [ malgré ]
marqueurs_niveau0 :: 1 :: [ malgré ]
pas_d_indication_niveau0 :: 1 :: [ malgré ]
Total feature counts: 12


********** Adverbiaux Temporels Features **********
********************************************************

1. Sentence: Malgré tout , je continue à faire des choix , des choix éditoriaux : Métapolis sort en poche chez Odile Jacob .
No features found.

