====== Sentence Level Features ======

1. Sentence: Au point de grandeur où Paris est parvenu , on ne saurait y souffrir aucun nouvel accroissement sans l ' exposer à sa ruine " , écrivait en 1724 , un ministre de Louis XV .
Features :: Feature-Counts :: Feature-Lemmas
--------------------------------------------
marqueurs :: 3 :: [ savoir, souffrir, aucun ]
marqueurs_niveau3 :: 2 :: [ savoir, aucun ]
alethique :: 1 :: [ aucun ]
appreciatif :: 1 :: [ souffrir ]
epistemique :: 1 :: [ savoir ]
marqueurs_niveau2 :: 1 :: [ souffrir ]
alethique_niveau3 :: 1 :: [ aucun ]
appreciatif_niveau2 :: 1 :: [ souffrir ]
epistemique_niveau3 :: 1 :: [ savoir ]
Total feature counts: 12


====== Text Level Features ======

Features :: Feature-Counts :: Feature-Lemmas
--------------------------------------------
marqueurs :: 3 :: [ savoir, souffrir, aucun ]
marqueurs_niveau3 :: 2 :: [ savoir, aucun ]
alethique :: 1 :: [ aucun ]
appreciatif :: 1 :: [ souffrir ]
epistemique :: 1 :: [ savoir ]
marqueurs_niveau2 :: 1 :: [ souffrir ]
alethique_niveau3 :: 1 :: [ aucun ]
appreciatif_niveau2 :: 1 :: [ souffrir ]
epistemique_niveau3 :: 1 :: [ savoir ]
Total feature counts: 12

