====== Sentence Level Features ======

1. Sentence: À la suite d ' un article critique de Jean Nouvel , Jean-Louis Subileau , François Barré et François Grether proposent une nouvelle démarche , avec deux consultations de concepteurs pour les emprises dites du Trapèze et du secteur du pont de Sèvres , ainsi qu ' une étude de faisabilité pour l ' île Seguin .
Features :: Feature-Counts :: Feature-Lemmas
--------------------------------------------
marqueurs :: 1 :: [ dire ]
boulique :: 1 :: [ dire ]
marqueurs_niveau3 :: 1 :: [ dire ]
boulique_niveau3 :: 1 :: [ dire ]
Total feature counts: 4


====== Text Level Features ======

Features :: Feature-Counts :: Feature-Lemmas
--------------------------------------------
marqueurs :: 1 :: [ dire ]
boulique :: 1 :: [ dire ]
marqueurs_niveau3 :: 1 :: [ dire ]
boulique_niveau3 :: 1 :: [ dire ]
Total feature counts: 4

