
********** Entity Names Features **********
*******************************************

1. Sentence: Je ne dessine pas une ville mais je crois à la puissance de la recomposition de nos territoires urbains dans leur géographie .
No features found.


********** Emotions Features **********
***************************************

1. Sentence: Je ne dessine pas une ville mais je crois à la puissance de la recomposition de nos territoires urbains dans leur géographie .
No features found.


********** Modality Features **********
***************************************

1. Sentence: Je ne dessine pas une ville mais je crois à la puissance de la recomposition de nos territoires urbains dans leur géographie .
Features :: Feature-Counts :: Feature-Lemmas
--------------------------------------------
marqueurs :: 2 :: [ croire, puissance ]
epistemique :: 1 :: [ croire ]
pas_d_indication :: 1 :: [ puissance ]
marqueurs_niveau3 :: 1 :: [ croire ]
marqueurs_niveau0 :: 1 :: [ puissance ]
epistemique_niveau3 :: 1 :: [ croire ]
pas_d_indication_niveau0 :: 1 :: [ puissance ]
Total feature counts: 8


********** Adverbiaux Temporels Features **********
********************************************************

1. Sentence: Je ne dessine pas une ville mais je crois à la puissance de la recomposition de nos territoires urbains dans leur géographie .
No features found.

