
********** Entity Names Features **********
*******************************************

1. Sentence: Comprendre pour agir , donc .
No features found.


********** Emotions Features **********
***************************************

1. Sentence: Comprendre pour agir , donc .
No features found.


********** Modality Features **********
***************************************

1. Sentence: Comprendre pour agir , donc .
No features found.


********** Adverbiaux Temporels Features **********
********************************************************

1. Sentence: Comprendre pour agir , donc .
No features found.

