
********** Entity Names Features **********
*******************************************

1. Sentence: Je ne savais pas ce que signifiait être urbaniste et n ' avais aucune culture spatiale .
No features found.


********** Emotions Features **********
***************************************

1. Sentence: Je ne savais pas ce que signifiait être urbaniste et n ' avais aucune culture spatiale .
No features found.


********** Modality Features **********
***************************************

1. Sentence: Je ne savais pas ce que signifiait être urbaniste et n ' avais aucune culture spatiale .
Features :: Feature-Counts :: Feature-Lemmas
--------------------------------------------
marqueurs :: 2 :: [ savoir, aucun ]
marqueurs_niveau3 :: 2 :: [ savoir, aucun ]
alethique :: 1 :: [ aucun ]
epistemique :: 1 :: [ savoir ]
alethique_niveau3 :: 1 :: [ aucun ]
epistemique_niveau3 :: 1 :: [ savoir ]
Total feature counts: 8


********** Adverbiaux Temporels Features **********
********************************************************

1. Sentence: Je ne savais pas ce que signifiait être urbaniste et n ' avais aucune culture spatiale .
No features found.

