====== Sentence Level Features ======

1. Sentence: Comparée aux autres métropoles occidentales , elle occupe au sol , par habitant , une surface moindre .
Features :: Feature-Counts :: Feature-Lemmas
--------------------------------------------
marqueurs :: 1 :: [ moindre ]
epistemique :: 1 :: [ moindre ]
marqueurs_niveau2 :: 1 :: [ moindre ]
epistemique_niveau2 :: 1 :: [ moindre ]
Total feature counts: 4


====== Text Level Features ======

Features :: Feature-Counts :: Feature-Lemmas
--------------------------------------------
marqueurs :: 1 :: [ moindre ]
epistemique :: 1 :: [ moindre ]
marqueurs_niveau2 :: 1 :: [ moindre ]
epistemique_niveau2 :: 1 :: [ moindre ]
Total feature counts: 4

