
********** Entity Names Features **********
*******************************************

1. Sentence: Il s ' agit tout d ' abord des métropoles d ' équilibre .
No features found.


********** Emotions Features **********
***************************************

1. Sentence: Il s ' agit tout d ' abord des métropoles d ' équilibre .
No features found.


********** Modality Features **********
***************************************

1. Sentence: Il s ' agit tout d ' abord des métropoles d ' équilibre .
No features found.


********** Adverbiaux Temporels Features **********
********************************************************

1. Sentence: Il s ' agit tout d ' abord des métropoles d ' équilibre .
No features found.

