
********** Entity Names Features **********
*******************************************

1. Sentence: Tout dépend , à vrai dire , de leur unité , et celle-ci est commandée par leur réseau de transports .
No features found.


********** Emotions Features **********
***************************************

1. Sentence: Tout dépend , à vrai dire , de leur unité , et celle-ci est commandée par leur réseau de transports .
No features found.


********** Modality Features **********
***************************************

1. Sentence: Tout dépend , à vrai dire , de leur unité , et celle-ci est commandée par leur réseau de transports .
Features :: Feature-Counts :: Feature-Lemmas
--------------------------------------------
marqueurs :: 3 :: [ vrai, dire, commander ]
marqueurs_niveau3 :: 2 :: [ dire, commander ]
alethique :: 1 :: [ vrai ]
boulique :: 1 :: [ dire ]
deontique :: 1 :: [ commander ]
marqueurs_niveau1 :: 1 :: [ vrai ]
alethique_niveau1 :: 1 :: [ vrai ]
boulique_niveau3 :: 1 :: [ dire ]
deontique_niveau3 :: 1 :: [ commander ]
Total feature counts: 12


********** Adverbiaux Temporels Features **********
********************************************************

1. Sentence: Tout dépend , à vrai dire , de leur unité , et celle-ci est commandée par leur réseau de transports .
No features found.

