====== Sentence Level Features ======

1. Sentence: Il y avait donc dans cette poésie géographique et démographique une tentation pour dire : on vise vers Senlis pour aller retrouver Calvin , en enfouissant Amiens dans le paysage .
Features :: Feature-Counts :: Feature-Lemmas
--------------------------------------------
marqueurs :: 2 :: [ dire, aller ]
alethique :: 1 :: [ aller ]
boulique :: 1 :: [ dire ]
marqueurs_niveau3 :: 1 :: [ dire ]
marqueurs_niveau1 :: 1 :: [ aller ]
alethique_niveau1 :: 1 :: [ aller ]
boulique_niveau3 :: 1 :: [ dire ]
Total feature counts: 8


====== Text Level Features ======

Features :: Feature-Counts :: Feature-Lemmas
--------------------------------------------
marqueurs :: 2 :: [ dire, aller ]
alethique :: 1 :: [ aller ]
boulique :: 1 :: [ dire ]
marqueurs_niveau3 :: 1 :: [ dire ]
marqueurs_niveau1 :: 1 :: [ aller ]
alethique_niveau1 :: 1 :: [ aller ]
boulique_niveau3 :: 1 :: [ dire ]
Total feature counts: 8

