====== Sentence Level Features ======

1. Sentence: Les dispositions du projet doivent , à mon sens , rendre compte du passage qu ' il représente entre état antérieur et ouverture aux enrichissements futurs et imprévisibles .
Features :: Feature-Counts :: Feature-Lemmas
--------------------------------------------
marqueurs :: 2 :: [ devoir, imprévisible ]
alethique :: 2 :: [ devoir, imprévisible ]
appreciatif :: 1 :: [ imprévisible ]
deontique :: 1 :: [ devoir ]
epistemique :: 1 :: [ devoir ]
marqueurs_niveau3 :: 1 :: [ devoir ]
marqueurs_niveau1 :: 1 :: [ imprévisible ]
alethique_niveau3 :: 1 :: [ devoir ]
alethique_niveau1 :: 1 :: [ imprévisible ]
appreciatif_niveau1 :: 1 :: [ imprévisible ]
deontique_niveau3 :: 1 :: [ devoir ]
epistemique_niveau3 :: 1 :: [ devoir ]
Total feature counts: 14


====== Text Level Features ======

Features :: Feature-Counts :: Feature-Lemmas
--------------------------------------------
marqueurs :: 2 :: [ devoir, imprévisible ]
alethique :: 2 :: [ devoir, imprévisible ]
appreciatif :: 1 :: [ imprévisible ]
deontique :: 1 :: [ devoir ]
epistemique :: 1 :: [ devoir ]
marqueurs_niveau3 :: 1 :: [ devoir ]
marqueurs_niveau1 :: 1 :: [ imprévisible ]
alethique_niveau3 :: 1 :: [ devoir ]
alethique_niveau1 :: 1 :: [ imprévisible ]
appreciatif_niveau1 :: 1 :: [ imprévisible ]
deontique_niveau3 :: 1 :: [ devoir ]
epistemique_niveau3 :: 1 :: [ devoir ]
Total feature counts: 14

