====== Sentence Level Features ======

1. Sentence: certes l ' espace disponible est plus grand , alors que , dans le centre , beaucoup de bureaux et d ' ateliers sont tellement à l ' étroit que certains ont toutes les caractéristiques du taudis;
Features :: Feature-Counts :: Feature-Lemmas
--------------------------------------------
marqueurs :: 3 :: [ grand, beaucoup, certain ]
epistemique :: 3 :: [ grand, beaucoup, certain ]
marqueurs_niveau3 :: 2 :: [ grand, certain ]
epistemique_niveau3 :: 2 :: [ grand, certain ]
marqueurs_niveau1 :: 1 :: [ beaucoup ]
epistemique_niveau1 :: 1 :: [ beaucoup ]
Total feature counts: 12


====== Text Level Features ======

Features :: Feature-Counts :: Feature-Lemmas
--------------------------------------------
marqueurs :: 3 :: [ grand, beaucoup, certain ]
epistemique :: 3 :: [ grand, beaucoup, certain ]
marqueurs_niveau3 :: 2 :: [ grand, certain ]
epistemique_niveau3 :: 2 :: [ grand, certain ]
marqueurs_niveau1 :: 1 :: [ beaucoup ]
epistemique_niveau1 :: 1 :: [ beaucoup ]
Total feature counts: 12

