====== Sentence Level Features ======

1. Sentence: - dans la construction électrique les taux d ' augmentation sont de 30 % à Paris , de 7 8 % en province;
Entity Name (Type) :: Paris (LOC)


====== Text Level Features ======

Entity Name (Entity Type)
-------------------------
Paris (LOC)
Total entitiy counts: 1

