
********** Entity Names Features **********
*******************************************

2. Sentence: 400 mouvements en 1964 sur les aérodromes d ' Orly et du Bourget;
Entity Name (Type) :: Bourget (LOC)


********** Emotions Features **********
***************************************

2. Sentence: 400 mouvements en 1964 sur les aérodromes d ' Orly et du Bourget;
No features found.


********** Modality Features **********
***************************************

2. Sentence: 400 mouvements en 1964 sur les aérodromes d ' Orly et du Bourget;
No features found.


********** Adverbiaux Temporels Features **********
********************************************************

2. Sentence: 400 mouvements en 1964 sur les aérodromes d ' Orly et du Bourget;
Features :: Feature-Counts :: Feature-Texts
--------------------------------------------
adverbiaux_temporels::1::['en 1964']
adverbiaux_localisation_temporelle::1::['en 1964']
adverbiaux_pointage_absolu::1::['en 1964']
adverbiaux_pointage_non_absolu::1::['en 1964']
adverbiaux_loc_temp_focalisation_id::1::['en 1964']
adverbiaux_loc_temp_regionalisation_id::1::['en 1964']
adverbiaux_loc_temp_pointage_non_absolu::1::['en 1964']
adverbiaux_dur_iter_absolu::1::['en 1964']

