
********** Entity Names Features **********
*******************************************

1. Sentence: Rem Koolhaas ne prétend pas annoncer un avenir radieux , mais plutôt jouer avec le flux du temps présent .
Entity Name (Type) :: Rem Koolhaas (PER)


********** Emotions Features **********
***************************************

1. Sentence: Rem Koolhaas ne prétend pas annoncer un avenir radieux , mais plutôt jouer avec le flux du temps présent .
No features found.


********** Modality Features **********
***************************************

1. Sentence: Rem Koolhaas ne prétend pas annoncer un avenir radieux , mais plutôt jouer avec le flux du temps présent .
Features :: Feature-Counts :: Feature-Lemmas
--------------------------------------------
marqueurs :: 2 :: [ radieux, jouer ]
appreciatif :: 2 :: [ radieux, jouer ]
marqueurs_niveau2 :: 2 :: [ radieux, jouer ]
appreciatif_niveau2 :: 2 :: [ radieux, jouer ]
Total feature counts: 8


********** Adverbiaux Temporels Features **********
********************************************************

1. Sentence: Rem Koolhaas ne prétend pas annoncer un avenir radieux , mais plutôt jouer avec le flux du temps présent .
No features found.

