
********** Entity Names Features **********
*******************************************

1. Sentence: Déjà M .
Entity Name (Type) :: M (MISC)


********** Emotions Features **********
***************************************

1. Sentence: Déjà M .
No features found.


********** Modality Features **********
***************************************

1. Sentence: Déjà M .
No features found.


********** Adverbiaux Temporels Features **********
********************************************************

1. Sentence: Déjà M .
No features found.

