====== Sentence Level Features ======

1. Sentence: Sans périmètre prédéfini , la brève mission vise à engager une démarche de projet de territoire prenant en considération les risques subis lors de la tempête Xynthia .
Features :: Feature-Counts :: Feature-Lemmas
--------------------------------------------
marqueurs :: 2 :: [ subir, tempête ]
marqueurs_niveau2 :: 2 :: [ subir, tempête ]
alethique :: 1 :: [ tempête ]
appreciatif :: 1 :: [ tempête ]
boulique :: 1 :: [ subir ]
alethique_niveau2 :: 1 :: [ tempête ]
appreciatif_niveau2 :: 1 :: [ tempête ]
boulique_niveau2 :: 1 :: [ subir ]
Total feature counts: 10


====== Text Level Features ======

Features :: Feature-Counts :: Feature-Lemmas
--------------------------------------------
marqueurs :: 2 :: [ subir, tempête ]
marqueurs_niveau2 :: 2 :: [ subir, tempête ]
alethique :: 1 :: [ tempête ]
appreciatif :: 1 :: [ tempête ]
boulique :: 1 :: [ subir ]
alethique_niveau2 :: 1 :: [ tempête ]
appreciatif_niveau2 :: 1 :: [ tempête ]
boulique_niveau2 :: 1 :: [ subir ]
Total feature counts: 10

