
********** Entity Names Features **********
*******************************************

1. Sentence: Le plus difficile est d ' éviter le piège du plan-masse « par défaut » .
Entity Name (Type) :: Le plus difficile (MISC)


********** Emotions Features **********
***************************************

1. Sentence: Le plus difficile est d ' éviter le piège du plan-masse « par défaut » .
No features found.


********** Modality Features **********
***************************************

1. Sentence: Le plus difficile est d ' éviter le piège du plan-masse « par défaut » .
Features :: Feature-Counts :: Feature-Lemmas
--------------------------------------------
marqueurs :: 1 :: [ difficile ]
appreciatif :: 1 :: [ difficile ]
epistemique :: 1 :: [ difficile ]
marqueurs_niveau2 :: 1 :: [ difficile ]
appreciatif_niveau2 :: 1 :: [ difficile ]
epistemique_niveau2 :: 1 :: [ difficile ]
Total feature counts: 6


********** Adverbiaux Temporels Features **********
********************************************************

1. Sentence: Le plus difficile est d ' éviter le piège du plan-masse « par défaut » .
No features found.

