====== Sentence Level Features ======

1. Sentence: Baltard 1853-1971 RATP 1971-1977 Forum 1971-1986 Seura 2005-2007 Seura 2003-2004
Features :: Feature-Counts :: Feature-Texts
--------------------------------------------
adverbiaux_temporels::5::['1853_1971', '1971_1977', '1971_1986', '2005_2007', '2003_2004']
adverbiaux_localisation_temporelle::5::['1853_1971', '1971_1977', '1971_1986', '2005_2007', '2003_2004']
adverbiaux_pointage_absolu::5::['1853_1971', '1971_1977', '1971_1986', '2005_2007', '2003_2004']
adverbiaux_loc_temp_focalisation_id::5::['1853_1971', '1971_1977', '1971_1986', '2005_2007', '2003_2004']
adverbiaux_loc_temp_regionalisation_id::5::['1853_1971', '1971_1977', '1971_1986', '2005_2007', '2003_2004']
adverbiaux_loc_temp_pointage_absolu::5::['1853_1971', '1971_1977', '1971_1986', '2005_2007', '2003_2004']


====== Text Level Features ======

Features :: Feature-Counts :: Feature-Texts
--------------------------------------------
adverbiaux_temporels::5::['1853_1971', '1971_1977', '1971_1986', '2005_2007', '2003_2004']
adverbiaux_localisation_temporelle::5::['1853_1971', '1971_1977', '1971_1986', '2005_2007', '2003_2004']
adverbiaux_pointage_absolu::5::['1853_1971', '1971_1977', '1971_1986', '2005_2007', '2003_2004']
adverbiaux_loc_temp_focalisation_id::5::['1853_1971', '1971_1977', '1971_1986', '2005_2007', '2003_2004']
adverbiaux_loc_temp_regionalisation_id::5::['1853_1971', '1971_1977', '1971_1986', '2005_2007', '2003_2004']
adverbiaux_loc_temp_pointage_absolu::5::['1853_1971', '1971_1977', '1971_1986', '2005_2007', '2003_2004']
Total feature counts: 30

