====== Sentence Level Features ======

1. Sentence: Baltard 1853-1971 RATP 1971-1977 Forum 1971-1986 Seura 2005-2007 Seura 2003-2004
Entity Name (Type) :: Seura (LOC)


====== Text Level Features ======

Entity Name (Entity Type)
-------------------------
Baltard (PER)
RATP (ORG)
Forum 1971-1986 Seura (ORG)
Seura (LOC)
Total entitiy counts: 4

