
********** Entity Names Features **********
*******************************************

1. Sentence: Et il y a une position exceptionnelle du point de vue logistique .
No features found.


********** Emotions Features **********
***************************************

1. Sentence: Et il y a une position exceptionnelle du point de vue logistique .
No features found.


********** Modality Features **********
***************************************

1. Sentence: Et il y a une position exceptionnelle du point de vue logistique .
Features :: Feature-Counts :: Feature-Lemmas
--------------------------------------------
marqueurs :: 1 :: [ exceptionnel ]
appreciatif :: 1 :: [ exceptionnel ]
axiologique :: 1 :: [ exceptionnel ]
epistemique :: 1 :: [ exceptionnel ]
marqueurs_niveau1 :: 1 :: [ exceptionnel ]
appreciatif_niveau1 :: 1 :: [ exceptionnel ]
axiologique_niveau1 :: 1 :: [ exceptionnel ]
epistemique_niveau1 :: 1 :: [ exceptionnel ]
Total feature counts: 8


********** Adverbiaux Temporels Features **********
********************************************************

1. Sentence: Et il y a une position exceptionnelle du point de vue logistique .
No features found.

