====== Sentence Level Features ======

1. Sentence: Cependant , il ne s ' agit en aucun cas de verser pour autant dans un autre conformisme , celui de conventions ou caractéristiques passéistes .
Features :: Feature-Counts :: Feature-Lemmas
--------------------------------------------
marqueurs :: 1 :: [ aucun ]
alethique :: 1 :: [ aucun ]
marqueurs_niveau3 :: 1 :: [ aucun ]
alethique_niveau3 :: 1 :: [ aucun ]
Total feature counts: 4


====== Text Level Features ======

Features :: Feature-Counts :: Feature-Lemmas
--------------------------------------------
marqueurs :: 1 :: [ aucun ]
alethique :: 1 :: [ aucun ]
marqueurs_niveau3 :: 1 :: [ aucun ]
alethique_niveau3 :: 1 :: [ aucun ]
Total feature counts: 4

