
********** Entity Names Features **********
*******************************************

1. Sentence: Elle est , pour la majorité d ' entre nous , le paysage premier .
No features found.


********** Emotions Features **********
***************************************

1. Sentence: Elle est , pour la majorité d ' entre nous , le paysage premier .
No features found.


********** Modality Features **********
***************************************

1. Sentence: Elle est , pour la majorité d ' entre nous , le paysage premier .
No features found.


********** Adverbiaux Temporels Features **********
********************************************************

1. Sentence: Elle est , pour la majorité d ' entre nous , le paysage premier .
No features found.

