
********** Entity Names Features **********
*******************************************

1. Sentence: Et alors , pourquoi s ' en priver ?
No features found.


********** Emotions Features **********
***************************************

1. Sentence: Et alors , pourquoi s ' en priver ?
No features found.


********** Modality Features **********
***************************************

1. Sentence: Et alors , pourquoi s ' en priver ?
Features :: Feature-Counts :: Feature-Lemmas
--------------------------------------------
marqueurs :: 1 :: [ priver ]
pas_d_indication :: 1 :: [ priver ]
marqueurs_niveau0 :: 1 :: [ priver ]
pas_d_indication_niveau0 :: 1 :: [ priver ]
Total feature counts: 4


********** Adverbiaux Temporels Features **********
********************************************************

1. Sentence: Et alors , pourquoi s ' en priver ?
No features found.

