
********** Entity Names Features **********
*******************************************

1. Sentence: Ce projet est un projet d ' architecture , mais une architecture à résonance urbaine , dont le contenu s ' inscrit dans le cadre plus large d ' une vision territoriale .
No features found.


********** Emotions Features **********
***************************************

1. Sentence: Ce projet est un projet d ' architecture , mais une architecture à résonance urbaine , dont le contenu s ' inscrit dans le cadre plus large d ' une vision territoriale .
No features found.


********** Modality Features **********
***************************************

1. Sentence: Ce projet est un projet d ' architecture , mais une architecture à résonance urbaine , dont le contenu s ' inscrit dans le cadre plus large d ' une vision territoriale .
No features found.


********** Adverbiaux Temporels Features **********
********************************************************

1. Sentence: Ce projet est un projet d ' architecture , mais une architecture à résonance urbaine , dont le contenu s ' inscrit dans le cadre plus large d ' une vision territoriale .
No features found.

