
********** Entity Names Features **********
*******************************************

1. Sentence: Ce qui est une forme d ' anticipation de la situation présente au plan national .
No features found.


********** Emotions Features **********
***************************************

1. Sentence: Ce qui est une forme d ' anticipation de la situation présente au plan national .
No features found.


********** Modality Features **********
***************************************

1. Sentence: Ce qui est une forme d ' anticipation de la situation présente au plan national .
No features found.


********** Adverbiaux Temporels Features **********
********************************************************

1. Sentence: Ce qui est une forme d ' anticipation de la situation présente au plan national .
No features found.

