
********** Entity Names Features **********
*******************************************

1. Sentence: A - Activités parisiennes
Entity Name (Type) :: Activités parisiennes (ORG)


********** Emotions Features **********
***************************************

1. Sentence: A - Activités parisiennes
No features found.


********** Modality Features **********
***************************************

1. Sentence: A - Activités parisiennes
No features found.


********** Adverbiaux Temporels Features **********
********************************************************

1. Sentence: A - Activités parisiennes
No features found.

