
********** Entity Names Features **********
*******************************************

1. Sentence: Le site devant être perçu et compris en trois minutes depuis une voiture roulant à 60 km/h , ce paysage a été conçu comme une unité de lieu plutôt qu ' une succession de séquences .
No features found.


********** Emotions Features **********
***************************************

1. Sentence: Le site devant être perçu et compris en trois minutes depuis une voiture roulant à 60 km/h , ce paysage a été conçu comme une unité de lieu plutôt qu ' une succession de séquences .
No features found.


********** Modality Features **********
***************************************

1. Sentence: Le site devant être perçu et compris en trois minutes depuis une voiture roulant à 60 km/h , ce paysage a été conçu comme une unité de lieu plutôt qu ' une succession de séquences .
Features :: Feature-Counts :: Feature-Lemmas
--------------------------------------------
marqueurs :: 1 :: [ devoir ]
alethique :: 1 :: [ devoir ]
deontique :: 1 :: [ devoir ]
epistemique :: 1 :: [ devoir ]
marqueurs_niveau3 :: 1 :: [ devoir ]
alethique_niveau3 :: 1 :: [ devoir ]
deontique_niveau3 :: 1 :: [ devoir ]
epistemique_niveau3 :: 1 :: [ devoir ]
Total feature counts: 8


********** Adverbiaux Temporels Features **********
********************************************************

1. Sentence: Le site devant être perçu et compris en trois minutes depuis une voiture roulant à 60 km/h , ce paysage a été conçu comme une unité de lieu plutôt qu ' une succession de séquences .
No features found.

