====== Sentence Level Features ======

1. Sentence: Très vite , la SEMAPA m ' a demandé de réétudier le plan sur la base d ' opérations de 40 à 50 logements .
Entity Name (Type) :: SEMAPA (LOC)


====== Text Level Features ======

Entity Name (Entity Type)
-------------------------
SEMAPA (LOC)
Total entitiy counts: 1

