====== Sentence Level Features ======

1. Sentence: Devant les cinquante élus de la vallée , cela a permis de débattre de la diversité des questions dans n ' importe quel ordre , passant du détail à la carte , puis aux échantillons architecturaux , en temps réel .
Features :: Feature-Counts :: Feature-Lemmas
--------------------------------------------
marqueurs :: 3 :: [ élu, permettre, ordre ]
deontique :: 2 :: [ permettre, ordre ]
pas_d_indication :: 1 :: [ élu ]
marqueurs_niveau3 :: 1 :: [ permettre ]
marqueurs_niveau2 :: 1 :: [ ordre ]
marqueurs_niveau0 :: 1 :: [ élu ]
deontique_niveau3 :: 1 :: [ permettre ]
deontique_niveau2 :: 1 :: [ ordre ]
pas_d_indication_niveau0 :: 1 :: [ élu ]
Total feature counts: 12


====== Text Level Features ======

Features :: Feature-Counts :: Feature-Lemmas
--------------------------------------------
marqueurs :: 3 :: [ élu, permettre, ordre ]
deontique :: 2 :: [ permettre, ordre ]
pas_d_indication :: 1 :: [ élu ]
marqueurs_niveau3 :: 1 :: [ permettre ]
marqueurs_niveau2 :: 1 :: [ ordre ]
marqueurs_niveau0 :: 1 :: [ élu ]
deontique_niveau3 :: 1 :: [ permettre ]
deontique_niveau2 :: 1 :: [ ordre ]
pas_d_indication_niveau0 :: 1 :: [ élu ]
Total feature counts: 12

