
********** Entity Names Features **********
*******************************************

1. Sentence: Aujourd ' hui , il est essentiel de sortir des fausses oppositions comme urbain/rural .
No features found.


********** Emotions Features **********
***************************************

1. Sentence: Aujourd ' hui , il est essentiel de sortir des fausses oppositions comme urbain/rural .
No features found.


********** Modality Features **********
***************************************

1. Sentence: Aujourd ' hui , il est essentiel de sortir des fausses oppositions comme urbain/rural .
Features :: Feature-Counts :: Feature-Lemmas
--------------------------------------------
marqueurs :: 1 :: [ faux ]
alethique :: 1 :: [ faux ]
marqueurs_niveau1 :: 1 :: [ faux ]
alethique_niveau1 :: 1 :: [ faux ]
Total feature counts: 4


********** Adverbiaux Temporels Features **********
********************************************************

1. Sentence: Aujourd ' hui , il est essentiel de sortir des fausses oppositions comme urbain/rural .
No features found.

