
********** Entity Names Features **********
*******************************************

1. Sentence: La maison , que je souhaitais de passage , est devenue un jardin qu ' avec mes proches j ' habite intensément .
No features found.


********** Emotions Features **********
***************************************

1. Sentence: La maison , que je souhaitais de passage , est devenue un jardin qu ' avec mes proches j ' habite intensément .
Tokens having emotion: [ souhaitais ]
Lemmas having emotion: [ souhaiter ]
Categories of the emotion lemmas: [ desir ]


********** Modality Features **********
***************************************

1. Sentence: La maison , que je souhaitais de passage , est devenue un jardin qu ' avec mes proches j ' habite intensément .
No features found.


********** Adverbiaux Temporels Features **********
********************************************************

1. Sentence: La maison , que je souhaitais de passage , est devenue un jardin qu ' avec mes proches j ' habite intensément .
No features found.

