====== Sentence Level Features ======

1. Sentence: Une logique classique des rapports entre la collectivité et l ' aména geur n ' aurait pas permis un tel processus .
Features :: Feature-Counts :: Feature-Lemmas
--------------------------------------------
marqueurs :: 1 :: [ permettre ]
deontique :: 1 :: [ permettre ]
marqueurs_niveau3 :: 1 :: [ permettre ]
deontique_niveau3 :: 1 :: [ permettre ]
Total feature counts: 4


====== Text Level Features ======

Features :: Feature-Counts :: Feature-Lemmas
--------------------------------------------
marqueurs :: 1 :: [ permettre ]
deontique :: 1 :: [ permettre ]
marqueurs_niveau3 :: 1 :: [ permettre ]
deontique_niveau3 :: 1 :: [ permettre ]
Total feature counts: 4

