
********** Entity Names Features **********
*******************************************

1. Sentence: U . P s ’ il y a beaucoup de parcelles et qu ’ on laisse les propriétaires de ces parcelles s ’ unir pour bénéficier de la plus value non pas foncière , mais immobilière , ou bien on livre à la Caisse des Dépôts un terrain , à des Offices d ’ H . L . M .
Entity Name (Type) :: Offices d ’ H (LOC)


********** Emotions Features **********
***************************************

1. Sentence: U . P s ’ il y a beaucoup de parcelles et qu ’ on laisse les propriétaires de ces parcelles s ’ unir pour bénéficier de la plus value non pas foncière , mais immobilière , ou bien on livre à la Caisse des Dépôts un terrain , à des Offices d ’ H . L . M .
No features found.


********** Modality Features **********
***************************************

1. Sentence: U . P s ’ il y a beaucoup de parcelles et qu ’ on laisse les propriétaires de ces parcelles s ’ unir pour bénéficier de la plus value non pas foncière , mais immobilière , ou bien on livre à la Caisse des Dépôts un terrain , à des Offices d ’ H . L . M .
Features :: Feature-Counts :: Feature-Lemmas
--------------------------------------------
marqueurs :: 3 :: [ beaucoup, laisser, bien ]
appreciatif :: 1 :: [ bien ]
axiologique :: 1 :: [ bien ]
deontique :: 1 :: [ laisser ]
epistemique :: 1 :: [ beaucoup ]
marqueurs_niveau3 :: 1 :: [ bien ]
marqueurs_niveau2 :: 1 :: [ laisser ]
marqueurs_niveau1 :: 1 :: [ beaucoup ]
appreciatif_niveau3 :: 1 :: [ bien ]
axiologique_niveau3 :: 1 :: [ bien ]
deontique_niveau2 :: 1 :: [ laisser ]
epistemique_niveau1 :: 1 :: [ beaucoup ]
Total feature counts: 14


********** Adverbiaux Temporels Features **********
********************************************************

1. Sentence: U . P s ’ il y a beaucoup de parcelles et qu ’ on laisse les propriétaires de ces parcelles s ’ unir pour bénéficier de la plus value non pas foncière , mais immobilière , ou bien on livre à la Caisse des Dépôts un terrain , à des Offices d ’ H . L . M .
No features found.

