
********** Entity Names Features **********
*******************************************

1. Sentence: Il fallait , dans la hâte , les adapter au nouveau contexte économique et aux nouveaux enjeux de société .
No features found.


********** Emotions Features **********
***************************************

1. Sentence: Il fallait , dans la hâte , les adapter au nouveau contexte économique et aux nouveaux enjeux de société .
No features found.


********** Modality Features **********
***************************************

1. Sentence: Il fallait , dans la hâte , les adapter au nouveau contexte économique et aux nouveaux enjeux de société .
Features :: Feature-Counts :: Feature-Lemmas
--------------------------------------------
marqueurs :: 2 :: [ falloir, hâte ]
deontique :: 1 :: [ falloir ]
pas_d_indication :: 1 :: [ hâte ]
marqueurs_niveau3 :: 1 :: [ falloir ]
marqueurs_niveau0 :: 1 :: [ hâte ]
deontique_niveau3 :: 1 :: [ falloir ]
pas_d_indication_niveau0 :: 1 :: [ hâte ]
Total feature counts: 8


********** Adverbiaux Temporels Features **********
********************************************************

1. Sentence: Il fallait , dans la hâte , les adapter au nouveau contexte économique et aux nouveaux enjeux de société .
No features found.

