====== Sentence Level Features ======

1. Sentence: Puis , pour réaliser les dessins , je fus chargé de passer du rotring à l ' informatique .
Features :: Feature-Counts :: Feature-Lemmas
--------------------------------------------
marqueurs :: 1 :: [ réaliser ]
alethique :: 1 :: [ réaliser ]
marqueurs_niveau1 :: 1 :: [ réaliser ]
alethique_niveau1 :: 1 :: [ réaliser ]
Total feature counts: 4


====== Text Level Features ======

Features :: Feature-Counts :: Feature-Lemmas
--------------------------------------------
marqueurs :: 1 :: [ réaliser ]
alethique :: 1 :: [ réaliser ]
marqueurs_niveau1 :: 1 :: [ réaliser ]
alethique_niveau1 :: 1 :: [ réaliser ]
Total feature counts: 4

