====== Sentence Level Features ======

1. Sentence: - les plats pays qui bordent ses rives , en particulier le Marais (2);
Entity Name (Type) :: Marais (LOC)


====== Text Level Features ======

Entity Name (Entity Type)
-------------------------
Marais (LOC)
Total entitiy counts: 1

