====== Sentence Level Features ======

1. Sentence: Il faut penser cette trame non seulement à des fins internes de dessertes du parc d ' activité , mais en fonction des développements à intervenir dans Paris et dans la Plaine Saint-Denis .
Features :: Feature-Counts :: Feature-Lemmas
--------------------------------------------
marqueurs :: 2 :: [ falloir, penser ]
marqueurs_niveau3 :: 2 :: [ falloir, penser ]
deontique :: 1 :: [ falloir ]
epistemique :: 1 :: [ penser ]
deontique_niveau3 :: 1 :: [ falloir ]
epistemique_niveau3 :: 1 :: [ penser ]
Total feature counts: 8


====== Text Level Features ======

Features :: Feature-Counts :: Feature-Lemmas
--------------------------------------------
marqueurs :: 2 :: [ falloir, penser ]
marqueurs_niveau3 :: 2 :: [ falloir, penser ]
deontique :: 1 :: [ falloir ]
epistemique :: 1 :: [ penser ]
deontique_niveau3 :: 1 :: [ falloir ]
epistemique_niveau3 :: 1 :: [ penser ]
Total feature counts: 8

