
********** Entity Names Features **********
*******************************************

1. Sentence: En l ' espace d ' une vie professionnelle , j ' ai vu Citroën transformer à Aulnay des champs en usines , elles-mêmes démolies trente ans plus tard .
Entity Name (Type) :: Aulnay (LOC)


********** Emotions Features **********
***************************************

1. Sentence: En l ' espace d ' une vie professionnelle , j ' ai vu Citroën transformer à Aulnay des champs en usines , elles-mêmes démolies trente ans plus tard .
No features found.


********** Modality Features **********
***************************************

1. Sentence: En l ' espace d ' une vie professionnelle , j ' ai vu Citroën transformer à Aulnay des champs en usines , elles-mêmes démolies trente ans plus tard .
No features found.


********** Adverbiaux Temporels Features **********
********************************************************

1. Sentence: En l ' espace d ' une vie professionnelle , j ' ai vu Citroën transformer à Aulnay des champs en usines , elles-mêmes démolies trente ans plus tard .
Features :: Feature-Counts :: Feature-Texts
--------------------------------------------
adverbiaux_temporels::1::['plus tard']
adverbiaux_localisation_temporelle::1::['plus tard']
adverbiaux_pointage_non_absolu::1::['plus tard']
adverbiaux_loc_temp_regionalisation_id::1::['plus tard']
adverbiaux_loc_temp_pointage_non_absolu::1::['plus tard']

