====== Sentence Level Features ======

1. Sentence: Aux États‑Unis , le mouvement du « landscape urbanism » est parti , non des terres agricoles , mais de la question des « brownfields » , des grandes friches industrielles 12 .
Features :: Feature-Counts :: Feature-Lemmas
--------------------------------------------
marqueurs :: 2 :: [ partir, grand ]
alethique :: 1 :: [ partir ]
epistemique :: 1 :: [ grand ]
marqueurs_niveau3 :: 1 :: [ grand ]
marqueurs_niveau1 :: 1 :: [ partir ]
alethique_niveau1 :: 1 :: [ partir ]
epistemique_niveau3 :: 1 :: [ grand ]
Total feature counts: 8


====== Text Level Features ======

Features :: Feature-Counts :: Feature-Lemmas
--------------------------------------------
marqueurs :: 2 :: [ partir, grand ]
alethique :: 1 :: [ partir ]
epistemique :: 1 :: [ grand ]
marqueurs_niveau3 :: 1 :: [ grand ]
marqueurs_niveau1 :: 1 :: [ partir ]
alethique_niveau1 :: 1 :: [ partir ]
epistemique_niveau3 :: 1 :: [ grand ]
Total feature counts: 8

