====== Sentence Level Features ======

1. Sentence: La ligne transversale Est-Ouest
Entity Name (Type) :: Est-Ouest (LOC)


====== Text Level Features ======

Entity Name (Entity Type)
-------------------------
Est-Ouest (LOC)
Total entitiy counts: 1

