
********** Entity Names Features **********
*******************************************

1. Sentence: Raison pour laquelle j ' ai atterri à l ' université de Vincennes où enseignait la fine fleur de l ' intelligentsia la ville au corps à corps
Entity Name (Type) :: université de Vincennes (ORG)


********** Emotions Features **********
***************************************

1. Sentence: Raison pour laquelle j ' ai atterri à l ' université de Vincennes où enseignait la fine fleur de l ' intelligentsia la ville au corps à corps
No features found.


********** Modality Features **********
***************************************

1. Sentence: Raison pour laquelle j ' ai atterri à l ' université de Vincennes où enseignait la fine fleur de l ' intelligentsia la ville au corps à corps
Features :: Feature-Counts :: Feature-Lemmas
--------------------------------------------
marqueurs :: 1 :: [ fleur ]
pas_d_indication :: 1 :: [ fleur ]
marqueurs_niveau0 :: 1 :: [ fleur ]
pas_d_indication_niveau0 :: 1 :: [ fleur ]
Total feature counts: 4


********** Adverbiaux Temporels Features **********
********************************************************

1. Sentence: Raison pour laquelle j ' ai atterri à l ' université de Vincennes où enseignait la fine fleur de l ' intelligentsia la ville au corps à corps
No features found.

