
********** Entity Names Features **********
*******************************************

1. Sentence: Les propositions ont eu finalement peu d ' impact sur la réalité .
No features found.


********** Emotions Features **********
***************************************

1. Sentence: Les propositions ont eu finalement peu d ' impact sur la réalité .
No features found.


********** Modality Features **********
***************************************

1. Sentence: Les propositions ont eu finalement peu d ' impact sur la réalité .
Features :: Feature-Counts :: Feature-Lemmas
--------------------------------------------
marqueurs :: 1 :: [ réalité ]
alethique :: 1 :: [ réalité ]
marqueurs_niveau1 :: 1 :: [ réalité ]
alethique_niveau1 :: 1 :: [ réalité ]
Total feature counts: 4


********** Adverbiaux Temporels Features **********
********************************************************

1. Sentence: Les propositions ont eu finalement peu d ' impact sur la réalité .
No features found.

