====== Sentence Level Features ======

1. Sentence: Il faudrait réfléchir aux grands thèmes d ' intérêt généraux  : les flux , les déchets , la logistique , la santé ,  l ' alimentation ,  l ' énergie , tous ces sujets sont multi-échelle , essentiels pour les villes comme pour le territoire national et européen .
Features :: Feature-Counts :: Feature-Lemmas
--------------------------------------------
marqueurs :: 4 :: [ falloir, grand, intérêt, santé ]
marqueurs_niveau3 :: 2 :: [ falloir, grand ]
boulique :: 1 :: [ intérêt ]
deontique :: 1 :: [ falloir ]
epistemique :: 1 :: [ grand ]
pas_d_indication :: 1 :: [ santé ]
marqueurs_niveau2 :: 1 :: [ intérêt ]
marqueurs_niveau0 :: 1 :: [ santé ]
boulique_niveau2 :: 1 :: [ intérêt ]
deontique_niveau3 :: 1 :: [ falloir ]
epistemique_niveau3 :: 1 :: [ grand ]
pas_d_indication_niveau0 :: 1 :: [ santé ]
Total feature counts: 16


====== Text Level Features ======

Features :: Feature-Counts :: Feature-Lemmas
--------------------------------------------
marqueurs :: 4 :: [ falloir, grand, intérêt, santé ]
marqueurs_niveau3 :: 2 :: [ falloir, grand ]
boulique :: 1 :: [ intérêt ]
deontique :: 1 :: [ falloir ]
epistemique :: 1 :: [ grand ]
pas_d_indication :: 1 :: [ santé ]
marqueurs_niveau2 :: 1 :: [ intérêt ]
marqueurs_niveau0 :: 1 :: [ santé ]
boulique_niveau2 :: 1 :: [ intérêt ]
deontique_niveau3 :: 1 :: [ falloir ]
epistemique_niveau3 :: 1 :: [ grand ]
pas_d_indication_niveau0 :: 1 :: [ santé ]
Total feature counts: 16

