
********** Entity Names Features **********
*******************************************

1. Sentence: Mais commencer par cette question du Grand Paris , c ' est prendre les choses à l ' envers .
Entity Name (Type) :: Grand Paris (LOC)


********** Emotions Features **********
***************************************

1. Sentence: Mais commencer par cette question du Grand Paris , c ' est prendre les choses à l ' envers .
No features found.


********** Modality Features **********
***************************************

1. Sentence: Mais commencer par cette question du Grand Paris , c ' est prendre les choses à l ' envers .
Features :: Feature-Counts :: Feature-Lemmas
--------------------------------------------
marqueurs :: 1 :: [ grand ]
epistemique :: 1 :: [ grand ]
marqueurs_niveau3 :: 1 :: [ grand ]
epistemique_niveau3 :: 1 :: [ grand ]
Total feature counts: 4


********** Adverbiaux Temporels Features **********
********************************************************

1. Sentence: Mais commencer par cette question du Grand Paris , c ' est prendre les choses à l ' envers .
No features found.

