====== Sentence Level Features ======

1. Sentence: - sur la zone dite " Vallée de Montmorency " , le 4 décembre 1964 .
Features :: Feature-Counts :: Feature-Lemmas
--------------------------------------------
marqueurs :: 1 :: [ dire ]
boulique :: 1 :: [ dire ]
marqueurs_niveau3 :: 1 :: [ dire ]
boulique_niveau3 :: 1 :: [ dire ]
Total feature counts: 4


====== Text Level Features ======

Features :: Feature-Counts :: Feature-Lemmas
--------------------------------------------
marqueurs :: 1 :: [ dire ]
boulique :: 1 :: [ dire ]
marqueurs_niveau3 :: 1 :: [ dire ]
boulique_niveau3 :: 1 :: [ dire ]
Total feature counts: 4

