====== Sentence Level Features ======

1. Sentence: AVANT-PROPOS
Entity Name (Type) :: AVANT-PROPOS (LOC)


====== Text Level Features ======

Entity Name (Entity Type)
-------------------------
AVANT-PROPOS (LOC)
Total entitiy counts: 1

