
********** Entity Names Features **********
*******************************************

1. Sentence: C ' est un projet d ' architecture à l ' échelle d ' un quartier , au programme pluriel , où chaque opérateur était présent dès le début .
Entity Name (Type) :: C (MISC)


********** Emotions Features **********
***************************************

1. Sentence: C ' est un projet d ' architecture à l ' échelle d ' un quartier , au programme pluriel , où chaque opérateur était présent dès le début .
No features found.


********** Modality Features **********
***************************************

1. Sentence: C ' est un projet d ' architecture à l ' échelle d ' un quartier , au programme pluriel , où chaque opérateur était présent dès le début .
No features found.


********** Adverbiaux Temporels Features **********
********************************************************

1. Sentence: C ' est un projet d ' architecture à l ' échelle d ' un quartier , au programme pluriel , où chaque opérateur était présent dès le début .
No features found.

