
********** Entity Names Features **********
*******************************************

1. Sentence: Une certaine discontinuité doit demeurer afin que les différences soient lisibles , comme les silences dans la musique , et les contradictions gérées .
No features found.


********** Emotions Features **********
***************************************

1. Sentence: Une certaine discontinuité doit demeurer afin que les différences soient lisibles , comme les silences dans la musique , et les contradictions gérées .
No features found.


********** Modality Features **********
***************************************

1. Sentence: Une certaine discontinuité doit demeurer afin que les différences soient lisibles , comme les silences dans la musique , et les contradictions gérées .
Features :: Feature-Counts :: Feature-Lemmas
--------------------------------------------
marqueurs :: 2 :: [ certain, devoir ]
epistemique :: 2 :: [ certain, devoir ]
marqueurs_niveau3 :: 2 :: [ certain, devoir ]
epistemique_niveau3 :: 2 :: [ certain, devoir ]
alethique :: 1 :: [ devoir ]
deontique :: 1 :: [ devoir ]
alethique_niveau3 :: 1 :: [ devoir ]
deontique_niveau3 :: 1 :: [ devoir ]
Total feature counts: 12


********** Adverbiaux Temporels Features **********
********************************************************

1. Sentence: Une certaine discontinuité doit demeurer afin que les différences soient lisibles , comme les silences dans la musique , et les contradictions gérées .
No features found.

