====== Sentence Level Features ======

1. Sentence: Il est urgent de se préparer à récupérer ces espaces pour y réinstaller un équilibre écologique mêlant notamment emploi , nature et agriculture .
Features :: Feature-Counts :: Feature-Lemmas
--------------------------------------------
marqueurs :: 1 :: [ emploi ]
appreciatif :: 1 :: [ emploi ]
marqueurs_niveau2 :: 1 :: [ emploi ]
appreciatif_niveau2 :: 1 :: [ emploi ]
Total feature counts: 4


====== Text Level Features ======

Features :: Feature-Counts :: Feature-Lemmas
--------------------------------------------
marqueurs :: 1 :: [ emploi ]
appreciatif :: 1 :: [ emploi ]
marqueurs_niveau2 :: 1 :: [ emploi ]
appreciatif_niveau2 :: 1 :: [ emploi ]
Total feature counts: 4

