====== Sentence Level Features ======

1. Sentence: la découverte par la navigation , plus intuitive , donne à l ' opérateur (public , technicien , politique) le temps de se familiariser , à sa manière , avec une certaine vision du territoire , sans qu ' une structure préétablie ne lui impose un parcours .
Features :: Feature-Counts :: Feature-Lemmas
--------------------------------------------
marqueurs :: 3 :: [ certain, lui, imposer ]
epistemique :: 2 :: [ certain, lui ]
marqueurs_niveau3 :: 2 :: [ certain, lui ]
epistemique_niveau3 :: 2 :: [ certain, lui ]
alethique :: 1 :: [ lui ]
deontique :: 1 :: [ imposer ]
marqueurs_niveau2 :: 1 :: [ imposer ]
alethique_niveau3 :: 1 :: [ lui ]
deontique_niveau2 :: 1 :: [ imposer ]
Total feature counts: 14


====== Text Level Features ======

Features :: Feature-Counts :: Feature-Lemmas
--------------------------------------------
marqueurs :: 3 :: [ certain, lui, imposer ]
epistemique :: 2 :: [ certain, lui ]
marqueurs_niveau3 :: 2 :: [ certain, lui ]
epistemique_niveau3 :: 2 :: [ certain, lui ]
alethique :: 1 :: [ lui ]
deontique :: 1 :: [ imposer ]
marqueurs_niveau2 :: 1 :: [ imposer ]
alethique_niveau3 :: 1 :: [ lui ]
deontique_niveau2 :: 1 :: [ imposer ]
Total feature counts: 14

