====== Sentence Level Features ======

1. Sentence: À la même époque , Pierre Riboulet me demande de faire partie des équipes consultées à la Plaine-Saint-Denis .
Features :: Feature-Counts :: Feature-Lemmas
--------------------------------------------
marqueurs :: 1 :: [ demander ]
boulique :: 1 :: [ demander ]
marqueurs_niveau3 :: 1 :: [ demander ]
boulique_niveau3 :: 1 :: [ demander ]
Total feature counts: 4


====== Text Level Features ======

Features :: Feature-Counts :: Feature-Lemmas
--------------------------------------------
marqueurs :: 1 :: [ demander ]
boulique :: 1 :: [ demander ]
marqueurs_niveau3 :: 1 :: [ demander ]
boulique_niveau3 :: 1 :: [ demander ]
Total feature counts: 4

