====== Sentence Level Features ======

1. Sentence: Je dirai presque de trans-discipline ;
Features :: Feature-Counts :: Feature-Lemmas
--------------------------------------------
marqueurs :: 1 :: [ dire ]
boulique :: 1 :: [ dire ]
marqueurs_niveau3 :: 1 :: [ dire ]
boulique_niveau3 :: 1 :: [ dire ]
Total feature counts: 4


====== Text Level Features ======

Features :: Feature-Counts :: Feature-Lemmas
--------------------------------------------
marqueurs :: 1 :: [ dire ]
boulique :: 1 :: [ dire ]
marqueurs_niveau3 :: 1 :: [ dire ]
boulique_niveau3 :: 1 :: [ dire ]
Total feature counts: 4

