
********** Entity Names Features **********
*******************************************

1. Sentence: La politique en la matière a été très laxiste en France .
Entity Name (Type) :: France (LOC)


********** Emotions Features **********
***************************************

1. Sentence: La politique en la matière a été très laxiste en France .
No features found.


********** Modality Features **********
***************************************

1. Sentence: La politique en la matière a été très laxiste en France .
No features found.


********** Adverbiaux Temporels Features **********
********************************************************

1. Sentence: La politique en la matière a été très laxiste en France .
No features found.

