
********** Entity Names Features **********
*******************************************

1. Sentence: La diversité des thématiques traitées est aussi une des caractéristiques de ce parcours .
No features found.


********** Emotions Features **********
***************************************

1. Sentence: La diversité des thématiques traitées est aussi une des caractéristiques de ce parcours .
No features found.


********** Modality Features **********
***************************************

1. Sentence: La diversité des thématiques traitées est aussi une des caractéristiques de ce parcours .
Features :: Feature-Counts :: Feature-Lemmas
--------------------------------------------
marqueurs :: 1 :: [ traiter ]
pas_d_indication :: 1 :: [ traiter ]
marqueurs_niveau0 :: 1 :: [ traiter ]
pas_d_indication_niveau0 :: 1 :: [ traiter ]
Total feature counts: 4


********** Adverbiaux Temporels Features **********
********************************************************

1. Sentence: La diversité des thématiques traitées est aussi une des caractéristiques de ce parcours .
No features found.

