====== Sentence Level Features ======

1. Sentence: Claude Ponsard ( " La répartition fonctionnelle de la population des villes et son utilisation pour la détermination des multiplicateurs d ' emplois " , Ministère de la Construction , juillet 1963) : 46 % de la main-d ' œuvre parisienne serait employée à produire pour le marché national et international soit des biens physiques , soit des services .
Features :: Feature-Counts :: Feature-Lemmas
--------------------------------------------
marqueurs :: 2 :: [ emploi, bien ]
appreciatif :: 2 :: [ emploi, bien ]
axiologique :: 1 :: [ bien ]
marqueurs_niveau3 :: 1 :: [ bien ]
marqueurs_niveau2 :: 1 :: [ emploi ]
appreciatif_niveau3 :: 1 :: [ bien ]
appreciatif_niveau2 :: 1 :: [ emploi ]
axiologique_niveau3 :: 1 :: [ bien ]
Total feature counts: 10


====== Text Level Features ======

Features :: Feature-Counts :: Feature-Lemmas
--------------------------------------------
marqueurs :: 2 :: [ emploi, bien ]
appreciatif :: 2 :: [ emploi, bien ]
axiologique :: 1 :: [ bien ]
marqueurs_niveau3 :: 1 :: [ bien ]
marqueurs_niveau2 :: 1 :: [ emploi ]
appreciatif_niveau3 :: 1 :: [ bien ]
appreciatif_niveau2 :: 1 :: [ emploi ]
axiologique_niveau3 :: 1 :: [ bien ]
Total feature counts: 10

