
********** Entity Names Features **********
*******************************************

1. Sentence: Pierre Veltz  : D ' abord , le projet continue à vivre , avec une équipe qui s ' est très largement renouvelée , et il faudra juger dans dix ans .
Entity Name (Type) :: D ' abord (MISC)


********** Emotions Features **********
***************************************

1. Sentence: Pierre Veltz  : D ' abord , le projet continue à vivre , avec une équipe qui s ' est très largement renouvelée , et il faudra juger dans dix ans .
No features found.


********** Modality Features **********
***************************************

1. Sentence: Pierre Veltz  : D ' abord , le projet continue à vivre , avec une équipe qui s ' est très largement renouvelée , et il faudra juger dans dix ans .
Features :: Feature-Counts :: Feature-Lemmas
--------------------------------------------
marqueurs :: 2 :: [ falloir, juger ]
deontique :: 1 :: [ falloir ]
pas_d_indication :: 1 :: [ juger ]
marqueurs_niveau3 :: 1 :: [ falloir ]
marqueurs_niveau0 :: 1 :: [ juger ]
deontique_niveau3 :: 1 :: [ falloir ]
pas_d_indication_niveau0 :: 1 :: [ juger ]
Total feature counts: 8


********** Adverbiaux Temporels Features **********
********************************************************

1. Sentence: Pierre Veltz  : D ' abord , le projet continue à vivre , avec une équipe qui s ' est très largement renouvelée , et il faudra juger dans dix ans .
No features found.

