
********** Entity Names Features **********
*******************************************

1. Sentence: Fig .
Entity Name (Type) :: Fig (MISC)


********** Emotions Features **********
***************************************

1. Sentence: Fig .
No features found.


********** Modality Features **********
***************************************

1. Sentence: Fig .
No features found.


********** Adverbiaux Temporels Features **********
********************************************************

1. Sentence: Fig .
No features found.

