
********** Entity Names Features **********
*******************************************

1. Sentence: Gilles Clément a travaillé sur ces questions et arrive à la même conclusion que moi  : on n ' use pas assez des armes offertes par la loi écrite ou naturelle .
Entity Name (Type) :: Gilles Clément (PER)


********** Emotions Features **********
***************************************

1. Sentence: Gilles Clément a travaillé sur ces questions et arrive à la même conclusion que moi  : on n ' use pas assez des armes offertes par la loi écrite ou naturelle .
No features found.


********** Modality Features **********
***************************************

1. Sentence: Gilles Clément a travaillé sur ces questions et arrive à la même conclusion que moi  : on n ' use pas assez des armes offertes par la loi écrite ou naturelle .
Features :: Feature-Counts :: Feature-Lemmas
--------------------------------------------
marqueurs :: 6 :: [ travailler, arriver, lui, arme, offrir, loi ]
marqueurs_niveau2 :: 5 :: [ travailler, arriver, arme, offrir, loi ]
alethique :: 2 :: [ arriver, lui ]
appreciatif :: 2 :: [ travailler, offrir ]
appreciatif_niveau2 :: 2 :: [ travailler, offrir ]
axiologique :: 1 :: [ arme ]
deontique :: 1 :: [ loi ]
epistemique :: 1 :: [ lui ]
marqueurs_niveau3 :: 1 :: [ lui ]
alethique_niveau3 :: 1 :: [ lui ]
alethique_niveau2 :: 1 :: [ arriver ]
axiologique_niveau2 :: 1 :: [ arme ]
deontique_niveau2 :: 1 :: [ loi ]
epistemique_niveau3 :: 1 :: [ lui ]
Total feature counts: 26


********** Adverbiaux Temporels Features **********
********************************************************

1. Sentence: Gilles Clément a travaillé sur ces questions et arrive à la même conclusion que moi  : on n ' use pas assez des armes offertes par la loi écrite ou naturelle .
No features found.

