
********** Entity Names Features **********
*******************************************

1. Sentence: Ainsi débute un processus de rencontres qui ont jalonné l ' ensemble de mes chantiers presque toujours accompagnés de la création d ' une « université foraine » .
No features found.


********** Emotions Features **********
***************************************

1. Sentence: Ainsi débute un processus de rencontres qui ont jalonné l ' ensemble de mes chantiers presque toujours accompagnés de la création d ' une « université foraine » .
No features found.


********** Modality Features **********
***************************************

1. Sentence: Ainsi débute un processus de rencontres qui ont jalonné l ' ensemble de mes chantiers presque toujours accompagnés de la création d ' une « université foraine » .
Features :: Feature-Counts :: Feature-Lemmas
--------------------------------------------
marqueurs :: 1 :: [ toujours ]
alethique :: 1 :: [ toujours ]
marqueurs_niveau3 :: 1 :: [ toujours ]
alethique_niveau3 :: 1 :: [ toujours ]
Total feature counts: 4


********** Adverbiaux Temporels Features **********
********************************************************

1. Sentence: Ainsi débute un processus de rencontres qui ont jalonné l ' ensemble de mes chantiers presque toujours accompagnés de la création d ' une « université foraine » .
Features :: Feature-Counts :: Feature-Texts
--------------------------------------------
adverbiaux_temporels::1::['toujours']
adverbiaux_duratifs_iteratifs::1::['toujours']

