====== Sentence Level Features ======

1. Sentence: ETC BET déplacements . ) Strasbourg – zone commerciale nord Étude en cours : stratégie d ' aménagement Étude de déﬁnition , 2005-2006
Features :: Feature-Counts :: Feature-Texts
--------------------------------------------
adverbiaux_temporels::1::['2005_2006']
adverbiaux_localisation_temporelle::1::['2005_2006']
adverbiaux_pointage_absolu::1::['2005_2006']
adverbiaux_loc_temp_focalisation_id::1::['2005_2006']
adverbiaux_loc_temp_regionalisation_id::1::['2005_2006']
adverbiaux_loc_temp_pointage_absolu::1::['2005_2006']


====== Text Level Features ======

Features :: Feature-Counts :: Feature-Texts
--------------------------------------------
adverbiaux_temporels::1::['2005_2006']
adverbiaux_localisation_temporelle::1::['2005_2006']
adverbiaux_pointage_absolu::1::['2005_2006']
adverbiaux_loc_temp_focalisation_id::1::['2005_2006']
adverbiaux_loc_temp_regionalisation_id::1::['2005_2006']
adverbiaux_loc_temp_pointage_absolu::1::['2005_2006']
Total feature counts: 6

