====== Sentence Level Features ======

1. Sentence: J ' ai fait un long séjour à New York en 1966 qui m ' a marqué .
Entity Name (Type) :: New York (LOC)


====== Text Level Features ======

Entity Name (Entity Type)
-------------------------
New York (LOC)
Total entitiy counts: 1

