====== Sentence Level Features ======

1. Sentence: L ' espace du ban est un espace de mort .
Features :: Feature-Counts :: Feature-Lemmas
--------------------------------------------
marqueurs :: 1 :: [ mort ]
appreciatif :: 1 :: [ mort ]
marqueurs_niveau2 :: 1 :: [ mort ]
appreciatif_niveau2 :: 1 :: [ mort ]
Total feature counts: 4


====== Text Level Features ======

Features :: Feature-Counts :: Feature-Lemmas
--------------------------------------------
marqueurs :: 1 :: [ mort ]
appreciatif :: 1 :: [ mort ]
marqueurs_niveau2 :: 1 :: [ mort ]
appreciatif_niveau2 :: 1 :: [ mort ]
Total feature counts: 4

