
********** Entity Names Features **********
*******************************************

1. Sentence: En 1975 , ma licence d ' urbanisme en poche , et père de deux enfants , enfin convaincu d ' avoir la capacité d ' agir sur la ville et de gagner ainsi ma vie , je me suis mis à la recherche d ' un travail .
No features found.


********** Emotions Features **********
***************************************

1. Sentence: En 1975 , ma licence d ' urbanisme en poche , et père de deux enfants , enfin convaincu d ' avoir la capacité d ' agir sur la ville et de gagner ainsi ma vie , je me suis mis à la recherche d ' un travail .
No features found.


********** Modality Features **********
***************************************

1. Sentence: En 1975 , ma licence d ' urbanisme en poche , et père de deux enfants , enfin convaincu d ' avoir la capacité d ' agir sur la ville et de gagner ainsi ma vie , je me suis mis à la recherche d ' un travail .
Features :: Feature-Counts :: Feature-Lemmas
--------------------------------------------
marqueurs :: 2 :: [ gagner, travail ]
appreciatif :: 2 :: [ gagner, travail ]
marqueurs_niveau3 :: 1 :: [ travail ]
marqueurs_niveau2 :: 1 :: [ gagner ]
appreciatif_niveau3 :: 1 :: [ travail ]
appreciatif_niveau2 :: 1 :: [ gagner ]
Total feature counts: 8


********** Adverbiaux Temporels Features **********
********************************************************

1. Sentence: En 1975 , ma licence d ' urbanisme en poche , et père de deux enfants , enfin convaincu d ' avoir la capacité d ' agir sur la ville et de gagner ainsi ma vie , je me suis mis à la recherche d ' un travail .
Features :: Feature-Counts :: Feature-Texts
--------------------------------------------
adverbiaux_temporels::1::['En 1975']
adverbiaux_localisation_temporelle::1::['En 1975']
adverbiaux_pointage_absolu::1::['En 1975']
adverbiaux_pointage_non_absolu::1::['En 1975']
adverbiaux_loc_temp_focalisation_id::1::['En 1975']
adverbiaux_loc_temp_regionalisation_id::1::['En 1975']
adverbiaux_loc_temp_pointage_non_absolu::1::['En 1975']
adverbiaux_dur_iter_absolu::1::['En 1975']

