
********** Entity Names Features **********
*******************************************

1. Sentence: Les axes secondaires et leur liaison avec l ' axe principal : les axes tangentiels
No features found.


********** Emotions Features **********
***************************************

1. Sentence: Les axes secondaires et leur liaison avec l ' axe principal : les axes tangentiels
No features found.


********** Modality Features **********
***************************************

1. Sentence: Les axes secondaires et leur liaison avec l ' axe principal : les axes tangentiels
No features found.


********** Adverbiaux Temporels Features **********
********************************************************

1. Sentence: Les axes secondaires et leur liaison avec l ' axe principal : les axes tangentiels
No features found.

