
********** Entity Names Features **********
*******************************************

1. Sentence: Elle devait , pour moi , durer huit ans : à la mission des grands projets tout d ' abord , à la Saem Tête Défense ensuite .
Entity Name (Type) :: Saem Tête Défense (ORG)


********** Emotions Features **********
***************************************

1. Sentence: Elle devait , pour moi , durer huit ans : à la mission des grands projets tout d ' abord , à la Saem Tête Défense ensuite .
No features found.


********** Modality Features **********
***************************************

1. Sentence: Elle devait , pour moi , durer huit ans : à la mission des grands projets tout d ' abord , à la Saem Tête Défense ensuite .
Features :: Feature-Counts :: Feature-Lemmas
--------------------------------------------
marqueurs :: 3 :: [ devoir, lui, grand ]
epistemique :: 3 :: [ devoir, lui, grand ]
marqueurs_niveau3 :: 3 :: [ devoir, lui, grand ]
epistemique_niveau3 :: 3 :: [ devoir, lui, grand ]
alethique :: 2 :: [ devoir, lui ]
alethique_niveau3 :: 2 :: [ devoir, lui ]
deontique :: 1 :: [ devoir ]
deontique_niveau3 :: 1 :: [ devoir ]
Total feature counts: 18


********** Adverbiaux Temporels Features **********
********************************************************

1. Sentence: Elle devait , pour moi , durer huit ans : à la mission des grands projets tout d ' abord , à la Saem Tête Défense ensuite .
No features found.

