====== Sentence Level Features ======

1. Sentence: La justice a un caractère solennel qui croise aujourd ' hui de plus en plus la vie quotidienne , aussi je ne crois pas aux coups architecturaux forts qui seraient occasionnés par la construction de certaines institutions .
Features :: Feature-Counts :: Feature-Lemmas
--------------------------------------------
marqueurs :: 4 :: [ justice, croire, fort, certain ]
epistemique :: 2 :: [ croire, certain ]
marqueurs_niveau3 :: 2 :: [ croire, certain ]
epistemique_niveau3 :: 2 :: [ croire, certain ]
axiologique :: 1 :: [ justice ]
pas_d_indication :: 1 :: [ fort ]
marqueurs_niveau2 :: 1 :: [ justice ]
marqueurs_niveau0 :: 1 :: [ fort ]
axiologique_niveau2 :: 1 :: [ justice ]
pas_d_indication_niveau0 :: 1 :: [ fort ]
Total feature counts: 16


====== Text Level Features ======

Features :: Feature-Counts :: Feature-Lemmas
--------------------------------------------
marqueurs :: 4 :: [ justice, croire, fort, certain ]
epistemique :: 2 :: [ croire, certain ]
marqueurs_niveau3 :: 2 :: [ croire, certain ]
epistemique_niveau3 :: 2 :: [ croire, certain ]
axiologique :: 1 :: [ justice ]
pas_d_indication :: 1 :: [ fort ]
marqueurs_niveau2 :: 1 :: [ justice ]
marqueurs_niveau0 :: 1 :: [ fort ]
axiologique_niveau2 :: 1 :: [ justice ]
pas_d_indication_niveau0 :: 1 :: [ fort ]
Total feature counts: 16

