
********** Entity Names Features **********
*******************************************

1. Sentence: Mettre au cœur de la démarche l ' espace vide et le projet de sol en leur donnant un rôle nouveau a d ' importantes conséquences sur le projet de la ville .
No features found.


********** Emotions Features **********
***************************************

1. Sentence: Mettre au cœur de la démarche l ' espace vide et le projet de sol en leur donnant un rôle nouveau a d ' importantes conséquences sur le projet de la ville .
No features found.


********** Modality Features **********
***************************************

1. Sentence: Mettre au cœur de la démarche l ' espace vide et le projet de sol en leur donnant un rôle nouveau a d ' importantes conséquences sur le projet de la ville .
Features :: Feature-Counts :: Feature-Lemmas
--------------------------------------------
marqueurs :: 2 :: [ lui, important ]
epistemique :: 2 :: [ lui, important ]
alethique :: 1 :: [ lui ]
appreciatif :: 1 :: [ important ]
axiologique :: 1 :: [ important ]
marqueurs_niveau3 :: 1 :: [ lui ]
marqueurs_niveau1 :: 1 :: [ important ]
alethique_niveau3 :: 1 :: [ lui ]
appreciatif_niveau1 :: 1 :: [ important ]
axiologique_niveau1 :: 1 :: [ important ]
epistemique_niveau3 :: 1 :: [ lui ]
epistemique_niveau1 :: 1 :: [ important ]
Total feature counts: 14


********** Adverbiaux Temporels Features **********
********************************************************

1. Sentence: Mettre au cœur de la démarche l ' espace vide et le projet de sol en leur donnant un rôle nouveau a d ' importantes conséquences sur le projet de la ville .
No features found.

