====== Sentence Level Features ======

1. Sentence: décret-loi région parisienne 25 Juil . 1935 , art . 18) , le défrichement des bois particuliers (c . for . , art . 219 et suiv . ) , les divers permis de construire , les diverses mesures susceptibles d ' être prises par les préfets et les maires en vertu de leurs pouvoirs de police , etc . . .
Features :: Feature-Counts :: Feature-Texts
--------------------------------------------
adverbiaux_temporels::2::['25 Juil .', '1935 ,']
adverbiaux_localisation_temporelle::2::['25 Juil .', '1935 ,']
adverbiaux_pointage_absolu::1::['1935 ,']
adverbiaux_pointage_non_absolu::1::['25 Juil .']
adverbiaux_loc_temp_focalisation_id::1::['25 Juil .']
adverbiaux_loc_temp_regionalisation_id::1::['25 Juil .']
adverbiaux_loc_temp_pointage_absolu::1::['1935 ,']
adverbiaux_loc_temp_pointage_non_absolu::1::['25 Juil .']


====== Text Level Features ======

Features :: Feature-Counts :: Feature-Texts
--------------------------------------------
adverbiaux_temporels::2::['25 Juil .', '1935 ,']
adverbiaux_localisation_temporelle::2::['25 Juil .', '1935 ,']
adverbiaux_pointage_absolu::1::['1935 ,']
adverbiaux_pointage_non_absolu::1::['25 Juil .']
adverbiaux_loc_temp_focalisation_id::1::['25 Juil .']
adverbiaux_loc_temp_regionalisation_id::1::['25 Juil .']
adverbiaux_loc_temp_pointage_absolu::1::['1935 ,']
adverbiaux_loc_temp_pointage_non_absolu::1::['25 Juil .']
Total feature counts: 10

