
********** Entity Names Features **********
*******************************************

1. Sentence: Les infrastructures , routières notamment , représentent une surface urbaine et des investissements considérables .
No features found.


********** Emotions Features **********
***************************************

1. Sentence: Les infrastructures , routières notamment , représentent une surface urbaine et des investissements considérables .
No features found.


********** Modality Features **********
***************************************

1. Sentence: Les infrastructures , routières notamment , représentent une surface urbaine et des investissements considérables .
No features found.


********** Adverbiaux Temporels Features **********
********************************************************

1. Sentence: Les infrastructures , routières notamment , représentent une surface urbaine et des investissements considérables .
No features found.

