
********** Entity Names Features **********
*******************************************

1. Sentence: Ce fut une superbe opportunité qui montre la capacité d ' ouverture d ' un programme à en accueillir un nouveau : dîner ici au coucher du soleil sous les pas des badauds .
No features found.


********** Emotions Features **********
***************************************

1. Sentence: Ce fut une superbe opportunité qui montre la capacité d ' ouverture d ' un programme à en accueillir un nouveau : dîner ici au coucher du soleil sous les pas des badauds .
No features found.


********** Modality Features **********
***************************************

1. Sentence: Ce fut une superbe opportunité qui montre la capacité d ' ouverture d ' un programme à en accueillir un nouveau : dîner ici au coucher du soleil sous les pas des badauds .
Features :: Feature-Counts :: Feature-Lemmas
--------------------------------------------
marqueurs :: 3 :: [ superbe, dîner, soleil ]
appreciatif :: 3 :: [ superbe, dîner, soleil ]
marqueurs_niveau3 :: 2 :: [ superbe, soleil ]
appreciatif_niveau3 :: 2 :: [ superbe, soleil ]
alethique :: 1 :: [ dîner ]
marqueurs_niveau1 :: 1 :: [ dîner ]
alethique_niveau1 :: 1 :: [ dîner ]
appreciatif_niveau1 :: 1 :: [ dîner ]
Total feature counts: 14


********** Adverbiaux Temporels Features **********
********************************************************

1. Sentence: Ce fut une superbe opportunité qui montre la capacité d ' ouverture d ' un programme à en accueillir un nouveau : dîner ici au coucher du soleil sous les pas des badauds .
No features found.

