
********** Entity Names Features **********
*******************************************

1. Sentence: cette double rareté de l ' offre en présence d ' une demande croissante a entraîné trois conséquences :
No features found.


********** Emotions Features **********
***************************************

1. Sentence: cette double rareté de l ' offre en présence d ' une demande croissante a entraîné trois conséquences :
No features found.


********** Modality Features **********
***************************************

1. Sentence: cette double rareté de l ' offre en présence d ' une demande croissante a entraîné trois conséquences :
Features :: Feature-Counts :: Feature-Lemmas
--------------------------------------------
marqueurs :: 1 :: [ croissant ]
appreciatif :: 1 :: [ croissant ]
marqueurs_niveau2 :: 1 :: [ croissant ]
appreciatif_niveau2 :: 1 :: [ croissant ]
Total feature counts: 4


********** Adverbiaux Temporels Features **********
********************************************************

1. Sentence: cette double rareté de l ' offre en présence d ' une demande croissante a entraîné trois conséquences :
No features found.

