====== Sentence Level Features ======

1. Sentence: C ' est ce qui explique que je n ' ai que très rarement concouru  : la compétition n ' a plus lieu d ' être quand il s ' agit de définir une question et de prouver sa validité et son actualité .
Features :: Feature-Counts :: Feature-Lemmas
--------------------------------------------
marqueurs :: 1 :: [ rarement ]
alethique :: 1 :: [ rarement ]
marqueurs_niveau3 :: 1 :: [ rarement ]
alethique_niveau3 :: 1 :: [ rarement ]
Total feature counts: 4


====== Text Level Features ======

Features :: Feature-Counts :: Feature-Lemmas
--------------------------------------------
marqueurs :: 1 :: [ rarement ]
alethique :: 1 :: [ rarement ]
marqueurs_niveau3 :: 1 :: [ rarement ]
alethique_niveau3 :: 1 :: [ rarement ]
Total feature counts: 4

