
********** Entity Names Features **********
*******************************************

1. Sentence: On s ' y perd physiquement , dès que l ' on quitte les nationales ou son quartier de banlieue;
No features found.


********** Emotions Features **********
***************************************

1. Sentence: On s ' y perd physiquement , dès que l ' on quitte les nationales ou son quartier de banlieue;
No features found.


********** Modality Features **********
***************************************

1. Sentence: On s ' y perd physiquement , dès que l ' on quitte les nationales ou son quartier de banlieue;
Features :: Feature-Counts :: Feature-Lemmas
--------------------------------------------
marqueurs :: 2 :: [ perdre, quitter ]
marqueurs_niveau2 :: 2 :: [ perdre, quitter ]
alethique :: 1 :: [ quitter ]
appreciatif :: 1 :: [ perdre ]
alethique_niveau2 :: 1 :: [ quitter ]
appreciatif_niveau2 :: 1 :: [ perdre ]
Total feature counts: 8


********** Adverbiaux Temporels Features **********
********************************************************

1. Sentence: On s ' y perd physiquement , dès que l ' on quitte les nationales ou son quartier de banlieue;
No features found.

