====== Sentence Level Features ======

1. Sentence: La ville au péril de la montée des eaux sur la portion urbaine est en passe de s ' amenuiser grâce à la mise en place par l ' État d ' un contournement autoroutier ,  l ' A19 .
Features :: Feature-Counts :: Feature-Lemmas
--------------------------------------------
marqueurs :: 1 :: [ péril ]
appreciatif :: 1 :: [ péril ]
marqueurs_niveau2 :: 1 :: [ péril ]
appreciatif_niveau2 :: 1 :: [ péril ]
Total feature counts: 4


====== Text Level Features ======

Features :: Feature-Counts :: Feature-Lemmas
--------------------------------------------
marqueurs :: 1 :: [ péril ]
appreciatif :: 1 :: [ péril ]
marqueurs_niveau2 :: 1 :: [ péril ]
appreciatif_niveau2 :: 1 :: [ péril ]
Total feature counts: 4

