
********** Entity Names Features **********
*******************************************

1. Sentence: À cet égard ,  l ' invention par Christian de Portzamparc de l ' îlot ouvert , et sa traduction sur Masséna Paris Rive gauche , ont été salvateurs en libérant la pensée sur l ' îlot .
Entity Name (Type) :: Masséna Paris Rive gauche (LOC)


********** Emotions Features **********
***************************************

1. Sentence: À cet égard ,  l ' invention par Christian de Portzamparc de l ' îlot ouvert , et sa traduction sur Masséna Paris Rive gauche , ont été salvateurs en libérant la pensée sur l ' îlot .
Tokens having emotion: [ égard ]
Lemmas having emotion: [ égard ]
Categories of the emotion lemmas: [ admiration ]


********** Modality Features **********
***************************************

1. Sentence: À cet égard ,  l ' invention par Christian de Portzamparc de l ' îlot ouvert , et sa traduction sur Masséna Paris Rive gauche , ont été salvateurs en libérant la pensée sur l ' îlot .
No features found.


********** Adverbiaux Temporels Features **********
********************************************************

1. Sentence: À cet égard ,  l ' invention par Christian de Portzamparc de l ' îlot ouvert , et sa traduction sur Masséna Paris Rive gauche , ont été salvateurs en libérant la pensée sur l ' îlot .
No features found.

