
********** Entity Names Features **********
*******************************************

1. Sentence: La grande difficulté fut de trouver un beau terrain , toutes les déprises agricoles étant captées par la Safer .
Entity Name (Type) :: Safer (ORG)


********** Emotions Features **********
***************************************

1. Sentence: La grande difficulté fut de trouver un beau terrain , toutes les déprises agricoles étant captées par la Safer .
No features found.


********** Modality Features **********
***************************************

1. Sentence: La grande difficulté fut de trouver un beau terrain , toutes les déprises agricoles étant captées par la Safer .
Features :: Feature-Counts :: Feature-Lemmas
--------------------------------------------
marqueurs :: 3 :: [ grand, difficulté, beau ]
marqueurs_niveau3 :: 2 :: [ grand, beau ]
appreciatif :: 1 :: [ beau ]
epistemique :: 1 :: [ grand ]
pas_d_indication :: 1 :: [ difficulté ]
marqueurs_niveau0 :: 1 :: [ difficulté ]
appreciatif_niveau3 :: 1 :: [ beau ]
epistemique_niveau3 :: 1 :: [ grand ]
pas_d_indication_niveau0 :: 1 :: [ difficulté ]
Total feature counts: 12


********** Adverbiaux Temporels Features **********
********************************************************

1. Sentence: La grande difficulté fut de trouver un beau terrain , toutes les déprises agricoles étant captées par la Safer .
No features found.

