
********** Entity Names Features **********
*******************************************

1. Sentence: Il se distingue par des tracés , des mesures , des reliances , attentif aux empreintes et impacts .
No features found.


********** Emotions Features **********
***************************************

1. Sentence: Il se distingue par des tracés , des mesures , des reliances , attentif aux empreintes et impacts .
No features found.


********** Modality Features **********
***************************************

1. Sentence: Il se distingue par des tracés , des mesures , des reliances , attentif aux empreintes et impacts .
No features found.


********** Adverbiaux Temporels Features **********
********************************************************

1. Sentence: Il se distingue par des tracés , des mesures , des reliances , attentif aux empreintes et impacts .
No features found.

