
********** Entity Names Features **********
*******************************************

1. Sentence: Maîtrise d ' ouvrage : Epamarne .
Entity Name (Type) :: Epamarne (PER)


********** Emotions Features **********
***************************************

1. Sentence: Maîtrise d ' ouvrage : Epamarne .
No features found.


********** Modality Features **********
***************************************

1. Sentence: Maîtrise d ' ouvrage : Epamarne .
No features found.


********** Adverbiaux Temporels Features **********
********************************************************

1. Sentence: Maîtrise d ' ouvrage : Epamarne .
No features found.

