====== Sentence Level Features ======

1. Sentence: L ' énergie grise , embodied energy en anglais , est l ' énergie «piégée» dans le corps (body) du territoire .
Features :: Feature-Counts :: Feature-Lemmas
--------------------------------------------
marqueurs :: 1 :: [ piéger ]
pas_d_indication :: 1 :: [ piéger ]
marqueurs_niveau0 :: 1 :: [ piéger ]
pas_d_indication_niveau0 :: 1 :: [ piéger ]
Total feature counts: 4


====== Text Level Features ======

Features :: Feature-Counts :: Feature-Lemmas
--------------------------------------------
marqueurs :: 1 :: [ piéger ]
pas_d_indication :: 1 :: [ piéger ]
marqueurs_niveau0 :: 1 :: [ piéger ]
pas_d_indication_niveau0 :: 1 :: [ piéger ]
Total feature counts: 4

