
********** Entity Names Features **********
*******************************************

1. Sentence: LE GRAND PARIS EXPRESS — LES PÔLES ECONOMIQUES Pierre Veltz  : Revenons au schéma de transport de Christian Blanc en cours de construction aujourd ' hui .
Entity Name (Type) :: Christian Blanc (PER)


********** Emotions Features **********
***************************************

1. Sentence: LE GRAND PARIS EXPRESS — LES PÔLES ECONOMIQUES Pierre Veltz  : Revenons au schéma de transport de Christian Blanc en cours de construction aujourd ' hui .
No features found.


********** Modality Features **********
***************************************

1. Sentence: LE GRAND PARIS EXPRESS — LES PÔLES ECONOMIQUES Pierre Veltz  : Revenons au schéma de transport de Christian Blanc en cours de construction aujourd ' hui .
No features found.


********** Adverbiaux Temporels Features **********
********************************************************

1. Sentence: LE GRAND PARIS EXPRESS — LES PÔLES ECONOMIQUES Pierre Veltz  : Revenons au schéma de transport de Christian Blanc en cours de construction aujourd ' hui .
No features found.

