====== Sentence Level Features ======

1. Sentence: commerces , bureaux , loisirs au sens large donnent , pour l ' essentiel , à la ville son caractère propre , son attrait , et finalement son " âme " .
Features :: Feature-Counts :: Feature-Lemmas
--------------------------------------------
marqueurs :: 1 :: [ loisir ]
appreciatif :: 1 :: [ loisir ]
marqueurs_niveau2 :: 1 :: [ loisir ]
appreciatif_niveau2 :: 1 :: [ loisir ]
Total feature counts: 4


====== Text Level Features ======

Features :: Feature-Counts :: Feature-Lemmas
--------------------------------------------
marqueurs :: 1 :: [ loisir ]
appreciatif :: 1 :: [ loisir ]
marqueurs_niveau2 :: 1 :: [ loisir ]
appreciatif_niveau2 :: 1 :: [ loisir ]
Total feature counts: 4

