
********** Entity Names Features **********
*******************************************

1. Sentence: Industries agricoles et alimentaires 		97 , 9	15 , 6 %
No features found.


********** Emotions Features **********
***************************************

1. Sentence: Industries agricoles et alimentaires 		97 , 9	15 , 6 %
No features found.


********** Modality Features **********
***************************************

1. Sentence: Industries agricoles et alimentaires 		97 , 9	15 , 6 %
No features found.


********** Adverbiaux Temporels Features **********
********************************************************

1. Sentence: Industries agricoles et alimentaires 		97 , 9	15 , 6 %
No features found.

