====== Sentence Level Features ======

1. Sentence: J ' ai voulu aussi donner une vision plus équilibrée de tous ces changements , presque toujours présentés sous un jour sombre .
Features :: Feature-Counts :: Feature-Lemmas
--------------------------------------------
marqueurs :: 2 :: [ vouloir, toujours ]
marqueurs_niveau3 :: 2 :: [ vouloir, toujours ]
alethique :: 1 :: [ toujours ]
boulique :: 1 :: [ vouloir ]
alethique_niveau3 :: 1 :: [ toujours ]
boulique_niveau3 :: 1 :: [ vouloir ]
Total feature counts: 8


====== Text Level Features ======

Features :: Feature-Counts :: Feature-Lemmas
--------------------------------------------
marqueurs :: 2 :: [ vouloir, toujours ]
marqueurs_niveau3 :: 2 :: [ vouloir, toujours ]
alethique :: 1 :: [ toujours ]
boulique :: 1 :: [ vouloir ]
alethique_niveau3 :: 1 :: [ toujours ]
boulique_niveau3 :: 1 :: [ vouloir ]
Total feature counts: 8

