
********** Entity Names Features **********
*******************************************

1. Sentence: Gilles Huchette  : La logistique est une filière qui se porte bien sur le territoire .
Entity Name (Type) :: Gilles Huchette (PER)


********** Emotions Features **********
***************************************

1. Sentence: Gilles Huchette  : La logistique est une filière qui se porte bien sur le territoire .
No features found.


********** Modality Features **********
***************************************

1. Sentence: Gilles Huchette  : La logistique est une filière qui se porte bien sur le territoire .
Features :: Feature-Counts :: Feature-Lemmas
--------------------------------------------
marqueurs :: 1 :: [ bien ]
appreciatif :: 1 :: [ bien ]
axiologique :: 1 :: [ bien ]
marqueurs_niveau3 :: 1 :: [ bien ]
appreciatif_niveau3 :: 1 :: [ bien ]
axiologique_niveau3 :: 1 :: [ bien ]
Total feature counts: 6


********** Adverbiaux Temporels Features **********
********************************************************

1. Sentence: Gilles Huchette  : La logistique est une filière qui se porte bien sur le territoire .
No features found.

