
********** Entity Names Features **********
*******************************************

1. Sentence: 000 chevaux et 20 .
No features found.


********** Emotions Features **********
***************************************

1. Sentence: 000 chevaux et 20 .
No features found.


********** Modality Features **********
***************************************

1. Sentence: 000 chevaux et 20 .
No features found.


********** Adverbiaux Temporels Features **********
********************************************************

1. Sentence: 000 chevaux et 20 .
No features found.

