
********** Entity Names Features **********
*******************************************

1. Sentence: Maîtrise d ' œuvre urbaine : Atelier Ruelle .
Entity Name (Type) :: Atelier Ruelle (LOC)


********** Emotions Features **********
***************************************

1. Sentence: Maîtrise d ' œuvre urbaine : Atelier Ruelle .
No features found.


********** Modality Features **********
***************************************

1. Sentence: Maîtrise d ' œuvre urbaine : Atelier Ruelle .
No features found.


********** Adverbiaux Temporels Features **********
********************************************************

1. Sentence: Maîtrise d ' œuvre urbaine : Atelier Ruelle .
No features found.

