====== Sentence Level Features ======

1. Sentence: Or elles ne seront telles que si leurs habitants , et pas seulement les plus riches d ' entre eux , y trouvent leur compte .
Features :: Feature-Counts :: Feature-Lemmas
--------------------------------------------
marqueurs :: 2 :: [ riche, lui ]
alethique :: 1 :: [ lui ]
appreciatif :: 1 :: [ riche ]
epistemique :: 1 :: [ lui ]
marqueurs_niveau3 :: 1 :: [ lui ]
marqueurs_niveau2 :: 1 :: [ riche ]
alethique_niveau3 :: 1 :: [ lui ]
appreciatif_niveau2 :: 1 :: [ riche ]
epistemique_niveau3 :: 1 :: [ lui ]
Total feature counts: 10


====== Text Level Features ======

Features :: Feature-Counts :: Feature-Lemmas
--------------------------------------------
marqueurs :: 2 :: [ riche, lui ]
alethique :: 1 :: [ lui ]
appreciatif :: 1 :: [ riche ]
epistemique :: 1 :: [ lui ]
marqueurs_niveau3 :: 1 :: [ lui ]
marqueurs_niveau2 :: 1 :: [ riche ]
alethique_niveau3 :: 1 :: [ lui ]
appreciatif_niveau2 :: 1 :: [ riche ]
epistemique_niveau3 :: 1 :: [ lui ]
Total feature counts: 10

