
********** Entity Names Features **********
*******************************************

1. Sentence: B - Les tendances futures
Entity Name (Type) :: B (LOC)


********** Emotions Features **********
***************************************

1. Sentence: B - Les tendances futures
No features found.


********** Modality Features **********
***************************************

1. Sentence: B - Les tendances futures
No features found.


********** Adverbiaux Temporels Features **********
********************************************************

1. Sentence: B - Les tendances futures
No features found.

