
********** Entity Names Features **********
*******************************************

1. Sentence: c) Évolution des structures
Entity Name (Type) :: Évolution des structures (MISC)


********** Emotions Features **********
***************************************

1. Sentence: c) Évolution des structures
No features found.


********** Modality Features **********
***************************************

1. Sentence: c) Évolution des structures
No features found.


********** Adverbiaux Temporels Features **********
********************************************************

1. Sentence: c) Évolution des structures
No features found.

