====== Sentence Level Features ======

1. Sentence: Tous de fortes personnalités , tous différents , dans leur formation comme leur philosophie ou leur approche sensible…
Features :: Feature-Counts :: Feature-Lemmas
--------------------------------------------
marqueurs :: 2 :: [ fort, sensible ]
pas_d_indication :: 2 :: [ fort, sensible ]
marqueurs_niveau0 :: 2 :: [ fort, sensible ]
pas_d_indication_niveau0 :: 2 :: [ fort, sensible ]
Total feature counts: 8


====== Text Level Features ======

Features :: Feature-Counts :: Feature-Lemmas
--------------------------------------------
marqueurs :: 2 :: [ fort, sensible ]
pas_d_indication :: 2 :: [ fort, sensible ]
marqueurs_niveau0 :: 2 :: [ fort, sensible ]
pas_d_indication_niveau0 :: 2 :: [ fort, sensible ]
Total feature counts: 8

