====== Sentence Level Features ======

1. Sentence: pour une autre part , de recevoir des stades , des lycées , des facultés , des hôpitaux , des zones d ' emploi assez vastes , tous éléments nécessaires à la fois aux ensembles qui ont été construits , et à la banlieue plus ancienne qui leur est adjacente .
Features :: Feature-Counts :: Feature-Lemmas
--------------------------------------------
marqueurs :: 3 :: [ emploi, nécessaire, lui ]
alethique :: 2 :: [ nécessaire, lui ]
marqueurs_niveau3 :: 2 :: [ nécessaire, lui ]
alethique_niveau3 :: 2 :: [ nécessaire, lui ]
appreciatif :: 1 :: [ emploi ]
epistemique :: 1 :: [ lui ]
marqueurs_niveau2 :: 1 :: [ emploi ]
appreciatif_niveau2 :: 1 :: [ emploi ]
epistemique_niveau3 :: 1 :: [ lui ]
Total feature counts: 14


====== Text Level Features ======

Features :: Feature-Counts :: Feature-Lemmas
--------------------------------------------
marqueurs :: 3 :: [ emploi, nécessaire, lui ]
alethique :: 2 :: [ nécessaire, lui ]
marqueurs_niveau3 :: 2 :: [ nécessaire, lui ]
alethique_niveau3 :: 2 :: [ nécessaire, lui ]
appreciatif :: 1 :: [ emploi ]
epistemique :: 1 :: [ lui ]
marqueurs_niveau2 :: 1 :: [ emploi ]
appreciatif_niveau2 :: 1 :: [ emploi ]
epistemique_niveau3 :: 1 :: [ lui ]
Total feature counts: 14

