====== Sentence Level Features ======

1. Sentence: Représenter le temps signifie à la fois concevoir le projet dans le temps et l ' imaginer sous différentes formes à mesure que le temps passe .
Features :: Feature-Counts :: Feature-Lemmas
--------------------------------------------
marqueurs :: 1 :: [ imaginer ]
epistemique :: 1 :: [ imaginer ]
marqueurs_niveau3 :: 1 :: [ imaginer ]
epistemique_niveau3 :: 1 :: [ imaginer ]
Total feature counts: 4


====== Text Level Features ======

Features :: Feature-Counts :: Feature-Lemmas
--------------------------------------------
marqueurs :: 1 :: [ imaginer ]
epistemique :: 1 :: [ imaginer ]
marqueurs_niveau3 :: 1 :: [ imaginer ]
epistemique_niveau3 :: 1 :: [ imaginer ]
Total feature counts: 4

