
********** Entity Names Features **********
*******************************************

1. Sentence: Ces derniers sont mineurs à l ' échelle géographique , qui conserve la cohérence , mais ils sont immenses et structurants à l ' échelle des nouveaux quartiers de Boston .
Entity Name (Type) :: Boston (LOC)


********** Emotions Features **********
***************************************

1. Sentence: Ces derniers sont mineurs à l ' échelle géographique , qui conserve la cohérence , mais ils sont immenses et structurants à l ' échelle des nouveaux quartiers de Boston .
No features found.


********** Modality Features **********
***************************************

1. Sentence: Ces derniers sont mineurs à l ' échelle géographique , qui conserve la cohérence , mais ils sont immenses et structurants à l ' échelle des nouveaux quartiers de Boston .
Features :: Feature-Counts :: Feature-Lemmas
--------------------------------------------
marqueurs :: 1 :: [ immense ]
epistemique :: 1 :: [ immense ]
marqueurs_niveau2 :: 1 :: [ immense ]
epistemique_niveau2 :: 1 :: [ immense ]
Total feature counts: 4


********** Adverbiaux Temporels Features **********
********************************************************

1. Sentence: Ces derniers sont mineurs à l ' échelle géographique , qui conserve la cohérence , mais ils sont immenses et structurants à l ' échelle des nouveaux quartiers de Boston .
No features found.

