
********** Entity Names Features **********
*******************************************

1. Sentence: Les axes routiers actuels sont des axes radiaux la banlieue est en dépendance du centre
No features found.


********** Emotions Features **********
***************************************

1. Sentence: Les axes routiers actuels sont des axes radiaux la banlieue est en dépendance du centre
No features found.


********** Modality Features **********
***************************************

1. Sentence: Les axes routiers actuels sont des axes radiaux la banlieue est en dépendance du centre
No features found.


********** Adverbiaux Temporels Features **********
********************************************************

1. Sentence: Les axes routiers actuels sont des axes radiaux la banlieue est en dépendance du centre
No features found.

