
********** Entity Names Features **********
*******************************************

1. Sentence: S ' ensuivit , les 1er , 2 et 3 mai 1968 , un colloque à lire la ville et à élaborer des projets urbains .
Entity Name (Type) :: S (LOC)


********** Emotions Features **********
***************************************

1. Sentence: S ' ensuivit , les 1er , 2 et 3 mai 1968 , un colloque à lire la ville et à élaborer des projets urbains .
No features found.


********** Modality Features **********
***************************************

1. Sentence: S ' ensuivit , les 1er , 2 et 3 mai 1968 , un colloque à lire la ville et à élaborer des projets urbains .
Features :: Feature-Counts :: Feature-Lemmas
--------------------------------------------
marqueurs :: 1 :: [ lire ]
boulique :: 1 :: [ lire ]
marqueurs_niveau3 :: 1 :: [ lire ]
boulique_niveau3 :: 1 :: [ lire ]
Total feature counts: 4


********** Adverbiaux Temporels Features **********
********************************************************

1. Sentence: S ' ensuivit , les 1er , 2 et 3 mai 1968 , un colloque à lire la ville et à élaborer des projets urbains .
Features :: Feature-Counts :: Feature-Texts
--------------------------------------------
adverbiaux_temporels::1::['2 et 3 mai 1968']
adverbiaux_localisation_temporelle::1::['2 et 3 mai 1968']
adverbiaux_pointage_absolu::1::['2 et 3 mai 1968']
adverbiaux_loc_temp_focalisation_id::1::['2 et 3 mai 1968']
adverbiaux_loc_temp_regionalisation_id::1::['2 et 3 mai 1968']
adverbiaux_loc_temp_pointage_absolu::1::['2 et 3 mai 1968']

