====== Sentence Level Features ======

1. Sentence: * Note de la page 147	( 1) La S . N . C . F . exploite environ 970 kilomètres de lignes de banlieue .
Entity Name (Type) :: F (LOC)


====== Text Level Features ======

Entity Name (Entity Type)
-------------------------
( 1) La S (LOC)
F (LOC)
Total entitiy counts: 2

