====== Sentence Level Features ======

1. Sentence: Architecturbaniste Yves Lion
Entity Name (Type) :: Yves Lion (PER)


====== Text Level Features ======

Entity Name (Entity Type)
-------------------------
Yves Lion (PER)
Total entitiy counts: 1

