====== Sentence Level Features ======

1. Sentence: Mais je n ' ai pas besoin de casque pour visiter Paris .
Entity Name (Type) :: Paris (LOC)


====== Text Level Features ======

Entity Name (Entity Type)
-------------------------
Paris (LOC)
Total entitiy counts: 1

