====== Sentence Level Features ======

1. Sentence: Ce qui frappe d ' abord , c ' est le contraste entre la multiplicité des liaisons dans Paris intra-muros , et la pauvreté des relations de banlieue .
Features :: Feature-Counts :: Feature-Lemmas
--------------------------------------------
marqueurs :: 2 :: [ frapper, pauvreté ]
appreciatif :: 1 :: [ frapper ]
axiologique :: 1 :: [ frapper ]
pas_d_indication :: 1 :: [ pauvreté ]
marqueurs_niveau1 :: 1 :: [ frapper ]
marqueurs_niveau0 :: 1 :: [ pauvreté ]
appreciatif_niveau1 :: 1 :: [ frapper ]
axiologique_niveau1 :: 1 :: [ frapper ]
pas_d_indication_niveau0 :: 1 :: [ pauvreté ]
Total feature counts: 10


====== Text Level Features ======

Features :: Feature-Counts :: Feature-Lemmas
--------------------------------------------
marqueurs :: 2 :: [ frapper, pauvreté ]
appreciatif :: 1 :: [ frapper ]
axiologique :: 1 :: [ frapper ]
pas_d_indication :: 1 :: [ pauvreté ]
marqueurs_niveau1 :: 1 :: [ frapper ]
marqueurs_niveau0 :: 1 :: [ pauvreté ]
appreciatif_niveau1 :: 1 :: [ frapper ]
axiologique_niveau1 :: 1 :: [ frapper ]
pas_d_indication_niveau0 :: 1 :: [ pauvreté ]
Total feature counts: 10

