====== Sentence Level Features ======

1. Sentence: De notre fenêtre , ma famille et moi observons , avec une petite appréhension , puis partageons la liesse .
Features :: Feature-Counts :: Feature-Lemmas
--------------------------------------------
marqueurs :: 3 :: [ famille, lui, petit ]
alethique :: 2 :: [ famille, lui ]
epistemique :: 2 :: [ lui, petit ]
marqueurs_niveau3 :: 2 :: [ lui, petit ]
epistemique_niveau3 :: 2 :: [ lui, petit ]
marqueurs_niveau1 :: 1 :: [ famille ]
alethique_niveau3 :: 1 :: [ lui ]
alethique_niveau1 :: 1 :: [ famille ]
Total feature counts: 14


====== Text Level Features ======

Features :: Feature-Counts :: Feature-Lemmas
--------------------------------------------
marqueurs :: 3 :: [ famille, lui, petit ]
alethique :: 2 :: [ famille, lui ]
epistemique :: 2 :: [ lui, petit ]
marqueurs_niveau3 :: 2 :: [ lui, petit ]
epistemique_niveau3 :: 2 :: [ lui, petit ]
marqueurs_niveau1 :: 1 :: [ famille ]
alethique_niveau3 :: 1 :: [ lui ]
alethique_niveau1 :: 1 :: [ famille ]
Total feature counts: 14

