====== Sentence Level Features ======

1. Sentence: PARIS : L ' AGGLOMÉRATION EN 1965
Entity Name (Type) :: AGGLOMÉRATION (LOC)


====== Text Level Features ======

Entity Name (Entity Type)
-------------------------
PARIS (LOC)
AGGLOMÉRATION (LOC)
Total entitiy counts: 2

