
********** Entity Names Features **********
*******************************************

1. Sentence: Le parc Saint-Pierre a été pensé comme une centralité , mais son inspiration n ' était pas seulement urbaine .
Entity Name (Type) :: parc Saint-Pierre (LOC)


********** Emotions Features **********
***************************************

1. Sentence: Le parc Saint-Pierre a été pensé comme une centralité , mais son inspiration n ' était pas seulement urbaine .
No features found.


********** Modality Features **********
***************************************

1. Sentence: Le parc Saint-Pierre a été pensé comme une centralité , mais son inspiration n ' était pas seulement urbaine .
Features :: Feature-Counts :: Feature-Lemmas
--------------------------------------------
marqueurs :: 1 :: [ penser ]
epistemique :: 1 :: [ penser ]
marqueurs_niveau3 :: 1 :: [ penser ]
epistemique_niveau3 :: 1 :: [ penser ]
Total feature counts: 4


********** Adverbiaux Temporels Features **********
********************************************************

1. Sentence: Le parc Saint-Pierre a été pensé comme une centralité , mais son inspiration n ' était pas seulement urbaine .
No features found.

