
********** Entity Names Features **********
*******************************************

1. Sentence: A - Des centres urbains nouveaux
No features found.


********** Emotions Features **********
***************************************

1. Sentence: A - Des centres urbains nouveaux
No features found.


********** Modality Features **********
***************************************

1. Sentence: A - Des centres urbains nouveaux
No features found.


********** Adverbiaux Temporels Features **********
********************************************************

1. Sentence: A - Des centres urbains nouveaux
No features found.

