
********** Entity Names Features **********
*******************************************

1. Sentence: CHAPITRE IV : LES LOISIRS
Entity Name (Type) :: LES LOISIRS (ORG)


********** Emotions Features **********
***************************************

1. Sentence: CHAPITRE IV : LES LOISIRS
No features found.


********** Modality Features **********
***************************************

1. Sentence: CHAPITRE IV : LES LOISIRS
No features found.


********** Adverbiaux Temporels Features **********
********************************************************

1. Sentence: CHAPITRE IV : LES LOISIRS
No features found.

