
********** Entity Names Features **********
*******************************************

1. Sentence: – le goût de la surformalisation qui , sous couvert de modernisation ou d ' embellissement , a dénaturé un grand nombre de lieux simples qui ne demandaient qu ' un peu d ' intelligence .
No features found.


********** Emotions Features **********
***************************************

1. Sentence: – le goût de la surformalisation qui , sous couvert de modernisation ou d ' embellissement , a dénaturé un grand nombre de lieux simples qui ne demandaient qu ' un peu d ' intelligence .
No features found.


********** Modality Features **********
***************************************

1. Sentence: – le goût de la surformalisation qui , sous couvert de modernisation ou d ' embellissement , a dénaturé un grand nombre de lieux simples qui ne demandaient qu ' un peu d ' intelligence .
Features :: Feature-Counts :: Feature-Lemmas
--------------------------------------------
marqueurs :: 2 :: [ grand, demander ]
marqueurs_niveau3 :: 2 :: [ grand, demander ]
boulique :: 1 :: [ demander ]
epistemique :: 1 :: [ grand ]
boulique_niveau3 :: 1 :: [ demander ]
epistemique_niveau3 :: 1 :: [ grand ]
Total feature counts: 8


********** Adverbiaux Temporels Features **********
********************************************************

1. Sentence: – le goût de la surformalisation qui , sous couvert de modernisation ou d ' embellissement , a dénaturé un grand nombre de lieux simples qui ne demandaient qu ' un peu d ' intelligence .
No features found.

