
********** Entity Names Features **********
*******************************************

1. Sentence: * * * Au moment de conclure cette autobiographie scientifique , je me suis interrogée sur ce que j ' avais écrit , sur le type de document qui se profile ici .
No features found.


********** Emotions Features **********
***************************************

1. Sentence: * * * Au moment de conclure cette autobiographie scientifique , je me suis interrogée sur ce que j ' avais écrit , sur le type de document qui se profile ici .
No features found.


********** Modality Features **********
***************************************

1. Sentence: * * * Au moment de conclure cette autobiographie scientifique , je me suis interrogée sur ce que j ' avais écrit , sur le type de document qui se profile ici .
No features found.


********** Adverbiaux Temporels Features **********
********************************************************

1. Sentence: * * * Au moment de conclure cette autobiographie scientifique , je me suis interrogée sur ce que j ' avais écrit , sur le type de document qui se profile ici .
No features found.

