====== Sentence Level Features ======

1. Sentence: L ' industrie compte des entreprises dans la plupart des activités de transformation , comme le montre la répartition des emplois de l ' industrie en 1962 .
Features :: Feature-Counts :: Feature-Lemmas
--------------------------------------------
marqueurs :: 1 :: [ emploi ]
appreciatif :: 1 :: [ emploi ]
marqueurs_niveau2 :: 1 :: [ emploi ]
appreciatif_niveau2 :: 1 :: [ emploi ]
Total feature counts: 4


====== Text Level Features ======

Features :: Feature-Counts :: Feature-Lemmas
--------------------------------------------
marqueurs :: 1 :: [ emploi ]
appreciatif :: 1 :: [ emploi ]
marqueurs_niveau2 :: 1 :: [ emploi ]
appreciatif_niveau2 :: 1 :: [ emploi ]
Total feature counts: 4

