
********** Entity Names Features **********
*******************************************

1. Sentence: *	DONT " DEUX ROUES " 	TOTAL
Entity Name (Type) :: TOTAL (ORG)


********** Emotions Features **********
***************************************

1. Sentence: *	DONT " DEUX ROUES " 	TOTAL
No features found.


********** Modality Features **********
***************************************

1. Sentence: *	DONT " DEUX ROUES " 	TOTAL
No features found.


********** Adverbiaux Temporels Features **********
********************************************************

1. Sentence: *	DONT " DEUX ROUES " 	TOTAL
No features found.

