
********** Entity Names Features **********
*******************************************

1. Sentence: Les deux plus grandes agglomérations américaines , celles de New York et de Los Angeles , fournissent les exemples extrêmes .
Entity Name (Type) :: Los Angeles (LOC)


********** Emotions Features **********
***************************************

1. Sentence: Les deux plus grandes agglomérations américaines , celles de New York et de Los Angeles , fournissent les exemples extrêmes .
No features found.


********** Modality Features **********
***************************************

1. Sentence: Les deux plus grandes agglomérations américaines , celles de New York et de Los Angeles , fournissent les exemples extrêmes .
Features :: Feature-Counts :: Feature-Lemmas
--------------------------------------------
marqueurs :: 1 :: [ grand ]
epistemique :: 1 :: [ grand ]
marqueurs_niveau3 :: 1 :: [ grand ]
epistemique_niveau3 :: 1 :: [ grand ]
Total feature counts: 4


********** Adverbiaux Temporels Features **********
********************************************************

1. Sentence: Les deux plus grandes agglomérations américaines , celles de New York et de Los Angeles , fournissent les exemples extrêmes .
No features found.

