====== Sentence Level Features ======

1. Sentence: Ce sont les lieux de l ' industrie en mutation , situés principalement le long des grandes infrastructures .
Features :: Feature-Counts :: Feature-Lemmas
--------------------------------------------
marqueurs :: 2 :: [ long, grand ]
epistemique :: 2 :: [ long, grand ]
marqueurs_niveau3 :: 1 :: [ grand ]
marqueurs_niveau2 :: 1 :: [ long ]
epistemique_niveau3 :: 1 :: [ grand ]
epistemique_niveau2 :: 1 :: [ long ]
Total feature counts: 8


====== Text Level Features ======

Features :: Feature-Counts :: Feature-Lemmas
--------------------------------------------
marqueurs :: 2 :: [ long, grand ]
epistemique :: 2 :: [ long, grand ]
marqueurs_niveau3 :: 1 :: [ grand ]
marqueurs_niveau2 :: 1 :: [ long ]
epistemique_niveau3 :: 1 :: [ grand ]
epistemique_niveau2 :: 1 :: [ long ]
Total feature counts: 8

