====== Sentence Level Features ======

1. Sentence: Ce bassin portuaire joue un rôle premier pour le renouveau de la ville .
Entity Name (Type) :: Ce (LOC)


====== Text Level Features ======

Entity Name (Entity Type)
-------------------------
Ce (LOC)
Total entitiy counts: 1

