====== Sentence Level Features ======

1. Sentence: mais cette indemnité ne représente pas , comme en matière d ’ expropriation " le dommage actuel et certain causé par le fait même de l ’ éviction (décret-loi 8 Août 1935 , art . 41);
Features :: Feature-Counts :: Feature-Texts
--------------------------------------------
adverbiaux_temporels::1::['8 Août 1935']
adverbiaux_localisation_temporelle::1::['8 Août 1935']
adverbiaux_pointage_absolu::1::['8 Août 1935']
adverbiaux_loc_temp_focalisation_id::1::['8 Août 1935']
adverbiaux_loc_temp_regionalisation_id::1::['8 Août 1935']
adverbiaux_loc_temp_pointage_absolu::1::['8 Août 1935']


====== Text Level Features ======

Features :: Feature-Counts :: Feature-Texts
--------------------------------------------
adverbiaux_temporels::1::['8 Août 1935']
adverbiaux_localisation_temporelle::1::['8 Août 1935']
adverbiaux_pointage_absolu::1::['8 Août 1935']
adverbiaux_loc_temp_focalisation_id::1::['8 Août 1935']
adverbiaux_loc_temp_regionalisation_id::1::['8 Août 1935']
adverbiaux_loc_temp_pointage_absolu::1::['8 Août 1935']
Total feature counts: 6

