
********** Entity Names Features **********
*******************************************

1. Sentence: C ' est le mélange des genres : ville et sols de jardins , trottoirs où circulent les tondeuses de temps à autre et alors le « dur » s ' atténue , disparaît au regard , mais reste solide au pied .
Entity Name (Type) :: C (MISC)


********** Emotions Features **********
***************************************

1. Sentence: C ' est le mélange des genres : ville et sols de jardins , trottoirs où circulent les tondeuses de temps à autre et alors le « dur » s ' atténue , disparaît au regard , mais reste solide au pied .
No features found.


********** Modality Features **********
***************************************

1. Sentence: C ' est le mélange des genres : ville et sols de jardins , trottoirs où circulent les tondeuses de temps à autre et alors le « dur » s ' atténue , disparaît au regard , mais reste solide au pied .
Features :: Feature-Counts :: Feature-Lemmas
--------------------------------------------
marqueurs :: 1 :: [ dur ]
pas_d_indication :: 1 :: [ dur ]
marqueurs_niveau0 :: 1 :: [ dur ]
pas_d_indication_niveau0 :: 1 :: [ dur ]
Total feature counts: 4


********** Adverbiaux Temporels Features **********
********************************************************

1. Sentence: C ' est le mélange des genres : ville et sols de jardins , trottoirs où circulent les tondeuses de temps à autre et alors le « dur » s ' atténue , disparaît au regard , mais reste solide au pied .
No features found.

