
********** Entity Names Features **********
*******************************************

1. Sentence: Nous avons ainsi travaillé à Bergamo , Brescia , Prato , Pesaro et dans d ' autres villes plus petites , du nord au sud de l ' Italie avec des équipes montées sur place en y associant les équipes municipales .
Entity Name (Type) :: Italie (LOC)


********** Emotions Features **********
***************************************

1. Sentence: Nous avons ainsi travaillé à Bergamo , Brescia , Prato , Pesaro et dans d ' autres villes plus petites , du nord au sud de l ' Italie avec des équipes montées sur place en y associant les équipes municipales .
No features found.


********** Modality Features **********
***************************************

1. Sentence: Nous avons ainsi travaillé à Bergamo , Brescia , Prato , Pesaro et dans d ' autres villes plus petites , du nord au sud de l ' Italie avec des équipes montées sur place en y associant les équipes municipales .
Features :: Feature-Counts :: Feature-Lemmas
--------------------------------------------
marqueurs :: 2 :: [ travailler, petit ]
appreciatif :: 1 :: [ travailler ]
epistemique :: 1 :: [ petit ]
marqueurs_niveau3 :: 1 :: [ petit ]
marqueurs_niveau2 :: 1 :: [ travailler ]
appreciatif_niveau2 :: 1 :: [ travailler ]
epistemique_niveau3 :: 1 :: [ petit ]
Total feature counts: 8


********** Adverbiaux Temporels Features **********
********************************************************

1. Sentence: Nous avons ainsi travaillé à Bergamo , Brescia , Prato , Pesaro et dans d ' autres villes plus petites , du nord au sud de l ' Italie avec des équipes montées sur place en y associant les équipes municipales .
No features found.

