====== Sentence Level Features ======

1. Sentence: Au‑delà de ces questions de l ' agriculture et du vivant , bien d ' autres sujets touchant aux métabolismes urbains , à la gestion de l ' eau , de l ' énergie , de la mobilité , de l ' information invitent à penser différem‑ ment la transformation territoriale , architecturale et paysagère .
Features :: Feature-Counts :: Feature-Lemmas
--------------------------------------------
marqueurs :: 3 :: [ bien, penser, mentir ]
epistemique :: 2 :: [ penser, mentir ]
marqueurs_niveau3 :: 2 :: [ bien, penser ]
appreciatif :: 1 :: [ bien ]
axiologique :: 1 :: [ bien ]
marqueurs_niveau2 :: 1 :: [ mentir ]
appreciatif_niveau3 :: 1 :: [ bien ]
axiologique_niveau3 :: 1 :: [ bien ]
epistemique_niveau3 :: 1 :: [ penser ]
epistemique_niveau2 :: 1 :: [ mentir ]
Total feature counts: 14


====== Text Level Features ======

Features :: Feature-Counts :: Feature-Lemmas
--------------------------------------------
marqueurs :: 3 :: [ bien, penser, mentir ]
epistemique :: 2 :: [ penser, mentir ]
marqueurs_niveau3 :: 2 :: [ bien, penser ]
appreciatif :: 1 :: [ bien ]
axiologique :: 1 :: [ bien ]
marqueurs_niveau2 :: 1 :: [ mentir ]
appreciatif_niveau3 :: 1 :: [ bien ]
axiologique_niveau3 :: 1 :: [ bien ]
epistemique_niveau3 :: 1 :: [ penser ]
epistemique_niveau2 :: 1 :: [ mentir ]
Total feature counts: 14

