
********** Entity Names Features **********
*******************************************

1. Sentence: De manière générale , il faut favoriser la mobilisation des chercheurs comme experts , ce qui ne passe pas forcément par une commande de recherche .
No features found.


********** Emotions Features **********
***************************************

1. Sentence: De manière générale , il faut favoriser la mobilisation des chercheurs comme experts , ce qui ne passe pas forcément par une commande de recherche .
No features found.


********** Modality Features **********
***************************************

1. Sentence: De manière générale , il faut favoriser la mobilisation des chercheurs comme experts , ce qui ne passe pas forcément par une commande de recherche .
Features :: Feature-Counts :: Feature-Lemmas
--------------------------------------------
marqueurs :: 3 :: [ falloir, favoriser, forcément ]
alethique :: 1 :: [ forcément ]
appreciatif :: 1 :: [ favoriser ]
deontique :: 1 :: [ falloir ]
marqueurs_niveau3 :: 1 :: [ falloir ]
marqueurs_niveau2 :: 1 :: [ forcément ]
marqueurs_niveau1 :: 1 :: [ favoriser ]
alethique_niveau2 :: 1 :: [ forcément ]
appreciatif_niveau1 :: 1 :: [ favoriser ]
deontique_niveau3 :: 1 :: [ falloir ]
Total feature counts: 12


********** Adverbiaux Temporels Features **********
********************************************************

1. Sentence: De manière générale , il faut favoriser la mobilisation des chercheurs comme experts , ce qui ne passe pas forcément par une commande de recherche .
No features found.

