
********** Entity Names Features **********
*******************************************

1. Sentence: désormais était reconnue , pour être étudiée et aménagée , l ' unité de la région parisienne dans son ensemble .
No features found.


********** Emotions Features **********
***************************************

1. Sentence: désormais était reconnue , pour être étudiée et aménagée , l ' unité de la région parisienne dans son ensemble .
No features found.


********** Modality Features **********
***************************************

1. Sentence: désormais était reconnue , pour être étudiée et aménagée , l ' unité de la région parisienne dans son ensemble .
No features found.


********** Adverbiaux Temporels Features **********
********************************************************

1. Sentence: désormais était reconnue , pour être étudiée et aménagée , l ' unité de la région parisienne dans son ensemble .
Features :: Feature-Counts :: Feature-Texts
--------------------------------------------
adverbiaux_temporels::1::['désormais']
adverbiaux_duratifs_iteratifs::1::['désormais']

