
********** Entity Names Features **********
*******************************************

1. Sentence: Je me sens suffisamment à l ' aise pour picorer ici et là .
No features found.


********** Emotions Features **********
***************************************

1. Sentence: Je me sens suffisamment à l ' aise pour picorer ici et là .
No features found.


********** Modality Features **********
***************************************

1. Sentence: Je me sens suffisamment à l ' aise pour picorer ici et là .
Features :: Feature-Counts :: Feature-Lemmas
--------------------------------------------
marqueurs :: 2 :: [ suffisamment, aise ]
appreciatif :: 1 :: [ aise ]
pas_d_indication :: 1 :: [ suffisamment ]
marqueurs_niveau2 :: 1 :: [ aise ]
marqueurs_niveau0 :: 1 :: [ suffisamment ]
appreciatif_niveau2 :: 1 :: [ aise ]
pas_d_indication_niveau0 :: 1 :: [ suffisamment ]
Total feature counts: 8


********** Adverbiaux Temporels Features **********
********************************************************

1. Sentence: Je me sens suffisamment à l ' aise pour picorer ici et là .
No features found.

