====== Sentence Level Features ======

1. Sentence: Quant à la compacité , il faut bien reconnaître que nous avons , au moins en partie , perdu la bataille .
Features :: Feature-Counts :: Feature-Lemmas
--------------------------------------------
marqueurs :: 4 :: [ falloir, bien, perdre, bataille ]
appreciatif :: 2 :: [ bien, perdre ]
axiologique :: 2 :: [ bien, bataille ]
marqueurs_niveau3 :: 2 :: [ falloir, bien ]
marqueurs_niveau2 :: 2 :: [ perdre, bataille ]
deontique :: 1 :: [ falloir ]
appreciatif_niveau3 :: 1 :: [ bien ]
appreciatif_niveau2 :: 1 :: [ perdre ]
axiologique_niveau3 :: 1 :: [ bien ]
axiologique_niveau2 :: 1 :: [ bataille ]
deontique_niveau3 :: 1 :: [ falloir ]
Total feature counts: 18


====== Text Level Features ======

Features :: Feature-Counts :: Feature-Lemmas
--------------------------------------------
marqueurs :: 4 :: [ falloir, bien, perdre, bataille ]
appreciatif :: 2 :: [ bien, perdre ]
axiologique :: 2 :: [ bien, bataille ]
marqueurs_niveau3 :: 2 :: [ falloir, bien ]
marqueurs_niveau2 :: 2 :: [ perdre, bataille ]
deontique :: 1 :: [ falloir ]
appreciatif_niveau3 :: 1 :: [ bien ]
appreciatif_niveau2 :: 1 :: [ perdre ]
axiologique_niveau3 :: 1 :: [ bien ]
axiologique_niveau2 :: 1 :: [ bataille ]
deontique_niveau3 :: 1 :: [ falloir ]
Total feature counts: 18

