
********** Entity Names Features **********
*******************************************

1. Sentence: Mais Stains ne peut pas vivre sans des formes multiples de redistribution .
Entity Name (Type) :: Stains (LOC)


********** Emotions Features **********
***************************************

1. Sentence: Mais Stains ne peut pas vivre sans des formes multiples de redistribution .
No features found.


********** Modality Features **********
***************************************

1. Sentence: Mais Stains ne peut pas vivre sans des formes multiples de redistribution .
Features :: Feature-Counts :: Feature-Lemmas
--------------------------------------------
marqueurs :: 1 :: [ pouvoir ]
alethique :: 1 :: [ pouvoir ]
deontique :: 1 :: [ pouvoir ]
epistemique :: 1 :: [ pouvoir ]
marqueurs_niveau3 :: 1 :: [ pouvoir ]
alethique_niveau3 :: 1 :: [ pouvoir ]
deontique_niveau3 :: 1 :: [ pouvoir ]
epistemique_niveau3 :: 1 :: [ pouvoir ]
Total feature counts: 8


********** Adverbiaux Temporels Features **********
********************************************************

1. Sentence: Mais Stains ne peut pas vivre sans des formes multiples de redistribution .
No features found.

