
********** Entity Names Features **********
*******************************************

1. Sentence: Des quatre outils de fabrication de l ' espace public (assainissement , nivellement , revêtement , mobilier) , c ' est bien le nivellement qui est décisif .
No features found.


********** Emotions Features **********
***************************************

1. Sentence: Des quatre outils de fabrication de l ' espace public (assainissement , nivellement , revêtement , mobilier) , c ' est bien le nivellement qui est décisif .
No features found.


********** Modality Features **********
***************************************

1. Sentence: Des quatre outils de fabrication de l ' espace public (assainissement , nivellement , revêtement , mobilier) , c ' est bien le nivellement qui est décisif .
Features :: Feature-Counts :: Feature-Lemmas
--------------------------------------------
marqueurs :: 1 :: [ bien ]
appreciatif :: 1 :: [ bien ]
axiologique :: 1 :: [ bien ]
marqueurs_niveau3 :: 1 :: [ bien ]
appreciatif_niveau3 :: 1 :: [ bien ]
axiologique_niveau3 :: 1 :: [ bien ]
Total feature counts: 6


********** Adverbiaux Temporels Features **********
********************************************************

1. Sentence: Des quatre outils de fabrication de l ' espace public (assainissement , nivellement , revêtement , mobilier) , c ' est bien le nivellement qui est décisif .
No features found.

