====== Sentence Level Features ======

1. Sentence: Paris ne conservera son rôle de métropole européenne et mondiale que si la Ville sait relever le défi que lui lancent des villes concurrentes (1) .
Features :: Feature-Counts :: Feature-Lemmas
--------------------------------------------
marqueurs :: 2 :: [ savoir, lui ]
epistemique :: 2 :: [ savoir, lui ]
marqueurs_niveau3 :: 2 :: [ savoir, lui ]
epistemique_niveau3 :: 2 :: [ savoir, lui ]
alethique :: 1 :: [ lui ]
alethique_niveau3 :: 1 :: [ lui ]
Total feature counts: 10


====== Text Level Features ======

Features :: Feature-Counts :: Feature-Lemmas
--------------------------------------------
marqueurs :: 2 :: [ savoir, lui ]
epistemique :: 2 :: [ savoir, lui ]
marqueurs_niveau3 :: 2 :: [ savoir, lui ]
epistemique_niveau3 :: 2 :: [ savoir, lui ]
alethique :: 1 :: [ lui ]
alethique_niveau3 :: 1 :: [ lui ]
Total feature counts: 10

