
********** Entity Names Features **********
*******************************************

1. Sentence: Vous avez Rouen , Dreux , Chartres , Orléans , Montargis , Sens , Troyes , Noyon , Amiens qui tournent autour de Paris à une distance de 80 , et plus loin 180 kilomètres .
Entity Name (Type) :: Paris (LOC)


********** Emotions Features **********
***************************************

1. Sentence: Vous avez Rouen , Dreux , Chartres , Orléans , Montargis , Sens , Troyes , Noyon , Amiens qui tournent autour de Paris à une distance de 80 , et plus loin 180 kilomètres .
No features found.


********** Modality Features **********
***************************************

1. Sentence: Vous avez Rouen , Dreux , Chartres , Orléans , Montargis , Sens , Troyes , Noyon , Amiens qui tournent autour de Paris à une distance de 80 , et plus loin 180 kilomètres .
No features found.


********** Adverbiaux Temporels Features **********
********************************************************

1. Sentence: Vous avez Rouen , Dreux , Chartres , Orléans , Montargis , Sens , Troyes , Noyon , Amiens qui tournent autour de Paris à une distance de 80 , et plus loin 180 kilomètres .
No features found.

