
********** Entity Names Features **********
*******************************************

1. Sentence: Comprendre et exacerber ses qualités pour la rendre exemplaire .
No features found.


********** Emotions Features **********
***************************************

1. Sentence: Comprendre et exacerber ses qualités pour la rendre exemplaire .
No features found.


********** Modality Features **********
***************************************

1. Sentence: Comprendre et exacerber ses qualités pour la rendre exemplaire .
No features found.


********** Adverbiaux Temporels Features **********
********************************************************

1. Sentence: Comprendre et exacerber ses qualités pour la rendre exemplaire .
No features found.

