
********** Entity Names Features **********
*******************************************

1. Sentence: — valoriser le patrimoine lié à l ' eau , à la machine hydraulique du cadre de vie et proposer une nouvelle modernité ?
No features found.


********** Emotions Features **********
***************************************

1. Sentence: — valoriser le patrimoine lié à l ' eau , à la machine hydraulique du cadre de vie et proposer une nouvelle modernité ?
No features found.


********** Modality Features **********
***************************************

1. Sentence: — valoriser le patrimoine lié à l ' eau , à la machine hydraulique du cadre de vie et proposer une nouvelle modernité ?
No features found.


********** Adverbiaux Temporels Features **********
********************************************************

1. Sentence: — valoriser le patrimoine lié à l ' eau , à la machine hydraulique du cadre de vie et proposer une nouvelle modernité ?
No features found.

