====== Sentence Level Features ======

1. Sentence: J ' observe chez les jeunes , à tous niveaux , une grande attirance pour le « faire » .
Features :: Feature-Counts :: Feature-Lemmas
--------------------------------------------
marqueurs :: 2 :: [ jeune, grand ]
epistemique :: 1 :: [ grand ]
pas_d_indication :: 1 :: [ jeune ]
marqueurs_niveau3 :: 1 :: [ grand ]
marqueurs_niveau0 :: 1 :: [ jeune ]
epistemique_niveau3 :: 1 :: [ grand ]
pas_d_indication_niveau0 :: 1 :: [ jeune ]
Total feature counts: 8


====== Text Level Features ======

Features :: Feature-Counts :: Feature-Lemmas
--------------------------------------------
marqueurs :: 2 :: [ jeune, grand ]
epistemique :: 1 :: [ grand ]
pas_d_indication :: 1 :: [ jeune ]
marqueurs_niveau3 :: 1 :: [ grand ]
marqueurs_niveau0 :: 1 :: [ jeune ]
epistemique_niveau3 :: 1 :: [ grand ]
pas_d_indication_niveau0 :: 1 :: [ jeune ]
Total feature counts: 8

