
********** Entity Names Features **********
*******************************************

1. Sentence: Bâtiment et travaux publics 			2895	73 %
Entity Name (Type) :: Bâtiment (LOC)


********** Emotions Features **********
***************************************

1. Sentence: Bâtiment et travaux publics 			2895	73 %
No features found.


********** Modality Features **********
***************************************

1. Sentence: Bâtiment et travaux publics 			2895	73 %
Features :: Feature-Counts :: Feature-Lemmas
--------------------------------------------
marqueurs :: 1 :: [ travail ]
appreciatif :: 1 :: [ travail ]
marqueurs_niveau3 :: 1 :: [ travail ]
appreciatif_niveau3 :: 1 :: [ travail ]
Total feature counts: 4


********** Adverbiaux Temporels Features **********
********************************************************

1. Sentence: Bâtiment et travaux publics 			2895	73 %
No features found.

