
********** Entity Names Features **********
*******************************************

1. Sentence: J ' y voyais une expression publique forte et engagée de l ' après-dictature .
No features found.


********** Emotions Features **********
***************************************

1. Sentence: J ' y voyais une expression publique forte et engagée de l ' après-dictature .
Tokens having emotion: [ expression ]
Lemmas having emotion: [ expression ]
Categories of the emotion lemmas: [ non_specifiee ]


********** Modality Features **********
***************************************

1. Sentence: J ' y voyais une expression publique forte et engagée de l ' après-dictature .
Features :: Feature-Counts :: Feature-Lemmas
--------------------------------------------
marqueurs :: 1 :: [ fort ]
pas_d_indication :: 1 :: [ fort ]
marqueurs_niveau0 :: 1 :: [ fort ]
pas_d_indication_niveau0 :: 1 :: [ fort ]
Total feature counts: 4


********** Adverbiaux Temporels Features **********
********************************************************

1. Sentence: J ' y voyais une expression publique forte et engagée de l ' après-dictature .
No features found.

