
********** Entity Names Features **********
*******************************************

1. Sentence: Ce sable compacté , tel le sol durci d ' un polder , est débarrassé de tout motif décoratif .
Entity Name (Type) :: Ce (LOC)


********** Emotions Features **********
***************************************

1. Sentence: Ce sable compacté , tel le sol durci d ' un polder , est débarrassé de tout motif décoratif .
No features found.


********** Modality Features **********
***************************************

1. Sentence: Ce sable compacté , tel le sol durci d ' un polder , est débarrassé de tout motif décoratif .
No features found.


********** Adverbiaux Temporels Features **********
********************************************************

1. Sentence: Ce sable compacté , tel le sol durci d ' un polder , est débarrassé de tout motif décoratif .
No features found.

