====== Sentence Level Features ======

1. Sentence: C ' est le fond de toutes les critiques - pour celles qui ne sont pas injustes à l ' égard des grands ensembles .
Features :: Feature-Counts :: Feature-Lemmas
--------------------------------------------
marqueurs :: 2 :: [ injuste, grand ]
marqueurs_niveau3 :: 2 :: [ injuste, grand ]
axiologique :: 1 :: [ injuste ]
epistemique :: 1 :: [ grand ]
axiologique_niveau3 :: 1 :: [ injuste ]
epistemique_niveau3 :: 1 :: [ grand ]
Total feature counts: 8


====== Text Level Features ======

Features :: Feature-Counts :: Feature-Lemmas
--------------------------------------------
marqueurs :: 2 :: [ injuste, grand ]
marqueurs_niveau3 :: 2 :: [ injuste, grand ]
axiologique :: 1 :: [ injuste ]
epistemique :: 1 :: [ grand ]
axiologique_niveau3 :: 1 :: [ injuste ]
epistemique_niveau3 :: 1 :: [ grand ]
Total feature counts: 8

