====== Sentence Level Features ======

1. Sentence: De plus , alors qu ' il serait vain de traiter de moyens juridiques ou financiers à trente ou quarante ans de distance , il n ' en est pas de même pour une période de dix années .
Features :: Feature-Counts :: Feature-Lemmas
--------------------------------------------
marqueurs :: 1 :: [ traiter ]
pas_d_indication :: 1 :: [ traiter ]
marqueurs_niveau0 :: 1 :: [ traiter ]
pas_d_indication_niveau0 :: 1 :: [ traiter ]
Total feature counts: 4


====== Text Level Features ======

Features :: Feature-Counts :: Feature-Lemmas
--------------------------------------------
marqueurs :: 1 :: [ traiter ]
pas_d_indication :: 1 :: [ traiter ]
marqueurs_niveau0 :: 1 :: [ traiter ]
pas_d_indication_niveau0 :: 1 :: [ traiter ]
Total feature counts: 4

