====== Sentence Level Features ======

1. Sentence: Les applications récentes de la loi de 1919-1924 ont mis en évidence certaines dispositions défavorables , tantôt aux propriétaires , tantôt à la collectivité .
Features :: Feature-Counts :: Feature-Texts
--------------------------------------------
adverbiaux_temporels::1::['de 1919_1924']
adverbiaux_localisation_temporelle::1::['de 1919_1924']
adverbiaux_pointage_absolu::1::['de 1919_1924']
adverbiaux_loc_temp_focalisation_id::1::['de 1919_1924']
adverbiaux_loc_temp_regionalisation_id::1::['de 1919_1924']
adverbiaux_loc_temp_pointage_absolu::1::['de 1919_1924']


====== Text Level Features ======

Features :: Feature-Counts :: Feature-Texts
--------------------------------------------
adverbiaux_temporels::1::['de 1919_1924']
adverbiaux_localisation_temporelle::1::['de 1919_1924']
adverbiaux_pointage_absolu::1::['de 1919_1924']
adverbiaux_loc_temp_focalisation_id::1::['de 1919_1924']
adverbiaux_loc_temp_regionalisation_id::1::['de 1919_1924']
adverbiaux_loc_temp_pointage_absolu::1::['de 1919_1924']
Total feature counts: 6

