
********** Entity Names Features **********
*******************************************

1. Sentence: Maîtrise d ' œuvre urbaine et maîtrise d ' œuvre des espaces publics : Atelier Ruelle mandataire , SEITT (BET VRD) .
Entity Name (Type) :: BET VRD (ORG)


********** Emotions Features **********
***************************************

1. Sentence: Maîtrise d ' œuvre urbaine et maîtrise d ' œuvre des espaces publics : Atelier Ruelle mandataire , SEITT (BET VRD) .
No features found.


********** Modality Features **********
***************************************

1. Sentence: Maîtrise d ' œuvre urbaine et maîtrise d ' œuvre des espaces publics : Atelier Ruelle mandataire , SEITT (BET VRD) .
No features found.


********** Adverbiaux Temporels Features **********
********************************************************

1. Sentence: Maîtrise d ' œuvre urbaine et maîtrise d ' œuvre des espaces publics : Atelier Ruelle mandataire , SEITT (BET VRD) .
No features found.

