====== Sentence Level Features ======

1. Sentence: Le Présent Projet est exposé conformément à la Loi du 14 Mai 1933 par un Plan général et un Programme de Servitudes , complété par des documents annexes .
Features :: Feature-Counts :: Feature-Texts
--------------------------------------------
adverbiaux_temporels::1::['du 14 Mai 1933']
adverbiaux_localisation_temporelle::1::['du 14 Mai 1933']
adverbiaux_pointage_absolu::1::['du 14 Mai 1933']
adverbiaux_loc_temp_focalisation_id::1::['du 14 Mai 1933']
adverbiaux_loc_temp_regionalisation_id::1::['du 14 Mai 1933']
adverbiaux_loc_temp_pointage_absolu::1::['du 14 Mai 1933']


====== Text Level Features ======

Features :: Feature-Counts :: Feature-Texts
--------------------------------------------
adverbiaux_temporels::1::['du 14 Mai 1933']
adverbiaux_localisation_temporelle::1::['du 14 Mai 1933']
adverbiaux_pointage_absolu::1::['du 14 Mai 1933']
adverbiaux_loc_temp_focalisation_id::1::['du 14 Mai 1933']
adverbiaux_loc_temp_regionalisation_id::1::['du 14 Mai 1933']
adverbiaux_loc_temp_pointage_absolu::1::['du 14 Mai 1933']
Total feature counts: 6

