
********** Entity Names Features **********
*******************************************

1. Sentence: Les résultats des dernières élections désignent bien la géographie de ces territoires désespérants .
No features found.


********** Emotions Features **********
***************************************

1. Sentence: Les résultats des dernières élections désignent bien la géographie de ces territoires désespérants .
Tokens having emotion: [ désespérants ]
Lemmas having emotion: [ désespérant ]
Categories of the emotion lemmas: [ tristesse ]


********** Modality Features **********
***************************************

1. Sentence: Les résultats des dernières élections désignent bien la géographie de ces territoires désespérants .
Features :: Feature-Counts :: Feature-Lemmas
--------------------------------------------
marqueurs :: 1 :: [ bien ]
appreciatif :: 1 :: [ bien ]
axiologique :: 1 :: [ bien ]
marqueurs_niveau3 :: 1 :: [ bien ]
appreciatif_niveau3 :: 1 :: [ bien ]
axiologique_niveau3 :: 1 :: [ bien ]
Total feature counts: 6


********** Adverbiaux Temporels Features **********
********************************************************

1. Sentence: Les résultats des dernières élections désignent bien la géographie de ces territoires désespérants .
No features found.

