
********** Entity Names Features **********
*******************************************

1. Sentence: Industrie du verre 				14 , 9	25 , 3 %
No features found.


********** Emotions Features **********
***************************************

1. Sentence: Industrie du verre 				14 , 9	25 , 3 %
No features found.


********** Modality Features **********
***************************************

1. Sentence: Industrie du verre 				14 , 9	25 , 3 %
No features found.


********** Adverbiaux Temporels Features **********
********************************************************

1. Sentence: Industrie du verre 				14 , 9	25 , 3 %
No features found.

