====== Sentence Level Features ======

1. Sentence: Cette structure paysagère accueillera des «parcs-campus» .
Entity Name (Type) :: Cette (LOC)


====== Text Level Features ======

Entity Name (Entity Type)
-------------------------
Cette (LOC)
Total entitiy counts: 1

