====== Sentence Level Features ======

1. Sentence: La qualité des sites qui demeure encore la principale valeur de la zone et de son environnement est mise en péril et doit être impérativement sauvegardée .
Features :: Feature-Counts :: Feature-Lemmas
--------------------------------------------
marqueurs :: 3 :: [ péril, devoir, impérativement ]
deontique :: 2 :: [ devoir, impérativement ]
marqueurs_niveau3 :: 2 :: [ devoir, impérativement ]
deontique_niveau3 :: 2 :: [ devoir, impérativement ]
alethique :: 1 :: [ devoir ]
appreciatif :: 1 :: [ péril ]
epistemique :: 1 :: [ devoir ]
marqueurs_niveau2 :: 1 :: [ péril ]
alethique_niveau3 :: 1 :: [ devoir ]
appreciatif_niveau2 :: 1 :: [ péril ]
epistemique_niveau3 :: 1 :: [ devoir ]
Total feature counts: 16


====== Text Level Features ======

Features :: Feature-Counts :: Feature-Lemmas
--------------------------------------------
marqueurs :: 3 :: [ péril, devoir, impérativement ]
deontique :: 2 :: [ devoir, impérativement ]
marqueurs_niveau3 :: 2 :: [ devoir, impérativement ]
deontique_niveau3 :: 2 :: [ devoir, impérativement ]
alethique :: 1 :: [ devoir ]
appreciatif :: 1 :: [ péril ]
epistemique :: 1 :: [ devoir ]
marqueurs_niveau2 :: 1 :: [ péril ]
alethique_niveau3 :: 1 :: [ devoir ]
appreciatif_niveau2 :: 1 :: [ péril ]
epistemique_niveau3 :: 1 :: [ devoir ]
Total feature counts: 16

