
********** Entity Names Features **********
*******************************************

1. Sentence: 000 , III - Description du parti d ' aménagement , A - Le choix des axes .
No features found.


********** Emotions Features **********
***************************************

1. Sentence: 000 , III - Description du parti d ' aménagement , A - Le choix des axes .
No features found.


********** Modality Features **********
***************************************

1. Sentence: 000 , III - Description du parti d ' aménagement , A - Le choix des axes .
Features :: Feature-Counts :: Feature-Lemmas
--------------------------------------------
marqueurs :: 1 :: [ choix ]
boulique :: 1 :: [ choix ]
marqueurs_niveau2 :: 1 :: [ choix ]
boulique_niveau2 :: 1 :: [ choix ]
Total feature counts: 4


********** Adverbiaux Temporels Features **********
********************************************************

1. Sentence: 000 , III - Description du parti d ' aménagement , A - Le choix des axes .
No features found.

