
********** Entity Names Features **********
*******************************************

1. Sentence: Pour l ' observateur , le présent réunit le résultat instantané , pétrifié , d ' une histoire urbaine , ainsi que ses possibles , ses attentes .
No features found.


********** Emotions Features **********
***************************************

1. Sentence: Pour l ' observateur , le présent réunit le résultat instantané , pétrifié , d ' une histoire urbaine , ainsi que ses possibles , ses attentes .
No features found.


********** Modality Features **********
***************************************

1. Sentence: Pour l ' observateur , le présent réunit le résultat instantané , pétrifié , d ' une histoire urbaine , ainsi que ses possibles , ses attentes .
Features :: Feature-Counts :: Feature-Lemmas
--------------------------------------------
marqueurs :: 1 :: [ possible ]
alethique :: 1 :: [ possible ]
marqueurs_niveau3 :: 1 :: [ possible ]
alethique_niveau3 :: 1 :: [ possible ]
Total feature counts: 4


********** Adverbiaux Temporels Features **********
********************************************************

1. Sentence: Pour l ' observateur , le présent réunit le résultat instantané , pétrifié , d ' une histoire urbaine , ainsi que ses possibles , ses attentes .
No features found.

