
********** Entity Names Features **********
*******************************************

1. Sentence: C ' est complémentaire , et c ' est ridicule de jouer l ' opposition là où il n ' y a que des complémentarités .
No features found.


********** Emotions Features **********
***************************************

1. Sentence: C ' est complémentaire , et c ' est ridicule de jouer l ' opposition là où il n ' y a que des complémentarités .
No features found.


********** Modality Features **********
***************************************

1. Sentence: C ' est complémentaire , et c ' est ridicule de jouer l ' opposition là où il n ' y a que des complémentarités .
Features :: Feature-Counts :: Feature-Lemmas
--------------------------------------------
marqueurs :: 2 :: [ ridicule, jouer ]
marqueurs_niveau2 :: 2 :: [ ridicule, jouer ]
appreciatif :: 1 :: [ jouer ]
boulique :: 1 :: [ ridicule ]
appreciatif_niveau2 :: 1 :: [ jouer ]
boulique_niveau2 :: 1 :: [ ridicule ]
Total feature counts: 8


********** Adverbiaux Temporels Features **********
********************************************************

1. Sentence: C ' est complémentaire , et c ' est ridicule de jouer l ' opposition là où il n ' y a que des complémentarités .
No features found.

