
********** Entity Names Features **********
*******************************************

1. Sentence: De grandes opérations doivent donc être lancées en lien avec les transports .
No features found.


********** Emotions Features **********
***************************************

1. Sentence: De grandes opérations doivent donc être lancées en lien avec les transports .
No features found.


********** Modality Features **********
***************************************

1. Sentence: De grandes opérations doivent donc être lancées en lien avec les transports .
Features :: Feature-Counts :: Feature-Lemmas
--------------------------------------------
marqueurs :: 2 :: [ grand, devoir ]
epistemique :: 2 :: [ grand, devoir ]
marqueurs_niveau3 :: 2 :: [ grand, devoir ]
epistemique_niveau3 :: 2 :: [ grand, devoir ]
alethique :: 1 :: [ devoir ]
deontique :: 1 :: [ devoir ]
alethique_niveau3 :: 1 :: [ devoir ]
deontique_niveau3 :: 1 :: [ devoir ]
Total feature counts: 12


********** Adverbiaux Temporels Features **********
********************************************************

1. Sentence: De grandes opérations doivent donc être lancées en lien avec les transports .
No features found.

