====== Sentence Level Features ======

1. Sentence: L ' hypo thèse propoJ ' ai , à cette époque , à l ' occasion de projets de bâtiments , fait deux études , porte d ' Italie et porte de Saint-Cloud , pour tenter de démontrer qu ' il était possible de passer indifféremment du centre à la périphérie .
Features :: Feature-Counts :: Feature-Lemmas
--------------------------------------------
marqueurs :: 2 :: [ tenter, possible ]
alethique :: 1 :: [ possible ]
boulique :: 1 :: [ tenter ]
marqueurs_niveau3 :: 1 :: [ possible ]
marqueurs_niveau2 :: 1 :: [ tenter ]
alethique_niveau3 :: 1 :: [ possible ]
boulique_niveau2 :: 1 :: [ tenter ]
Total feature counts: 8


====== Text Level Features ======

Features :: Feature-Counts :: Feature-Lemmas
--------------------------------------------
marqueurs :: 2 :: [ tenter, possible ]
alethique :: 1 :: [ possible ]
boulique :: 1 :: [ tenter ]
marqueurs_niveau3 :: 1 :: [ possible ]
marqueurs_niveau2 :: 1 :: [ tenter ]
alethique_niveau3 :: 1 :: [ possible ]
boulique_niveau2 :: 1 :: [ tenter ]
Total feature counts: 8

