
********** Entity Names Features **********
*******************************************

1. Sentence: Si les pouvoirs publics ont été conduits à autoriser la construction de logements dans ces zones , c ' est parce qu ' ils n ' étaient pas à même en temps voulu , notamment en raison de la lenteur de l ' aménagement des 5 .
Entity Name (Type) :: Si (MISC)


********** Emotions Features **********
***************************************

1. Sentence: Si les pouvoirs publics ont été conduits à autoriser la construction de logements dans ces zones , c ' est parce qu ' ils n ' étaient pas à même en temps voulu , notamment en raison de la lenteur de l ' aménagement des 5 .
No features found.


********** Modality Features **********
***************************************

1. Sentence: Si les pouvoirs publics ont été conduits à autoriser la construction de logements dans ces zones , c ' est parce qu ' ils n ' étaient pas à même en temps voulu , notamment en raison de la lenteur de l ' aménagement des 5 .
Features :: Feature-Counts :: Feature-Lemmas
--------------------------------------------
marqueurs :: 2 :: [ pouvoir, vouloir ]
marqueurs_niveau3 :: 2 :: [ pouvoir, vouloir ]
alethique :: 1 :: [ pouvoir ]
boulique :: 1 :: [ vouloir ]
deontique :: 1 :: [ pouvoir ]
epistemique :: 1 :: [ pouvoir ]
alethique_niveau3 :: 1 :: [ pouvoir ]
boulique_niveau3 :: 1 :: [ vouloir ]
deontique_niveau3 :: 1 :: [ pouvoir ]
epistemique_niveau3 :: 1 :: [ pouvoir ]
Total feature counts: 12


********** Adverbiaux Temporels Features **********
********************************************************

1. Sentence: Si les pouvoirs publics ont été conduits à autoriser la construction de logements dans ces zones , c ' est parce qu ' ils n ' étaient pas à même en temps voulu , notamment en raison de la lenteur de l ' aménagement des 5 .
No features found.

