
********** Entity Names Features **********
*******************************************

1. Sentence: 2 , 5 %	Toulouse	289 . 000	35 7 .
Entity Name (Type) :: Toulouse (LOC)


********** Emotions Features **********
***************************************

1. Sentence: 2 , 5 %	Toulouse	289 . 000	35 7 .
No features found.


********** Modality Features **********
***************************************

1. Sentence: 2 , 5 %	Toulouse	289 . 000	35 7 .
No features found.


********** Adverbiaux Temporels Features **********
********************************************************

1. Sentence: 2 , 5 %	Toulouse	289 . 000	35 7 .
No features found.

