
********** Entity Names Features **********
*******************************************

1. Sentence: Cela ne soustrait rien au contenu de l ' étude mais explique pourquoi le chemin vers le projet n ' était pas tracé .
No features found.


********** Emotions Features **********
***************************************

1. Sentence: Cela ne soustrait rien au contenu de l ' étude mais explique pourquoi le chemin vers le projet n ' était pas tracé .
No features found.


********** Modality Features **********
***************************************

1. Sentence: Cela ne soustrait rien au contenu de l ' étude mais explique pourquoi le chemin vers le projet n ' était pas tracé .
Features :: Feature-Counts :: Feature-Lemmas
--------------------------------------------
marqueurs :: 1 :: [ rien ]
alethique :: 1 :: [ rien ]
marqueurs_niveau2 :: 1 :: [ rien ]
alethique_niveau2 :: 1 :: [ rien ]
Total feature counts: 4


********** Adverbiaux Temporels Features **********
********************************************************

1. Sentence: Cela ne soustrait rien au contenu de l ' étude mais explique pourquoi le chemin vers le projet n ' était pas tracé .
No features found.

