====== Sentence Level Features ======

1. Sentence: J ' avoue en être assez troublé .
Features :: Feature-Counts :: Feature-Lemmas
--------------------------------------------
marqueurs :: 2 :: [ avouer, troubler ]
appreciatif :: 1 :: [ troubler ]
axiologique :: 1 :: [ troubler ]
pas_d_indication :: 1 :: [ avouer ]
marqueurs_niveau1 :: 1 :: [ troubler ]
marqueurs_niveau0 :: 1 :: [ avouer ]
appreciatif_niveau1 :: 1 :: [ troubler ]
axiologique_niveau1 :: 1 :: [ troubler ]
pas_d_indication_niveau0 :: 1 :: [ avouer ]
Total feature counts: 10


====== Text Level Features ======

Features :: Feature-Counts :: Feature-Lemmas
--------------------------------------------
marqueurs :: 2 :: [ avouer, troubler ]
appreciatif :: 1 :: [ troubler ]
axiologique :: 1 :: [ troubler ]
pas_d_indication :: 1 :: [ avouer ]
marqueurs_niveau1 :: 1 :: [ troubler ]
marqueurs_niveau0 :: 1 :: [ avouer ]
appreciatif_niveau1 :: 1 :: [ troubler ]
axiologique_niveau1 :: 1 :: [ troubler ]
pas_d_indication_niveau0 :: 1 :: [ avouer ]
Total feature counts: 10

