====== Sentence Level Features ======

1. Sentence: Ma version de la «French grandeur» dont nous n ' avons jamais reparlé depuis .
Features :: Feature-Counts :: Feature-Lemmas
--------------------------------------------
marqueurs :: 1 :: [ jamais ]
alethique :: 1 :: [ jamais ]
marqueurs_niveau3 :: 1 :: [ jamais ]
alethique_niveau3 :: 1 :: [ jamais ]
Total feature counts: 4


====== Text Level Features ======

Features :: Feature-Counts :: Feature-Lemmas
--------------------------------------------
marqueurs :: 1 :: [ jamais ]
alethique :: 1 :: [ jamais ]
marqueurs_niveau3 :: 1 :: [ jamais ]
alethique_niveau3 :: 1 :: [ jamais ]
Total feature counts: 4

