
********** Entity Names Features **********
*******************************************

1. Sentence: Et c ' est en réalité cette piste ouverte par Le Corbusier que l ' OMA de Rem Koolhaas explore dans ses congestions de pôles multimodaux de transports .
Entity Name (Type) :: Rem Koolhaas (PER)


********** Emotions Features **********
***************************************

1. Sentence: Et c ' est en réalité cette piste ouverte par Le Corbusier que l ' OMA de Rem Koolhaas explore dans ses congestions de pôles multimodaux de transports .
No features found.


********** Modality Features **********
***************************************

1. Sentence: Et c ' est en réalité cette piste ouverte par Le Corbusier que l ' OMA de Rem Koolhaas explore dans ses congestions de pôles multimodaux de transports .
Features :: Feature-Counts :: Feature-Lemmas
--------------------------------------------
marqueurs :: 2 :: [ réalité, ouvrir ]
alethique :: 1 :: [ réalité ]
boulique :: 1 :: [ ouvrir ]
marqueurs_niveau3 :: 1 :: [ ouvrir ]
marqueurs_niveau1 :: 1 :: [ réalité ]
alethique_niveau1 :: 1 :: [ réalité ]
boulique_niveau3 :: 1 :: [ ouvrir ]
Total feature counts: 8


********** Adverbiaux Temporels Features **********
********************************************************

1. Sentence: Et c ' est en réalité cette piste ouverte par Le Corbusier que l ' OMA de Rem Koolhaas explore dans ses congestions de pôles multimodaux de transports .
No features found.

