
********** Entity Names Features **********
*******************************************

1. Sentence: entre Caroline , Djamel et Eymeric de Montauzon au DEA Territoires urbains de l ' EHESS dirigé par Marcel Roncayolo ;
Entity Name (Type) :: Marcel Roncayolo (PER)


********** Emotions Features **********
***************************************

1. Sentence: entre Caroline , Djamel et Eymeric de Montauzon au DEA Territoires urbains de l ' EHESS dirigé par Marcel Roncayolo ;
No features found.


********** Modality Features **********
***************************************

1. Sentence: entre Caroline , Djamel et Eymeric de Montauzon au DEA Territoires urbains de l ' EHESS dirigé par Marcel Roncayolo ;
No features found.


********** Adverbiaux Temporels Features **********
********************************************************

1. Sentence: entre Caroline , Djamel et Eymeric de Montauzon au DEA Territoires urbains de l ' EHESS dirigé par Marcel Roncayolo ;
No features found.

