
********** Entity Names Features **********
*******************************************

1. Sentence: Mais la filière est à risque , du point de vue de l ' emploi .
No features found.


********** Emotions Features **********
***************************************

1. Sentence: Mais la filière est à risque , du point de vue de l ' emploi .
No features found.


********** Modality Features **********
***************************************

1. Sentence: Mais la filière est à risque , du point de vue de l ' emploi .
Features :: Feature-Counts :: Feature-Lemmas
--------------------------------------------
marqueurs :: 1 :: [ emploi ]
appreciatif :: 1 :: [ emploi ]
marqueurs_niveau2 :: 1 :: [ emploi ]
appreciatif_niveau2 :: 1 :: [ emploi ]
Total feature counts: 4


********** Adverbiaux Temporels Features **********
********************************************************

1. Sentence: Mais la filière est à risque , du point de vue de l ' emploi .
No features found.

