====== Sentence Level Features ======

1. Sentence: De la même façon , au XVIIIe siècle , le Cours Mirabeau avait permis de déployer un nouveau territoire le long de la ville médiévale .
Features :: Feature-Counts :: Feature-Lemmas
--------------------------------------------
marqueurs :: 2 :: [ permettre, long ]
deontique :: 1 :: [ permettre ]
epistemique :: 1 :: [ long ]
marqueurs_niveau3 :: 1 :: [ permettre ]
marqueurs_niveau2 :: 1 :: [ long ]
deontique_niveau3 :: 1 :: [ permettre ]
epistemique_niveau2 :: 1 :: [ long ]
Total feature counts: 8


====== Text Level Features ======

Features :: Feature-Counts :: Feature-Lemmas
--------------------------------------------
marqueurs :: 2 :: [ permettre, long ]
deontique :: 1 :: [ permettre ]
epistemique :: 1 :: [ long ]
marqueurs_niveau3 :: 1 :: [ permettre ]
marqueurs_niveau2 :: 1 :: [ long ]
deontique_niveau3 :: 1 :: [ permettre ]
epistemique_niveau2 :: 1 :: [ long ]
Total feature counts: 8

