
********** Entity Names Features **********
*******************************************

1. Sentence: Énergie grise (embodied energy)
Entity Name (Type) :: Énergie grise (ORG)


********** Emotions Features **********
***************************************

1. Sentence: Énergie grise (embodied energy)
No features found.


********** Modality Features **********
***************************************

1. Sentence: Énergie grise (embodied energy)
No features found.


********** Adverbiaux Temporels Features **********
********************************************************

1. Sentence: Énergie grise (embodied energy)
No features found.

