
********** Entity Names Features **********
*******************************************

1. Sentence: en outre , qu ’ elles salissent le ciel d ’ un des plus beaux paysages de la banlieue parisienne vue de Meudon ou de Bellevue .
Entity Name (Type) :: Bellevue (LOC)


********** Emotions Features **********
***************************************

1. Sentence: en outre , qu ’ elles salissent le ciel d ’ un des plus beaux paysages de la banlieue parisienne vue de Meudon ou de Bellevue .
No features found.


********** Modality Features **********
***************************************

1. Sentence: en outre , qu ’ elles salissent le ciel d ’ un des plus beaux paysages de la banlieue parisienne vue de Meudon ou de Bellevue .
Features :: Feature-Counts :: Feature-Lemmas
--------------------------------------------
marqueurs :: 1 :: [ beau ]
appreciatif :: 1 :: [ beau ]
marqueurs_niveau3 :: 1 :: [ beau ]
appreciatif_niveau3 :: 1 :: [ beau ]
Total feature counts: 4


********** Adverbiaux Temporels Features **********
********************************************************

1. Sentence: en outre , qu ’ elles salissent le ciel d ’ un des plus beaux paysages de la banlieue parisienne vue de Meudon ou de Bellevue .
No features found.

