====== Sentence Level Features ======

1. Sentence: Il me semble que la ville de Breda , aux PaysBas , en a démontré la volonté .
Features :: Feature-Counts :: Feature-Lemmas
--------------------------------------------
marqueurs :: 2 :: [ sembler, volonté ]
marqueurs_niveau3 :: 2 :: [ sembler, volonté ]
boulique :: 1 :: [ volonté ]
epistemique :: 1 :: [ sembler ]
boulique_niveau3 :: 1 :: [ volonté ]
epistemique_niveau3 :: 1 :: [ sembler ]
Total feature counts: 8


====== Text Level Features ======

Features :: Feature-Counts :: Feature-Lemmas
--------------------------------------------
marqueurs :: 2 :: [ sembler, volonté ]
marqueurs_niveau3 :: 2 :: [ sembler, volonté ]
boulique :: 1 :: [ volonté ]
epistemique :: 1 :: [ sembler ]
boulique_niveau3 :: 1 :: [ volonté ]
epistemique_niveau3 :: 1 :: [ sembler ]
Total feature counts: 8

