
********** Entity Names Features **********
*******************************************

1. Sentence: Elle devrait être considérablement renforcée .
No features found.


********** Emotions Features **********
***************************************

1. Sentence: Elle devrait être considérablement renforcée .
No features found.


********** Modality Features **********
***************************************

1. Sentence: Elle devrait être considérablement renforcée .
Features :: Feature-Counts :: Feature-Lemmas
--------------------------------------------
marqueurs :: 1 :: [ devoir ]
alethique :: 1 :: [ devoir ]
deontique :: 1 :: [ devoir ]
epistemique :: 1 :: [ devoir ]
marqueurs_niveau3 :: 1 :: [ devoir ]
alethique_niveau3 :: 1 :: [ devoir ]
deontique_niveau3 :: 1 :: [ devoir ]
epistemique_niveau3 :: 1 :: [ devoir ]
Total feature counts: 8


********** Adverbiaux Temporels Features **********
********************************************************

1. Sentence: Elle devrait être considérablement renforcée .
No features found.

