
********** Entity Names Features **********
*******************************************

1. Sentence: Les métropoles sont un atout pour tout le pays .
No features found.


********** Emotions Features **********
***************************************

1. Sentence: Les métropoles sont un atout pour tout le pays .
No features found.


********** Modality Features **********
***************************************

1. Sentence: Les métropoles sont un atout pour tout le pays .
No features found.


********** Adverbiaux Temporels Features **********
********************************************************

1. Sentence: Les métropoles sont un atout pour tout le pays .
No features found.

