
********** Entity Names Features **********
*******************************************

1. Sentence: C ' est l ' occasion pour la ville d ' Angers de renouer avec la rivière et d ' établir un dialogue entre les deux rives .
Entity Name (Type) :: Angers (LOC)


********** Emotions Features **********
***************************************

1. Sentence: C ' est l ' occasion pour la ville d ' Angers de renouer avec la rivière et d ' établir un dialogue entre les deux rives .
No features found.


********** Modality Features **********
***************************************

1. Sentence: C ' est l ' occasion pour la ville d ' Angers de renouer avec la rivière et d ' établir un dialogue entre les deux rives .
No features found.


********** Adverbiaux Temporels Features **********
********************************************************

1. Sentence: C ' est l ' occasion pour la ville d ' Angers de renouer avec la rivière et d ' établir un dialogue entre les deux rives .
No features found.

