====== Sentence Level Features ======

1. Sentence: Cette voie intéresse tout voyageur venant de Metz , Nancy , Strasbourg , Bâle et l ’ Europe Centrale .
Features :: Feature-Counts :: Feature-Lemmas
--------------------------------------------
marqueurs :: 2 :: [ intéresser, venir ]
alethique :: 1 :: [ venir ]
pas_d_indication :: 1 :: [ intéresser ]
marqueurs_niveau3 :: 1 :: [ venir ]
marqueurs_niveau0 :: 1 :: [ intéresser ]
alethique_niveau3 :: 1 :: [ venir ]
pas_d_indication_niveau0 :: 1 :: [ intéresser ]
Total feature counts: 8


====== Text Level Features ======

Features :: Feature-Counts :: Feature-Lemmas
--------------------------------------------
marqueurs :: 2 :: [ intéresser, venir ]
alethique :: 1 :: [ venir ]
pas_d_indication :: 1 :: [ intéresser ]
marqueurs_niveau3 :: 1 :: [ venir ]
marqueurs_niveau0 :: 1 :: [ intéresser ]
alethique_niveau3 :: 1 :: [ venir ]
pas_d_indication_niveau0 :: 1 :: [ intéresser ]
Total feature counts: 8

