
********** Entity Names Features **********
*******************************************

1. Sentence: Aucun domaine touchant au quotidien vécu des citoyens et des entreprises ne lui échappe : elle en est le dénominateur commun .
Entity Name (Type) :: Aucun (LOC)


********** Emotions Features **********
***************************************

1. Sentence: Aucun domaine touchant au quotidien vécu des citoyens et des entreprises ne lui échappe : elle en est le dénominateur commun .
No features found.


********** Modality Features **********
***************************************

1. Sentence: Aucun domaine touchant au quotidien vécu des citoyens et des entreprises ne lui échappe : elle en est le dénominateur commun .
Features :: Feature-Counts :: Feature-Lemmas
--------------------------------------------
marqueurs :: 3 :: [ aucun, lui, échapper ]
alethique :: 2 :: [ aucun, lui ]
marqueurs_niveau3 :: 2 :: [ aucun, lui ]
alethique_niveau3 :: 2 :: [ aucun, lui ]
epistemique :: 1 :: [ lui ]
pas_d_indication :: 1 :: [ échapper ]
marqueurs_niveau0 :: 1 :: [ échapper ]
epistemique_niveau3 :: 1 :: [ lui ]
pas_d_indication_niveau0 :: 1 :: [ échapper ]
Total feature counts: 14


********** Adverbiaux Temporels Features **********
********************************************************

1. Sentence: Aucun domaine touchant au quotidien vécu des citoyens et des entreprises ne lui échappe : elle en est le dénominateur commun .
No features found.

