
********** Entity Names Features **********
*******************************************

1. Sentence: Je crois que la participation est l ' occasion d ' un débat ouvert sur ces questions citoyennes , un contrepoint à certaines logiques économiques .
No features found.


********** Emotions Features **********
***************************************

1. Sentence: Je crois que la participation est l ' occasion d ' un débat ouvert sur ces questions citoyennes , un contrepoint à certaines logiques économiques .
No features found.


********** Modality Features **********
***************************************

1. Sentence: Je crois que la participation est l ' occasion d ' un débat ouvert sur ces questions citoyennes , un contrepoint à certaines logiques économiques .
Features :: Feature-Counts :: Feature-Lemmas
--------------------------------------------
marqueurs :: 2 :: [ croire, certain ]
epistemique :: 2 :: [ croire, certain ]
marqueurs_niveau3 :: 2 :: [ croire, certain ]
epistemique_niveau3 :: 2 :: [ croire, certain ]
Total feature counts: 8


********** Adverbiaux Temporels Features **********
********************************************************

1. Sentence: Je crois que la participation est l ' occasion d ' un débat ouvert sur ces questions citoyennes , un contrepoint à certaines logiques économiques .
No features found.

