
********** Entity Names Features **********
*******************************************

1. Sentence: L ' expérience vaut de loin celle de construire des villes émergentes .
Entity Name (Type) :: L (LOC)


********** Emotions Features **********
***************************************

1. Sentence: L ' expérience vaut de loin celle de construire des villes émergentes .
No features found.


********** Modality Features **********
***************************************

1. Sentence: L ' expérience vaut de loin celle de construire des villes émergentes .
No features found.


********** Adverbiaux Temporels Features **********
********************************************************

1. Sentence: L ' expérience vaut de loin celle de construire des villes émergentes .
No features found.

