
********** Entity Names Features **********
*******************************************

1. Sentence: Les aménagements de Verneuil-sur-Seine et Vernouillet , Médan , Rosny sont plus modestes;
Entity Name (Type) :: Rosny (LOC)


********** Emotions Features **********
***************************************

1. Sentence: Les aménagements de Verneuil-sur-Seine et Vernouillet , Médan , Rosny sont plus modestes;
No features found.


********** Modality Features **********
***************************************

1. Sentence: Les aménagements de Verneuil-sur-Seine et Vernouillet , Médan , Rosny sont plus modestes;
No features found.


********** Adverbiaux Temporels Features **********
********************************************************

1. Sentence: Les aménagements de Verneuil-sur-Seine et Vernouillet , Médan , Rosny sont plus modestes;
No features found.

