
********** Entity Names Features **********
*******************************************

1. Sentence: Ne se laisse pas comprendre à travers les catégories du langage .
No features found.


********** Emotions Features **********
***************************************

1. Sentence: Ne se laisse pas comprendre à travers les catégories du langage .
No features found.


********** Modality Features **********
***************************************

1. Sentence: Ne se laisse pas comprendre à travers les catégories du langage .
Features :: Feature-Counts :: Feature-Lemmas
--------------------------------------------
marqueurs :: 1 :: [ laisser ]
deontique :: 1 :: [ laisser ]
marqueurs_niveau2 :: 1 :: [ laisser ]
deontique_niveau2 :: 1 :: [ laisser ]
Total feature counts: 4


********** Adverbiaux Temporels Features **********
********************************************************

1. Sentence: Ne se laisse pas comprendre à travers les catégories du langage .
No features found.

