====== Sentence Level Features ======

1. Sentence: li y a longtemps que Le Corbusier a écrit cela .
Features :: Feature-Counts :: Feature-Lemmas
--------------------------------------------
marqueurs :: 1 :: [ longtemps ]
epistemique :: 1 :: [ longtemps ]
marqueurs_niveau1 :: 1 :: [ longtemps ]
epistemique_niveau1 :: 1 :: [ longtemps ]
Total feature counts: 4


====== Text Level Features ======

Features :: Feature-Counts :: Feature-Lemmas
--------------------------------------------
marqueurs :: 1 :: [ longtemps ]
epistemique :: 1 :: [ longtemps ]
marqueurs_niveau1 :: 1 :: [ longtemps ]
epistemique_niveau1 :: 1 :: [ longtemps ]
Total feature counts: 4

