====== Sentence Level Features ======

1. Sentence: L ' apport de Jean Viard 2 a été plus générique que spécifique .
Entity Name (Type) :: Jean Viard (PER)


====== Text Level Features ======

Entity Name (Entity Type)
-------------------------
Jean Viard (PER)
Total entitiy counts: 1

