
********** Entity Names Features **********
*******************************************

1. Sentence: Dans les deux cas , les universités ont joué un rôle décisif dans la reprise .
No features found.


********** Emotions Features **********
***************************************

1. Sentence: Dans les deux cas , les universités ont joué un rôle décisif dans la reprise .
No features found.


********** Modality Features **********
***************************************

1. Sentence: Dans les deux cas , les universités ont joué un rôle décisif dans la reprise .
Features :: Feature-Counts :: Feature-Lemmas
--------------------------------------------
marqueurs :: 1 :: [ jouer ]
appreciatif :: 1 :: [ jouer ]
marqueurs_niveau2 :: 1 :: [ jouer ]
appreciatif_niveau2 :: 1 :: [ jouer ]
Total feature counts: 4


********** Adverbiaux Temporels Features **********
********************************************************

1. Sentence: Dans les deux cas , les universités ont joué un rôle décisif dans la reprise .
No features found.

