
********** Entity Names Features **********
*******************************************

1. Sentence: l ' Europe et le monde sont des horizons trop vastes , hors de portée , pour être réel‑ lement intériorisés ;
Entity Name (Type) :: Europe (LOC)


********** Emotions Features **********
***************************************

1. Sentence: l ' Europe et le monde sont des horizons trop vastes , hors de portée , pour être réel‑ lement intériorisés ;
No features found.


********** Modality Features **********
***************************************

1. Sentence: l ' Europe et le monde sont des horizons trop vastes , hors de portée , pour être réel‑ lement intériorisés ;
No features found.


********** Adverbiaux Temporels Features **********
********************************************************

1. Sentence: l ' Europe et le monde sont des horizons trop vastes , hors de portée , pour être réel‑ lement intériorisés ;
No features found.

