
********** Entity Names Features **********
*******************************************

1. Sentence: Voir le vide et non simplement l ' objet , le plein , c ' est un retournement de point de vue .
No features found.


********** Emotions Features **********
***************************************

1. Sentence: Voir le vide et non simplement l ' objet , le plein , c ' est un retournement de point de vue .
No features found.


********** Modality Features **********
***************************************

1. Sentence: Voir le vide et non simplement l ' objet , le plein , c ' est un retournement de point de vue .
No features found.


********** Adverbiaux Temporels Features **********
********************************************************

1. Sentence: Voir le vide et non simplement l ' objet , le plein , c ' est un retournement de point de vue .
No features found.

