====== Sentence Level Features ======

1. Sentence: Cette évolution est en marche , facilitée par la forte progression de la qualité professionnelle des services , qui intègrent de plus en plus d ' architectes et d ' urbanistes .
Features :: Feature-Counts :: Feature-Lemmas
--------------------------------------------
marqueurs :: 1 :: [ fort ]
pas_d_indication :: 1 :: [ fort ]
marqueurs_niveau0 :: 1 :: [ fort ]
pas_d_indication_niveau0 :: 1 :: [ fort ]
Total feature counts: 4


====== Text Level Features ======

Features :: Feature-Counts :: Feature-Lemmas
--------------------------------------------
marqueurs :: 1 :: [ fort ]
pas_d_indication :: 1 :: [ fort ]
marqueurs_niveau0 :: 1 :: [ fort ]
pas_d_indication_niveau0 :: 1 :: [ fort ]
Total feature counts: 4

