
********** Entity Names Features **********
*******************************************

1. Sentence: - Schéma directeur d ' aménagement et d ' urbanisme de la
No features found.


********** Emotions Features **********
***************************************

1. Sentence: - Schéma directeur d ' aménagement et d ' urbanisme de la
No features found.


********** Modality Features **********
***************************************

1. Sentence: - Schéma directeur d ' aménagement et d ' urbanisme de la
No features found.


********** Adverbiaux Temporels Features **********
********************************************************

1. Sentence: - Schéma directeur d ' aménagement et d ' urbanisme de la
No features found.

