====== Sentence Level Features ======

1. Sentence: J ’ ai dit  : je les attends avec un grand plaisir;
Features :: Feature-Counts :: Feature-Lemmas
--------------------------------------------
marqueurs :: 3 :: [ dire, grand, plaisir ]
marqueurs_niveau3 :: 3 :: [ dire, grand, plaisir ]
appreciatif :: 1 :: [ plaisir ]
boulique :: 1 :: [ dire ]
epistemique :: 1 :: [ grand ]
appreciatif_niveau3 :: 1 :: [ plaisir ]
boulique_niveau3 :: 1 :: [ dire ]
epistemique_niveau3 :: 1 :: [ grand ]
Total feature counts: 12


====== Text Level Features ======

Features :: Feature-Counts :: Feature-Lemmas
--------------------------------------------
marqueurs :: 3 :: [ dire, grand, plaisir ]
marqueurs_niveau3 :: 3 :: [ dire, grand, plaisir ]
appreciatif :: 1 :: [ plaisir ]
boulique :: 1 :: [ dire ]
epistemique :: 1 :: [ grand ]
appreciatif_niveau3 :: 1 :: [ plaisir ]
boulique_niveau3 :: 1 :: [ dire ]
epistemique_niveau3 :: 1 :: [ grand ]
Total feature counts: 12

