
********** Entity Names Features **********
*******************************************

1. Sentence: L ' Atelier Ruelle est une entreprise , une « société » , c ' est-àdire une association avec d ' autres .
Entity Name (Type) :: Atelier Ruelle (ORG)


********** Emotions Features **********
***************************************

1. Sentence: L ' Atelier Ruelle est une entreprise , une « société » , c ' est-àdire une association avec d ' autres .
No features found.


********** Modality Features **********
***************************************

1. Sentence: L ' Atelier Ruelle est une entreprise , une « société » , c ' est-àdire une association avec d ' autres .
No features found.


********** Adverbiaux Temporels Features **********
********************************************************

1. Sentence: L ' Atelier Ruelle est une entreprise , une « société » , c ' est-àdire une association avec d ' autres .
No features found.

