
********** Entity Names Features **********
*******************************************

1. Sentence: Cela exclut toute personne sans références ni structure solide .
No features found.


********** Emotions Features **********
***************************************

1. Sentence: Cela exclut toute personne sans références ni structure solide .
No features found.


********** Modality Features **********
***************************************

1. Sentence: Cela exclut toute personne sans références ni structure solide .
Features :: Feature-Counts :: Feature-Lemmas
--------------------------------------------
marqueurs :: 1 :: [ personne ]
alethique :: 1 :: [ personne ]
marqueurs_niveau2 :: 1 :: [ personne ]
alethique_niveau2 :: 1 :: [ personne ]
Total feature counts: 4


********** Adverbiaux Temporels Features **********
********************************************************

1. Sentence: Cela exclut toute personne sans références ni structure solide .
No features found.

