====== Sentence Level Features ======

1. Sentence: Seuls quelques fidèles de longue date sont restés (Isabelle Chlabovitch et Claire Piguet) ainsi que de jeunes recrues (David Jolly , Sojin Lee et Étienne Lénack) .
Features :: Feature-Counts :: Feature-Lemmas
--------------------------------------------
marqueurs :: 3 :: [ fidèle, long, jeune ]
axiologique :: 1 :: [ fidèle ]
epistemique :: 1 :: [ long ]
pas_d_indication :: 1 :: [ jeune ]
marqueurs_niveau3 :: 1 :: [ fidèle ]
marqueurs_niveau2 :: 1 :: [ long ]
marqueurs_niveau0 :: 1 :: [ jeune ]
axiologique_niveau3 :: 1 :: [ fidèle ]
epistemique_niveau2 :: 1 :: [ long ]
pas_d_indication_niveau0 :: 1 :: [ jeune ]
Total feature counts: 12


====== Text Level Features ======

Features :: Feature-Counts :: Feature-Lemmas
--------------------------------------------
marqueurs :: 3 :: [ fidèle, long, jeune ]
axiologique :: 1 :: [ fidèle ]
epistemique :: 1 :: [ long ]
pas_d_indication :: 1 :: [ jeune ]
marqueurs_niveau3 :: 1 :: [ fidèle ]
marqueurs_niveau2 :: 1 :: [ long ]
marqueurs_niveau0 :: 1 :: [ jeune ]
axiologique_niveau3 :: 1 :: [ fidèle ]
epistemique_niveau2 :: 1 :: [ long ]
pas_d_indication_niveau0 :: 1 :: [ jeune ]
Total feature counts: 12

