====== Sentence Level Features ======

1. Sentence: Un jeu de mots nous a tirés d ' affaire  : uni-vers-cité , université sans professeurs , sans diplôme ni lieu autre que celui de l ' objet de la recherche .
Features :: Feature-Counts :: Feature-Lemmas
--------------------------------------------
marqueurs :: 1 :: [ tirer ]
pas_d_indication :: 1 :: [ tirer ]
marqueurs_niveau0 :: 1 :: [ tirer ]
pas_d_indication_niveau0 :: 1 :: [ tirer ]
Total feature counts: 4


====== Text Level Features ======

Features :: Feature-Counts :: Feature-Lemmas
--------------------------------------------
marqueurs :: 1 :: [ tirer ]
pas_d_indication :: 1 :: [ tirer ]
marqueurs_niveau0 :: 1 :: [ tirer ]
pas_d_indication_niveau0 :: 1 :: [ tirer ]
Total feature counts: 4

