====== Sentence Level Features ======

1. Sentence: Bien qu ' il existât déjà une tradition d ' étude sur le Design Thinking , j ' ai voulu me positionner différemment en explorant en même temps la tradition urbanistique et ma propre expérience de projet .
Features :: Feature-Counts :: Feature-Lemmas
--------------------------------------------
marqueurs :: 2 :: [ bien, vouloir ]
marqueurs_niveau3 :: 2 :: [ bien, vouloir ]
appreciatif :: 1 :: [ bien ]
axiologique :: 1 :: [ bien ]
boulique :: 1 :: [ vouloir ]
appreciatif_niveau3 :: 1 :: [ bien ]
axiologique_niveau3 :: 1 :: [ bien ]
boulique_niveau3 :: 1 :: [ vouloir ]
Total feature counts: 10


====== Text Level Features ======

Features :: Feature-Counts :: Feature-Lemmas
--------------------------------------------
marqueurs :: 2 :: [ bien, vouloir ]
marqueurs_niveau3 :: 2 :: [ bien, vouloir ]
appreciatif :: 1 :: [ bien ]
axiologique :: 1 :: [ bien ]
boulique :: 1 :: [ vouloir ]
appreciatif_niveau3 :: 1 :: [ bien ]
axiologique_niveau3 :: 1 :: [ bien ]
boulique_niveau3 :: 1 :: [ vouloir ]
Total feature counts: 10

