====== Sentence Level Features ======

1. Sentence: Mais il y a aussi un devoir d ' impertinence , rappelant au besoin que la loi républicaine s ' applique à tous , et aide en bien des situations , depuis le Grenelle Environnement , révélant les paradoxes pour mieux stimuler les arbitrages .
Features :: Feature-Counts :: Feature-Lemmas
--------------------------------------------
marqueurs :: 5 :: [ devoir, besoin, loi, bien, mieux ]
marqueurs_niveau3 :: 3 :: [ devoir, besoin, bien ]
alethique :: 2 :: [ devoir, besoin ]
appreciatif :: 2 :: [ bien, mieux ]
axiologique :: 2 :: [ bien, mieux ]
deontique :: 2 :: [ devoir, loi ]
marqueurs_niveau2 :: 2 :: [ loi, mieux ]
alethique_niveau3 :: 2 :: [ devoir, besoin ]
boulique :: 1 :: [ besoin ]
epistemique :: 1 :: [ devoir ]
appreciatif_niveau3 :: 1 :: [ bien ]
appreciatif_niveau2 :: 1 :: [ mieux ]
axiologique_niveau3 :: 1 :: [ bien ]
axiologique_niveau2 :: 1 :: [ mieux ]
boulique_niveau3 :: 1 :: [ besoin ]
deontique_niveau3 :: 1 :: [ devoir ]
deontique_niveau2 :: 1 :: [ loi ]
epistemique_niveau3 :: 1 :: [ devoir ]
Total feature counts: 30


====== Text Level Features ======

Features :: Feature-Counts :: Feature-Lemmas
--------------------------------------------
marqueurs :: 5 :: [ devoir, besoin, loi, bien, mieux ]
marqueurs_niveau3 :: 3 :: [ devoir, besoin, bien ]
alethique :: 2 :: [ devoir, besoin ]
appreciatif :: 2 :: [ bien, mieux ]
axiologique :: 2 :: [ bien, mieux ]
deontique :: 2 :: [ devoir, loi ]
marqueurs_niveau2 :: 2 :: [ loi, mieux ]
alethique_niveau3 :: 2 :: [ devoir, besoin ]
boulique :: 1 :: [ besoin ]
epistemique :: 1 :: [ devoir ]
appreciatif_niveau3 :: 1 :: [ bien ]
appreciatif_niveau2 :: 1 :: [ mieux ]
axiologique_niveau3 :: 1 :: [ bien ]
axiologique_niveau2 :: 1 :: [ mieux ]
boulique_niveau3 :: 1 :: [ besoin ]
deontique_niveau3 :: 1 :: [ devoir ]
deontique_niveau2 :: 1 :: [ loi ]
epistemique_niveau3 :: 1 :: [ devoir ]
Total feature counts: 30

