====== Sentence Level Features ======

1. Sentence: Ariella Masboungi  : Quand en 2016 , les sraddet ont été à l ' ordre du jour , les débats sur le sujet ont davantage traité de l ' outil que du contenu .
Features :: Feature-Counts :: Feature-Lemmas
--------------------------------------------
marqueurs :: 2 :: [ ordre, traiter ]
deontique :: 1 :: [ ordre ]
pas_d_indication :: 1 :: [ traiter ]
marqueurs_niveau2 :: 1 :: [ ordre ]
marqueurs_niveau0 :: 1 :: [ traiter ]
deontique_niveau2 :: 1 :: [ ordre ]
pas_d_indication_niveau0 :: 1 :: [ traiter ]
Total feature counts: 8


====== Text Level Features ======

Features :: Feature-Counts :: Feature-Lemmas
--------------------------------------------
marqueurs :: 2 :: [ ordre, traiter ]
deontique :: 1 :: [ ordre ]
pas_d_indication :: 1 :: [ traiter ]
marqueurs_niveau2 :: 1 :: [ ordre ]
marqueurs_niveau0 :: 1 :: [ traiter ]
deontique_niveau2 :: 1 :: [ ordre ]
pas_d_indication_niveau0 :: 1 :: [ traiter ]
Total feature counts: 8

