====== Sentence Level Features ======

1. Sentence: En premier lieu , le plan d ' urbanisme doit explicitement déterminer les règles de l ' extension géographique de l ' agglomération à ses franges , et favoriser une recomposition de l ' agglomération sur ellemême .
Features :: Feature-Counts :: Feature-Lemmas
--------------------------------------------
marqueurs :: 2 :: [ devoir, favoriser ]
alethique :: 1 :: [ devoir ]
appreciatif :: 1 :: [ favoriser ]
deontique :: 1 :: [ devoir ]
epistemique :: 1 :: [ devoir ]
marqueurs_niveau3 :: 1 :: [ devoir ]
marqueurs_niveau1 :: 1 :: [ favoriser ]
alethique_niveau3 :: 1 :: [ devoir ]
appreciatif_niveau1 :: 1 :: [ favoriser ]
deontique_niveau3 :: 1 :: [ devoir ]
epistemique_niveau3 :: 1 :: [ devoir ]
Total feature counts: 12


====== Text Level Features ======

Features :: Feature-Counts :: Feature-Lemmas
--------------------------------------------
marqueurs :: 2 :: [ devoir, favoriser ]
alethique :: 1 :: [ devoir ]
appreciatif :: 1 :: [ favoriser ]
deontique :: 1 :: [ devoir ]
epistemique :: 1 :: [ devoir ]
marqueurs_niveau3 :: 1 :: [ devoir ]
marqueurs_niveau1 :: 1 :: [ favoriser ]
alethique_niveau3 :: 1 :: [ devoir ]
appreciatif_niveau1 :: 1 :: [ favoriser ]
deontique_niveau3 :: 1 :: [ devoir ]
epistemique_niveau3 :: 1 :: [ devoir ]
Total feature counts: 12

