====== Sentence Level Features ======

1. Sentence: Ce Projet anticipe sur toute exécution de travaux .
Features :: Feature-Counts :: Feature-Lemmas
--------------------------------------------
marqueurs :: 1 :: [ travail ]
appreciatif :: 1 :: [ travail ]
marqueurs_niveau3 :: 1 :: [ travail ]
appreciatif_niveau3 :: 1 :: [ travail ]
Total feature counts: 4


====== Text Level Features ======

Features :: Feature-Counts :: Feature-Lemmas
--------------------------------------------
marqueurs :: 1 :: [ travail ]
appreciatif :: 1 :: [ travail ]
marqueurs_niveau3 :: 1 :: [ travail ]
appreciatif_niveau3 :: 1 :: [ travail ]
Total feature counts: 4

