
********** Entity Names Features **********
*******************************************

1. Sentence: et alors se dessine un « plafond » ajouré solide et rassurant .
No features found.


********** Emotions Features **********
***************************************

1. Sentence: et alors se dessine un « plafond » ajouré solide et rassurant .
Tokens having emotion: [ rassurant ]
Lemmas having emotion: [ rassurant ]
Categories of the emotion lemmas: [ apaisement ]


********** Modality Features **********
***************************************

1. Sentence: et alors se dessine un « plafond » ajouré solide et rassurant .
No features found.


********** Adverbiaux Temporels Features **********
********************************************************

1. Sentence: et alors se dessine un « plafond » ajouré solide et rassurant .
No features found.

