
********** Entity Names Features **********
*******************************************

2. Sentence: La conception de tracés routiers , dans le cadre des futures urbanisations , capables d ' échanger avec l ' architecture et avec le paysage .
No features found.


********** Emotions Features **********
***************************************

2. Sentence: La conception de tracés routiers , dans le cadre des futures urbanisations , capables d ' échanger avec l ' architecture et avec le paysage .
No features found.


********** Modality Features **********
***************************************

2. Sentence: La conception de tracés routiers , dans le cadre des futures urbanisations , capables d ' échanger avec l ' architecture et avec le paysage .
No features found.


********** Adverbiaux Temporels Features **********
********************************************************

2. Sentence: La conception de tracés routiers , dans le cadre des futures urbanisations , capables d ' échanger avec l ' architecture et avec le paysage .
No features found.

