
********** Entity Names Features **********
*******************************************

1. Sentence: Dans le cadre des réflexions menées au sein du Club ville-aménagement 4 , que je préside depuis 2007 , une idée commence à faire son chemin , initiée par Jean Frébault , président du Conseil de développement du Grand Lyon .
Entity Name (Type) :: Conseil de développement du Grand Lyon (ORG)


********** Emotions Features **********
***************************************

1. Sentence: Dans le cadre des réflexions menées au sein du Club ville-aménagement 4 , que je préside depuis 2007 , une idée commence à faire son chemin , initiée par Jean Frébault , président du Conseil de développement du Grand Lyon .
No features found.


********** Modality Features **********
***************************************

1. Sentence: Dans le cadre des réflexions menées au sein du Club ville-aménagement 4 , que je préside depuis 2007 , une idée commence à faire son chemin , initiée par Jean Frébault , président du Conseil de développement du Grand Lyon .
Features :: Feature-Counts :: Feature-Lemmas
--------------------------------------------
marqueurs :: 1 :: [ grand ]
epistemique :: 1 :: [ grand ]
marqueurs_niveau3 :: 1 :: [ grand ]
epistemique_niveau3 :: 1 :: [ grand ]
Total feature counts: 4


********** Adverbiaux Temporels Features **********
********************************************************

1. Sentence: Dans le cadre des réflexions menées au sein du Club ville-aménagement 4 , que je préside depuis 2007 , une idée commence à faire son chemin , initiée par Jean Frébault , président du Conseil de développement du Grand Lyon .
Features :: Feature-Counts :: Feature-Texts
--------------------------------------------
adverbiaux_temporels::1::['depuis 2007']
adverbiaux_duratifs_iteratifs::1::['depuis 2007']
adverbiaux_pointage_absolu::1::['depuis 2007']
adverbiaux_loc_temp_focalisation_id::1::['depuis 2007']
adverbiaux_loc_temp_regionalisation_non_id::1::['depuis 2007']
adverbiaux_dur_iter_absolu::1::['depuis 2007']

