====== Sentence Level Features ======

1. Sentence: Passer à l ' acte exigeait de créer une structure adéquate , autre que l ' association pour porter le projet .
Features :: Feature-Counts :: Feature-Lemmas
--------------------------------------------
marqueurs :: 1 :: [ exiger ]
alethique :: 1 :: [ exiger ]
boulique :: 1 :: [ exiger ]
deontique :: 1 :: [ exiger ]
marqueurs_niveau3 :: 1 :: [ exiger ]
alethique_niveau3 :: 1 :: [ exiger ]
boulique_niveau3 :: 1 :: [ exiger ]
deontique_niveau3 :: 1 :: [ exiger ]
Total feature counts: 8


====== Text Level Features ======

Features :: Feature-Counts :: Feature-Lemmas
--------------------------------------------
marqueurs :: 1 :: [ exiger ]
alethique :: 1 :: [ exiger ]
boulique :: 1 :: [ exiger ]
deontique :: 1 :: [ exiger ]
marqueurs_niveau3 :: 1 :: [ exiger ]
alethique_niveau3 :: 1 :: [ exiger ]
boulique_niveau3 :: 1 :: [ exiger ]
deontique_niveau3 :: 1 :: [ exiger ]
Total feature counts: 8

