
********** Entity Names Features **********
*******************************************

1. Sentence: Je l ' ai compris en débattant avec d ' autres disciplines , dans l ' enseignement , mais aussi lors d ' expertises 13 et au sein du comité de rédaction des revues Urbanisme et Tous urbains .
Entity Name (Type) :: Tous urbains (MISC)


********** Emotions Features **********
***************************************

1. Sentence: Je l ' ai compris en débattant avec d ' autres disciplines , dans l ' enseignement , mais aussi lors d ' expertises 13 et au sein du comité de rédaction des revues Urbanisme et Tous urbains .
No features found.


********** Modality Features **********
***************************************

1. Sentence: Je l ' ai compris en débattant avec d ' autres disciplines , dans l ' enseignement , mais aussi lors d ' expertises 13 et au sein du comité de rédaction des revues Urbanisme et Tous urbains .
No features found.


********** Adverbiaux Temporels Features **********
********************************************************

1. Sentence: Je l ' ai compris en débattant avec d ' autres disciplines , dans l ' enseignement , mais aussi lors d ' expertises 13 et au sein du comité de rédaction des revues Urbanisme et Tous urbains .
No features found.

