====== Sentence Level Features ======

1. Sentence: » Elle aime les gens avec qui elle travaille , se sent un peu différente , bien sûr général) : « Je vois les affaires sous forme de contrats , les connaissant surtout par leurs fiches de référence .
Features :: Feature-Counts :: Feature-Lemmas
--------------------------------------------
marqueurs :: 5 :: [ aimer, travailler, bien, sûr, connaître ]
appreciatif :: 3 :: [ aimer, travailler, bien ]
marqueurs_niveau2 :: 3 :: [ travailler, sûr, connaître ]
epistemique :: 2 :: [ sûr, connaître ]
marqueurs_niveau3 :: 2 :: [ aimer, bien ]
appreciatif_niveau3 :: 2 :: [ aimer, bien ]
epistemique_niveau2 :: 2 :: [ sûr, connaître ]
axiologique :: 1 :: [ bien ]
appreciatif_niveau2 :: 1 :: [ travailler ]
axiologique_niveau3 :: 1 :: [ bien ]
Total feature counts: 22


====== Text Level Features ======

Features :: Feature-Counts :: Feature-Lemmas
--------------------------------------------
marqueurs :: 5 :: [ aimer, travailler, bien, sûr, connaître ]
appreciatif :: 3 :: [ aimer, travailler, bien ]
marqueurs_niveau2 :: 3 :: [ travailler, sûr, connaître ]
epistemique :: 2 :: [ sûr, connaître ]
marqueurs_niveau3 :: 2 :: [ aimer, bien ]
appreciatif_niveau3 :: 2 :: [ aimer, bien ]
epistemique_niveau2 :: 2 :: [ sûr, connaître ]
axiologique :: 1 :: [ bien ]
appreciatif_niveau2 :: 1 :: [ travailler ]
axiologique_niveau3 :: 1 :: [ bien ]
Total feature counts: 22

