====== Sentence Level Features ======

1. Sentence: Quelques indices d ' évolution permettront de mieux fixer le sens des transformations envisagées d ' ici à la fin du siècle :
Features :: Feature-Counts :: Feature-Lemmas
--------------------------------------------
marqueurs :: 2 :: [ permettre, mieux ]
appreciatif :: 1 :: [ mieux ]
axiologique :: 1 :: [ mieux ]
deontique :: 1 :: [ permettre ]
marqueurs_niveau3 :: 1 :: [ permettre ]
marqueurs_niveau2 :: 1 :: [ mieux ]
appreciatif_niveau2 :: 1 :: [ mieux ]
axiologique_niveau2 :: 1 :: [ mieux ]
deontique_niveau3 :: 1 :: [ permettre ]
Total feature counts: 10


====== Text Level Features ======

Features :: Feature-Counts :: Feature-Lemmas
--------------------------------------------
marqueurs :: 2 :: [ permettre, mieux ]
appreciatif :: 1 :: [ mieux ]
axiologique :: 1 :: [ mieux ]
deontique :: 1 :: [ permettre ]
marqueurs_niveau3 :: 1 :: [ permettre ]
marqueurs_niveau2 :: 1 :: [ mieux ]
appreciatif_niveau2 :: 1 :: [ mieux ]
axiologique_niveau2 :: 1 :: [ mieux ]
deontique_niveau3 :: 1 :: [ permettre ]
Total feature counts: 10

