====== Sentence Level Features ======

1. Sentence: C ' est ici que nous cherchons à mettre en pratique les nouvelles orientations d ' aménagement que nous nous sommes fixées : au Romarin avec François Grether , dans le quartier Saint-Maurice avec l ' équipe Xaveer de Geyter , Laloux & Lebecq , Fabienne Fendrich .
Features :: Feature-Counts :: Feature-Lemmas
--------------------------------------------
marqueurs :: 1 :: [ chercher ]
boulique :: 1 :: [ chercher ]
marqueurs_niveau3 :: 1 :: [ chercher ]
boulique_niveau3 :: 1 :: [ chercher ]
Total feature counts: 4


====== Text Level Features ======

Features :: Feature-Counts :: Feature-Lemmas
--------------------------------------------
marqueurs :: 1 :: [ chercher ]
boulique :: 1 :: [ chercher ]
marqueurs_niveau3 :: 1 :: [ chercher ]
boulique_niveau3 :: 1 :: [ chercher ]
Total feature counts: 4

