
********** Entity Names Features **********
*******************************************

1. Sentence: - A Washington , pour une population multipliée par 2 , 5 , superficie multipliée par 5 , sauf mesures freinant cette évolution spontanée;
Entity Name (Type) :: Washington (LOC)


********** Emotions Features **********
***************************************

1. Sentence: - A Washington , pour une population multipliée par 2 , 5 , superficie multipliée par 5 , sauf mesures freinant cette évolution spontanée;
No features found.


********** Modality Features **********
***************************************

1. Sentence: - A Washington , pour une population multipliée par 2 , 5 , superficie multipliée par 5 , sauf mesures freinant cette évolution spontanée;
No features found.


********** Adverbiaux Temporels Features **********
********************************************************

1. Sentence: - A Washington , pour une population multipliée par 2 , 5 , superficie multipliée par 5 , sauf mesures freinant cette évolution spontanée;
No features found.

