====== Sentence Level Features ======

1. Sentence: Ensuite , j ' ai essayé de présenter les deux ou trois choses qui me semblent importantes .
Features :: Feature-Counts :: Feature-Lemmas
--------------------------------------------
marqueurs :: 3 :: [ essayer, sembler, important ]
epistemique :: 3 :: [ essayer, sembler, important ]
marqueurs_niveau3 :: 2 :: [ essayer, sembler ]
epistemique_niveau3 :: 2 :: [ essayer, sembler ]
appreciatif :: 1 :: [ important ]
axiologique :: 1 :: [ important ]
boulique :: 1 :: [ essayer ]
marqueurs_niveau1 :: 1 :: [ important ]
appreciatif_niveau1 :: 1 :: [ important ]
axiologique_niveau1 :: 1 :: [ important ]
boulique_niveau3 :: 1 :: [ essayer ]
epistemique_niveau1 :: 1 :: [ important ]
Total feature counts: 18


====== Text Level Features ======

Features :: Feature-Counts :: Feature-Lemmas
--------------------------------------------
marqueurs :: 3 :: [ essayer, sembler, important ]
epistemique :: 3 :: [ essayer, sembler, important ]
marqueurs_niveau3 :: 2 :: [ essayer, sembler ]
epistemique_niveau3 :: 2 :: [ essayer, sembler ]
appreciatif :: 1 :: [ important ]
axiologique :: 1 :: [ important ]
boulique :: 1 :: [ essayer ]
marqueurs_niveau1 :: 1 :: [ important ]
appreciatif_niveau1 :: 1 :: [ important ]
axiologique_niveau1 :: 1 :: [ important ]
boulique_niveau3 :: 1 :: [ essayer ]
epistemique_niveau1 :: 1 :: [ important ]
Total feature counts: 18

