
********** Entity Names Features **********
*******************************************

1. Sentence: CARTES en pochette à la fin du volume :
Entity Name (Type) :: CARTES (MISC)


********** Emotions Features **********
***************************************

1. Sentence: CARTES en pochette à la fin du volume :
No features found.


********** Modality Features **********
***************************************

1. Sentence: CARTES en pochette à la fin du volume :
No features found.


********** Adverbiaux Temporels Features **********
********************************************************

1. Sentence: CARTES en pochette à la fin du volume :
No features found.

