====== Sentence Level Features ======

1. Sentence: V . - Associations syndicales forcées pour remembrement .
Features :: Feature-Counts :: Feature-Lemmas
--------------------------------------------
marqueurs :: 1 :: [ forcer ]
pas_d_indication :: 1 :: [ forcer ]
marqueurs_niveau0 :: 1 :: [ forcer ]
pas_d_indication_niveau0 :: 1 :: [ forcer ]
Total feature counts: 4


====== Text Level Features ======

Features :: Feature-Counts :: Feature-Lemmas
--------------------------------------------
marqueurs :: 1 :: [ forcer ]
pas_d_indication :: 1 :: [ forcer ]
marqueurs_niveau0 :: 1 :: [ forcer ]
pas_d_indication_niveau0 :: 1 :: [ forcer ]
Total feature counts: 4

